 ALT1_KM, ALT2_KM, RNG1_KM, RNG2_KM, AREA_KM^2
   0.000,  50.000,  10.1056,  61.8496,    5.7208102
  50.000, 100.000,  61.8496, 113.5653,   13.9463938
 100.000, 150.000, 113.5653, 165.2534,   22.1675282
 150.000, 200.000, 165.2534, 216.9145,   30.3843233
 200.000, 250.000, 216.9145, 268.5493,   38.5968843
 250.000, 300.000, 268.5493, 320.1584,   46.8053111
 300.000, 350.000, 320.1584, 371.7425,   55.0097044
 350.000, 400.000, 371.7425, 423.3021,   63.2101593
 400.000, 450.000, 423.3021, 474.8377,   71.4067658
 450.000, 500.000, 474.8377, 526.3501,   79.5996175
 500.000, 550.000, 526.3501, 577.8396,   87.7887981
 550.000, 600.000, 577.8396, 629.3068,   95.9743906
 600.000, 650.000, 629.3068, 680.7523,  104.1564802
 650.000, 700.000, 680.7523, 732.1764,  112.3351416
 700.000, 750.000, 732.1764, 783.5797,  120.5104542
 750.000, 800.000, 783.5797, 834.9626,  128.6824922
 800.000, 850.000, 834.9626, 886.3257,  136.8513258
 850.000, 900.000, 886.3257, 937.6692,  145.0170256
 900.000, 950.000, 937.6692, 988.9937,  153.1796609
 950.000,1000.000, 988.9937,1040.2995,  161.3392955
1000.000,1050.000,1040.2995,1091.5870,  169.4959912
1050.000,1100.000,1091.5870,1142.8566,  177.6498211
1100.000,1150.000,1142.8566,1194.1088,  185.8008304
1150.000,1200.000,1194.1088,1245.3438,  193.9490884
1200.000,1250.000,1245.3438,1296.5620,  202.0946511
1250.000,1300.000,1296.5620,1347.7638,  210.2375670
1300.000,1350.000,1347.7638,1398.9495,  218.3778976
1350.000,1400.000,1398.9495,1450.1194,  226.5156911
1400.000,1450.000,1450.1194,1501.2738,  234.6510031
1450.000,1500.000,1501.2738,1552.4131,  242.7838770
1500.000,1550.000,1552.4131,1603.5375,  250.9143644
1550.000,1600.000,1603.5375,1654.6473,  259.0425153
1600.000,1650.000,1654.6473,1705.7429,  267.1683712
1650.000,1700.000,1705.7429,1756.8244,  275.2919750
1700.000,1750.000,1756.8244,1807.8922,  283.4133791
1750.000,1800.000,1807.8922,1858.9466,  291.5326140
1800.000,1850.000,1858.9466,1909.9877,  299.6497343
1850.000,1900.000,1909.9877,1961.0159,  307.7647644
1900.000,1950.000,1961.0159,2012.0313,  315.8777578
1950.000,2000.000,2012.0313,2063.0343,  323.9887405
2000.000,2050.000,2063.0343,2114.0249,  332.0977616
2050.000,2100.000,2114.0249,2165.0036,  340.2048533
2100.000,2150.000,2165.0036,2215.9705,  348.3100429
2150.000,2200.000,2215.9705,2266.9257,  356.4133747
2200.000,2250.000,2266.9257,2317.8696,  364.5148794
2250.000,2300.000,2317.8696,2368.8023,  372.6145930
2300.000,2350.000,2368.8023,2419.7240,  380.7125365
2350.000,2400.000,2419.7240,2470.6349,  388.8087546
2400.000,2450.000,2470.6349,2521.5352,  396.9032714
2450.000,2500.000,2521.5352,2572.4251,  404.9961219
