 ALT1_KM, ALT2_KM, RNG1_KM, RNG2_KM, AREA_KM^2
   0.000,  50.000,   9.9858,  61.7299,    5.7017728
  50.000, 100.000,  61.7299, 113.4457,   13.9273666
 100.000, 150.000, 113.4457, 165.1338,   22.1485120
 150.000, 200.000, 165.1338, 216.7950,   30.3653170
 200.000, 250.000, 216.7950, 268.4298,   38.5778876
 250.000, 300.000, 268.4298, 320.0390,   46.7863245
 300.000, 350.000, 320.0390, 371.6232,   54.9907278
 350.000, 400.000, 371.6232, 423.1828,   63.1911915
 400.000, 450.000, 423.1828, 474.7185,   71.3878088
 450.000, 500.000, 474.7185, 526.2309,   79.5806684
 500.000, 550.000, 526.2309, 577.7205,   87.7698577
 550.000, 600.000, 577.7205, 629.1878,   95.9554596
 600.000, 650.000, 629.1878, 680.6333,  104.1375576
 650.000, 700.000, 680.6333, 732.0575,  112.3162283
 700.000, 750.000, 732.0575, 783.4608,  120.4915510
 750.000, 800.000, 783.4608, 834.8438,  128.6635952
 800.000, 850.000, 834.8438, 886.2069,  136.8324374
 850.000, 900.000, 886.2069, 937.5505,  144.9981441
 900.000, 950.000, 937.5505, 988.8750,  153.1607874
 950.000,1000.000, 988.8750,1040.1808,  161.3204316
1000.000,1050.000,1040.1808,1091.4684,  169.4771367
1050.000,1100.000,1091.4684,1142.7381,  177.6309719
1100.000,1150.000,1142.7381,1193.9903,  185.7819897
1150.000,1200.000,1193.9903,1245.2254,  193.9302546
1200.000,1250.000,1245.2254,1296.4437,  202.0758230
1250.000,1300.000,1296.4437,1347.6455,  210.2187494
1300.000,1350.000,1347.6455,1398.8312,  218.3590853
1350.000,1400.000,1398.8312,1450.0011,  226.4968846
1400.000,1450.000,1450.0011,1501.1556,  234.6322048
1450.000,1500.000,1501.1556,1552.2949,  242.7650877
1500.000,1550.000,1552.2949,1603.4194,  250.8955816
1550.000,1600.000,1603.4194,1654.5292,  259.0237360
1600.000,1650.000,1654.5292,1705.6248,  267.1495971
1650.000,1700.000,1705.6248,1756.7064,  275.2732160
1700.000,1750.000,1756.7064,1807.7743,  283.3946158
1750.000,1800.000,1807.7743,1858.8287,  291.5138649
1800.000,1850.000,1858.8287,1909.8698,  299.6309881
1850.000,1900.000,1909.8698,1960.8980,  307.7460237
1900.000,1950.000,1960.8980,2011.9135,  315.8590246
1950.000,2000.000,2011.9135,2062.9165,  323.9700146
2000.000,2050.000,2062.9165,2113.9072,  332.0790389
2050.000,2100.000,2113.9072,2164.8859,  340.1861368
2100.000,2150.000,2164.8859,2215.8528,  348.2913332
2150.000,2200.000,2215.8528,2266.8081,  356.3946722
2200.000,2250.000,2266.8081,2317.7520,  364.4961795
2250.000,2300.000,2317.7520,2368.6847,  372.5959002
2300.000,2350.000,2368.6847,2419.6065,  380.6938493
2350.000,2400.000,2419.6065,2470.5174,  388.7900764
2400.000,2450.000,2470.5174,2521.4178,  396.8845931
2450.000,2500.000,2521.4178,2572.3077,  404.9774466
