Transmitter: DSS-14
Receiver: DSS-15
Band: X
Center Frequency: 8560.607024557397 MHz
TX Pulse Length: 2340.0 microsec
TX Power: 440.0 kW
TX Bandwidth: 0.42735042735042733 kHz
TX Gain: 74.55 dB
RX Bandwidth: 0.0004273504273504273 MHz
RX Gain: 68.5 dB
RX Temperature: 21.79 K
RX Minimum SNR: 10.79181246047625 dB

Minimum RCS @ 526.5812622392037km: -88.50502955748871 dBsm
Minimum Size @ 526.5812622392037km: 1.2063452586092307 mm
