   1.0000000000000006E-005   5320.0000000000009     
   1.1220184543019630E-005   3924.2824566368336     
   1.2589254117941661E-005   2892.8246507680333     
   1.4125375446227555E-005   2131.0716430426332     
   1.5848931924611141E-005   1568.8771819034530     
   1.7782794100389229E-005   1154.2387877219928     
   1.9952623149688786E-005   848.63134698022543     
   2.2387211385683379E-005   623.53384020382168     
   2.5118864315095822E-005   457.84598055841661     
   2.8183829312644549E-005   335.96811927525806     
   3.1622776601683795E-005   246.37513839806351     
   3.5481338923357534E-005   180.55798970178435     
   3.9810717055349695E-005   132.23865474469252     
   4.4668359215096348E-005   96.788304570691977     
   5.0118723362727251E-005   70.796364449199288     
   5.6234132519034907E-005   51.751567644497982     
   6.3095734448019293E-005   37.806059109224755     
   7.0794578438413731E-005   27.601044644275831     
   7.9432823472428221E-005   20.138017192807762     
   8.9125093813374588E-005   14.683711331223874     
   1.0000000000000005E-004   10.700000000000003     
   1.1220184543019630E-004   7.8124271053486050     
   1.2589254117941674E-004   5.7270200833235370     
   1.4125375446227541E-004   4.2116672268842690     
   1.5848931924611142E-004   3.1045888656188976     
   1.7782794100389227E-004   2.2920333511690525     
   1.9952623149688788E-004   1.6933496740375855     
   2.2387211385683400E-004   1.2509021261805862     
   2.5118864315095795E-004  0.92319419950854842     
   2.8183829312644550E-004  0.68013941815624512     
   3.1622776601683794E-004  0.49978135913902966     
   3.5481338923357532E-004  0.36600033218522382     
   3.9810717055349735E-004  0.26689738011183178     
   4.4668359215096305E-004  0.19364693839063557     
   5.0118723362727253E-004  0.13967624153377681     
   5.6234132519034910E-004  0.10007419708367472     
   6.3095734448019298E-004   7.1162540648479197E-002
   7.0794578438413802E-004   5.0182537723271275E-002
   7.9432823472428131E-004   3.5064506152610316E-002
   8.9125093813374593E-004   2.4257098600148127E-002
   1.0000000000000002E-003   1.6599999999999997E-002
   1.1220184543019630E-003   1.1031330139829121E-002
   1.2589254117941675E-003   7.0200394948779646E-003
   1.4125375446227540E-003   4.3039626880123734E-003
   1.5848931924611141E-003   2.5576440212429622E-003
   1.7782794100389228E-003   1.4821076425022104E-003
   1.9952623149688789E-003   8.4258327185996352E-004
   2.2387211385683399E-003   4.7278614992380975E-004
   2.5118864315095794E-003   2.6342735729029359E-004
   2.8183829312644548E-003   1.4663127489189480E-004
   3.1622776601683794E-003   8.2032763411613510E-005
   3.5481338923357532E-003   4.6405393326882058E-005
   3.9810717055349734E-003   2.6705170130581893E-005
   4.4668359215096305E-003   1.5728720835475114E-005
   5.0118723362727246E-003   9.5386741553475565E-006
   5.6234132519034910E-003   5.9924520243341725E-006
   6.3095734448019303E-003   3.9234529686725538E-006
   7.0794578438413804E-003   2.6934260652912628E-006
   7.9432823472428138E-003   1.9504722607266547E-006
   8.9125093813374589E-003   1.4989874586549462E-006
   1.0000000000000002E-002   1.2300000000000003E-006
   1.1220184543019630E-002   1.0493381549830219E-006
   1.2589254117941675E-002   9.0250361591155031E-007
   1.4125375446227540E-002   7.8231070352687046E-007
   1.5848931924611141E-002   6.8325077379192502E-007
   1.7782794100389229E-002   6.0107024994469831E-007
   1.9952623149688788E-002   5.3246158105337161E-007
   2.2387211385683399E-002   4.7483526752893313E-007
   2.5118864315095794E-002   4.2615050482370742E-007
   2.8183829312644550E-002   3.8478851243503866E-007
   3.1622776601683791E-002   3.4945715981792802E-007
   3.5481338923357530E-002   3.1911869293265901E-007
   3.9810717055349734E-002   2.9293462293556780E-007
   4.4668359215096300E-002   2.7022344626792780E-007
   5.0118723362727248E-002   2.5042801782513763E-007
   5.6234132519034911E-002   2.3309023026597450E-007
   6.3095734448019303E-002   2.1783125605544078E-007
   7.0794578438413802E-002   2.0433604964639258E-007
   7.9432823472428138E-002   1.9234113108275519E-007
   8.9125093813374592E-002   1.8162491164387062E-007
  0.10000000000000001        1.7199999999999993E-007
  0.11220184543019630        1.6312986305158196E-007
  0.12589254117941662        1.5478855140938983E-007
  0.14125375446227553        1.4697296012459623E-007
  0.15848931924611143        1.3967612849818142E-007
  0.17782794100389229        1.3288806579896276E-007
  0.19952623149688789        1.2659650518002053E-007
  0.22387211385683378        1.2078758540659676E-007
  0.25118864315095824        1.1544646263145981E-007
  0.28183829312644548        1.1055785655743651E-007
  0.31622776601683794        1.0610653698471272E-007
  0.35481338923357530        1.0207775803411837E-007
  0.39810717055349693        9.8457648352942060E-008
  0.44668359215096348        9.5233566435093884E-008
  0.50118723362727247        9.2394430912111016E-008
  0.56234132519034907        8.9931036386735733E-008
  0.63095734448019303        8.7836366181026675E-008
  0.70794578438413736        8.6105914356945371E-008
  0.79432823472428216        8.4738030650653471E-008
  0.89125093813374590        8.3734303670828086E-008
   1.0000000000000000        8.3099999999999957E-008
