   1.0000000000000006E-005   8410.0000000000000     
   1.1220184543019630E-005   7015.5992252036995     
   1.2589254117941661E-005   5811.4879793209611     
   1.4125375446227555E-005   4781.2588906415222     
   1.5848931924611141E-005   3907.5817020687400     
   1.7782794100389229E-005   3172.9506149254348     
   1.9952623149688786E-005   2560.2745737240070     
   2.2387211385683379E-005   2053.3184345241984     
   2.5118864315095822E-005   1637.0093078572056     
   2.8183829312644549E-005   1297.6262367834906     
   3.1622776601683795E-005   1022.8931281444806     
   3.5481338923357534E-005   801.99493400778636     
   3.9810717055349695E-005   625.53592559005551     
   4.4668359215096348E-005   485.45692906850627     
   5.0118723362727251E-005   374.92596150193719     
   5.6234132519034907E-005   288.21410628596817     
   6.3095734448019293E-005   220.56591949582952     
   7.0794578438413731E-005   168.07131121408477     
   7.9432823472428221E-005   127.54379018279921     
   8.9125093813374588E-005   96.408238336158163     
   1.0000000000000005E-004   72.599999999999994     
   1.1220184543019630E-004   54.359661125241118     
   1.2589254117941674E-004   40.388665945551821     
   1.4125375446227541E-004   29.780087633025303     
   1.5848931924611142E-004   21.793007928593834     
   1.7782794100389227E-004   15.829754232900163     
   1.9952623149688788E-004   11.414003591184914     
   2.2387211385683400E-004   8.1705204656361818     
   2.5118864315095795E-004   5.8069805512885440     
   2.8183829312644550E-004   4.0980853607039229     
   3.1622776601683794E-004   2.8719882304374060     
   3.5481338923357532E-004   1.9989244749097341     
   3.9810717055349735E-004   1.3818574262273082     
   4.4668359215096305E-004  0.94890832544497894     
   5.0118723362727253E-004  0.64732218819569987     
   5.6234132519034910E-004  0.43872561733017856     
   6.3095734448019298E-004  0.29544919091325200     
   7.0794578438413802E-004  0.19771106463696769     
   7.9432823472428131E-004  0.13148570830568976     
   8.9125093813374593E-004   8.6909365434633026E-002
   1.0000000000000002E-003   5.7099999999999984E-002
   1.1220184543019630E-003   3.6530996457908332E-002
   1.2589254117941675E-003   2.2382687699524170E-002
   1.4125375446227540E-003   1.3212100598153868E-002
   1.5848931924611141E-003   7.5582985546311897E-003
   1.7782794100389228E-003   4.2155317227417942E-003
   1.9952623149688789E-003   2.3058998618642364E-003
   2.2387211385683399E-003   1.2444340944052924E-003
   2.5118864315095794E-003   6.6654634229428239E-004
   2.8183829312644548E-003   3.5645064297891649E-004
   3.1622776601683794E-003   1.9145321951720418E-004
   3.5481338923357532E-003   1.0389718432303337E-004
   3.9810717055349734E-003   5.7306822525766705E-005
   4.4668359215096305E-003   3.2318704267283229E-005
   5.0118723362727246E-003   1.8746932990879090E-005
   5.6234132519034910E-003   1.1251717053136150E-005
   6.3095734448019303E-003   7.0291576013614800E-006
   7.0794578438413804E-003   4.5979820993451077E-006
   7.9432823472428138E-003   3.1680673277045247E-006
   8.9125093813374589E-003   2.3129608097921272E-006
   1.0000000000000002E-002   1.8000000000000016E-006
   1.1220184543019630E-002   1.4576979762572237E-006
   1.2589254117941675E-002   1.1940323405039811E-006
   1.4125375446227540E-002   9.8867845510369043E-007
   1.5848931924611141E-002   8.2703033629523653E-007
   1.7782794100389229E-002   6.9847706084245587E-007
   1.9952623149688788E-002   5.9522908055048742E-007
   2.2387211385683399E-002   5.1151028206728271E-007
   2.5118864315095794E-002   4.4299597171875852E-007
   2.8183829312644550E-002   3.8641797133511015E-007
   3.1622776601683791E-002   3.3928443264498974E-007
   3.5481338923357530E-002   2.9967918361581809E-007
   3.9810717055349734E-002   2.6611674015387839E-007
   4.4668359215096300E-002   2.3743663855626416E-007
   5.0118723362727248E-002   2.1272579052652198E-007
   5.6234132519034911E-002   1.9126097966962688E-007
   6.3095734448019303E-002   1.7246595299135118E-007
   7.0794578438413802E-002   1.5587916976710225E-007
   7.9432823472428138E-002   1.4112938810245035E-007
   8.9125093813374592E-002   1.2791705265823878E-007
  0.10000000000000001        1.1599999999999991E-007
  0.11220184543019630        1.0526922773289485E-007
  0.12589254117941662        9.5668203748205632E-008
  0.14125375446227553        8.7079057441659023E-008
  0.15848931924611143        7.9395688242123625E-008
  0.17782794100389229        7.2522772097771862E-008
  0.19952623149688789        6.6374816943308742E-008
  0.22387211385683378        6.0875272741681175E-008
  0.25118864315095824        5.5955699448591516E-008
  0.28183829312644548        5.1554994443549291E-008
  0.31622776601683794        4.7618679550244439E-008
  0.35481338923357530        4.4098246677861854E-008
  0.39810717055349693        4.0950560303899506E-008
  0.44668359215096348        3.8137314443091392E-008
  0.50118723362727247        3.5624541366244505E-008
  0.56234132519034907        3.3382169112302955E-008
  0.63095734448019303        3.1383624746898649E-008
  0.70794578438413736        2.9605480335933919E-008
  0.79432823472428216        2.8027138702789987E-008
  0.89125093813374590        2.6630556206177149E-008
   1.0000000000000000        2.5399999999999973E-008
