   1.0000000000000006E-005   11400.000000000004     
   1.1220184543019630E-005   9004.7165525094370     
   1.2589254117941661E-005   7088.1034486574717     
   1.4125375446227555E-005   5560.4117126108731     
   1.5848931924611141E-005   4347.3324192474356     
   1.7782794100389229E-005   3387.6602243266179     
   1.9952623149688786E-005   2631.2373872684930     
   2.2387211385683379E-005   2037.1617150318318     
   2.5118864315095822E-005   1572.2382746915664     
   2.8183829312644549E-005   1209.6527146529006     
   3.1622776601683795E-005   927.84326964234560     
   3.5481338923357534E-005   709.54870769395734     
   3.9810717055349695E-005   541.01035259874322     
   4.4668359215096348E-005   411.30766720811721     
   5.0118723362727251E-005   311.80853497048122     
   5.6234132519034907E-005   235.71718857939183     
   6.3095734448019293E-005   177.70459732887230     
   7.0794578438413731E-005   133.60795840185173     
   7.9432823472428221E-005   100.18768515223869     
   8.9125093813374588E-005   74.931910111988770     
   1.0000000000000005E-004   55.900000000000006     
   1.1220184543019630E-004   41.622652775761352     
   1.2589254117941674E-004   30.944583614712645     
   1.4125375446227541E-004   22.962753207839928     
   1.5848931924611142E-004   17.001811223033187     
   1.7782794100389227E-004   12.555841550975622     
   1.9952623149688788E-004   9.2453500064023189     
   2.2387211385683400E-004   6.7853971258369672     
   2.5118864315095795E-004   4.9619119716257769     
   2.8183829312644550E-004   3.6140337186564881     
   3.1622776601683794E-004   2.6209105195428180     
   3.5481338923357532E-004   1.8918056811783637     
   3.9810717055349735E-004   1.3586659234431386     
   4.4668359215096305E-004  0.97052819304466342     
   5.0118723362727253E-004  0.68930341854219779     
   5.6234132519034910E-004  0.48659428221908441     
   6.3095734448019298E-004  0.34129140534567604     
   7.0794578438413802E-004  0.23775681371562751     
   7.9432823472428131E-004  0.16445131512232702     
   8.9125093813374593E-004  0.11289792951370013     
   1.0000000000000002E-003   7.6899999999999996E-002
   1.1220184543019630E-003   5.1065591768036094E-002
   1.2589254117941675E-003   3.2608771663359681E-002
   1.4125375446227540E-003   2.0132639023771701E-002
   1.5848931924611141E-003   1.2083237870229125E-002
   1.7782794100389228E-003   7.0882405838836784E-003
   1.9952623149688789E-003   4.0862246126342613E-003
   2.2387211385683399E-003   2.3275061499765022E-003
   2.5118864315095794E-003   1.3170443817559980E-003
   2.8183829312644548E-003   7.4440127601719890E-004
   3.1622776601683794E-003   4.2253928069498672E-004
   3.5481338923357532E-003   2.4217901264645962E-004
   3.9810717055349734E-003   1.4091963532875801E-004
   4.4668359215096305E-003   8.3700540551552414E-005
   5.0118723362727246E-003   5.1022638765735544E-005
   5.6234132519034910E-003   3.2094574612879334E-005
   6.3095734448019303E-003   2.0945490867394437E-005
   7.0794578438413804E-003   1.4259221885003718E-005
   7.9432823472428138E-003   1.0181309314078341E-005
   8.9125093813374589E-003   7.6660228924672483E-006
   1.0000000000000002E-002   6.1199999999999965E-006
   1.1220184543019630E-002   5.0602520391904848E-006
   1.2589254117941675E-002   4.2174240710656749E-006
   1.4125375446227540E-002   3.5425708287762915E-006
   1.5848931924611141E-002   2.9986633096126509E-006
   1.7782794100389229E-002   2.5575051205546080E-006
   1.9952623149688788E-002   2.1974889940574744E-006
   2.2387211385683399E-002   1.9019541542569177E-006
   2.5118864315095794E-002   1.6579761048484653E-006
   2.8183829312644550E-002   1.4554695550042859E-006
   3.1622776601683791E-002   1.2865194831730735E-006
   3.5481338923357530E-002   1.1448794018571367E-006
   3.9810717055349734E-002   1.0255928781903948E-006
   4.4668359215096300E-002   9.2470643451940172E-007
   5.0118723362727248E-002   8.3905057596009766E-007
   5.6234132519034911E-002   7.6607188737743284E-007
   6.3095734448019303E-002   7.0370361854312285E-007
   7.0794578438413802E-002   6.5026542811470350E-007
   7.9432823472428138E-002   6.0438533213747793E-007
   8.9125093813374592E-002   5.6493864654389636E-007
  0.10000000000000001        5.3099999999999987E-007
  0.11220184543019630        5.0051604019218401E-007
  0.12589254117941662        4.7197303657792832E-007
  0.14125375446227553        4.4536437041471393E-007
  0.15848931924611143        4.2066485379010522E-007
  0.17782794100389229        3.9783487129871956E-007
  0.19952623149688789        3.7682413477379501E-007
  0.22387211385683378        3.5757504463714419E-007
  0.25118864315095824        3.4002566907535879E-007
  0.28183829312644548        3.2411236608001112E-007
  0.31622776601683794        3.0977208397064516E-007
  0.35481338923357530        2.9694438398763314E-007
  0.39810717055349693        2.8557323456804911E-007
  0.44668359215096348        2.7560863168573614E-007
  0.50118723362727247        2.6700810383687062E-007
  0.56234132519034907        2.5973816458659301E-007
  0.63095734448019303        2.5377578079318794E-007
  0.70794578438413736        2.4910993148953962E-007
  0.79432823472428216        2.4574334183388771E-007
  0.89125093813374590        2.4369448962833260E-007
   1.0000000000000000        2.4299999999999994E-007
