   1.0000000000000006E-005   6500.0000000000018     
   1.1220184543019630E-005   5197.6371627390799     
   1.2589254117941661E-005   4132.6270462889015     
   1.4125375446227555E-005   3267.5731987578852     
   1.5848931924611141E-005   2569.5347667899528     
   1.7782794100389229E-005   2009.8559743176590     
   1.9952623149688786E-005   1563.8959191995136     
   2.2387211385683379E-005   1210.6941128057892     
   2.5118864315095822E-005   932.60103729688194     
   2.8183829312644549E-005   714.89694575673843     
   3.1622776601683795E-005   545.41650675443736     
   3.5481338923357534E-005   414.19190453621866     
   3.9810717055349695E-005   313.12275713816939     
   4.4668359215096348E-005   235.67773758980107     
   5.0118723362727251E-005   176.63005123373429     
   5.6234132519034907E-005   131.82686988064441     
   6.3095734448019293E-005   97.991363559874003     
   7.0794578438413731E-005   72.555005869284315     
   7.9432823472428221E-005   53.517262027067495     
   8.9125093813374588E-005   39.329508626780814     
   1.0000000000000005E-004   28.799999999999997     
   1.1220184543019630E-004   20.978570166665293     
   1.2589254117941674E-004   15.175801062687865     
   1.4125375446227541E-004   10.904484469656619     
   1.5848931924611142E-004   7.7843410553048820     
   1.7782794100389227E-004   5.5218830768922356     
   1.9952623149688788E-004   3.8930198809712162     
   2.2387211385683400E-004   2.7283842330776999     
   2.5118864315095795E-004   1.9012068279797754     
   2.8183829312644550E-004   1.3174785539522453     
   3.1622776601683794E-004  0.90809969270405366     
   3.5481338923357532E-004  0.62270839171532599     
   3.9810717055349735E-004  0.42489591300189800     
   4.4668359215096305E-004  0.28854427702264918     
   5.0118723362727253E-004  0.19505625530042001     
   5.6234132519034910E-004  0.13128352712916463     
   6.3095734448019298E-004   8.7993168581715533E-002
   7.0794578438413802E-004   5.8743723913009922E-002
   7.9432823472428131E-004   3.9069083068526855E-002
   8.9125093813374593E-004   2.5891047453286051E-002
   1.0000000000000002E-003   1.7100000000000001E-002
   1.1220184543019630E-003   1.1080892898435332E-002
   1.2589254117941675E-003   6.9560094231223106E-003
   1.4125375446227540E-003   4.2495852915280432E-003
   1.5848931924611141E-003   2.5382134987864046E-003
   1.7782794100389228E-003   1.4890153883720442E-003
   1.9952623149688789E-003   8.6189405775640826E-004
   2.2387211385683399E-003   4.9452297985123070E-004
   2.5118864315095794E-003   2.8254731563219574E-004
   2.8183829312644548E-003   1.6149617379009265E-004
   3.1622776601683794E-003   9.2767074181218203E-005
   3.5481338923357532E-003   5.3799752574346887E-005
   3.9810717055349734E-003   3.1645773891752757E-005
   4.4668359215096305E-003   1.8966815218993481E-005
   5.0118723362727246E-003   1.1636184060498319E-005
   5.6234132519034910E-003   7.3410546069148970E-006
   6.3095734448019303E-003   4.7844526048146629E-006
   7.0794578438413804E-003   3.2361319064909803E-006
   7.9432823472428138E-003   2.2820994010729477E-006
   8.9125093813374589E-003   1.6855883005311853E-006
   1.0000000000000002E-002   1.3100000000000006E-006
   1.1220184543019630E-002   1.0522955871583211E-006
   1.2589254117941675E-002   8.5519601549038637E-007
   1.4125375446227540E-002   7.0267699623820763E-007
   1.5848931924611141E-002   5.8332237191019199E-007
   1.7782794100389229E-002   4.8890563320708790E-007
   1.9952623149688788E-002   4.1343347947722078E-007
   2.2387211385683399E-002   3.5249350446997581E-007
   2.5118864315095794E-002   3.0280437870602683E-007
   2.8183829312644550E-002   2.6190236595242903E-007
   3.1622776601683791E-002   2.2792061729455299E-007
   3.5481338923357530E-002   1.9943225730812860E-007
   3.9810717055349734E-002   1.7533777083703019E-007
   4.4668359215096300E-002   1.5478344980287683E-007
   5.0118723362727248E-002   1.3710181684988186E-007
   5.6234132519034911E-002   1.2176773471116417E-007
   6.3095734448019303E-002   1.0836580311355760E-007
   7.0794578438413802E-002   9.6565940200537155E-008
   7.9432823472428138E-002   8.6104939622763008E-008
   8.9125093813374592E-002   7.6772417330823856E-008
  0.10000000000000001        6.8400000000000057E-008
  0.11220184543019630        6.0949941177891779E-008
  0.12589254117941662        5.4396757260674256E-008
  0.14125375446227553        4.8628563229773405E-008
  0.15848931924611143        4.3547652464113574E-008
  0.17782794100389229        3.9068714122318200E-008
  0.19952623149688789        3.5117267953916685E-008
  0.22387211385683378        3.1628291748351068E-008
  0.25118864315095824        2.8545019090622544E-008
  0.28183829312644548        2.5817887385666171E-008
  0.31622776601683794        2.3403618233954437E-008
  0.35481338923357530        2.1264414187683586E-008
  0.39810717055349693        1.9367257693393664E-008
  0.44668359215096348        1.7683299639168782E-008
  0.50118723362727247        1.6187326380810001E-008
  0.56234132519034907        1.4857295431075880E-008
  0.63095734448019303        1.3673931169527614E-008
  0.70794578438413736        1.2620372978322724E-008
  0.79432823472428216        1.1681869142133842E-008
  0.89125093813374590        1.0845510678660617E-008
   1.0000000000000000        1.0099999999999991E-008
