   1.0000000000000006E-005   5189.9999999999973     
   1.1220184543019630E-005   4035.6988282074144     
   1.2589254117941661E-005   3125.2344056945026     
   1.4125375446227555E-005   2410.3888392788081     
   1.5848931924611141E-005   1851.6567694727230     
   1.7782794100389229E-005   1416.8730534935930     
   1.9952623149688786E-005   1080.0072582505932     
   2.2387211385683379E-005   820.11714840386901     
   2.5118864315095822E-005   620.45001979093411     
   2.8183829312644549E-005   467.67871981012325     
   3.1622776601683795E-005   351.25823759251739     
   3.5481338923357534E-005   262.88858852537885     
   3.9810717055349695E-005   196.07014269145287     
   4.4668359215096348E-005   145.73837216898221     
   5.0118723362727251E-005   107.96606886156242     
   5.6234132519034907E-005   79.722295170497901     
   6.3095734448019293E-005   58.678585223638208     
   7.0794578438413731E-005   43.054149722247182     
   7.9432823472428221E-005   31.493008230580749     
   8.9125093813374588E-005   22.967050725890996     
   1.0000000000000005E-004   16.699999999999999     
   1.1220184543019630E-004   12.103335328296122     
   1.2589254117941674E-004   8.7394688064668760     
   1.4125375446227541E-004   6.2866579597126693     
   1.5848931924611142E-004   4.5047728946426622     
   1.7782794100389227E-004   3.2151977714291742     
   1.9952623149688788E-004   2.2855338285544122     
   2.2387211385683400E-004   1.6179914953912862     
   2.5118864315095795E-004   1.1406092337853426     
   2.8183829312644550E-004  0.80063219151862597     
   3.1622776601683794E-004  0.55953618580084574     
   3.5481338923357532E-004  0.38930118139948233     
   3.9810717055349735E-004  0.26963056854739975     
   4.4668359215096305E-004  0.18588392925029143     
   5.0118723362727253E-004  0.12754614009003148     
   5.6234132519034910E-004   8.7098164783386001E-002
   6.3095734448019298E-004   5.9187547506128389E-002
   7.0794578438413802E-004   4.0021631682837788E-002
   7.9432823472428131E-004   2.6925624854223215E-002
   8.9125093813374593E-004   1.8022157999576512E-002
   1.0000000000000002E-003   1.2000000000000002E-002
   1.1220184543019630E-003   7.8311525682245482E-003
   1.2589254117941675E-003   4.9501186150024334E-003
   1.4125375446227540E-003   3.0445485076736607E-003
   1.5848931924611141E-003   1.8302880826987756E-003
   1.7782794100389228E-003   1.0803815473836968E-003
   1.9952623149688789E-003   6.2902499940164754E-004
   2.2387211385683399E-003   3.6288046235634786E-004
   2.5118864315095794E-003   2.0837043038717369E-004
   2.8183829312644548E-003   1.1963473824952618E-004
   3.1622776601683794E-003   6.8992061386984234E-005
   3.5481338923357532E-003   4.0145182029503981E-005
   3.9810717055349734E-003   2.3677297145285716E-005
   4.4668359215096305E-003   1.4218935705524231E-005
   5.0118723362727246E-003   8.7339403091079170E-006
   5.6234132519034910E-003   5.5123070596484740E-006
   6.3095734448019303E-003   3.5909431297399183E-006
   7.0794578438413804E-003   2.4255346669445828E-006
   7.9432823472428138E-003   1.7064837956568235E-006
   8.9125093813374589E-003   1.2562164174829982E-006
   1.0000000000000002E-002   9.7200000000000018E-007
   1.1220184543019630E-002   7.7683884770790949E-007
   1.2589254117941675E-002   6.2802774900856587E-007
   1.4125375446227540E-002   5.1324808054865325E-007
   1.5848931924611141E-002   4.2373448804641097E-007
   1.7782794100389229E-002   3.5317962902880608E-007
   1.9952623149688788E-002   2.9699573224032855E-007
   2.2387211385683399E-002   2.5181110355868123E-007
   2.5118864315095794E-002   2.1512308860987324E-007
   2.8183829312644550E-002   1.8505636578113059E-007
   3.1622776601683791E-002   1.6019290060400902E-007
   3.5481338923357530E-002   1.3945115274016104E-007
   3.9810717055349734E-002   1.2199946742675781E-007
   4.4668359215096300E-002   1.0719341804950462E-007
   5.0118723362727248E-002   9.4530082699987333E-008
   5.6234132519034911E-002   8.3614397696411267E-008
   6.3095734448019303E-002   7.4134195439214045E-008
   7.0794578438413802E-002   6.5841535725147747E-008
   7.9432823472428138E-002   5.8538630982620205E-008
   8.9125093813374592E-002   5.2067147165245397E-008
  0.10000000000000001        4.6300000000000018E-008
  0.11220184543019630        4.1190093378307242E-008
  0.12589254117941662        3.6704034507447956E-008
  0.14125375446227553        3.2763143474216256E-008
  0.15848931924611143        2.9298780390185167E-008
  0.17782794100389229        2.6251083274135693E-008
  0.19952623149688789        2.3567858047749018E-008
  0.22387211385683378        2.1203603926625091E-008
  0.25118864315095824        1.9118658982426403E-008
  0.28183829312644548        1.7278452087521049E-008
  0.31622776601683794        1.5652848814262787E-008
  0.35481338923357530        1.4215580136277250E-008
  0.39810717055349693        1.2943743962803699E-008
  0.44668359215096348        1.1817370626921341E-008
  0.50118723362727247        1.0819044444785608E-008
  0.56234132519034907        9.9335743683012129E-009
  0.63095734448019303        9.1477075719183379E-009
  0.70794578438413736        8.4498805504089585E-009
  0.79432823472428216        7.8300029641402453E-009
  0.89125093813374590        7.2792700574226625E-009
   1.0000000000000000        6.7900000000000074E-009
