   1.0000000000000006E-005   17000.000000000007     
   1.1220184543019630E-005   14345.525485574939     
   1.2589254117941661E-005   12006.320520097961     
   1.4125375446227555E-005   9968.5373387672826     
   1.5848931924611141E-005   8212.6456592715931     
   1.7782794100389229E-005   6715.3240185214054     
   1.9952623149688786E-005   5451.1132513184657     
   2.2387211385683379E-005   4393.7959682704322     
   2.5118864315095822E-005   3517.4920056706701     
   2.8183829312644549E-005   2797.4801106299446     
   3.1622776601683795E-005   2210.7704685004705     
   3.5481338923357534E-005   1736.4615204255758     
   3.9810717055349695E-005   1355.9186635448918     
   4.4668359215096348E-005   1052.8128625157797     
   5.0118723362727251E-005   813.05494961938768     
   5.6234132519034907E-005   624.65740027883328     
   6.3095734448019293E-005   477.55045123931217     
   7.0794578438413731E-005   363.37421993903945     
   7.9432823472428221E-005   275.26345133704945     
   8.9125093813374588E-005   207.63696794567991     
   1.0000000000000005E-004   156.00000000000000     
   1.1220184543019630E-004   116.22638584462682     
   1.2589254117941674E-004   85.521862083494824     
   1.4125375446227541E-004   62.193845539627993     
   1.5848931924611142E-004   44.732285487730628     
   1.7782794100389227E-004   31.842249968144934     
   1.9952623149688788E-004   22.449204500780599     
   2.2387211385683400E-004   15.686219281039532     
   2.5118864315095795E-004   10.870794641337678     
   2.8183829312644550E-004   7.4771406990182543     
   3.1622776601683794E-004   5.1079499488717657     
   3.5481338923357532E-004   3.4681677818041425     
   3.9810717055349735E-004   2.3420788883855659     
   4.4668359215096305E-004   1.5741875022059897     
   5.0118723362727253E-004   1.0538298335102194     
   5.6234132519034910E-004  0.70315193086916339     
   6.3095734448019298E-004  0.46794852334430043     
   7.0794578438413802E-004  0.31082989297694180     
   7.9432823472428131E-004  0.20621907487300573     
   8.9125093813374593E-004  0.13674826172138749     
   1.0000000000000002E-003   9.0700000000000017E-002
   1.1220184543019630E-003   5.9278148563354657E-002
   1.2589254117941675E-003   3.7692611891078885E-002
   1.4125375446227540E-003   2.3412197113251480E-002
   1.5848931924611141E-003   1.4262725622807540E-002
   1.7782794100389228E-003   8.5563271042862262E-003
   1.9952623149688789E-003   5.0751257268172138E-003
   2.2387211385683399E-003   2.9883460428520091E-003
   2.5118864315095794E-003   1.7538389077710007E-003
   2.8183829312644548E-003   1.0300856265001445E-003
   3.1622776601683794E-003   6.0789958362369577E-004
   3.5481338923357532E-003   3.6192229382384490E-004
   3.9810717055349734E-003   2.1825986184732595E-004
   4.4668359215096305E-003   1.3386207285175474E-004
   5.0118723362727246E-003   8.3833273434002432E-005
   5.6234132519034910E-003   5.3827051502519620E-005
   6.3095734448019303E-003   3.5576246446397482E-005
   7.0794578438413804E-003   2.4302172842499646E-005
   7.9432823472428138E-003   1.7226839658655150E-005
   8.9125093813374589E-003   1.2723064315697591E-005
   1.0000000000000002E-002   9.8299999999999957E-006
   1.1220184543019630E-002   7.8189419527949797E-006
   1.2589254117941675E-002   6.2826068981115441E-006
   1.4125375446227540E-002   5.0973086229481793E-006
   1.5848931924611141E-002   4.1740998554184601E-006
   1.7782794100389229E-002   3.4483974861768036E-006
   1.9952623149688788E-002   2.8728708568812419E-006
   2.2387211385683399E-002   2.4125198979968263E-006
   2.5118864315095794E-002   2.0412370313158423E-006
   2.8183829312644550E-002   1.7393838174303394E-006
   3.1622776601683791E-002   1.4920678825435013E-006
   3.5481338923357530E-002   1.2879073656140031E-006
   3.9810717055349734E-002   1.1181376667461926E-006
   4.4668359215096300E-002   9.7596052635069389E-007
   5.0118723362727248E-002   8.5606604029847016E-007
   5.6234132519034911E-002   7.5427905013625292E-007
   6.3095734448019303E-002   6.6729565883727711E-007
   7.0794578438413802E-002   5.9248553123168169E-007
   7.9432823472428138E-002   5.2774255134154309E-007
   8.9125093813374592E-002   4.7137126795988490E-007
  0.10000000000000001        4.2199999999999957E-007
  0.11220184543019630        3.7846698765800040E-007
  0.12589254117941662        3.3997068761948278E-007
  0.14125375446227553        3.0593231581362689E-007
  0.15848931924611143        2.7583675685416941E-007
  0.17782794100389229        2.4922655695474024E-007
  0.19952623149688789        2.2569627246697050E-007
  0.22387211385683378        2.0488720444401258E-007
  0.25118864315095824        1.8648253389322072E-007
  0.28183829312644548        1.7020286014876969E-007
  0.31622776601683794        1.5580213554595789E-007
  0.35481338923357530        1.4306398283083750E-007
  0.39810717055349693        1.3179837705565900E-007
  0.44668359215096348        1.2183867070732683E-007
  0.50118723362727247        1.1303893915920594E-007
  0.56234132519034907        1.0527162294301931E-007
  0.63095734448019303        9.8425443571521348E-008
  0.70794578438413736        9.2403570512240898E-008
  0.79432823472428216        8.7122018266067399E-008
  0.89125093813374590        8.2508254226170458E-008
   1.0000000000000000        7.8500000000000035E-008
