   1.0000000000000006E-005   186.00000000000009     
   1.1220184543019630E-005   135.01161913201415     
   1.2589254117941661E-005   98.166565183402440     
   1.4125375446227555E-005   71.498604995918086     
   1.5848931924611141E-005   52.165135415859808     
   1.7782794100389229E-005   38.125819040092715     
   1.9952623149688786E-005   27.913954891195385     
   2.2387211385683379E-005   20.473598589468015     
   2.5118864315095822E-005   15.043361510341800     
   2.8183829312644549E-005   11.073394473951041     
   3.1622776601683795E-005   8.1659947421641110     
   3.5481338923357534E-005   6.0330530033647065     
   3.9810717055349695E-005   4.4655214574938817     
   4.4668359215096348E-005   3.3114750694174528     
   5.0118723362727251E-005   2.4603242269867165     
   5.6234132519034907E-005   1.8314371326405774     
   6.3095734448019293E-005   1.3659279157831310     
   7.0794578438413731E-005   1.0207206818240542     
   7.9432823472428221E-005  0.76425218817927210     
   8.9125093813374588E-005  0.57335603022043002     
   1.0000000000000005E-004  0.43099999999999999     
   1.1220184543019630E-004  0.32625257996374935     
   1.2589254117941674E-004  0.24965468073524225     
   1.4125375446227541E-004  0.19281100639962276     
   1.5848931924611142E-004  0.15004708292667709     
   1.7782794100389227E-004  0.11746924977589271     
   1.9952623149688788E-004   9.2367462559374516E-002
   2.2387211385683400E-004   7.2829828536714158E-002
   2.5118864315095795E-004   5.7489998119466791E-002
   2.8183829312644550E-004   4.5359192086836107E-002
   3.1622776601683794E-004   3.5712940669672823E-002
   3.5481338923357532E-004   2.8013700173331844E-002
   3.9810717055349735E-004   2.1857333491732637E-002
   4.4668359215096305E-004   1.6935693927175175E-002
   5.0118723362727253E-004   1.3010236924992537E-002
   5.6234132519034910E-004   9.8932978146779576E-003
   6.3095734448019298E-004   7.4347762775056571E-003
   7.0794578438413802E-004   5.5126820838087591E-003
   7.9432823472428131E-004   4.0264609166096249E-003
   8.9125093813374593E-004   2.8923230750151612E-003
   1.0000000000000002E-003   2.0400000000000001E-003
   1.1220184543019630E-003   1.3706457924203574E-003
   1.2589254117941675E-003   8.5735347304630107E-004
   1.4125375446227540E-003   5.0395973016503207E-004
   1.5848931924611141E-003   2.8099245038226245E-004
   1.7782794100389228E-003   1.5000923855405096E-004
   1.9952623149688789E-003   7.7397608975722149E-005
   2.2387211385683399E-003   3.8956946544101106E-005
   2.5118864315095794E-003   1.9308642711398146E-005
   2.8183829312644548E-003   9.5123911427241412E-006
   3.1622776601683794E-003   4.7017595393270355E-006
   3.5481338923357532E-003   2.3535614096765039E-006
   3.9810717055349734E-003   1.2043333277940965E-006
   4.4668359215096305E-003   6.3589523400043865E-007
   5.0118723362727246E-003   3.4970655624876815E-007
   5.6234132519034910E-003   2.0219153199848353E-007
   6.3095734448019303E-003   1.2405800127097073E-007
   7.0794578438413804E-003   8.1536275593049603E-008
   7.9432823472428138E-003   5.7943253571074949E-008
   8.9125093813374589E-003   4.4940970583695733E-008
   1.0000000000000002E-002   3.8399999999999973E-008
   1.1220184543019630E-002   3.4662285148033041E-008
   1.2589254117941675E-002   3.1492648917457897E-008
   1.4125375446227540E-002   2.8790563545711663E-008
   1.5848931924611141E-002   2.6475431778689540E-008
   1.7782794100389229E-002   2.4482219501273775E-008
   1.9952623149688788E-002   2.2758116257529053E-008
   2.2387211385683399E-002   2.1259965860096775E-008
   2.5118864315095794E-002   1.9952277629814449E-008
   2.8183829312644550E-002   1.8805678166220187E-008
   3.1622776601683791E-002   1.7795699429739598E-008
   3.5481338923357530E-002   1.6901825162121440E-008
   3.9810717055349734E-002   1.6106736987429050E-008
   4.4668359215096300E-002   1.5395715835471983E-008
   5.0118723362727248E-002   1.4756164975561225E-008
   5.6234132519034911E-002   1.4177228916596966E-008
   6.3095734448019303E-002   1.3649488422266642E-008
   7.0794578438413802E-002   1.3164716416030904E-008
   7.9432823472428138E-002   1.2715682979514137E-008
   8.9125093813374592E-002   1.2296000250329879E-008
  0.10000000000000001        1.1900000000000007E-008
  0.11220184543019630        1.1521650037399467E-008
  0.12589254117941662        1.1158842155855202E-008
  0.14125375446227553        1.0812170806475613E-008
  0.15848931924611143        1.0482105881614250E-008
  0.17782794100389229        1.0169009189523062E-008
  0.19952623149688789        9.8731506254182694E-009
  0.22387211385683378        9.5947239282955613E-009
  0.25118864315095824        9.3338619541807355E-009
  0.28183829312644548        9.0906514347420505E-009
  0.31622776601683794        8.8651472254634624E-009
  0.35481338923357530        8.6573860801990779E-009
  0.39810717055349693        8.4674000193622094E-009
  0.44668359215096348        8.2952293878369836E-009
  0.50118723362727247        8.1409357266656602E-009
  0.56234132519034907        8.0046146105006682E-009
  0.63095734448019303        7.8864086316959793E-009
  0.70794578438413736        7.7865207428754892E-009
  0.79432823472428216        7.7052282041542368E-009
  0.89125093813374590        7.6428974204204454E-009
   1.0000000000000000        7.6000000000000002E-009
