   1.0000000000000006E-005   6220.0000000000009     
   1.1220184543019630E-005   4941.6880838174693     
   1.2589254117941661E-005   3905.2670617789227     
   1.4125375446227555E-005   3070.1658859810668     
   1.5848931924611141E-005   2401.3411860079441     
   1.7782794100389229E-005   1868.8397047257934     
   1.9952623149688786E-005   1447.3101916843284     
   2.2387211385683379E-005   1115.4954513567056     
   2.5118864315095822E-005   855.72817762101158     
   2.8183829312644549E-005   653.44785670109422     
   3.1622776601683795E-005   496.75054140239217     
   3.5481338923357534E-005   375.97874762659052     
   3.9810717055349695E-005   283.35508549929278     
   4.4668359215096348E-005   212.66044738134102     
   5.0118723362727251E-005   158.95553758661509     
   5.6234132519034907E-005   118.34313197119552     
   6.3095734448019293E-005   87.767583929783427     
   7.0794578438413731E-005   64.847635584775176     
   7.9432823472428221E-005   47.738448123120826     
   8.9125093813374588E-005   35.018845697116632     
   1.0000000000000005E-004   25.600000000000001     
   1.1220184543019630E-004   18.625336764708042     
   1.2589254117941674E-004   13.468527572817251     
   1.4125375446227541E-004   9.6814342853030375     
   1.5848931924611142E-004   6.9185432484695770     
   1.7782794100389227E-004   4.9158290714565016     
   1.9952623149688788E-004   3.4732642153706332     
   2.2387211385683400E-004   2.4405605354278421     
   2.5118864315095795E-004   1.7057046774193290     
   2.8183829312644550E-004   1.1858571309528838     
   3.1622776601683794E-004  0.82021357161225117     
   3.5481338923357532E-004  0.56446804925545502     
   3.9810717055349735E-004  0.38656398456929580     
   4.4668359215096305E-004  0.26346613752515757     
   5.0118723362727253E-004  0.17873161935949161     
   5.6234132519034910E-004  0.12069879250857149     
   6.3095734448019298E-004   8.1148629494078889E-002
   7.0794578438413802E-004   5.4323527365158962E-002
   7.9432823472428131E-004   3.6213877018695766E-002
   8.9125093813374593E-004   2.4043304133101875E-002
   1.0000000000000002E-003   1.5900000000000001E-002
   1.1220184543019630E-003   1.0311455512348642E-002
   1.2589254117941675E-003   6.4759028216163032E-003
   1.4125375446227540E-003   3.9567841393570212E-003
   1.5848931924611141E-003   2.3629267545988652E-003
   1.7782794100389228E-003   1.3855691641025977E-003
   1.9952623149688789E-003   8.0145730118470402E-004
   2.2387211385683399E-003   4.5942114714232383E-004
   2.5118864315095794E-003   2.6219485672416729E-004
   2.8183829312644548E-003   1.4966633730184665E-004
   3.1622776601683794E-003   8.5845009061343692E-005
   3.5481338923357532E-003   4.9705118200587541E-005
   3.9810717055349734E-003   2.9186800712590455E-005
   4.4668359215096305E-003   1.7461251927494194E-005
   5.0118723362727246E-003   1.0692320038993915E-005
   5.6234132519034910E-003   6.7325624121766828E-006
   6.3095734448019303E-003   4.3793018053226639E-006
   7.0794578438413804E-003   2.9563074352714935E-006
   7.9432823472428138E-003   2.0807443708938464E-006
   8.9125093813374589E-003   1.5339685524681787E-006
   1.0000000000000002E-002   1.1900000000000007E-006
   1.1220184543019630E-002   9.5414494983292265E-007
   1.2589254117941675E-002   7.7391744980459289E-007
   1.4125375446227540E-002   6.3459964093651541E-007
   1.5848931924611141E-002   5.2570476903867684E-007
   1.7782794100389229E-002   4.3967617714806653E-007
   1.9952623149688788E-002   3.7100937868102275E-007
   2.2387211385683399E-002   3.1565290321808467E-007
   2.5118864315095794E-002   2.7059492449645830E-007
   2.8183829312644550E-002   2.3357506296517457E-007
   3.1622776601683791E-002   2.0288142400923473E-007
   3.5481338923357530E-002   1.7720627141024356E-007
   3.9810717055349734E-002   1.5554243584905621E-007
   4.4668359215096300E-002   1.3710829198022087E-007
   5.0118723362727248E-002   1.2129295417840832E-007
   5.6234132519034911E-002   1.0761590611224757E-007
   6.3095734448019303E-002   9.5697019393208565E-008
   7.0794578438413802E-002   8.5234107736796809E-008
   7.9432823472428138E-002   7.5985985753987809E-008
   8.9125093813374592E-002   6.7759574654450222E-008
  0.10000000000000001        6.0400000000000051E-008
  0.11220184543019630        5.3858643466888380E-008
  0.12589254117941662        4.8102549145344656E-008
  0.14125375446227553        4.3034359309353127E-008
  0.15848931924611143        3.8568923616189117E-008
  0.17782794100389229        3.4631793430732459E-008
  0.19952623149688789        3.1157893724414905E-008
  0.22387211385683378        2.8090353573444914E-008
  0.25118864315095824        2.5379477896564577E-008
  0.28183829312644548        2.2981844640332960E-008
  0.31622776601683794        2.0859513118353144E-008
  0.35481338923357530        1.8979330625431245E-008
  0.39810717055349693        1.7312325769380091E-008
  0.44668359215096348        1.5833178187435283E-008
  0.50118723362727247        1.4519755439786516E-008
  0.56234132519034907        1.3352708900861128E-008
  0.63095734448019303        1.2315121402918141E-008
  0.70794578438413736        1.1392200230736574E-008
  0.79432823472428216        1.0571009826126332E-008
  0.89125093813374590        9.8402392425951140E-009
   1.0000000000000000        9.1900000000000115E-009
