   1.0000000000000006E-005   16800.000000000018     
   1.1220184543019630E-005   14183.895822122311     
   1.2589254117941661E-005   11876.610976538741     
   1.4125375446227555E-005   9865.1372670086494     
   1.5848931924611141E-005   8130.7422241489667     
   1.7782794100389229E-005   6650.8410181209147     
   1.9952623149688786E-005   5400.6385295322643     
   2.2387211385683379E-005   4354.5038590282320     
   2.5118864315095822E-005   3487.0657006031797     
   2.8183829312644549E-005   2774.0374323438059     
   3.1622776601683795E-005   2192.7953233304092     
   3.5481338923357534E-005   1722.7423235405247     
   3.9810717055349695E-005   1345.4942743158124     
   4.4668359215096348E-005   1044.9260197026022     
   5.0118723362727251E-005   807.11282463331713     
   5.6234132519034907E-005   620.19865896707893     
   6.3095734448019293E-005   474.21809715423126     
   7.0794578438413731E-005   360.89345487394735     
   7.9432823472428221E-005   273.42380660960850     
   8.9125093813374588E-005   206.27801212260360     
   1.0000000000000005E-004   154.99999999999997     
   1.1220184543019630E-004   115.49734390955135     
   1.2589254117941674E-004   84.997526599254584     
   1.4125375446227541E-004   61.821142166808123     
   1.5848931924611142E-004   44.469951838762448     
   1.7782794100389227E-004   31.659032928535016     
   1.9952623149688788E-004   22.321965560045619     
   2.2387211385683400E-004   15.598163899158722     
   2.5118864315095795E-004   10.809938780054596     
   2.8183829312644550E-004   7.4350544184561516     
   3.1622776601683794E-004   5.0787716142078896     
   3.5481338923357532E-004   3.4478573037485294     
   3.9810717055349735E-004   2.3278682863293541     
   4.4668359215096305E-004   1.5641863708603323     
   5.0118723362727253E-004   1.0467477048653977     
   5.6234132519034910E-004  0.69810607313643991     
   6.3095734448019298E-004  0.46433256892614150     
   7.0794578438413802E-004  0.30822485853908949     
   7.9432823472428131E-004  0.20433342494198337     
   8.9125093813374593E-004  0.13537761455727976     
   1.0000000000000002E-003   8.9700000000000016E-002
   1.1220184543019630E-003   5.8546919909315411E-002
   1.2589254117941675E-003   3.7161360915273597E-002
   1.4125375446227540E-003   2.3031946194823381E-002
   1.5848931924611141E-003   1.3995765384837653E-002
   1.7782794100389228E-003   8.3726932361468838E-003
   1.9952623149688789E-003   4.9512144278015466E-003
   2.2387211385683399E-003   2.9061086083001925E-003
   2.5118864315095794E-003   1.6999690588005338E-003
   2.8183829312644548E-003   9.9511846129248633E-004
   3.1622776601683794E-003   5.8531366095041361E-004
   3.5481338923357532E-003   3.4734269421397043E-004
   3.9810717055349734E-003   2.0881362271060129E-004
   4.4668359215096305E-003   1.2769272613021010E-004
   5.0118723362727246E-003   7.9754589022710377E-005
   5.6234132519034910E-003   5.1086119619983791E-005
   6.3095734448019303E-003   3.3696390514590870E-005
   7.0794578438413804E-003   2.2981194680802531E-005
   7.9432823472428138E-003   1.6272193260619889E-005
   8.9125093813374589E-003   1.2011005845648487E-005
   1.0000000000000002E-002   9.2799999999999959E-006
   1.1220184543019630E-002   7.3832196911455298E-006
   1.2589254117941675E-002   5.9329053423201832E-006
   1.4125375446227540E-002   4.8132610739302428E-006
   1.5848931924611141E-002   3.9408358687895420E-006
   1.7782794100389229E-002   3.2549233330785244E-006
   1.9952623149688788E-002   2.7109607228884897E-006
   2.2387211385683399E-002   2.2759477687584999E-006
   2.5118864315095794E-002   1.9252384149486710E-006
   2.8183829312644550E-002   1.6402742472715895E-006
   3.1622776601683791E-002   1.4069695302904191E-006
   3.5481338923357530E-002   1.2145509964569458E-006
   3.9810717055349734E-002   1.0547176445688299E-006
   4.4668359215096300E-002   9.2102754966252115E-007
   5.0118723362727248E-002   8.0844697666552607E-007
   5.6234132519034911E-002   7.1301641869586302E-007
   6.3095734448019303E-002   6.3160149143229451E-007
   7.0794578438413802E-002   5.6170585194768206E-007
   7.9432823472428138E-002   5.0132976855923991E-007
   8.9125093813374592E-002   4.4886251649073138E-007
  0.10000000000000001        4.0299999999999973E-007
  0.11220184543019630        3.6253474542722067E-007
  0.12589254117941662        3.2663808214068995E-007
  0.14125375446227553        2.9480590218538575E-007
  0.15848931924611143        2.6658597140160723E-007
  0.17782794100389229        2.4157375741195197E-007
  0.19952623149688789        2.1940834744485767E-007
  0.22387211385683378        1.9976852013758653E-007
  0.25118864315095824        1.8236901687788675E-007
  0.28183829312644548        1.6695704301843845E-007
  0.31622776601683794        1.5330901706315845E-007
  0.35481338923357530        1.4122757630413432E-007
  0.39810717055349693        1.3053884001793045E-007
  0.44668359215096348        1.2108992586911205E-007
  0.50118723362727247        1.1274671130724706E-007
  0.56234132519034907        1.0539182920732379E-007
  0.63095734448019303        9.8922885556410608E-008
  0.70794578438413736        9.3250886433700591E-008
  0.79432823472428216        8.8298861706794468E-008
  0.89125093813374590        8.4000673650727573E-008
   1.0000000000000000        8.0300000000000064E-008
