   1.0000000000000006E-005   14299.999999999987     
   1.1220184543019630E-005   12912.216141741759     
   1.2589254117941661E-005   11487.498578526176     
   1.4125375446227555E-005   10075.641264151618     
   1.5848931924611141E-005   8717.7632977356188     
   1.7782794100389229E-005   7445.3515565220068     
   1.9952623149688786E-005   6280.2323783432294     
   2.2387211385683379E-005   5235.2713292485469     
   2.5118864315095822E-005   4315.5709555783760     
   2.8183829312644549E-005   3519.9421213904589     
   3.1622776601683795E-005   2842.4549219080509     
   3.5481338923357534E-005   2273.9193691234013     
   3.9810717055349695E-005   1803.1944250597580     
   4.4668359215096348E-005   1418.2692263898964     
   5.0118723362727251E-005   1107.0979348796889     
   5.6234132519034907E-005   858.19750498567021     
   6.3095734448019293E-005   661.03569147190581     
   7.0794578438413731E-005   506.24603388952579     
   7.9432823472428221E-005   385.70922890654288     
   8.9125093813374588E-005   292.53828261338759     
   1.0000000000000005E-004   220.99999999999994     
   1.1220184543019630E-004   164.18069391821351     
   1.2589254117941674E-004   118.54836500070303     
   1.4125375446227541E-004   83.389318193969146     
   1.5848931924611142E-004   57.274901901684871     
   1.7782794100389227E-004   38.499497921469569     
   1.9952623149688788E-004   25.385180894168606     
   2.2387211385683400E-004   16.456506595258585     
   2.5118864315095795E-004   10.512957938735678     
   2.8183829312644550E-004   6.6334552343665534     
   3.1622776601683794E-004   4.1436205637300079     
   3.5481338923357532E-004   2.5682846850239858     
   3.9810717055349735E-004   1.5831681848432961     
   4.4668359215096305E-004  0.97281298517780013     
   5.0118723362727253E-004  0.59723848032808635     
   5.6234132519034910E-004  0.36718085278033930     
   6.3095734448019298E-004  0.22658116023329636     
   7.0794578438413802E-004  0.14066200264898826     
   7.9432823472428131E-004   8.8051494207313119E-002
   8.9125093813374593E-004   5.5705913713458163E-002
   1.0000000000000002E-003   3.5700000000000003E-002
   1.1220184543019630E-003   2.2832783458098430E-002
   1.2589254117941675E-003   1.4363763943307947E-002
   1.4125375446227540E-003   8.9136298028276856E-003
   1.5848931924611141E-003   5.4723773015239955E-003
   1.7782794100389228E-003   3.3334254843824488E-003
   1.9952623149688789E-003   2.0204910066061402E-003
   2.2387211385683399E-003   1.2221730898487502E-003
   2.5118864315095794E-003   7.3990559357583075E-004
   2.8183829312644548E-003   4.4962026286487415E-004
   3.1622776601683794E-003   2.7504235891988099E-004
   3.5481338923357532E-003   1.6986175638717725E-004
   3.9810717055349734E-003   1.0621653437595641E-004
   4.4668359215096305E-003   6.7444619291275637E-005
   5.0118723362727246E-003   4.3613337729912257E-005
   5.6234132519034910E-003   2.8804898633585846E-005
   6.3095734448019303E-003   1.9487070701713705E-005
   7.0794578438413804E-003   1.3543101282398174E-005
   7.9432823472428138E-003   9.6970407557478541E-006
   8.9125093813374589E-003   7.1741097720878093E-006
   1.0000000000000002E-002   5.5000000000000032E-006
   1.1220184543019630E-002   4.3214930055434250E-006
   1.2589254117941675E-002   3.4337233701903022E-006
   1.4125375446227540E-002   2.7572448457018896E-006
   1.5848931924611141E-002   2.2360529134813051E-006
   1.7782794100389229E-002   1.8302217292677217E-006
   1.9952623149688788E-002   1.5109789020795454E-006
   2.2387211385683399E-002   1.2573735779989542E-006
   2.5118864315095794E-002   1.0539977181362306E-006
   2.8183829312644550E-002   8.8941120514930607E-007
   3.1622776601683791E-002   7.5504229846734735E-007
   3.5481338923357530E-002   6.4441241901312104E-007
   3.9810717055349734E-002   5.5258441138935246E-007
   4.4668359215096300E-002   4.7576625947849972E-007
   5.0118723362727248E-002   4.1102392912324562E-007
   5.6234132519034911E-002   3.5607149243197251E-007
   6.3095734448019303E-002   3.0911644400849147E-007
   7.0794578438413802E-002   2.6874475221764828E-007
   7.9432823472428138E-002   2.3383473854244165E-007
   8.9125093813374592E-002   2.0349202660653432E-007
  0.10000000000000001        1.7699999999999990E-007
  0.11220184543019630        1.5401804082759260E-007
  0.12589254117941662        1.3425698505900628E-007
  0.14125375446227553        1.1724697739429292E-007
  0.15848931924611143        1.0258843225245478E-007
  0.17782794100389229        8.9941392112930380E-008
  0.19952623149688789        7.9016501083335246E-008
  0.22387211385683378        6.9567350627991924E-008
  0.25118864315095824        6.1383990198656165E-008
  0.28183829312644548        5.4287426243145306E-008
  0.31622776601683794        4.8124959400526814E-008
  0.35481338923357530        4.2766232216222327E-008
  0.39810717055349693        3.8099878948500776E-008
  0.44668359215096348        3.4030685446258307E-008
  0.50118723362727247        3.0477181055361402E-008
  0.56234132519034907        2.7369596403772241E-008
  0.63095734448019303        2.4648131024646520E-008
  0.70794578438413736        2.2261483361256410E-008
  0.79432823472428216        2.0165602981826547E-008
  0.89125093813374590        1.8322631008709215E-008
   1.0000000000000000        1.6700000000000001E-008
