   1.0000000000000006E-005   3419.9999999999986     
   1.1220184543019630E-005   2445.9125675318983     
   1.2589254117941661E-005   1750.5815373669225     
   1.4125375446227555E-005   1253.8672257264345     
   1.5848931924611141E-005   898.77244230698511     
   1.7782794100389229E-005   644.73037870600979     
   1.9952623149688786E-005   462.84748460595256     
   2.2387211385683379E-005   332.52956803149732     
   2.5118864315095822E-005   239.08724829674347     
   2.8183829312644549E-005   172.03528967131982     
   3.1622776601683795E-005   123.88389603648470     
   3.5481338923357534E-005   89.279047542579619     
   3.9810717055349695E-005   64.390651882180549     
   4.4668359215096348E-005   46.476763133926042     
   5.0118723362727251E-005   33.572980932671683     
   5.6234132519034907E-005   24.270912791565284     
   6.3095734448019293E-005   17.560047677280785     
   7.0794578438413731E-005   12.714809137606110     
   7.9432823472428221E-005   9.2138210334985278     
   8.9125093813374588E-005   6.6821569264557805     
   1.0000000000000005E-004   4.8499999999999996     
   1.1220184543019630E-004   3.5350178572618800     
   1.2589254117941674E-004   2.5943522543929589     
   1.4125375446227541E-004   1.9150669267631215     
   1.5848931924611142E-004   1.4203221988472672     
   1.7782794100389227E-004   1.0572262156490493     
   1.9952623149688788E-004  0.78896425314369745     
   2.2387211385683400E-004  0.58963778652676146     
   2.5118864315095795E-004  0.44084111295569156     
   2.8183829312644550E-004  0.32936534305143245     
   3.1622776601683794E-004  0.24564218889275996     
   3.5481338923357532E-004  0.18267852334701454     
   3.9810717055349735E-004  0.13531991754949629     
   4.4668359215096305E-004   9.9736903123969808E-002
   5.0118723362727253E-004   7.3063450791337525E-002
   5.6234132519034910E-004   5.3140403993450568E-002
   6.3095734448019298E-004   3.8331879836272821E-002
   7.0794578438413802E-004   2.7392785895614842E-002
   7.9432823472428131E-004   1.9372395674908675E-002
   8.9125093813374593E-004   1.3543525362927661E-002
   1.0000000000000002E-003   9.3500000000000007E-003
   1.1220184543019630E-003   6.2551374521441242E-003
   1.2589254117941675E-003   3.9989979475243444E-003
   1.4125375446227540E-003   2.4585530014606641E-003
   1.5848931924611141E-003   1.4626722853383566E-003
   1.7782794100389228E-003   8.4738065642767644E-004
   1.9952623149688789E-003   4.8105984675918793E-004
   2.2387211385683399E-003   2.6929836302940077E-004
   2.5118864315095794E-003   1.4959165038890348E-004
   2.8183829312644548E-003   8.2974572200634567E-005
   3.1622776601683794E-003   4.6245737692694225E-005
   3.5481338923357532E-003   2.6062280539887052E-005
   3.9810717055349734E-003   1.4944869473685776E-005
   4.4668359215096305E-003   8.7747719355310666E-006
   5.0118723362727246E-003   5.3084599119877955E-006
   5.6234132519034910E-003   3.3297776408123860E-006
   6.3095734448019303E-003   2.1792191299974716E-006
   7.0794578438413804E-003   1.4974438440374154E-006
   7.9432823472428138E-003   1.0871492039139638E-006
   8.9125093813374589E-003   8.3915409411748227E-007
   1.0000000000000002E-002   6.9299999999999976E-007
   1.1220184543019630E-002   5.9540370024291711E-007
   1.2589254117941675E-002   5.1529388089818071E-007
   1.4125375446227540E-002   4.4914278798706116E-007
   1.5848931924611141E-002   3.9420369710711408E-007
   1.7782794100389229E-002   3.4832496414070090E-007
   1.9952623149688788E-002   3.0981110630345838E-007
   2.2387211385683399E-002   2.7731838706984837E-007
   2.5118864315095794E-002   2.4977586879942789E-007
   2.8183829312644550E-002   2.2632537498158656E-007
   3.1622776601683791E-002   2.0627557417868121E-007
   3.5481338923357530E-002   1.8906666975712582E-007
   3.9810717055349734E-002   1.7424309887455246E-007
   4.4668359215096300E-002   1.6143231248973677E-007
   5.0118723362727248E-002   1.5032819666309619E-007
   5.6234132519034911E-002   1.4067805444275613E-007
   6.3095734448019303E-002   1.3227233291143844E-007
   7.0794578438413802E-002   1.2493647700707276E-007
   7.9432823472428138E-002   1.1852443883000270E-007
   8.9125093813374592E-002   1.1291348151941038E-007
  0.10000000000000001        1.0799999999999993E-007
  0.11220184543019630        1.0351651848722067E-007
  0.12589254117941662        9.9261083719653752E-008
  0.14125375446227553        9.5238839615434587E-008
  0.15848931924611143        9.1452836459781454E-008
  0.17782794100389229        8.7904385066356268E-008
  0.19952623149688789        8.4593394085207473E-008
  0.22387211385683378        8.1518688519792287E-008
  0.25118864315095824        7.8678308742632249E-008
  0.28183829312644548        7.6069790374115379E-008
  0.31622776601683794        7.3690426327528374E-008
  0.35481338923357530        7.1537513147450895E-008
  0.39810717055349693        6.9608584505019133E-008
  0.44668359215096348        6.7901635393372286E-008
  0.50118723362727247        6.6415341224861462E-008
  0.56234132519034907        6.5149276707555941E-008
  0.63095734448019303        6.4104140116362138E-008
  0.70794578438413736        6.3281989424192707E-008
  0.79432823472428216        6.2686497780029623E-008
  0.89125093813374590        6.2323237083915535E-008
   1.0000000000000000        6.2199999999999948E-008
