   1.0000000000000006E-005   18100.000000000000     
   1.1220184543019630E-005   15263.262912627684     
   1.2589254117941661E-005   12774.506671115316     
   1.4125375446227555E-005   10613.498961415642     
   1.5848931924611141E-005   8755.4902312251616     
   1.7782794100389229E-005   7172.9787701172918     
   1.9952623149688786E-005   5837.2133156405744     
   2.2387211385683379E-005   4719.4161541113726     
   2.5118864315095822E-005   3791.7301862733734     
   2.8183829312644549E-005   3027.9086466125923     
   3.1622776601683795E-005   2403.7763111472641     
   3.5481338923357534E-005   1897.4966779393790     
   3.9810717055349695E-005   1489.6815459187892     
   4.4668359215096348E-005   1163.3785213579167     
   5.0118723362727251E-005   903.96909925649800     
   5.6234132519034907E-005   699.00586291855325     
   6.3095734448019293E-005   538.01265520184575     
   7.0794578438413731E-005   412.26679172889573     
   7.9432823472428221E-005   314.57786099332321     
   8.9125093813374588E-005   239.07361337936018     
   1.0000000000000005E-004   181.00000000000003     
   1.1220184543019630E-004   136.04442656498006     
   1.2589254117941674E-004   101.18829165169036     
   1.4125375446227541E-004   74.513893258905767     
   1.5848931924611142E-004   54.351543403357354     
   1.7782794100389227E-004   39.288395532039665     
   1.9952623149688788E-004   28.158184113930638     
   2.2387211385683400E-004   20.019032564168672     
   2.5118864315095795E-004   14.125042747367530     
   2.8183829312644550E-004   9.8958898111681677     
   3.1622776601683794E-004   6.8872917178634641     
   3.5481338923357532E-004   4.7640993039254642     
   3.9810717055349735E-004   3.2768909152608190     
   4.4668359215096305E-004   2.2423436303523179     
   5.0118723362727253E-004   1.5272548269749699     
   5.6234132519034910E-004   1.0358578317853213     
   6.3095734448019298E-004  0.69996812246444440     
   7.0794578438413802E-004  0.47147208385184164     
   7.9432823472428131E-004  0.31669664958774363     
   8.9125093813374593E-004  0.21225155074368884     
   1.0000000000000002E-003  0.14200000000000002     
   1.1220184543019630E-003   9.3376559023725519E-002
   1.2589254117941675E-003   5.9577923757291353E-002
   1.4125375446227540E-003   3.7042212086423248E-002
   1.5848931924611141E-003   2.2539204770127965E-002
   1.7782794100389228E-003   1.3479583217769632E-002
   1.9952623149688789E-003   7.9574993804122276E-003
   2.2387211385683399E-003   4.6569879182776193E-003
   2.5118864315095794E-003   2.7134887904134014E-003
   2.8183829312644548E-003   1.5809256636968615E-003
   3.1622776601683794E-003   9.2495677707460410E-004
   3.5481338923357532E-003   5.4578811434365289E-004
   3.9810717055349734E-003   3.2620110577850475E-004
   4.4668359215096305E-003   1.9832231280645163E-004
   5.0118723362727246E-003   1.2318238169483294E-004
   5.6234132519034910E-003   7.8502332008932542E-005
   6.3095734448019303E-003   5.1551289954755750E-005
   7.0794578438413804E-003   3.5033667798483925E-005
   7.9432823472428138E-003   2.4744965012787235E-005
   8.9125093813374589E-003   1.8243548729138555E-005
   1.0000000000000002E-002   1.4099999999999992E-005
   1.1220184543019630E-002   1.1225544406566811E-005
   1.2589254117941675E-002   9.0188224554134281E-006
   1.4125375446227540E-002   7.3103656418118630E-006
   1.5848931924611141E-002   5.9767887997308334E-006
   1.7782794100389229E-002   4.9275266131928081E-006
   1.9952623149688788E-002   4.0955762667227507E-006
   2.2387211385683399E-002   3.4309843571242201E-006
   2.5118864315095794E-002   2.8962286852226253E-006
   2.8183829312644550E-002   2.4629186461002102E-006
   3.1622776601683791E-002   2.1094201840311742E-006
   3.5481338923357530E-002   1.8191338427154803E-006
   3.9810717055349734E-002   1.5792374938432418E-006
   4.4668359215096300E-002   1.3797620229016022E-006
   5.0118723362727248E-002   1.2129072353161652E-006
   5.6234132519034911E-002   1.0725322415030047E-006
   6.3095734448019303E-002   9.5377340241576184E-007
   7.0794578438413802E-002   8.5275613052273941E-007
   7.9432823472428138E-002   7.6637617788223083E-007
   8.9125093813374592E-002   6.9213268299174925E-007
  0.10000000000000001        6.2800000000000059E-007
  0.11220184543019630        5.7139112673761412E-007
  0.12589254117941662        5.2051925383992888E-007
  0.14125375446227553        4.7487593957889997E-007
  0.15848931924611143        4.3398447698118524E-007
  0.17782794100389229        3.9740148901450046E-007
  0.19952623149688789        3.6471754078000106E-007
  0.22387211385683378        3.3555698230664459E-007
  0.25118864315095824        3.0957720844401370E-007
  0.28183829312644548        2.8646749590270595E-007
  0.31622776601683794        2.6594755265669060E-007
  0.35481338923357530        2.4776589233739935E-007
  0.39810717055349693        2.3169812629732336E-007
  0.44668359215096348        2.1754524889315776E-007
  0.50118723362727247        2.0513197729279090E-007
  0.56234132519034907        1.9430519572075300E-007
  0.63095734448019303        1.8493254545743858E-007
  0.70794578438413736        1.7690119603129840E-007
  0.79432823472428216        1.7011682985658057E-007
  0.89125093813374590        1.6450287210561510E-007
   1.0000000000000000        1.6000000000000008E-007
