   1.0000000000000006E-005   4570.0000000000018     
   1.1220184543019630E-005   3542.9021623983035     
   1.2589254117941661E-005   2735.6812442450064     
   1.4125375446227555E-005   2104.0781653843478     
   1.5848931924611141E-005   1612.0368245241038     
   1.7782794100389229E-005   1230.3578039806869     
   1.9952623149688786E-005   935.53049434216462     
   2.2387211385683379E-005   708.73060502701674     
   2.5118864315095822E-005   534.96801176353051     
   2.8183829312644549E-005   402.36898580516765     
   3.1622776601683795E-005   301.57678593996485     
   3.5481338923357534E-005   225.25514189474458     
   3.9810717055349695E-005   167.68012240320385     
   4.4668359215096348E-005   124.40710504892253     
   5.0118723362727251E-005   92.000923737426035     
   5.6234132519034907E-005   67.818669060884190     
   6.3095734448019293E-005   49.835988501241360     
   7.0794578438413731E-005   36.509030485669896     
   7.9432823472428221E-005   26.665369206303104     
   8.9125093813374588E-005   19.418319794920382     
   1.0000000000000005E-004   14.100000000000000     
   1.1220184543019630E-004   10.204541377222137     
   1.2589254117941674E-004   7.3574309591708964     
   1.4125375446227541E-004   5.2844009688321885     
   1.5848931924611142E-004   3.7807741302821980     
   1.7782794100389227E-004   2.6943849276578016     
   1.9952623149688788E-004   1.9125421893822812     
   2.2387211385683400E-004   1.3521143484711080     
   2.5118864315095795E-004  0.95201846052312200     
   2.8183829312644550E-004  0.66755246926661205     
   3.1622776601683794E-004  0.46613538225056828     
   3.5481338923357532E-004  0.32411855634479098     
   3.9810717055349735E-004  0.22440856216239544     
   4.4668359215096305E-004  0.15470244901149705     
   5.0118723362727253E-004  0.10618318071312935     
   5.6234132519034910E-004   7.2559383739018310E-002
   6.3095734448019298E-004   4.9361607165378310E-002
   7.0794578438413802E-004   3.3428846094870943E-002
   7.9432823472428131E-004   2.2535562664277430E-002
   8.9125093813374593E-004   1.5121988012314498E-002
   1.0000000000000002E-003   1.0100000000000001E-002
   1.1220184543019630E-003   6.6169403996452110E-003
   1.2589254117941675E-003   4.2031471028357095E-003
   1.4125375446227540E-003   2.6002325822781433E-003
   1.5848931924611141E-003   1.5736522333933600E-003
   1.7782794100389228E-003   9.3584303116171503E-004
   1.9952623149688789E-003   5.4933043581020617E-004
   2.2387211385683399E-003   3.1969764518004434E-004
   2.5118864315095794E-003   1.8529301942439913E-004
   2.8183829312644548E-003   1.0743140269388923E-004
   3.1622776601683794E-003   6.2588525762468397E-005
   3.5481338923357532E-003   3.6803422502680526E-005
   3.9810717055349734E-003   2.1940697173663418E-005
   4.4668359215096305E-003   1.3320486636531930E-005
   5.0118723362727246E-003   8.2724839310691131E-006
   5.6234132519034910E-003   5.2788177430969106E-006
   6.3095734448019303E-003   3.4766503787613677E-006
   7.0794578438413804E-003   2.3738195782635731E-006
   7.9432823472428138E-003   1.6878562415445661E-006
   8.9125093813374589E-003   1.2553446622121374E-006
   1.0000000000000002E-002   9.8099999999999916E-007
   1.1220184543019630E-002   7.9197451358150175E-007
   1.2589254117941675E-002   6.4717483595409654E-007
   1.4125375446227540E-002   5.3487283573242419E-007
   1.5848931924611141E-002   4.4673322239330224E-007
   1.7782794100389229E-002   3.7676021343403178E-007
   1.9952623149688788E-002   3.2059089013280194E-007
   2.2387211385683399E-002   2.7501536968184778E-007
   2.5118864315095794E-002   2.3764719084047637E-007
   2.8183829312644550E-002   2.0669435721662429E-007
   3.1622776601683791E-002   1.8079859771548473E-007
   3.5481338923357530E-002   1.5892136338235940E-007
   3.9810717055349734E-002   1.4026217831650590E-007
   4.4668359215096300E-002   1.2419961072563574E-007
   5.0118723362727248E-002   1.1024820660436197E-007
   5.6234132519034911E-002   9.8026785530772586E-008
   6.3095734448019303E-002   8.7234887270215753E-008
   7.0794578438413802E-002   7.7635105373992195E-008
   7.9432823472428138E-002   6.9039696721409567E-008
   8.9125093813374592E-002   6.1300310459847714E-008
  0.10000000000000001        5.4300000000000023E-008
  0.11220184543019630        4.8061661316792140E-008
  0.12589254117941662        4.2598440629354470E-008
  0.14125375446227553        3.7809723189699276E-008
  0.15848931924611143        3.3608340432518741E-008
  0.17782794100389229        2.9918740778400979E-008
  0.19952623149688789        2.6675411494695396E-008
  0.22387211385683378        2.3821517147782816E-008
  0.25118864315095824        2.1307724870739665E-008
  0.28183829312644548        1.9091190734876868E-008
  0.31622776601683794        1.7134685033004347E-008
  0.35481338923357530        1.5405837327365152E-008
  0.39810717055349693        1.3876484748093040E-008
  0.44668359215096348        1.2522109303143825E-008
  0.50118723362727247        1.1321351925433298E-008
  0.56234132519034907        1.0255592678827525E-008
  0.63095734448019303        9.3085880077912375E-009
  0.70794578438413736        8.4661571773186414E-009
  0.79432823472428216        7.7159111375628962E-009
  0.89125093813374590        7.0470179850434670E-009
   1.0000000000000000        6.4500000000000098E-009
