   1.0000000000000006E-005   6100.0000000000018     
   1.1220184543019630E-005   4828.3612239315971     
   1.2589254117941661E-005   3802.4941463258365     
   1.4125375446227555E-005   2979.7355875459207     
   1.5848931924611141E-005   2323.6395794948226     
   1.7782794100389229E-005   1803.3630111235670     
   1.9952623149688786E-005   1393.0361775104625     
   2.2387211385683379E-005   1071.1442711123063     
   2.5118864315095822E-005   819.93867276322692     
   2.8183829312644549E-005   624.89074102635027     
   3.1622776601683795E-005   474.19570693308424     
   3.5481338923357534E-005   358.33022769001258     
   3.9810717055349695E-005   269.66405678701250     
   4.4668359215096348E-005   202.12403672796017     
   5.0118723362727251E-005   150.90708662623470     
   5.6234132519034907E-005   112.23790958038332     
   6.3095734448019293E-005   83.166659497489277     
   7.0794578438413731E-005   61.401671075164792     
   7.9432823472428221E-005   45.172472202666100     
   8.9125093813374588E-005   33.118583545161300     
   1.0000000000000005E-004   24.200000000000003     
   1.1220184543019630E-004   17.605100683646185     
   1.2589254117941674E-004   12.736949494324337     
   1.4125375446227541E-004   9.1648047482825703     
   1.5848931924611142E-004   6.5590205893128584     
   1.7782794100389227E-004   4.6691719590235525     
   1.9952623149688788E-004   3.3063814118169077     
   2.2387211385683400E-004   2.3291923261084850     
   2.5118864315095795E-004   1.6323909507775800     
   2.8183829312644550E-004   1.1382470803042346     
   3.1622776601683794E-004  0.78971349603829666     
   3.5481338923357532E-004  0.54519307918616777     
   3.9810717055349735E-004  0.37454670215529906     
   4.4668359215096305E-004  0.25607288854044846     
   5.0118723362727253E-004  0.17424098324827783     
   5.6234132519034910E-004  0.11800304822474339     
   6.3095734448019298E-004   7.9546202110925182E-002
   7.0794578438413802E-004   5.3377237486261213E-002
   7.9432823472428131E-004   3.5655806836377250E-002
   8.9125093813374593E-004   2.3712049045193404E-002
   1.0000000000000002E-003   1.5700000000000002E-002
   1.1220184543019630E-003   1.0189553321331512E-002
   1.2589254117941675E-003   6.4017174276469659E-003
   1.4125375446227540E-003   3.9114921655798197E-003
   1.5848931924611141E-003   2.3351339017967584E-003
   1.7782794100389228E-003   1.3684320059153263E-003
   1.9952623149688789E-003   7.9085254622872510E-004
   2.2387211385683399E-003   4.5284275182897517E-004
   2.5118864315095794E-003   2.5810575254001995E-004
   2.8183829312644548E-003   1.4711774401421145E-004
   3.1622776601683794E-003   8.4249685512744184E-005
   3.5481338923357532E-003   4.8699682454815867E-005
   3.9810717055349734E-003   2.8546793235843819E-005
   4.4668359215096305E-003   1.7048282701510198E-005
   5.0118723362727246E-003   1.0421129821319743E-005
   5.6234132519034910E-003   6.5505623174762544E-006
   6.3095734448019303E-003   4.2539337062575701E-006
   7.0794578438413804E-003   2.8672790460219890E-006
   7.9432823472428138E-003   2.0152784579719369E-006
   8.9125093813374589E-003   1.4839004702021286E-006
   1.0000000000000002E-002   1.1500000000000004E-006
   1.1220184543019630E-002   9.2118300749108667E-007
   1.2589254117941675E-002   7.4636388571939327E-007
   1.4125375446227540E-002   6.1127358022432922E-007
   1.5848931924611141E-002   5.0573688880869143E-007
   1.7782794100389229E-002   4.2241694031006743E-007
   1.9952623149688788E-002   3.5596671947452568E-007
   2.2387211385683399E-002   3.0244926283607264E-007
   2.5118864315095794E-002   2.5893718214538993E-007
   2.8183829312644550E-002   2.2323318029914495E-007
   3.1622776601683791E-002   1.9367305621456171E-007
   3.5481338923357530E-002   1.6898551687022687E-007
   3.9810717055349734E-002   1.4819149206288006E-007
   4.4668359215096300E-002   1.3053117684169761E-007
   5.0118723362727248E-002   1.1541071231215097E-007
   5.6234132519034911E-002   1.0236289577434453E-007
   6.3095734448019303E-002   9.1017995670278039E-008
   7.0794578438413802E-002   8.1081901129411609E-008
   7.9432823472428138E-002   7.2319633806700753E-008
   8.9125093813374592E-002   6.4542805979433890E-008
  0.10000000000000001        5.7599999999999973E-008
  0.11220184543019630        5.1431762939640301E-008
  0.12589254117941662        4.5998100632673451E-008
  0.14125375446227553        4.1209053852412919E-008
  0.15848931924611143        3.6985742339643941E-008
  0.17782794100389229        3.3259038072765972E-008
  0.19952623149688789        2.9968387286781508E-008
  0.22387211385683378        2.7060766907964674E-008
  0.25118864315095824        2.4489761960804817E-008
  0.28183829312644548        2.2214751452368733E-008
  0.31622776601683794        2.0200191211430994E-008
  0.35481338923357530        1.8414983128634855E-008
  0.39810717055349693        1.6831921189404170E-008
  0.44668359215096348        1.5427205598825512E-008
  0.50118723362727247        1.4180017157307538E-008
  0.56234132519034907        1.3072144851233980E-008
  0.63095734448019303        1.2087660370693452E-008
  0.70794578438413736        1.1212633955574768E-008
  0.79432823472428216        1.0434886602466294E-008
  0.89125093813374590        9.7437742397663426E-009
   1.0000000000000000        9.1300000000000030E-009
