   1.0000000000000006E-005   17699.999999999989     
   1.1220184543019630E-005   14698.293917467432     
   1.2589254117941661E-005   12138.555466238966     
   1.4125375446227555E-005   9970.7410582158227     
   1.5848931924611141E-005   8147.0832099796708     
   1.7782794100389229E-005   6622.8524979301665     
   1.9952623149688786E-005   5356.8583488915165     
   2.2387211385683379E-005   4311.7276824206747     
   2.5118864315095822E-005   3454.0013284611018     
   2.8183829312644549E-005   2754.0867994332461     
   3.1622776601683795E-005   2186.1030334801681     
   3.5481338923357534E-005   1727.6487200849508     
   3.9810717055349695E-005   1359.5212616178851     
   4.4668359215096348E-005   1065.4087104334801     
   5.0118723362727251E-005   831.57245054295061     
   5.6234132519034907E-005   646.53417530045704     
   6.3095734448019293E-005   500.77697876197050     
   7.0794578438413731E-005   386.46719398373199     
   7.9432823472428221E-005   297.20099125163722     
   8.9125093813374588E-005   227.77767071641026     
   1.0000000000000005E-004   174.00000000000009     
   1.1220184543019630E-004   132.31772437565479     
   1.2589254117941674E-004   100.03361491831848     
   1.4125375446227541E-004   75.188173798949109     
   1.5848931924611142E-004   56.188211928780561     
   1.7782794100389227E-004   41.749324887556703     
   1.9952623149688788E-004   30.844571459282196     
   2.2387211385683400E-004   22.659458705686671     
   2.5118864315095795E-004   16.553060279801436     
   2.8183829312644550E-004   12.024900886201243     
   3.1622776601683794E-004   8.6871161056540736     
   3.5481338923357532E-004   6.2413297247638937     
   3.9810717055349735E-004   4.4596674534798479     
   4.4668359215096305E-004   3.1693349607904882     
   5.0118723362727253E-004   2.2402195972794967     
   5.6234132519034910E-004   1.5750208096577447     
   6.3095734448019298E-004   1.1014675878787676     
   7.0794578438413802E-004  0.76623738546139519     
   7.9432823472428131E-004  0.53024625755694776     
   8.9125093813374593E-004  0.36503206295617335     
   1.0000000000000002E-003  0.25000000000000000     
   1.1220184543019630E-003  0.16782667797792969     
   1.2589254117941675E-003  0.10911649259507239     
   1.4125375446227540E-003   6.9008836171327081E-002
   1.5848931924611141E-003   4.2636388403189451E-002
   1.7782794100389228E-003   2.5846040074601850E-002
   1.9952623149688789E-003   1.5439101034384398E-002
   2.2387211385683399E-003   9.1272698985556799E-003
   2.5118864315095794E-003   5.3632391181850847E-003
   2.8183829312644548E-003   3.1459897726238495E-003
   3.1622776601683794E-003   1.8501537789021025E-003
   3.5481338923357532E-003   1.0956080579847163E-003
   3.9810717055349734E-003   6.5610896803272676E-004
   4.4668359215096305E-003   3.9906771217287511E-004
   5.0118723362727246E-003   2.4759596631659361E-004
   5.6234132519034910E-003   1.5737777144830809E-004
   6.3095734448019303E-003   1.0292540033457468E-004
   7.0794578438413804E-003   6.9559681021002113E-005
   7.9432823472428138E-003   4.8789339351067392E-005
   8.9125093813374589E-003   3.5669837212638389E-005
   1.0000000000000002E-002   2.7300000000000027E-005
   1.1220184543019630E-002   2.1527084857769851E-005
   1.2589254117941675E-002   1.7157088941269397E-005
   1.4125375446227540E-002   1.3813788901528710E-005
   1.5848931924611141E-002   1.1229693116436735E-005
   1.7782794100389229E-002   9.2126346897290968E-006
   1.9952623149688788E-002   7.6231721985045092E-006
   2.2387211385683399E-002   6.3591424790133902E-006
   2.5118864315095794E-002   5.3449956403340079E-006
   2.8183829312644550E-002   4.5243600349132327E-006
   3.1622776601683791E-002   3.8548101198431822E-006
   3.5481338923357530E-002   3.3041509708273592E-006
   3.9810717055349734E-002   2.8477565679077819E-006
   4.4668359215096300E-002   2.4666467455686868E-006
   5.0118723362727248E-002   2.1460863741270427E-006
   5.6234132519034911E-002   1.8745568211953681E-006
   6.3095734448019303E-002   1.6429949254689404E-006
   7.0794578438413802E-002   1.4442256837531770E-006
   7.9432823472428138E-002   1.2725362528040393E-006
   8.9125093813374592E-002   1.1233537747564493E-006
  0.10000000000000001        9.9300000000000070E-007
  0.11220184543019630        8.7895488526083290E-007
  0.12589254117941662        7.7939049343422142E-007
  0.14125375446227553        6.9242409972118290E-007
  0.15848931924611143        6.1641778924472199E-007
  0.17782794100389229        5.4994775897110733E-007
  0.19952623149688789        4.9177716735574756E-007
  0.22387211385683378        4.4083219414194131E-007
  0.25118864315095824        3.9618098853542141E-007
  0.28183829312644548        3.5701520329666579E-007
  0.31622776601683794        3.2263383373474185E-007
  0.35481338923357530        2.9242910305958205E-007
  0.39810717055349693        2.6587415822329623E-007
  0.44668359215096348        2.4251236264121650E-007
  0.50118723362727247        2.2194799359227254E-007
  0.56234132519034907        2.0383817236057151E-007
  0.63095734448019303        1.8788587411315329E-007
  0.70794578438413736        1.7383388201775539E-007
  0.79432823472428216        1.6145956616151757E-007
  0.89125093813374590        1.5057038245944683E-007
   1.0000000000000000        1.4099999999999993E-007
