   1.0000000000000006E-005   2930.0000000000009     
   1.1220184543019630E-005   2080.2240505649957     
   1.2589254117941661E-005   1478.5869056474614     
   1.4125375446227555E-005   1052.1572718743491     
   1.5848931924611141E-005   749.57370336905035     
   1.7782794100389229E-005   534.62678335303883     
   1.9952623149688786E-005   381.76189994226007     
   2.2387211385683379E-005   272.92465467055308     
   2.5118864315095822E-005   195.34580224796443     
   2.8183829312644549E-005   139.98430244111631     
   3.1622776601683795E-005   100.43182287878966     
   3.5481338923357534E-005   72.141126531147989     
   3.9810717055349695E-005   51.882019644397758     
   4.4668359215096348E-005   37.357346469354738     
   5.0118723362727251E-005   26.931663048648534     
   5.6234132519034907E-005   19.439323297599362     
   6.3095734448019293E-005   14.048590207231220     
   7.0794578438413731E-005   10.165313823022542     
   7.9432823472428221E-005   7.3645818674838193     
   8.9125093813374588E-005   5.3421670988033156     
   1.0000000000000005E-004   3.8800000000000003     
   1.1220184543019630E-004   2.8317211307704078     
   1.2589254117941674E-004   2.0825608878064976     
   1.4125375446227541E-004   1.5416037249918662     
   1.5848931924611142E-004   1.1472946240639670     
   1.7782794100389227E-004  0.85743987710516090     
   1.9952623149688788E-004  0.64277393088238743     
   2.2387211385683400E-004  0.48276751300555293     
   2.5118864315095795E-004  0.36286273734270780     
   2.8183829312644550E-004  0.27262809386898368     
   3.1622776601683794E-004  0.20451355048008166     
   3.5481338923357532E-004  0.15300166725572995     
   3.9810717055349735E-004  0.11402292535466246     
   4.4668359215096305E-004   8.4549196061144125E-002
   5.0118723362727253E-004   6.2308517856442362E-002
   5.6234132519034910E-004   4.5583255731165465E-002
   6.3095734448019298E-004   3.3066070707113551E-002
   7.0794578438413802E-004   2.3756284369564642E-002
   7.9432823472428131E-004   1.6884665586500917E-002
   8.9125093813374593E-004   1.1858336825506188E-002
   1.0000000000000002E-003   8.2200000000000033E-003
   1.1220184543019630E-003   5.5173184906698626E-003
   1.2589254117941675E-003   3.5356424819458334E-003
   1.4125375446227540E-003   2.1770508859760476E-003
   1.5848931924611141E-003   1.2962974337032845E-003
   1.7782794100389228E-003   7.5119464366493510E-004
   1.9952623149688789E-003   4.2637127714661007E-004
   2.2387211385683399E-003   2.3855412516008909E-004
   2.5118864315095794E-003   1.3241139174234053E-004
   2.8183829312644548E-003   7.3380234421843853E-005
   3.1622776601683794E-003   4.0862417857137884E-005
   3.5481338923357532E-003   2.3011034508876700E-005
   3.9810717055349734E-003   1.3188373574537496E-005
   4.4668359215096305E-003   7.7422153499148666E-006
   5.0118723362727246E-003   4.6852639197311579E-006
   5.6234132519034910E-003   2.9415319798022543E-006
   6.3095734448019303E-003   1.9282337823931999E-006
   7.0794578438413804E-003   1.3282147381405081E-006
   7.9432823472428138E-003   9.6755417940682460E-007
   8.9125093813374589E-003   7.5016462127025203E-007
   1.0000000000000002E-002   6.2299999999999948E-007
   1.1220184543019630E-002   5.3850054137788084E-007
   1.2589254117941675E-002   4.6867843953248836E-007
   1.4125375446227540E-002   4.1066900183052087E-007
   1.5848931924611141E-002   3.6222162053137365E-007
   1.7782794100389229E-002   3.2155828073402037E-007
   1.9952623149688788E-002   2.8726670420141439E-007
   2.2387211385683399E-002   2.5821920135226539E-007
   2.5118864315095794E-002   2.3351071101290139E-007
   2.8183829312644550E-002   2.1241123922829346E-007
   3.1622776601683791E-002   1.9432916107053439E-007
   3.5481338923357530E-002   1.7878276042409579E-007
   3.9810717055349734E-002   1.6537804886272659E-007
   4.4668359215096300E-002   1.5379139434613986E-007
   5.0118723362727248E-002   1.4375585217715525E-007
   5.6234132519034911E-002   1.3505035922404068E-007
   6.3095734448019303E-002   1.2749115279596899E-007
   7.0794578438413802E-002   1.2092492579023253E-007
   7.9432823472428138E-002   1.1522334289071038E-007
   8.9125093813374592E-002   1.1027862822778076E-007
  0.10000000000000001        1.0600000000000004E-007
  0.11220184543019630        1.0212252308574680E-007
  0.12589254117941662        9.8437669340727170E-008
  0.14125375446227553        9.4949074746931483E-008
  0.15848931924611143        9.1659037375485803E-008
  0.17782794100389229        8.8568746780747758E-008
  0.19952623149688789        8.5678503561450435E-008
  0.22387211385683378        8.2987928360703361E-008
  0.25118864315095824        8.0496160198617520E-008
  0.28183829312644548        7.8202044587834144E-008
  0.31622776601683794        7.6104312381866035E-008
  0.35481338923357530        7.4201750760055698E-008
  0.39810717055349693        7.2493368174516922E-008
  0.44668359215096348        7.0978555489143028E-008
  0.50118723362727247        6.9657245946181808E-008
  0.56234132519034907        6.8530077021845092E-008
  0.63095734448019303        6.7598557701510665E-008
  0.70794578438413736        6.6865245243288309E-008
  0.79432823472428216        6.6333936136486492E-008
  0.89125093813374590        6.6009876735122220E-008
   1.0000000000000000        6.5899999999999975E-008
