   1.0000000000000006E-005   4260.0000000000000     
   1.1220184543019630E-005   3308.5605799226005     
   1.2589254117941661E-005   2559.0885682002863     
   1.4125375446227555E-005   1971.4069422407597     
   1.5848931924611141E-005   1512.6553600811453     
   1.7782794100389229E-005   1156.1240861148358     
   1.9952623149688786E-005   880.23303256477561     
   2.2387211385683379E-005   667.64812758515916     
   2.5118864315095822E-005   504.52463101806330     
   2.8183829312644549E-005   379.86552605563219     
   3.1622776601683795E-005   284.98248269882021     
   3.5481338923357534E-005   213.04690531641580     
   3.9810717055349695E-005   158.71905915422903     
   4.4668359215096348E-005   117.84406686354043     
   5.0118723362727251E-005   87.204552842050902     
   5.6234132519034907E-005   64.320794262375813     
   6.3095734448019293E-005   47.290340871130617     
   7.0794578438413731E-005   34.660139163857252     
   7.9432823472428221E-005   25.325205427386987     
   8.9125093813374588E-005   18.448814914506073     
   1.0000000000000005E-004   13.400000000000002     
   1.1220184543019630E-004   9.6998273308412557     
   1.2589254117941674E-004   6.9938626584703094     
   1.4125375446227541E-004   5.0227958770868639     
   1.5848931924611142E-004   3.5927809031005351     
   1.7782794100389227E-004   2.5594942317203024     
   1.9952623149688788E-004   1.8159221893975097     
   2.2387211385683400E-004   1.2830436054257521     
   2.5118864315095795E-004  0.90275133679174313     
   2.8183829312644550E-004  0.63249755113165629     
   3.1622776601683794E-004  0.44126042905055801     
   3.5481338923357532E-004  0.30651941339775624     
   3.9810717055349735E-004  0.21199679669987009     
   4.4668359215096305E-004  0.14597899309884946     
   5.0118723362727253E-004  0.10007431421787855     
   5.6234132519034910E-004   6.8297926275605367E-002
   6.3095734448019298E-004   4.6400909144391336E-002
   7.0794578438413802E-004   3.1380581127896288E-002
   7.9432823472428131E-004   2.1124791704082730E-002
   8.9125093813374593E-004   1.4154752898396745E-002
   1.0000000000000002E-003   9.4399999999999970E-003
   1.1220184543019630E-003   6.1750255405204043E-003
   1.2589254117941675E-003   3.9160160205295542E-003
   1.4125375446227540E-003   2.4183966351775509E-003
   1.5848931924611141E-003   1.4609198808054184E-003
   1.7782794100389228E-003   8.6712058919992808E-004
   1.9952623149688789E-003   5.0795502180805573E-004
   2.2387211385683399E-003   2.9498647862547851E-004
   2.5118864315095794E-003   1.7058800217660265E-004
   2.8183829312644548E-003   9.8674017185400019E-005
   3.1622776601683794E-003   5.7346051377857490E-005
   3.5481338923357532E-003   3.3634815048042970E-005
   3.9810717055349734E-003   1.9998518012048042E-005
   4.4668359215096305E-003   1.2107884208230771E-005
   5.0118723362727246E-003   7.4978856223621087E-006
   5.6234132519034910E-003   4.7703242564151543E-006
   6.3095734448019303E-003   3.1320880190961144E-006
   7.0794578438413804E-003   2.1317457939168414E-006
   7.9432823472428138E-003   1.5107433835143327E-006
   8.9125093813374589E-003   1.1197942867055698E-006
   1.0000000000000002E-002   8.7200000000000071E-007
   1.1220184543019630E-002   7.0136761443091956E-007
   1.2589254117941675E-002   5.7086971949511761E-007
   1.4125375446227540E-002   4.6985624563043877E-007
   1.5848931924611141E-002   3.9075479955811289E-007
   1.7782794100389229E-002   3.2811764107412710E-007
   1.9952623149688788E-002   2.7798118712725889E-007
   2.2387211385683399E-002   2.3743045096217479E-007
   2.5118864315095794E-002   2.0429946974821647E-007
   2.8183829312644550E-002   1.7696300884174396E-007
   3.1622776601683791E-002   1.5419021110639915E-007
   3.5481338923357530E-002   1.3504073387692703E-007
   3.9810717055349734E-002   1.1879032636347925E-007
   4.4668359215096300E-002   1.0487700670031357E-007
   5.0118723362727248E-002   9.2861786882020893E-008
   5.6234132519034911E-002   8.2399761721877625E-008
   6.3095734448019303E-002   7.3218641170945910E-008
   7.0794578438413802E-002   6.5102667780889223E-008
   7.9432823472428138E-002   5.7880455526621138E-008
   8.9125093813374592E-002   5.1415699894483530E-008
  0.10000000000000001        4.5600000000000025E-008
  0.11220184543019630        4.0429179877195015E-008
  0.12589254117941662        3.5898485697113337E-008
  0.14125375446227553        3.1925274837572963E-008
  0.15848931924611143        2.8437845309209675E-008
  0.17782794100389229        2.5373972616978750E-008
  0.19952623149688789        2.2679641851563521E-008
  0.22387211385683378        2.0307949390077462E-008
  0.25118864315095824        1.8218151832666051E-008
  0.28183829312644548        1.6374842662849473E-008
  0.31622776601683794        1.4747239635288542E-008
  0.35481338923357530        1.3308568102538025E-008
  0.39810717055349693        1.2035527426513115E-008
  0.44668359215096348        1.0907829311998557E-008
  0.50118723362727247        9.9077983767581938E-009
  0.56234132519034907        9.0200265610358037E-009
  0.63095734448019303        8.2310741012306014E-009
  0.70794578438413736        7.5292107686002820E-009
  0.79432823472428216        6.9041919220734612E-009
  0.89125093813374590        6.3470646606885529E-009
   1.0000000000000000        5.8500000000000061E-009
