   1.0000000000000006E-005   1389.9999999999995     
   1.1220184543019630E-005   984.24755110761009     
   1.2589254117941661E-005   698.10303337898756     
   1.4125375446227555E-005   495.98301095464376     
   1.5848931924611141E-005   352.98205219669131     
   1.7782794100389229E-005   251.64218525929905     
   1.9952623149688786E-005   179.70730335003154     
   2.2387211385683379E-005   128.56001537914514     
   2.5118864315095822E-005   92.131993238355363     
   2.8183829312644549E-005   66.143296410262266     
   3.1622776601683795E-005   47.570583022189979     
   3.5481338923357534E-005   34.274792771453960     
   3.9810717055349695E-005   24.740095957612059     
   4.4668359215096348E-005   17.890585518189560     
   5.0118723362727251E-005   12.961367217999673     
   5.6234132519034907E-005   9.4077683729359762     
   6.3095734448019293E-005   6.8412964735776951     
   7.0794578438413731E-005   4.9843973285313030     
   7.9432823472428221E-005   3.6384448773392242     
   8.9125093813374588E-005   2.6610577562081996     
   1.0000000000000005E-004   1.9500000000000000     
   1.1220184543019630E-004   1.4377620070762958     
   1.2589254117941674E-004   1.0701377138241046     
   1.4125375446227541E-004  0.80296376645574652     
   1.5848931924611142E-004  0.60653962164490438     
   1.7782794100389227E-004  0.46060928700696180     
   1.9952623149688788E-004  0.35117195706237653     
   2.2387211385683400E-004  0.26842559626546170     
   2.5118864315095795E-004  0.20542264797824605     
   2.8183829312644550E-004  0.15717966363966268     
   3.1622776601683794E-004  0.12008018807837811     
   3.5481338923357532E-004   9.1469577602645943E-002
   3.9810717055349735E-004   6.9377018918662103E-002
   4.4668359215096305E-004   5.2322872645798754E-002
   5.0118723362727253E-004   3.9183916854437430E-002
   5.6234132519034910E-004   2.9098310332942249E-002
   6.3095734448019298E-004   2.1398074348648457E-002
   7.0794578438413802E-004   1.5560800901866749E-002
   7.9432823472428131E-004   1.1174880048096485E-002
   8.9125093813374593E-004   7.9142688917810868E-003
   1.0000000000000002E-003   5.5200000000000006E-003
   1.1220184543019630E-003   3.7097124439782114E-003
   1.2589254117941675E-003   2.3637430630368285E-003
   1.4125375446227540E-003   1.4382440676072236E-003
   1.5848931924611141E-003   8.4168710023185746E-004
   1.7782794100389228E-003   4.7716431702036799E-004
   1.9952623149688789E-003   2.6393556042736757E-004
   2.2387211385683399E-003   1.4346764452288974E-004
   2.5118864315095794E-003   7.7187965412288555E-005
   2.8183829312644548E-003   4.1399799336990981E-005
   3.1622776601683794E-003   2.2295301409461852E-005
   3.5481338923357532E-003   1.2142507524400370E-005
   3.9810717055349734E-003   6.7359179492040798E-006
   4.4668359215096305E-003   3.8334695808756542E-006
   5.0118723362727246E-003   2.2542783116863448E-006
   5.6234132519034910E-003   1.3796114004423737E-006
   6.3095734448019303E-003   8.8502023203330429E-007
   7.0794578438413804E-003   5.9939105638898145E-007
   7.9432823472428138E-003   4.3165960118759246E-007
   8.9125093813374589E-003   3.3293548927250554E-007
   1.0000000000000002E-002   2.7699999999999979E-007
   1.1220184543019630E-002   2.4086449240836961E-007
   1.2589254117941675E-002   2.1103463371174511E-007
   1.4125375446227540E-002   1.8625136756599226E-007
   1.5848931924611141E-002   1.6553385587782292E-007
   1.7782794100389229E-002   1.4811282366587411E-007
   1.9952623149688788E-002   1.3338094917450144E-007
   2.2387211385683399E-002   1.2085568963569962E-007
   2.5118864315095794E-002   1.1015124151109262E-007
   2.8183829312644550E-002   1.0095725491230069E-007
   3.1622776601683791E-002   9.3022574462321397E-008
   3.5481338923357530E-002   8.6142744403653991E-008
   3.9810717055349734E-002   8.0150350058042257E-008
   4.4668359215096300E-002   7.4907509333582119E-008
   5.0118723362727248E-002   7.0300003657368160E-008
   5.6234132519034911E-002   6.6232666244196079E-008
   6.3095734448019303E-002   6.2625740206465503E-008
   7.0794578438413802E-002   5.9411989030354037E-008
   7.9432823472428138E-002   5.6534394063234538E-008
   8.9125093813374592E-002   5.3944312662812450E-008
  0.10000000000000001        5.1599999999999992E-008
  0.11220184543019630        4.9417506467576151E-008
  0.12589254117941662        4.7340721972290486E-008
  0.14125375446227553        4.5373103392304138E-008
  0.15848931924611143        4.3516933802005536E-008
  0.17782794100389229        4.1773505426811324E-008
  0.19952623149688789        4.0143295315378261E-008
  0.22387211385683378        3.8626132182892850E-008
  0.25118864315095824        3.7221353590613783E-008
  0.28183829312644548        3.5927953253523556E-008
  0.31622776601683794        3.4744718815371750E-008
  0.35481338923357530        3.3670360908170977E-008
  0.39810717055349693        3.2703634734177634E-008
  0.44668359215096348        3.1843455788056404E-008
  0.50118723362727247        3.1089011693077875E-008
  0.56234132519034907        3.0439872477887623E-008
  0.63095734448019303        2.9896101992145031E-008
  0.70794578438413736        2.9458373575762630E-008
  0.79432823472428216        2.9128093587206369E-008
  0.89125093813374590        2.8907536996426895E-008
   1.0000000000000000        2.8799999999999983E-008
