   1.0000000000000006E-005   4300.0000000000009     
   1.1220184543019630E-005   3336.6731439163773     
   1.2589254117941661E-005   2578.6872937970202     
   1.4125375446227555E-005   1984.9558001945302     
   1.5848931924611141E-005   1521.9398483875900     
   1.7782794100389229E-005   1162.4277377822959     
   1.9952623149688786E-005   884.47102721306601     
   2.2387211385683379E-005   670.46756001664994     
   2.5118864315095822E-005   506.37911057113575     
   2.8183829312644549E-005   381.07020040924590     
   3.1622776601683795E-005   285.75427184020509     
   3.5481338923357534E-005   213.53366422704104     
   3.9810717055349695E-005   159.02052871686308     
   4.4668359215096348E-005   118.02678968089633     
   5.0118723362727251E-005   87.312394439897687     
   5.6234132519034907E-005   64.382293900897608     
   6.3095734448019293E-005   47.323796660481520     
   7.0794578438413731E-005   34.677089552139144     
   7.9432823472428221E-005   25.332786845243852     
   8.9125093813374588E-005   18.451339840582971     
   1.0000000000000005E-004   13.400000000000002     
   1.1220184543019630E-004   9.6991715724858238     
   1.2589254117941674E-004   6.9936699261294484     
   1.4125375446227541E-004   5.0233524080040848     
   1.5848931924611142E-004   3.5939958138947872     
   1.7782794100389227E-004   2.5611456171432945     
   1.9952623149688788E-004   1.8177792426823698     
   2.2387211385683400E-004   1.2849184092839452     
   2.5118864315095795E-004  0.90451315065382409     
   2.8183829312644550E-004  0.63406900083998685     
   3.1622776601683794E-004  0.44260655204173160     
   3.5481338923357532E-004  0.30763533466308290     
   3.9810717055349735E-004  0.21289675142790168     
   4.4668359215096305E-004  0.14668769090043268     
   5.0118723362727253E-004  0.10062074035855906     
   5.6234132519034910E-004   6.8711261673364790E-002
   6.3095734448019298E-004   4.6708110110743724E-002
   7.0794578438413802E-004   3.1605160825518876E-002
   7.9432823472428131E-004   2.1286410362155204E-002
   8.9125093813374593E-004   1.4269309298774848E-002
   1.0000000000000002E-003   9.5200000000000007E-003
   1.1220184543019630E-003   6.2293897525956855E-003
   1.2589254117941675E-003   3.9516466800493038E-003
   1.4125375446227540E-003   2.4410391388209798E-003
   1.5848931924611141E-003   1.4749435435601303E-003
   1.7782794100389228E-003   8.7562883695522294E-004
   1.9952623149688789E-003   5.1303701982284501E-004
   2.2387211385683399E-003   2.9798975161484661E-004
   2.5118864315095794E-003   1.7235262945615004E-004
   2.8183829312644548E-003   9.9709937896951079E-005
   3.1622776601683794E-003   5.7956601442041121E-005
   3.5481338923357532E-003   3.3997837506253977E-005
   3.9810717055349734E-003   2.0217319806859908E-005
   4.4668359215096305E-003   1.2242208107065074E-005
   5.0118723362727246E-003   7.5822798594548517E-006
   5.6234132519034910E-003   4.8248489688575985E-006
   6.3095734448019303E-003   3.1684837432121485E-006
   7.0794578438413804E-003   2.1569648879192781E-006
   7.9432823472428138E-003   1.5289683161469233E-006
   8.9125093813374589E-003   1.1335944214251106E-006
   1.0000000000000002E-002   8.8300000000000091E-007
   1.1220184543019630E-002   7.1044039866604839E-007
   1.2589254117941675E-002   5.7845147163325187E-007
   1.4125375446227540E-002   4.7626744080710677E-007
   1.5848931924611141E-002   3.9623413151585201E-007
   1.7782794100389229E-002   3.3284516050246088E-007
   1.9952623149688788E-002   2.8209431291738086E-007
   2.2387211385683399E-002   2.4103520601220836E-007
   2.5118864315095794E-002   2.0747847330848955E-007
   2.8183829312644550E-002   1.7978123726742879E-007
   3.1622776601683791E-002   1.5669920425786189E-007
   3.5481338923357530E-002   1.3728170621458046E-007
   3.9810717055349734E-002   1.2079649762946520E-007
   4.4668359215096300E-002   1.0667537059810836E-007
   5.0118723362727248E-002   9.4474470752651110E-008
   5.6234132519034911E-002   8.3845085289739145E-008
   6.3095734448019303E-002   7.4511951174263470E-008
   7.0794578438413802E-002   6.6257003274349624E-008
   7.9432823472428138E-002   5.8907082935850399E-008
   8.9125093813374592E-002   5.2324545593245099E-008
  0.10000000000000001        4.6399999999999979E-008
  0.11220184543019630        4.1131396979791710E-008
  0.12589254117941662        3.6515372605434857E-008
  0.14125375446227553        3.2467609114223069E-008
  0.15848931924611143        2.8914965286399419E-008
  0.17782794100389229        2.5793978574455017E-008
  0.19952623149688789        2.3049567775513253E-008
  0.22387211385683378        2.0633909786807289E-008
  0.25118864315095824        1.8505467367021837E-008
  0.28183829312644548        1.6628147800933711E-008
  0.31622776601683794        1.4970574975538928E-008
  0.35481338923357530        1.3505459663140531E-008
  0.39810717055349693        1.2209054807470893E-008
  0.44668359215096348        1.1060684356123699E-008
  0.50118723362727247        1.0042335706338572E-008
  0.56234132519034907        9.1383071583861969E-009
  0.63095734448019303        8.3349029254439850E-009
  0.70794578438413736        7.6201692522905425E-009
  0.79432823472428216        6.9836660663336533E-009
  0.89125093813374590        6.4162693401845872E-009
   1.0000000000000000        5.9099999999999955E-009
