   1.0000000000000006E-005   14299.999999999987     
   1.1220184543019630E-005   12897.825799499753     
   1.2589254117941661E-005   11462.799517885132     
   1.4125375446227555E-005   10044.281452245665     
   1.5848931924611141E-005   8682.8301277974952     
   1.7782794100389229E-005   7409.3183678249634     
   1.9952623149688786E-005   6244.9648112011819     
   2.2387211385683379E-005   5202.0771588575653     
   2.5118864315095822E-005   4285.2770482834412     
   2.8183829312644549E-005   3492.9840972800885     
   3.1622776601683795E-005   2818.9681373725271     
   3.5481338923357534E-005   2253.8232140945424     
   3.9810717055349695E-005   1786.2651171286882     
   4.4668359215096348E-005   1404.1989450079118     
   5.0118723362727251E-005   1095.5401289242366     
   5.6234132519034907E-005   848.79952374306083     
   6.3095734448019293E-005   653.46062012190191     
   7.0794578438413731E-005   500.18589079475993     
   7.9432823472428221E-005   380.89164244729614     
   8.9125093813374588E-005   288.72853461587880     
   1.0000000000000005E-004   217.99999999999989     
   1.1220184543019630E-004   161.87076628331235     
   1.2589254117941674E-004   116.83723052741085     
   1.4125375446227541E-004   82.165398786546604     
   1.5848931924611142E-004   56.426815657698533     
   1.7782794100389227E-004   37.928438074713249     
   1.9952623149688788E-004   25.010432116630810     
   2.2387211385683400E-004   16.216167905615450     
   2.5118864315095795E-004   10.361915577601724     
   2.8183829312644550E-004   6.5401939304521806     
   3.1622776601683794E-004   4.0868993477525173     
   3.5481338923357532E-004   2.5342180304975526     
   3.9810717055349735E-004   1.5629126608186172     
   4.4668359215096305E-004  0.96086001252842035     
   5.0118723362727253E-004  0.59022036209820838     
   5.6234132519034910E-004  0.36307044164752122     
   6.3095734448019298E-004  0.22417347057463921     
   7.0794578438413802E-004  0.13924773308461125     
   7.9432823472428131E-004   8.7216093008017082E-002
   8.9125093813374593E-004   5.5208211402397497E-002
   1.0000000000000002E-003   3.5400000000000001E-002
   1.1220184543019630E-003   2.2654416171252776E-002
   1.2589254117941675E-003   1.4262002445183265E-002
   1.4125375446227540E-003   8.8580043042887479E-003
   1.5848931924611141E-003   5.4433811390825117E-003
   1.7782794100389228E-003   3.3191647275039016E-003
   1.9952623149688789E-003   2.0140293859589055E-003
   2.2387211385683399E-003   1.2196338277849358E-003
   2.5118864315095794E-003   7.3921285521955755E-004
   2.8183829312644548E-003   4.4971324593554636E-004
   3.1622776601683794E-003   2.7540872589791745E-004
   3.5481338923357532E-003   1.7027280441384260E-004
   3.9810717055349734E-003   1.0658306049927428E-004
   4.4668359215096305E-003   6.7741704151720792E-005
   5.0118723362727246E-003   4.3842853346282185E-005
   5.6234132519034910E-003   2.8977838934408115E-005
   6.3095734448019303E-003   1.9615861951272257E-005
   7.0794578438413804E-003   1.3638692761005403E-005
   7.9432823472428138E-003   9.7681376677970555E-006
   8.9125093813374589E-003   7.2272687044299592E-006
   1.0000000000000002E-002   5.5399999999999961E-006
   1.1220184543019630E-002   4.3517823813393662E-006
   1.2589254117941675E-002   3.4568036732507058E-006
   1.4125375446227540E-002   2.7749266850936696E-006
   1.5848931924611141E-002   2.2496589209820952E-006
   1.7782794100389229E-002   1.8407267432725688E-006
   1.9952623149688788E-002   1.5191076755922482E-006
   2.2387211385683399E-002   1.2636694873965106E-006
   2.5118864315095794E-002   1.0588714971834718E-006
   2.8183829312644550E-002   8.9317580046477743E-007
   3.1622776601683791E-002   7.5793800001222488E-007
   3.5481338923357530E-002   6.4662511946377695E-007
   3.9810717055349734E-002   5.5425897143532937E-007
   4.4668359215096300E-002   4.7701635974451919E-007
   5.0118723362727248E-002   4.1193938061072166E-007
   5.6234132519034911E-002   3.5672369497602695E-007
   6.3095734448019303E-002   3.0956248571156299E-007
   7.0794578438413802E-002   2.6903050505646427E-007
   7.9432823472428138E-002   2.3399720810083870E-007
   8.9125093813374592E-002   2.0356114477209258E-007
  0.10000000000000001        1.7699999999999990E-007
  0.11220184543019630        1.5396727514281792E-007
  0.12589254117941662        1.3416890848245554E-007
  0.14125375446227553        1.1713216157766638E-007
  0.15848931924611143        1.0245513759434382E-007
  0.17782794100389229        8.9796030510104703E-008
  0.19952623149688789        7.8864009824802690E-008
  0.22387211385683378        6.9411494030790975E-008
  0.25118864315095824        6.1227602554706931E-008
  0.28183829312644548        5.4132607156363125E-008
  0.31622776601683794        4.7973230549533247E-008
  0.35481338923357530        4.2618662902622949E-008
  0.39810717055349693        3.7957186419120690E-008
  0.44668359215096348        3.3893314856221268E-008
  0.50118723362727247        3.0345369022933099E-008
  0.56234132519034907        2.7243421360644010E-008
  0.63095734448019303        2.4527552956387305E-008
  0.70794578438413736        2.2146375036939605E-008
  0.79432823472428216        2.0055774368703670E-008
  0.89125093813374590        1.8217848240280304E-008
   1.0000000000000000        1.6599999999999996E-008
