   1.0000000000000006E-005   17799.999999999985     
   1.1220184543019630E-005   15022.923424917075     
   1.2589254117941661E-005   12577.383105565663     
   1.4125375446227555E-005   10447.841568420972     
   1.5848931924611141E-005   8613.1574673993964     
   1.7782794100389229E-005   7048.5012940211109     
   1.9952623149688786E-005   5727.0217961560138     
   2.2387211385683379E-005   4621.2302901756511     
   2.5118864315095822E-005   3704.0955185263369     
   2.8183829312644549E-005   2949.8613389258776     
   3.1622776601683795E-005   2334.6132862473287     
   3.5481338923357534E-005   1836.6284071611797     
   3.9810717055349695E-005   1436.5465491802727     
   4.4668359215096348E-005   1117.4014698121694     
   5.0118723362727251E-005   864.54772060008918     
   5.6234132519034907E-005   665.51518063742901     
   6.3095734448019293E-005   509.81815228026255     
   7.0794578438413731E-005   388.74070923185087     
   7.9432823472428221E-005   295.11495506018832     
   8.9125093813374588E-005   223.10430401726512     
   1.0000000000000005E-004   168.00000000000000     
   1.1220184543019630E-004   125.46865265300622     
   1.2589254117941674E-004   92.567848599652606     
   1.4125375446227541E-004   67.512575789941195     
   1.5848931924611142E-004   48.709014784274352     
   1.7782794100389227E-004   34.788424531986976     
   1.9952623149688788E-004   24.612827829709261     
   2.2387211385683400E-004   17.261963392128919     
   2.5118864315095795E-004   12.009401987172257     
   2.8183829312644550E-004   8.2938404127211847     
   3.1622776601683794E-004   5.6897561908049719     
   3.5481338923357532E-004   3.8800374538262825     
   3.9810717055349735E-004   2.6319827907296283     
   4.4668359215096305E-004   1.7771972304681232     
   5.0118723362727253E-004   1.1953477091892082     
   5.6234132519034910E-004  0.80141877230424774     
   6.3095734448019298E-004  0.53595951882288662     
   7.0794578438413802E-004  0.35777688156375859     
   7.9432823472428131E-004  0.23856182961319020     
   8.9125093813374593E-004  0.15900054919504758     
   1.0000000000000002E-003  0.10599999999999998     
   1.1220184543019630E-003   6.9671671805352858E-002
   1.2589254117941675E-003   4.4597119856422604E-002
   1.4125375446227540E-003   2.7908950107875155E-002
   1.5848931924611141E-003   1.7141632709183081E-002
   1.7782794100389228E-003   1.0373343585225637E-002
   1.9952623149688789E-003   6.2091067179894247E-003
   2.2387211385683399E-003   3.6903636361559598E-003
   2.5118864315095794E-003   2.1863755854082982E-003
   2.8183829312644548E-003   1.2962293100290425E-003
   3.1622776601683794E-003   7.7201592617391688E-004
   3.5481338923357532E-003   4.6370729506670257E-004
   3.9810717055349734E-003   2.8198157753896825E-004
   4.4668359215096305E-003   1.7427800298991540E-004
   5.0118723362727246E-003   1.0989940411848314E-004
   5.6234132519034910E-003   7.0984727073813303E-005
   6.3095734448019303E-003   4.7145169876061619E-005
   7.0794578438413804E-003   3.2321990209345100E-005
   7.9432823472428138E-003   2.2963256538431211E-005
   8.9125093813374589E-003   1.6971852442285204E-005
   1.0000000000000002E-002   1.3100000000000005E-005
   1.1220184543019630E-002   1.0399483913960150E-005
   1.2589254117941675E-002   8.3379760831493872E-006
   1.4125375446227540E-002   6.7490150631649268E-006
   1.5848931924611141E-002   5.5128169695863069E-006
   1.7782794100389229E-002   4.5423720517430582E-006
   1.9952623149688788E-002   3.7738993598152771E-006
   2.2387211385683399E-002   3.1602317866639478E-006
   2.5118864315095794E-002   2.6661900287545130E-006
   2.8183829312644550E-002   2.2653188147559295E-006
   3.1622776601683791E-002   1.9375644729872747E-006
   3.5481338923357530E-002   1.6676085795630360E-006
   3.9810717055349734E-002   1.4436626995342450E-006
   4.4668359215096300E-002   1.2565898170785259E-006
   5.0118723362727248E-002   1.0992590537974995E-006
   5.6234132519034911E-002   9.6606825266983046E-007
   6.3095734448019303E-002   8.5258824872540964E-007
   7.0794578438413802E-002   7.5529598582250355E-007
   7.9432823472428138E-002   6.7137295387180842E-007
   8.9125093813374592E-002   5.9855197376488423E-007
  0.10000000000000001        5.3500000000000007E-007
  0.11220184543019630        4.7910664997180966E-007
  0.12589254117941662        4.2975170487837325E-007
  0.14125375446227553        3.8617517827344215E-007
  0.15848931924611143        3.4770167813665619E-007
  0.17782794100389229        3.1373230981519049E-007
  0.19952623149688789        2.8373707139250547E-007
  0.22387211385683378        2.5724778081007129E-007
  0.25118864315095824        2.3385155269359498E-007
  0.28183829312644548        2.1318482630905073E-007
  0.31622776601683794        1.9492793365972517E-007
  0.35481338923357530        1.7880018775493461E-007
  0.39810717055349693        1.6455546492378376E-007
  0.44668359215096348        1.5197825117624212E-007
  0.50118723362727247        1.4088012056556886E-007
  0.56234132519034907        1.3109661288879656E-007
  0.63095734448019303        1.2248447855058763E-007
  0.70794578438413736        1.1491925974704241E-007
  0.79432823472428216        1.0829317909259185E-007
  0.89125093813374590        1.0251330925805883E-007
   1.0000000000000000        9.7500000000000046E-008
