   1.0000000000000006E-005   17199.999999999993     
   1.1220184543019630E-005   14492.708784047769     
   1.2589254117941661E-005   12113.072394314579     
   1.4125375446227555E-005   10044.817734653099     
   1.5848931924611141E-005   8266.3193986699807     
   1.7782794100389229E-005   6752.4915289020610     
   1.9952623149688786E-005   5476.4235804303680     
   2.2387211385683379E-005   4410.7303223158751     
   2.5118864315095822E-005   3528.6114639683806     
   2.8183829312644549E-005   2804.6353940567519     
   3.1622776601683795E-005   2215.2746952577868     
   3.5481338923357534E-005   1739.2288930827376     
   3.9810717055349695E-005   1357.5731733836208     
   4.4668359215096348E-005   1053.7715677217270     
   5.0118723362727251E-005   813.59037296038230     
   5.6234132519034907E-005   624.94326675300624     
   6.3095734448019293E-005   477.69448286010015     
   7.0794578438413731E-005   363.44112637280307     
   7.9432823472428221E-005   275.29067365871686     
   8.9125093813374588E-005   207.64519413590278     
   1.0000000000000005E-004   156.00000000000000     
   1.1220184543019630E-004   116.23708254921999     
   1.2589254117941674E-004   85.557827033620057     
   1.4125375446227541E-004   62.254084025125650     
   1.5848931924611142E-004   44.809192727058800     
   1.7782794100389227E-004   31.926820983996123     
   1.9952623149688788E-004   22.533654631351308     
   2.2387211385683400E-004   15.764968368629646     
   2.5118864315095795E-004   10.940525970695173     
   2.8183829312644550E-004   7.5364190906398072     
   3.1622776601683794E-004   5.1566984620434013     
   3.5481338923357532E-004   3.5071666513894315     
   3.9810717055349735E-004   2.3725597239493621     
   4.4668359215096305E-004   1.5975413321627099     
   5.0118723362727253E-004   1.0714190546380342     
   5.6234132519034910E-004  0.71620451697528165     
   6.3095734448019298E-004  0.47751089731786256     
   7.0794578438413802E-004  0.31775776653455418     
   7.9432823472428131E-004  0.21119023397867084     
   8.9125093813374593E-004  0.14028601303670055     
   1.0000000000000002E-003   9.3200000000000005E-002
   1.1220184543019630E-003   6.1018904725981260E-002
   1.2589254117941675E-003   3.8877826244002163E-002
   1.4125375446227540E-003   2.4202540908422811E-002
   1.5848931924611141E-003   1.4779975835535229E-002
   1.7782794100389228E-003   8.8894032747119395E-003
   1.9952623149688789E-003   5.2867645347878063E-003
   2.2387211385683399E-003   3.1214627201250089E-003
   2.5118864315095794E-003   1.8370015096132127E-003
   2.8183829312644548E-003   1.0818732954599986E-003
   3.1622776601683794E-003   6.4016388055398066E-004
   3.5481338923357532E-003   3.8210802704291959E-004
   3.9810717055349734E-003   2.3099029592183102E-004
   4.4668359215096305E-003   1.4198623387264500E-004
   5.0118723362727246E-003   8.9099655703404180E-005
   5.6234132519034910E-003   5.7308025318027257E-005
   6.3095734448019303E-003   3.7931222975741081E-005
   7.0794578438413804E-003   2.5938961271202555E-005
   7.9432823472428138E-003   1.8399880432566961E-005
   8.9125093813374589E-003   1.3593035674190329E-005
   1.0000000000000002E-002   1.0500000000000005E-005
   1.1220184543019630E-002   8.3488546031271180E-006
   1.2589254117941675E-002   6.7070706808032541E-006
   1.4125375446227540E-002   5.4413291358900337E-006
   1.5848931924611141E-002   4.4559568762086581E-006
   1.7782794100389229E-002   3.6816167142205063E-006
   1.9952623149688788E-002   3.0675773278661989E-006
   2.2387211385683399E-002   2.5763778668131423E-006
   2.5118864315095794E-002   2.1801101420260855E-006
   2.8183829312644550E-002   1.8578039758220912E-006
   3.1622776601683791E-002   1.5935718852765142E-006
   3.5481338923357530E-002   1.3752811488372520E-006
   3.9810717055349734E-002   1.1935953618770309E-006
   4.4668359215096300E-002   1.0412770531584028E-006
   5.0118723362727248E-002   9.1267626735146208E-007
   5.6234132519034911E-002   8.0335267314283936E-007
   6.3095734448019303E-002   7.0979428141076860E-007
   7.0794578438413802E-002   6.2920658311663083E-007
   7.9432823472428138E-002   5.5935338407188079E-007
   8.9125093813374592E-002   4.9843585273409899E-007
  0.10000000000000001        4.4500000000000040E-007
  0.11220184543019630        3.9791827919659588E-007
  0.12589254117941662        3.5640619279018725E-007
  0.14125375446227553        3.1980127594393866E-007
  0.15848931924611143        2.8751788657419991E-007
  0.17782794100389229        2.5903914225595841E-007
  0.19952623149688789        2.3390951892723752E-007
  0.22387211385683378        2.1172810012176291E-007
  0.25118864315095824        1.9214245420701904E-007
  0.28183829312644548        1.7484310917980757E-007
  0.31622776601683794        1.5955858935771165E-007
  0.35481338923357530        1.4605097526323646E-007
  0.39810717055349693        1.3411194666401765E-007
  0.44668359215096348        1.2355926871485541E-007
  0.50118723362727247        1.1423368211881059E-007
  0.56234132519034907        1.0599615991783696E-007
  0.63095734448019303        9.8725495723938402E-008
  0.70794578438413736        9.2316190741040808E-008
  0.79432823472428216        8.6676609677161218E-008
  0.89125093813374590        8.1727378511792007E-008
   1.0000000000000000        7.7400000000000005E-008
