   1.0000000000000006E-005   8029.9999999999973     
   1.1220184543019630E-005   6612.4673580739372     
   1.2589254117941661E-005   5412.1872314422244     
   1.4125375446227555E-005   4403.5660994709633     
   1.5848931924611141E-005   3562.2125067894076     
   1.7782794100389229E-005   2865.3645697867728     
   1.9952623149688786E-005   2292.1649529246702     
   2.2387211385683379E-005   1823.8072136397207     
   2.5118864315095822E-005   1443.5779211846093     
   2.8183829312644549E-005   1136.8179826014566     
   3.1622776601683795E-005   890.82459915796039     
   3.5481338923357534E-005   694.71262429489343     
   3.9810717055349695E-005   539.25113170914688     
   4.4668359215096348E-005   416.68799163061908     
   5.0118723362727251E-005   320.57238687127284     
   5.6234132519034907E-005   245.58260623876313     
   6.3095734448019293E-005   187.36420526662943     
   7.0794578438413731E-005   142.38175299753976     
   7.9432823472428221E-005   107.78588600062415     
   8.9125093813374588E-005   81.296241408572499     
   1.0000000000000005E-004   61.100000000000001     
   1.1220184543019630E-004   45.712207027594019     
   1.2589254117941674E-004   34.004446202280192     
   1.4125375446227541E-004   25.148626623919455     
   1.5848931924611142E-004   18.489722956226807     
   1.7782794100389227E-004   13.512839315934272     
   1.9952623149688788E-004   9.8157934838596965     
   2.2387211385683400E-004   7.0864596388199077     
   2.5118864315095795E-004   5.0841791131548284     
   2.8183829312644550E-004   3.6246201374202438     
   3.1622776601683794E-004   2.5675375395156244     
   3.5481338923357532E-004   1.8069505400212473     
   3.9810717055349735E-004   1.2633200883762759     
   4.4668359215096305E-004  0.87736585013620438     
   5.0118723362727253E-004  0.60521648882902956     
   5.6234132519034910E-004  0.41463503156503717     
   6.3095734448019298E-004  0.28210381581503130     
   7.0794578438413802E-004  0.19059090468594792     
   7.9432823472428131E-004  0.12785218026034872     
   8.9125093813374593E-004   8.5150925956975348E-002
   1.0000000000000002E-003   5.6300000000000003E-002
   1.1220184543019630E-003   3.6199025541613285E-002
   1.2589254117941675E-003   2.2262272240026582E-002
   1.4125375446227540E-003   1.3175381660591992E-002
   1.5848931924611141E-003   7.5494446671874214E-003
   1.7782794100389228E-003   4.2136831501284342E-003
   1.9952623149688789E-003   2.3048400560274677E-003
   2.2387211385683399E-003   1.2430504056074887E-003
   2.5118864315095794E-003   6.6503223445616615E-004
   2.8183829312644548E-003   3.5509098277260420E-004
   3.1622776601683794E-003   1.9037791376808237E-004
   3.5481338923357532E-003   1.0311229080055419E-004
   3.9810717055349734E-003   5.6762072129749652E-005
   4.4668359215096305E-003   3.1951920093683344E-005
   5.0118723362727246E-003   1.8503912963793190E-005
   5.6234132519034910E-003   1.1091622211777115E-005
   6.3095734448019303E-003   6.9235433809505659E-006
   7.0794578438413804E-003   4.5279393878582071E-006
   7.9432823472428138E-003   3.1213941382302795E-006
   8.9125093813374589E-003   2.2819672960997897E-006
   1.0000000000000002E-002   1.7799999999999984E-006
   1.1220184543019630E-002   1.4457620485705639E-006
   1.2589254117941675E-002   1.1879829101473420E-006
   1.4125375446227540E-002   9.8691081862141608E-007
   1.5848931924611141E-002   8.2835740576084877E-007
   1.7782794100389229E-002   7.0201684096258953E-007
   1.9952623149688788E-002   6.0032304189247334E-007
   2.2387211385683399E-002   5.1766403729567847E-007
   2.5118864315095794E-002   4.4983605942868010E-007
   2.8183829312644550E-002   3.9366029622840641E-007
   3.1622776601683791E-002   3.4671116769726657E-007
   3.5481338923357530E-002   3.0712184087859998E-007
   3.9810717055349734E-002   2.7344376096210457E-007
   4.4668359215096300E-002   2.4454431386150998E-007
   5.0118723362727248E-002   2.1953165036178247E-007
   5.6234132519034911E-002   1.9769902494732158E-007
   6.3095734448019303E-002   1.7848326969960574E-007
   7.0794578438413802E-002   1.6143358419219348E-007
   7.9432823472428138E-002   1.4618790553932193E-007
   8.9125093813374592E-002   1.3245488092153205E-007
  0.10000000000000001        1.2000000000000007E-007
  0.11220184543019630        1.0876146249901288E-007
  0.12589254117941662        9.8717444550540955E-008
  0.14125375446227553        8.9740159394637020E-008
  0.15848931924611143        8.1715196400009784E-008
  0.17782794100389229        7.4540255143177582E-008
  0.19952623149688789        6.8123973066257633E-008
  0.22387211385683378        6.2384845425293489E-008
  0.25118864315095824        5.7250234902058916E-008
  0.28183829312644548        5.2655467268484368E-008
  0.31622776601683794        4.8543008805358916E-008
  0.35481338923357530        4.4861720733387905E-008
  0.39810717055349693        4.1566185669103419E-008
  0.44668359215096348        3.8616101030799980E-008
  0.50118723362727247        3.5975734356715444E-008
  0.56234132519034907        3.3613435630571362E-008
  0.63095734448019303        3.1501201914708418E-008
  0.70794578438413736        2.9614289849139365E-008
  0.79432823472428216        2.7930871870552547E-008
  0.89125093813374590        2.6431732326718043E-008
   1.0000000000000000        2.5100000000000016E-008
