   1.0000000000000006E-005   6160.0000000000018     
   1.1220184543019630E-005   4885.0961140284717     
   1.2589254117941661E-005   3853.9788144353342     
   1.4125375446227555E-005   3025.0511115959680     
   1.5848931924611141E-005   2362.5807939296706     
   1.7782794100389229E-005   1836.1770460939647     
   1.9952623149688786E-005   1420.2334788082471     
   2.2387211385683379E-005   1093.3661377259095     
   2.5118864315095822E-005   837.86789314946134     
   2.8183829312644549E-005   639.19432182768742     
   3.1622776601683795E-005   485.49087626406435     
   3.5481338923357534E-005   367.16680992151726     
   3.9810717055349695E-005   276.51794028483317     
   4.4668359215096348E-005   207.39779667957399     
   5.0118723362727251E-005   154.93490339318157     
   5.6234132519034907E-005   115.29276901562889     
   6.3095734448019293E-005   85.468469150269158     
   7.0794578438413731E-005   63.125409183249424     
   7.9432823472428221E-005   46.455836794601375     
   8.9125093813374588E-005   34.068855384515814     
   1.0000000000000005E-004   24.899999999999999     
   1.1220184543019630E-004   18.115178616267325     
   1.2589254117941674E-004   13.102729767636546     
   1.4125375446227541E-004   9.4231577923660641     
   1.5848931924611142E-004   6.7388576749483304     
   1.7782794100389227E-004   4.7925965592526598     
   1.9952623149688788E-004   3.3899231399248735     
   2.2387211385683400E-004   2.3849696092747124     
   2.5118864315095795E-004   1.6691274164613794     
   2.8183829312644550E-004   1.1621157876576962     
   3.1622776601683794E-004  0.80501172583488612     
   3.5481338923357532E-004  0.55486525633704842     
   3.9810717055349735E-004  0.38057915965353523     
   4.4668359215096305E-004  0.25978510408748962     
   5.0118723362727253E-004  0.17649600706589436     
   5.6234132519034910E-004  0.11935662953692290     
   6.3095734448019298E-004   8.0350550444692886E-002
   7.0794578438413802E-004   5.3851950715952807E-002
   7.9432823472428131E-004   3.5935519054224346E-002
   8.9125093813374593E-004   2.3877889025687535E-002
   1.0000000000000002E-003   1.5800000000000002E-002
   1.1220184543019630E-003   1.0250429832457279E-002
   1.2589254117941675E-003   6.4387279545406314E-003
   1.4125375446227540E-003   3.9340733183298475E-003
   1.5848931924611141E-003   2.3489867329838745E-003
   1.7782794100389228E-003   1.3769741433495920E-003
   1.9952623149688789E-003   7.9614006417733465E-004
   2.2387211385683399E-003   4.5612409302099881E-004
   2.5118864315095794E-003   2.6014635860118819E-004
   2.8183829312644548E-003   1.4839014556653081E-004
   3.1622776601683794E-003   8.5046473047302080E-005
   3.5481338923357532E-003   4.9202011476965917E-005
   3.9810717055349734E-003   2.8866629463412523E-005
   4.4668359215096305E-003   1.7254696816541379E-005
   5.0118723362727246E-003   1.0556695365962860E-005
   5.6234132519034910E-003   6.6415494963551641E-006
   6.3095734448019303E-003   4.3166115808312836E-006
   7.0794578438413804E-003   2.9117898596681506E-006
   7.9432823472428138E-003   2.0480094338789533E-006
   8.9125093813374589E-003   1.5089335272083390E-006
   1.0000000000000002E-002   1.1699999999999990E-006
   1.1220184543019630E-002   9.3766300463315711E-007
   1.2589254117941675E-002   7.6013639192852780E-007
   1.4125375446227540E-002   6.2292834669465851E-007
   1.5848931924611141E-002   5.1570873727977342E-007
   1.7782794100389229E-002   4.3103120440167747E-007
   1.9952623149688788E-002   3.6347016050633963E-007
   2.2387211385683399E-002   3.0903142383766893E-007
   2.5118864315095794E-002   2.6474535756750041E-007
   2.8183829312644550E-002   2.2838306392354311E-007
   3.1622776601683791E-002   1.9825642430776556E-007
   3.5481338923357530E-002   1.7307585134297097E-007
   3.9810717055349734E-002   1.5184815460014833E-007
   4.4668359215096300E-002   1.3380255161672345E-007
   5.0118723362727248E-002   1.1833660597855275E-007
   5.6234132519034911E-002   1.0497639633184328E-007
   6.3095734448019303E-002   9.3346932162466743E-008
   7.0794578438413802E-002   8.3150004741698539E-008
   7.9432823472428138E-002   7.4147471818215533E-008
   8.9125093813374592E-002   6.6148539285378503E-008
  0.10000000000000001        5.8999999999999946E-008
  0.11220184543019630        5.2647546199151975E-008
  0.12589254117941662        4.7054539088026280E-008
  0.14125375446227553        4.2127407734705041E-008
  0.15848931924611143        3.7784208383842287E-008
  0.17782794100389229        3.3953211208428369E-008
  0.19952623149688789        3.0571649670786853E-008
  0.22387211385683378        2.7584615942653889E-008
  0.25118864315095824        2.4944087067174520E-008
  0.28183829312644548        2.2608067787796417E-008
  0.31622776601683794        2.0539837191371082E-008
  0.35481338923357530        1.8707287493991490E-008
  0.39810717055349693        1.7082344423150636E-008
  0.44668359215096348        1.5640459708763528E-008
  0.50118723362727247        1.4360167182545918E-008
  0.56234132519034907        1.3222694897459764E-008
  0.63095734448019303        1.2211626516125938E-008
  0.70794578438413736        1.1312605980804717E-008
  0.79432823472428216        1.0513080170623367E-008
  0.89125093813374590        9.8020748779906857E-009
   1.0000000000000000        9.1699999999999872E-009
