   1.0000000000000006E-005   4179.9999999999982     
   1.1220184543019630E-005   3013.4417382961342     
   1.2589254117941661E-005   2173.2115913570346     
   1.4125375446227555E-005   1567.8127016501107     
   1.5848931924611141E-005   1131.4609058262479     
   1.7782794100389229E-005   816.84262406401717     
   1.9952623149688786E-005   589.91705436515383     
   2.2387211385683379E-005   426.18434106936604     
   2.5118864315095822E-005   308.00534929035626     
   2.8183829312644549E-005   222.67605531314445     
   3.1622776601683795E-005   161.04362031056831     
   3.5481338923357534E-005   116.51143009883040     
   3.9810717055349695E-005   84.323533920759914     
   4.4668359215096348E-005   61.049846987217229     
   5.0118723362727251E-005   44.215661946096212     
   5.6234132519034907E-005   32.034924845738033     
   6.3095734448019293E-005   23.218147772342519     
   7.0794578438413731E-005   16.834025154934597     
   7.9432823472428221E-005   12.209704922253483     
   8.9125093813374588E-005   8.8588921917030703     
   1.0000000000000005E-004   6.4299999999999997     
   1.1220184543019630E-004   4.6836434566773963     
   1.2589254117941674E-004   3.4323371153683042     
   1.4125375446227541E-004   2.5280840630643886     
   1.5848931924611142E-004   1.8696088656230307     
   1.7782794100389227E-004   1.3868512723731756     
   1.9952623149688788E-004   1.0308396417566628     
   2.2387211385683400E-004  0.76700224281180474     
   2.5118864315095795E-004  0.57070104252479981     
   2.8183829312644550E-004  0.42421831668864945     
   3.1622776601683794E-004  0.31470315304326646     
   3.5481338923357532E-004  0.23275869220719145     
   3.9810717055349735E-004  0.17146128251790932     
   4.4668359215096305E-004  0.12567352065391940     
   5.0118723362727253E-004   9.1559045971810971E-002
   5.6234132519034910E-004   6.6237008210426621E-002
   6.3095734448019298E-004   4.7533997443229892E-002
   7.0794578438413802E-004   3.3804487730573346E-002
   7.9432823472428131E-004   2.3799781984798034E-002
   8.9125093813374593E-004   1.6571522336098002E-002
   1.0000000000000002E-003   1.1400000000000004E-002
   1.1220184543019630E-003   7.6075341440230695E-003
   1.2589254117941675E-003   4.8581835312498231E-003
   1.4125375446227540E-003   2.9869860044801164E-003
   1.5848931924611141E-003   1.7789348196431516E-003
   1.7782794100389228E-003   1.0325064571413945E-003
   1.9952623149688789E-003   5.8758367905476774E-004
   2.2387211385683399E-003   3.2985965008078537E-004
   2.5118864315095794E-003   1.8378476207582057E-004
   2.8183829312644548E-003   1.0224661952997705E-004
   3.1622776601683794E-003   5.7146005987182773E-005
   3.5481338923357532E-003   3.2281862791261909E-005
   3.9810717055349734E-003   1.8544084083422334E-005
   4.4668359215096305E-003   1.0898446552480738E-005
   5.0118723362727246E-003   6.5928703391915939E-006
   5.6234132519034910E-003   4.1302230907774064E-006
   6.3095734448019303E-003   2.6958755542131160E-006
   7.0794578438413804E-003   1.8445559802470139E-006
   7.9432823472428138E-003   1.3310299371171463E-006
   8.9125093813374589E-003   1.0191218331350382E-006
   1.0000000000000002E-002   8.3300000000000075E-007
   1.1220184543019630E-002   7.0782769998477641E-007
   1.2589254117941675E-002   6.0634636573978679E-007
   1.4125375446227540E-002   5.2349067073555450E-007
   1.5848931924611141E-002   4.5538249039795701E-007
   1.7782794100389229E-002   3.9903151237399361E-007
   1.9952623149688788E-002   3.5211604611213166E-007
   2.2387211385683399E-002   3.1282140760540122E-007
   2.5118864315095794E-002   2.7971993154002361E-007
   2.8183829312644550E-002   2.5168128910707053E-007
   3.1622776601683791E-002   2.2780501798866935E-007
   3.5481338923357530E-002   2.0736943958735344E-007
   3.9810717055349734E-002   1.8979274358695098E-007
   4.4668359215096300E-002   1.7460316304551394E-007
   5.0118723362727248E-002   1.6141598263963771E-007
   5.6234132519034911E-002   1.4991571378413527E-007
   6.3095734448019303E-002   1.3984219939175988E-007
   7.0794578438413802E-002   1.3097972432598894E-007
   7.9432823472428138E-002   1.2314843771141282E-007
   8.9125093813374592E-002   1.1619756325415211E-007
  0.10000000000000001        1.1000000000000009E-007
  0.11220184543019630        1.0430789954761284E-007
  0.12589254117941662        9.8950046513440831E-008
  0.14125375446227553        9.3926809355324511E-008
  0.15848931924611143        8.9235647313994130E-008
  0.17782794100389229        8.4871700751126627E-008
  0.19952623149688789        8.0828333925782081E-008
  0.22387211385683378        7.7097628735480515E-008
  0.25118864315095824        7.3670830110775330E-008
  0.28183829312644548        7.0538745510102758E-008
  0.31622776601683794        6.7692102367216319E-008
  0.35481338923357530        6.5121868457619731E-008
  0.39810717055349693        6.2819541039505185E-008
  0.44668359215096348        6.0777411358344790E-008
  0.50118723362727247        5.8988811754294780E-008
  0.56234132519034907        5.7448353252125514E-008
  0.63095734448019303        5.6152162222423213E-008
  0.70794578438413736        5.5098125564475116E-008
  0.79432823472428216        5.4286154969910439E-008
  0.89125093813374590        5.3718482291826759E-008
   1.0000000000000000        5.3399999999999975E-008
