   1.0000000000000006E-005   5289.9999999999991     
   1.1220184543019630E-005   4117.8325160993300     
   1.2589254117941661E-005   3192.2399638443708     
   1.4125375446227555E-005   2464.7023262479770     
   1.5848931924611141E-005   1895.4125898523525     
   1.7782794100389229E-005   1451.9164857736555     
   1.9952623149688786E-005   1107.9147633487951     
   2.2387211385683379E-005   842.22115981631873     
   2.5118864315095822E-005   637.86574651699118     
   2.8183829312644549E-005   481.33118033097469     
   3.1622776601683795E-005   361.90829802114865     
   3.5481338923357534E-005   271.15721479035739     
   3.9810717055349695E-005   202.46041109175147     
   4.4668359215096348E-005   150.65503094611287     
   5.0118723362727251E-005   111.73262101094258     
   5.6234132519034907E-005   82.595693697015491     
   6.3095734448019293E-005   60.861708933439424     
   7.0794578438413731E-005   44.706271139240847     
   7.9432823472428221E-005   32.738484248043704     
   8.9125093813374588E-005   23.902468380833632     
   1.0000000000000005E-004   17.399999999999999     
   1.1220184543019630E-004   12.625914874454816     
   1.2589254117941674E-004   9.1289175695834857     
   1.4125375446227541E-004   6.5761716709640776     
   1.5848931924611142E-004   4.7193157333333655     
   1.7782794100389227E-004   3.3735843114707467     
   1.9952623149688788E-004   2.4019576937096909     
   2.2387211385683400E-004   1.7031582304649513     
   2.5118864315095795E-004   1.2025831306385260     
   2.8183829312644550E-004  0.84547406673131120     
   3.1622776601683794E-004  0.59178663934455344     
   3.5481338923357532E-004  0.41234839640444160     
   3.9810717055349735E-004  0.28599099631052910     
   4.4668359215096305E-004  0.19741671265664587     
   5.0118723362727253E-004  0.13561682825299345     
   5.6234132519034910E-004   9.2703465611169392E-002
   6.3095734448019298E-004   6.3050086166740238E-002
   7.0794578438413802E-004   4.2661619108265922E-002
   7.9432823472428131E-004   2.8714782175968706E-002
   8.9125093813374593E-004   1.9224049180895288E-002
   1.0000000000000002E-003   1.2799999999999999E-002
   1.1220184543019630E-003   8.3492096018596400E-003
   1.2589254117941675E-003   5.2718154934227584E-003
   1.4125375446227540E-003   3.2370992474018540E-003
   1.5848931924611141E-003   1.9419334045276651E-003
   1.7782794100389228E-003   1.1433960442821191E-003
   1.9952623149688789E-003   6.6381124365544515E-004
   2.2387211385683399E-003   3.8175050425805375E-004
   2.5118864315095794E-003   2.1847576129185628E-004
   2.8183829312644548E-003   1.2500202846463173E-004
   3.1622776601683794E-003   7.1832759012053498E-005
   3.5481338923357532E-003   4.1650599096949021E-005
   3.9810717055349734E-003   2.4480185614795116E-005
   4.4668359215096305E-003   1.4652254023060039E-005
   5.0118723362727246E-003   8.9720561286901761E-006
   5.6234132519034910E-003   5.6464939144911044E-006
   6.3095734448019303E-003   3.6691597228640898E-006
   7.0794578438413804E-003   2.4731859556103578E-006
   7.9432823472428138E-003   1.7372041460514156E-006
   8.9125093813374589E-003   1.2774691019575418E-006
   1.0000000000000002E-002   9.8800000000000054E-007
   1.1220184543019630E-002   7.8948094326279984E-007
   1.2589254117941675E-002   6.3805792228584600E-007
   1.4125375446227540E-002   5.2124325246654232E-007
   1.5848931924611141E-002   4.3014097268059049E-007
   1.7782794100389229E-002   3.5834334650212222E-007
   1.9952623149688788E-002   3.0118558508191003E-007
   2.2387211385683399E-002   2.5523690167395122E-007
   2.5118864315095794E-002   2.1794922521660129E-007
   2.8183829312644550E-002   1.8741222559441067E-007
   3.1622776601683791E-002   1.6218077423410753E-007
   3.5481338923357530E-002   1.4115225564334317E-007
   3.9810717055349734E-002   1.2347852056317089E-007
   4.4668359215096300E-002   1.0850213728961992E-007
   5.0118723362727248E-002   9.5709839734825063E-008
   5.6234132519034911E-002   8.4698251457025248E-008
   6.3095734448019303E-002   7.5148445185385818E-008
   7.0794578438413802E-002   6.6806911224630708E-008
   7.9432823472428138E-002   5.9471208565062962E-008
   8.9125093813374592E-002   5.2979060564677194E-008
  0.10000000000000001        4.7199999999999973E-008
  0.11220184543019630        4.2077440968964116E-008
  0.12589254117941662        3.7572258794561410E-008
  0.14125375446227553        3.3607929092850024E-008
  0.15848931924611143        3.0117467996543247E-008
  0.17782794100389229        2.7042274536847483E-008
  0.19952623149688789        2.4331104766203622E-008
  0.22387211385683378        2.1939164669467933E-008
  0.25118864315095824        1.9827309752744607E-008
  0.28183829312644548        1.7961340086582795E-008
  0.31622776601683794        1.6311380482497530E-008
  0.35481338923357530        1.4851336375112868E-008
  0.39810717055349693        1.3558416849192223E-008
  0.44668359215096348        1.2412717079022472E-008
  0.50118723362727247        1.1396853228762167E-008
  0.56234132519034907        1.0495643591429534E-008
  0.63095734448019303        9.6958304187361555E-009
  0.70794578438413736        8.9858375134770450E-009
  0.79432823472428216        8.3555592216693153E-009
  0.89125093813374590        7.7961769751743553E-009
   1.0000000000000000        7.3000000000000149E-009
