   1.0000000000000006E-005   16000.000000000009     
   1.1220184543019630E-005   13606.586166402771     
   1.2589254117941661E-005   11471.384027430653     
   1.4125375446227555E-005   9590.2940728663361     
   1.5848931924611141E-005   7952.6067366081643     
   1.7782794100389229E-005   6542.7538215634822     
   1.9952623149688786E-005   5341.9172652536809     
   2.2387211385683379E-005   4329.4352979969854     
   2.5118864315095822E-005   3483.9738148545207     
   2.8183829312644549E-005   2784.4540612458250     
   3.1622776601683795E-005   2210.7457170386633     
   3.5481338923357534E-005   1744.1470654175823     
   3.9810717055349695E-005   1367.6815832295702     
   4.4668359215096348E-005   1066.2437491154874     
   5.0118723362727251E-005   826.62705083178730     
   5.6234132519034907E-005   637.46501929643853     
   6.3095734448019293E-005   489.11248243669826     
   7.0794578438413731E-005   373.48984011357754     
   7.9432823472428221E-005   283.90857493850996     
   8.9125093813374588E-005   214.89183407630830     
   1.0000000000000005E-004   161.99999999999994     
   1.1220184543019630E-004   121.08572783884351     
   1.2589254117941674E-004   89.352550634796117     
   1.4125375446227541E-004   65.141106794841590     
   1.5848931924611142E-004   46.950002467048314     
   1.7782794100389227E-004   33.477000480547119     
   1.9952623149688788E-004   23.631213092100346     
   2.2387211385683400E-004   16.525407549636153     
   2.5118864315095795E-004   11.456267657472543     
   2.8183829312644550E-004   7.8787452931353616     
   3.1622776601683794E-004   5.3788821817195780     
   3.5481338923357532E-004   3.6479274326547273     
   3.9810717055349735E-004   2.4593348431034006     
   4.4668359215096305E-004   1.6493186676793350     
   5.0118723362727253E-004   1.1010449554141586     
   5.6234132519034910E-004  0.73217891726468620     
   6.3095734448019298E-004  0.48533230960145135     
   7.0794578438413802E-004  0.32089956733951308     
   7.9432823472428131E-004  0.21178984247136495     
   8.9125093813374593E-004  0.13961925532734296     
   1.0000000000000002E-003   9.2000000000000012E-002
   1.1220184543019630E-003   5.9644017277247087E-002
   1.2589254117941675E-003   3.7536538448554042E-002
   1.4125375446227540E-003   2.3030543737348055E-002
   1.5848931924611141E-003   1.3834745244887342E-002
   1.7782794100389228E-003   8.1716453550830029E-003
   1.9952623149688789E-003   4.7662145529986750E-003
   2.2387211385683399E-003   2.7568793869213563E-003
   2.5118864315095794E-003   1.5881678823962346E-003
   2.8183829312644548E-003   9.1509015320743277E-004
   3.1622776601683794E-003   5.2963240732618649E-004
   3.5481338923357532E-003   3.0923082625165354E-004
   3.9810717055349734E-003   1.8291231109501216E-004
   4.4668359215096305E-003   1.1008024437416277E-004
   5.0118723362727246E-003   6.7691866611575117E-005
   5.6234132519034910E-003   4.2714823615754351E-005
   6.3095734448019303E-003   2.7777306596950012E-005
   7.0794578438413804E-003   1.8694997035032803E-005
   7.9432823472428138E-003   1.3077923336987266E-005
   8.9125093813374589E-003   9.5495884926053831E-006
   1.0000000000000002E-002   7.3099999999999978E-006
   1.1220184543019630E-002   5.7658553955661266E-006
   1.2589254117941675E-002   4.5922320928421538E-006
   1.4125375446227540E-002   3.6920016425553078E-006
   1.5848931924611141E-002   2.9953127468431389E-006
   1.7782794100389229E-002   2.4514833970671239E-006
   1.9952623149688788E-002   2.0234221042287278E-006
   2.2387211385683399E-002   1.6837555312895040E-006
   2.5118864315095794E-002   1.4121175554497773E-006
   2.8183829312644550E-002   1.1932355944018898E-006
   3.1622776601683791E-002   1.0155687722686112E-006
   3.5481338923357530E-002   8.7033114837847165E-007
   3.9810717055349734E-002   7.5078575708657934E-007
   4.4668359215096300E-002   6.5173057078252215E-007
   5.0118723362727248E-002   5.6912149650166916E-007
   5.6234132519034911E-002   4.9979392774440840E-007
   6.3095734448019303E-002   4.4125568036943746E-007
   7.0794578438413802E-002   3.9153198928053803E-007
   7.9432823472428138E-002   3.4904872843340909E-007
   8.9125093813374592E-002   3.1254387812008794E-007
  0.10000000000000001        2.8099999999999994E-007
  0.11220184543019630        2.5329234045060229E-007
  0.12589254117941662        2.2864715462866076E-007
  0.14125375446227553        2.0674649801350446E-007
  0.15848931924611143        1.8730085004387197E-007
  0.17782794100389229        1.7004785954030983E-007
  0.19952623149688789        1.5475084711415723E-007
  0.22387211385683378        1.4119715746704436E-007
  0.25118864315095824        1.2919643645145462E-007
  0.28183829312644548        1.1857889196787008E-007
  0.31622776601683794        1.0919358422761496E-007
  0.35481338923357530        1.0090677952928803E-007
  0.39810717055349693        9.3600392336271627E-008
  0.44668359215096348        8.7170532924362863E-008
  0.50118723362727247        8.1526171999511143E-008
  0.56234132519034907        7.6587929275347453E-008
  0.63095734448019303        7.2286989871964664E-008
  0.70794578438413736        6.8564150397191675E-008
  0.79432823472428216        6.5368995574881516E-008
  0.89125093813374590        6.2659206202112436E-008
   1.0000000000000000        6.0400000000000051E-008
