   1.0000000000000006E-005   18499.999999999996     
   1.1220184543019630E-005   15512.511342812712     
   1.2589254117941661E-005   12929.152285909775     
   1.4125375446227555E-005   10712.707894415431     
   1.5848931924611141E-005   8825.3810790766565     
   1.7782794100389229E-005   7229.9681110181391     
   1.9952623149688786E-005   5890.7653694611572     
   2.2387211385683379E-005   4774.2286589469804     
   2.5118864315095822E-005   3849.4135566428886     
   2.8183829312644549E-005   3088.2291034527125     
   3.1622776601683795E-005   2465.5383029886007     
   3.5481338923357534E-005   1959.1379487620659     
   3.9810717055349695E-005   1549.6478551071982     
   4.4668359215096348E-005   1220.3361584693118     
   5.0118723362727251E-005   956.90343973730398     
   5.6234132519034907E-005   747.24436096393447     
   6.3095734448019293E-005   581.20158481239628     
   7.0794578438413731E-005   450.32314079764041     
   7.9432823472428221E-005   347.63123331114042     
   8.9125093813374588E-005   267.40780667250118     
   1.0000000000000005E-004   204.99999999999994     
   1.1220184543019630E-004   156.43152198268754     
   1.2589254117941674E-004   118.65837631852214     
   1.4125375446227541E-004   89.466488274943075     
   1.5848931924611142E-004   67.049319951038953     
   1.7782794100389227E-004   49.944135369669191     
   1.9952623149688788E-004   36.975571388104470     
   2.2387211385683400E-004   27.206313621805808     
   2.5118864315095795E-004   19.894501234965944     
   2.8183829312644550E-004   14.457363435386691     
   3.1622776601683794E-004   10.440516094005389     
   3.5481338923357532E-004   7.4923110523028553     
   3.9810717055349735E-004   5.3426255064769324     
   4.4668359215096305E-004   3.7854970044581724     
   5.0118723362727253E-004   2.6650444586213875     
   5.6234132519034910E-004   1.8641614634819244     
   6.3095734448019298E-004   1.2955203742273460     
   7.0794578438413802E-004  0.89448026066800812     
   7.9432823472428131E-004  0.61354610708039370     
   8.9125093813374593E-004  0.41807838718405071     
   1.0000000000000002E-003  0.28299999999999997     
   1.1220184543019630E-003  0.18679680624084491     
   1.2589254117941675E-003  0.11844502610898668     
   1.4125375446227540E-003   7.2539357589118891E-002
   1.5848931924611141E-003   4.3140502892045088E-002
   1.7782794100389228E-003   2.5049349265552599E-002
   1.9952623149688789E-003   1.4277513022678585E-002
   2.2387211385683399E-003   8.0315372709573729E-003
   2.5118864315095794E-003   4.4831153768849358E-003
   2.8183829312644548E-003   2.4965565110105013E-003
   3.1622776601683794E-003   1.3945312784037426E-003
   3.5481338923357532E-003   7.8557131570388794E-004
   3.9810717055349734E-003   4.4870261367705773E-004
   4.4668359215096305E-003   2.6127167595942156E-004
   5.0118723362727246E-003   1.5593081117232059E-004
   5.6234132519034910E-003   9.5900869725800331E-005
   6.3095734448019303E-003   6.1109577273740258E-005
   7.0794578438413804E-003   4.0563672213106438E-005
   7.9432823472428138E-003   2.8200163518011446E-005
   8.9125093813374589E-003   2.0644173044975746E-005
   1.0000000000000002E-002   1.6000000000000009E-005
   1.1220184543019630E-002   1.2836775186567115E-005
   1.2589254117941675E-002   1.0386063225234761E-005
   1.4125375446227540E-002   8.4735102269400760E-006
   1.5848931924611141E-002   6.9702991652662947E-006
   1.7782794100389229E-002   5.7806069236338314E-006
   1.9952623149688788E-002   4.8326763862882182E-006
   2.2387211385683399E-002   4.0724197974512279E-006
   2.5118864315095794E-002   3.4588060633941705E-006
   2.8183829312644550E-002   2.9605133530648322E-006
   3.1622776601683791E-002   2.5534847776854533E-006
   3.5481338923357530E-002   2.2191326016286484E-006
   3.9810717055349734E-002   1.9430110086724688E-006
   4.4668359215096300E-002   1.7138294086939810E-006
   5.0118723362727248E-002   1.5227146919862634E-006
   5.6234132519034911E-002   1.3626565183643033E-006
   6.3095734448019303E-002   1.2280879387168389E-006
   7.0794578438413802E-002   1.1145666334920707E-006
   7.9432823472428138E-002   1.0185313657649699E-006
   8.9125093813374592E-002   9.3711496178486364E-007
  0.10000000000000001        8.6799999999999946E-007
  0.11220184543019630        8.0671358958190464E-007
  0.12589254117941662        7.5004690006235634E-007
  0.14125375446227553        6.9788435618989253E-007
  0.15848931924611143        6.5007145594200232E-007
  0.17782794100389229        6.0642614541367110E-007
  0.19952623149688789        5.6674868280107972E-007
  0.22387211385683378        5.3083004917030224E-007
  0.25118864315095824        4.9845901229354715E-007
  0.28183829312644548        4.6942798293298818E-007
  0.31622776601683794        4.4353782362272571E-007
  0.35481338923357530        4.2060178129956527E-007
  0.39810717055349693        4.0044871997031412E-007
  0.44668359215096348        3.8292583067144261E-007
  0.50118723362727247        3.6790099575388036E-007
  0.56234132519034907        3.5526498532358495E-007
  0.63095734448019303        3.4493366772970255E-007
  0.70794578438413736        3.3685042563212291E-007
  0.79432823472428216        3.3098898698039622E-007
  0.89125093813374590        3.2735690930150439E-007
   1.0000000000000000        3.2600000000000030E-007
