   1.0000000000000006E-005   16000.000000000009     
   1.1220184543019630E-005   13052.996213815673     
   1.2589254117941661E-005   10595.414941365292     
   1.4125375446227555E-005   8558.3031210028366     
   1.5848931924611141E-005   6879.6082230868133     
   1.7782794100389229E-005   5504.1531154260902     
   1.9952623149688786E-005   4383.4138287183141     
   2.2387211385683379E-005   3475.1536955533525     
   2.5118864315095822E-005   2742.9604575863696     
   2.8183829312644549E-005   2155.7255701494787     
   3.1622776601683795E-005   1687.0975915353104     
   3.5481338923357534E-005   1314.9346010981121     
   3.9810717055349695E-005   1020.7742996654799     
   4.4668359215096348E-005   789.33495595275645     
   5.0118723362727251E-005   608.05573661708036     
   5.6234132519034907E-005   466.68119253452693     
   6.3095734448019293E-005   356.89172009026419     
   7.0794578438413731E-005   271.97959341298389     
   7.9432823472428221E-005   206.56857430704343     
   8.9125093813374588E-005   156.37404769580328     
   1.0000000000000005E-004   118.00000000000003     
   1.1220184543019630E-004   88.678709830441250     
   1.2589254117941674E-004   66.305281415637324     
   1.4125375446227541E-004   49.324768015461075     
   1.5848931924611142E-004   36.506225010900003     
   1.7782794100389227E-004   26.881315719484789     
   1.9952623149688788E-004   19.693033133496549     
   2.2387211385683400E-004   14.353240778351921     
   2.5118864315095795E-004   10.407810396078824     
   2.8183829312644550E-004   7.5082303913289028     
   3.1622776601683794E-004   5.3886676683343016     
   3.5481338923357532E-004   3.8475792666692290     
   3.9810717055349735E-004   2.7330834397814177     
   4.4668359215096305E-004   1.9314084154227991     
   5.0118723362727253E-004   1.3578382419614594     
   5.6234132519034910E-004  0.94966714782001460     
   6.3095734448019298E-004  0.66075586916237250     
   7.0794578438413802E-004  0.45735523525715865     
   7.9432823472428131E-004  0.31492422161699796     
   8.9125093813374593E-004  0.21572229562690617     
   1.0000000000000002E-003  0.14700000000000002     
   1.1220184543019630E-003   9.8134967200333101E-002
   1.2589254117941675E-003   6.3398963559275587E-002
   1.4125375446227540E-003   3.9816648015429702E-002
   1.5848931924611141E-003   2.4419885697302166E-002
   1.7782794100389228E-003   1.4692347191083576E-002
   1.9952623149688789E-003   8.7112322931728482E-003
   2.2387211385683399E-003   5.1130624288379068E-003
   2.5118864315095794E-003   2.9844747988094574E-003
   2.8183829312644548E-003   1.7402525888755402E-003
   3.1622776601683794E-003   1.0183250907282531E-003
   3.5481338923357532E-003   6.0070689374589587E-004
   3.9810717055349734E-003   3.5885006929346574E-004
   4.4668359215096305E-003   2.1807703394999129E-004
   5.0118723362727246E-003   1.3543332459722422E-004
   5.6234132519034910E-003   8.6343985235510495E-005
   6.3095734448019303E-003   5.6767767363674401E-005
   7.0794578438413804E-003   3.8664014425766064E-005
   7.9432823472428138E-003   2.7404363017179587E-005
   8.9125093813374589E-003   2.0305437390009648E-005
   1.0000000000000002E-002   1.5800000000000018E-005
   1.1220184543019630E-002   1.2680068128953416E-005
   1.2589254117941675E-002   1.0274369678947073E-005
   1.4125375446227540E-002   8.4023861876982637E-006
   1.5848931924611141E-002   6.9328002586086302E-006
   1.7782794100389229E-002   5.7692330764200427E-006
   1.9952623149688788E-002   4.8403367590407839E-006
   2.2387211385683399E-002   4.0928508325292768E-006
   2.5118864315095794E-002   3.4866941214758802E-006
   2.8183829312644550E-002   2.9914663740369102E-006
   3.1622776601683791E-002   2.5839344572744411E-006
   3.5481338923357530E-002   2.2462117884845682E-006
   3.9810717055349734E-002   1.9644297413827873E-006
   4.4668359215096300E-002   1.7277608856834873E-006
   5.0118723362727248E-002   1.5276957225550181E-006
   5.6234132519034911E-002   1.3575033930977652E-006
   6.3095734448019303E-002   1.2118268485574480E-006
   7.0794578438413802E-002   1.0863769711267751E-006
   7.9432823472428138E-002   9.7769999884299701E-007
   8.9125093813374592E-002   8.8299960723393315E-007
  0.10000000000000001        8.0000000000000028E-007
  0.11220184543019630        7.2631286564591949E-007
  0.12589254117941662        6.6031802621955011E-007
  0.14125375446227553        6.0126446012463667E-007
  0.15848931924611143        5.4846406453260161E-007
  0.17782794100389229        5.0128924026694276E-007
  0.19952623149688789        4.5916993923434595E-007
  0.22387211385683378        4.2159035983071865E-007
  0.25118864315095824        3.8808544244153256E-007
  0.28183829312644548        3.5823728761775459E-007
  0.31622776601683794        3.3167159382290242E-007
  0.35481338923357530        3.0805418973288849E-007
  0.39810717055349693        2.8708771773679917E-007
  0.44668359215096348        2.6850851027450528E-007
  0.50118723362727247        2.5208368866296718E-007
  0.56234132519034907        2.3760850480809820E-007
  0.63095734448019303        2.2490393938832033E-007
  0.70794578438413736        2.1381456547607976E-007
  0.79432823472428216        2.0420668392544772E-007
  0.89125093813374590        1.9596673604415556E-007
   1.0000000000000000        1.8899999999999988E-007
