   1.0000000000000006E-005   10400.000000000009     
   1.1220184543019630E-005   9100.0244234513520     
   1.2589254117941661E-005   7885.3424251931465     
   1.4125375446227555E-005   6768.7590633449090     
   1.5848931924611141E-005   5757.7097640326783     
   1.7782794100389229E-005   4854.9461327672134     
   1.9952623149688786E-005   4059.3333096813185     
   2.2387211385683379E-005   3366.6841696534502     
   2.5118864315095822E-005   2770.5699933626070     
   2.8183829312644549E-005   2263.0631757793772     
   3.1622776601683795E-005   1835.3831872686185     
   3.5481338923357534E-005   1478.4309892832578     
   3.9810717055349695E-005   1183.2086050912687     
   4.4668359215096348E-005   941.12921088648864     
   5.0118723362727251E-005   744.22897780297853     
   5.6234132519034907E-005   585.29525710938617     
   6.3095734448019293E-005   457.92700668628987     
   7.0794578438413731E-005   356.54311166898253     
   7.9432823472428221E-005   276.35294795231516     
   8.9125093813374588E-005   213.30160753118955     
   1.0000000000000005E-004   164.00000000000003     
   1.1220184543019630E-004   125.02657172865935     
   1.2589254117941674E-004   94.083616459283888     
   1.4125375446227541E-004   69.920364960245664     
   1.5848931924611142E-004   51.344765238441525     
   1.7782794100389227E-004   37.274880458699364     
   1.9952623149688788E-004   26.766324918643804     
   2.2387211385683400E-004   19.021222678826490     
   2.5118864315095795E-004   13.384128900242370     
   2.8183829312644550E-004   9.3297194927090974     
   3.1622776601683794E-004   6.4461240067355678     
   3.5481338923357532E-004   4.4167733906263233     
   3.9810717055349735E-004   3.0027057123859073     
   4.4668359215096305E-004   2.0264990850960740     
   5.0118723362727253E-004   1.3584099115979853     
   5.6234132519034910E-004  0.90487972606180567     
   6.3095734448019298E-004  0.59930963397511905     
   7.0794578438413802E-004  0.39485427451189042     
   7.9432823472428131E-004  0.25892406148088765     
   8.9125093813374593E-004  0.16907630895158432     
   1.0000000000000002E-003  0.11000000000000000     
   1.1220184543019630E-003   6.9649723857128698E-002
   1.2589254117941675E-003   4.2094156437824243E-002
   1.4125375446227540E-003   2.4442030094979358E-002
   1.5848931924611141E-003   1.3724708969500444E-002
   1.7782794100389228E-003   7.5016495787132830E-003
   1.9952623149688789E-003   4.0173115741203164E-003
   2.2387211385683399E-003   2.1216645795949164E-003
   2.5118864315095794E-003   1.1122892946492861E-003
   2.8183829312644548E-003   5.8263418657970867E-004
   3.1622776601683794E-003   3.0693661473921223E-004
   3.5481338923357532E-003   1.6368667123704990E-004
   3.9810717055349734E-003   8.8946153473104137E-005
   4.4668359215096305E-003   4.9570992757662320E-005
   5.0118723362727246E-003   2.8520163178732213E-005
   5.6234132519034910E-003   1.7050522556833573E-005
   6.3095734448019303E-003   1.0661591370860125E-005
   7.0794578438413804E-003   7.0184688818897038E-006
   7.9432823472428138E-003   4.8959399668233960E-006
   8.9125093813374589E-003   3.6428434060152235E-006
   1.0000000000000002E-002   2.9099999999999975E-006
   1.1220184543019630E-002   2.4251411191558685E-006
   1.2589254117941675E-002   2.0395483627365875E-006
   1.4125375446227540E-002   1.7304069523188179E-006
   1.5848931924611141E-002   1.4806214257155378E-006
   1.7782794100389229E-002   1.2772785748088528E-006
   1.9952623149688788E-002   1.1105479855549672E-006
   2.2387211385683399E-002   9.7288927988749275E-007
   2.5118864315095794E-002   8.5847604215448032E-007
   2.8183829312644550E-002   7.6277402930971722E-007
   3.1622776601683791E-002   6.8223006948094163E-007
   3.5481338923357530E-002   6.1404095954189388E-007
   3.9810717055349734E-002   5.5598059738427394E-007
   4.4668359215096300E-002   5.0626980269047920E-007
   5.0118723362727248E-002   4.6347764365124810E-007
   5.6234132519034911E-002   4.2644617100711046E-007
   6.3095734448019303E-002   3.9423265535333069E-007
   7.0794578438413802E-002   3.6606499581877270E-007
   7.9432823472428138E-002   3.4130710189561161E-007
   8.9125093813374592E-002   3.1943187287107641E-007
  0.10000000000000001        3.0000000000000009E-007
  0.11220184543019630        2.8226134471782008E-007
  0.12589254117941662        2.6571021774319889E-007
  0.14125375446227553        2.5032246409013847E-007
  0.15848931924611143        2.3606637941338555E-007
  0.17782794100389229        2.2290469736887023E-007
  0.19952623149688789        2.1079635294033123E-007
  0.22387211385683378        1.9969802912897545E-007
  0.25118864315095824        1.8956550053174842E-007
  0.28183829312644548        1.8035479185262793E-007
  0.31622776601683794        1.7202317258434153E-007
  0.35481338923357530        1.6453001125509797E-007
  0.39810717055349693        1.5783751404182114E-007
  0.44668359215096348        1.5191137348335895E-007
  0.50118723362727247        1.4672135374854977E-007
  0.56234132519034907        1.4224183968115524E-007
  0.63095734448019303        1.3845237791171905E-007
  0.70794578438413736        1.3533823996019412E-007
  0.79432823472428216        1.3289103974205582E-007
  0.89125093813374590        1.3110944156823819E-007
   1.0000000000000000        1.3000000000000005E-007
