   1.0000000000000006E-005   3730.0000000000018     
   1.1220184543019630E-005   2680.1421038703543     
   1.2589254117941661E-005   1926.7834392598315     
   1.4125375446227555E-005   1385.9087906805846     
   1.5848931924611141E-005   997.38681377107662     
   1.7782794100389229E-005   718.15864083817598     
   1.9952623149688786E-005   517.37509682376890     
   2.2387211385683379E-005   372.92335323935401     
   2.5118864315095822E-005   268.94479104267367     
   2.8183829312644549E-005   194.06032642391716     
   3.1622776601683795E-005   140.10092696141965     
   3.5481338923357534E-005   101.19905519905674     
   3.9810717055349695E-005   73.138099703602990     
   4.4668359215096348E-005   52.886304189936389     
   5.0118723362727251E-005   38.262704557819148     
   5.6234132519034907E-005   27.697564131505459     
   6.3095734448019293E-005   20.060489326824079     
   7.0794578438413731E-005   14.537042789697725     
   7.9432823472428221E-005   10.540125523556249     
   8.9125093813374588E-005   7.6462982152569694     
   1.0000000000000005E-004   5.5499999999999998     
   1.1220184543019630E-004   4.0438792904443401     
   1.2589254117941674E-004   2.9654598998769397     
   1.4125375446227541E-004   2.1863630555289939     
   1.5848931924611142E-004   1.6189615599094134     
   1.7782794100389227E-004   1.2027697774468908     
   1.9952623149688788E-004  0.89558718291867179     
   2.2387211385683400E-004  0.66766760614189258     
   2.5118864315095795E-004  0.49783737190171190     
   2.8183829312644550E-004  0.37088316365284330     
   3.1622776601683794E-004  0.27577624666441775     
   3.5481338923357532E-004  0.20445342422922452     
   3.9810717055349735E-004  0.15097234310324137     
   4.4668359215096305E-004  0.11092094403192335     
   5.0118723362727253E-004   8.1001032384042895E-002
   5.6234132519034910E-004   5.8732172633322359E-002
   6.3095734448019298E-004   4.2239403350511691E-002
   7.0794578438413802E-004   3.0099782635931226E-002
   7.9432823472428131E-004   2.1230513577750781E-002
   8.9125093813374593E-004   1.4806652278958825E-002
   1.0000000000000002E-003   1.0199999999999999E-002
   1.1220184543019630E-003   6.8123521856917725E-003
   1.2589254117941675E-003   4.3505815249646820E-003
   1.4125375446227540E-003   2.6732400261151737E-003
   1.5848931924611141E-003   1.5902161126259055E-003
   1.7782794100389228E-003   9.2148659183843515E-004
   1.9952623149688789E-003   5.2338791835896781E-004
   2.2387211385683399E-003   2.9318874494895360E-004
   2.5118864315095794E-003   1.6298474199538286E-004
   2.8183829312644548E-003   9.0471081917456767E-005
   3.1622776601683794E-003   5.0457174135574139E-005
   3.5481338923357532E-003   2.8449425162670222E-005
   3.9810717055349734E-003   1.6317312252293161E-005
   4.4668359215096305E-003   9.5793366516523483E-006
   5.0118723362727246E-003   5.7919000249912120E-006
   5.6234132519034910E-003   3.6290471618656615E-006
   6.3095734448019303E-003   2.3710309775720669E-006
   7.0794578438413804E-003   1.6253317919262328E-006
   7.9432823472428138E-003   1.1762351265705038E-006
   8.9125093813374589E-003   9.0423371787930572E-007
   1.0000000000000002E-002   7.4299999999999949E-007
   1.1220184543019630E-002   6.3496677310085856E-007
   1.2589254117941675E-002   5.4681972390202251E-007
   1.4125375446227540E-002   4.7442991808594464E-007
   1.5848931924611141E-002   4.1460871955062376E-007
   1.7782794100389229E-002   3.6487743052555987E-007
   1.9952623149688788E-002   3.2329688284954218E-007
   2.2387211385683399E-002   2.8834054886047216E-007
   2.5118864315095794E-002   2.5879945172524584E-007
   2.8183829312644550E-002   2.3371046043909457E-007
   3.1622776601683791E-002   2.1230188903742579E-007
   3.5481338923357530E-002   1.9395197872256766E-007
   3.9810717055349734E-002   1.7815702832560547E-007
   4.4668359215096300E-002   1.6450679255757814E-007
   5.0118723362727248E-002   1.5266538582086417E-007
   5.6234132519034911E-002   1.4235637964524752E-007
   6.3095734448019303E-002   1.3335111163006810E-007
   7.0794578438413802E-002   1.2545946670754225E-007
   7.9432823472428138E-002   1.1852257146564698E-007
   8.9125093813374592E-002   1.1240697624356893E-007
  0.10000000000000001        1.0700000000000002E-007
  0.11220184543019630        1.0204014230680333E-007
  0.12589254117941662        9.7338536092013619E-008
  0.14125375446227553        9.2902129568400955E-008
  0.15848931924611143        8.8734858134637139E-008
  0.17782794100389229        8.4838153501625717E-008
  0.19952623149688789        8.1211426890730936E-008
  0.22387211385683378        7.7852522229862073E-008
  0.25118864315095824        7.4758137477497917E-008
  0.28183829312644548        7.1924214102172911E-008
  0.31622776601683794        6.9346296361382523E-008
  0.35481338923357530        6.7019863398290277E-008
  0.39810717055349693        6.4940638356014985E-008
  0.44668359215096348        6.3104879754538570E-008
  0.50118723362727247        6.1509661347921788E-008
  0.56234132519034907        6.0153147649704393E-008
  0.63095734448019303        5.9034873359999830E-008
  0.70794578438413736        5.8156036136951575E-008
  0.79432823472428216        5.7519813630141934E-008
  0.89125093813374590        5.7131717556444184E-008
   1.0000000000000000        5.7000000000000007E-008
