   1.0000000000000006E-005   14600.000000000002     
   1.1220184543019630E-005   13048.973231240590     
   1.2589254117941661E-005   11499.585950722110     
   1.4125375446227555E-005   9997.9574491348358     
   1.5848931924611141E-005   8580.3384674941899     
   1.7782794100389229E-005   7272.8134631775838     
   1.9952623149688786E-005   6091.8080306546844     
   2.2387211385683379E-005   5045.1785310166360     
   2.5118864315095822E-005   4133.6554710233786     
   2.8183829312644549E-005   3352.4341795051673     
   3.1622776601683795E-005   2692.7456127896889     
   3.5481338923357534E-005   2143.2869325501197     
   3.9810717055349695E-005   1691.4379301423110     
   4.4668359215096348E-005   1324.2299703837650     
   5.0118723362727251E-005   1029.0659217591970     
   5.6234132519034907E-005   794.21165245490238     
   6.3095734448019293E-005   609.09274321793532     
   7.0794578438413731E-005   464.43564778818308     
   7.9432823472428221E-005   352.29254803324341     
   8.9125093813374588E-005   265.98551939801342     
   1.0000000000000005E-004   200.00000000000003     
   1.1220184543019630E-004   147.98917762103986     
   1.2589254117941674E-004   106.59468850749090     
   1.4125375446227541E-004   74.901143508285671     
   1.5848931924611142E-004   51.455314252959326     
   1.7782794100389227E-004   34.633992109302113     
   1.9952623149688788E-004   22.890065356853473     
   2.2387211385683400E-004   14.886935281365577     
   2.5118864315095795E-004   9.5481445448696896     
   2.8183829312644550E-004   6.0524291587327097     
   3.1622776601683794E-004   3.7999608174716739     
   3.5481338923357532E-004   2.3681479100536200     
   3.9810717055349735E-004   1.4681162985398390     
   4.4668359215096305E-004  0.90735169480749556     
   5.0118723362727253E-004  0.56026828159923514     
   5.6234132519034910E-004  0.34638831536731862     
   6.3095734448019298E-004  0.21489132046160186     
   7.0794578438413802E-004  0.13406165840790824     
   7.9432823472428131E-004   8.4287272593542281E-002
   8.9125093813374593E-004   5.3522050466199254E-002
   1.0000000000000002E-003   3.4400000000000007E-002
   1.1220184543019630E-003   2.2056940175180371E-002
   1.2589254117941675E-003   1.3912365392095234E-002
   1.4125375446227540E-003   8.6570434695943076E-003
   1.5848931924611141E-003   5.3296066732692994E-003
   1.7782794100389228E-003   3.2555298619111003E-003
   1.9952623149688789E-003   1.9787603349267278E-003
   2.2387211385683399E-003   1.2002002776469011E-003
   2.5118864315095794E-003   7.2852974606629815E-004
   2.8183829312644548E-003   4.4383129268011728E-004
   3.1622776601683794E-003   2.7215081515546513E-004
   3.5481338923357532E-003   1.6844823886249101E-004
   3.9810717055349734E-003   1.0554373291738829E-004
   4.4668359215096305E-003   6.7135401690193261E-005
   5.0118723362727246E-003   4.3477836403349369E-005
   5.6234132519034910E-003   2.8749180701759988E-005
   6.3095734448019303E-003   1.9465620973277597E-005
   7.0794578438413804E-003   1.3534440888568748E-005
   7.9432823472428138E-003   9.6913810285612968E-006
   8.9125093813374589E-003   7.1671803885104163E-006
   1.0000000000000002E-002   5.4900000000000059E-006
   1.1220184543019630E-002   4.3079708412086434E-006
   1.2589254117941675E-002   3.4171644478278684E-006
   1.4125375446227540E-002   2.7384046442174238E-006
   1.5848931924611141E-002   2.2157149637351517E-006
   1.7782794100389229E-002   1.8090917324499992E-006
   1.9952623149688788E-002   1.4896478798901785E-006
   2.2387211385683399E-002   1.2363143154858325E-006
   2.5118864315095794E-002   1.0335757708770557E-006
   2.8183829312644550E-002   8.6990092836201151E-007
   3.1622776601683791E-002   7.3664327170307844E-007
   3.5481338923357530E-002   6.2726422941509607E-007
   3.9810717055349734E-002   5.3677908596734078E-007
   4.4668359215096300E-002   4.6135828644924089E-007
   5.0118723362727248E-002   3.9803809977119694E-007
   5.6234132519034911E-002   3.4450890218233342E-007
   6.3095734448019303E-002   2.9895900821322945E-007
   7.0794578438413802E-002   2.5995856808294787E-007
   7.9432823472428138E-002   2.2637258501820106E-007
   8.9125093813374592E-002   1.9729525113399530E-007
  0.10000000000000001        1.7199999999999993E-007
  0.11220184543019630        1.5007201459647077E-007
  0.12589254117941662        1.3117981953167633E-007
  0.14125375446227553        1.1488690907108516E-007
  0.15848931924611143        1.0082086292407033E-007
  0.17782794100389229        8.8663888265916633E-008
  0.19952623149688789        7.8144745727294481E-008
  0.22387211385683378        6.9031861966108552E-008
  0.25118864315095824        6.1127458228424175E-008
  0.28183829312644548        5.4262547783125329E-008
  0.31622776601683794        4.8292675615351040E-008
  0.35481338923357530        4.3094291606137318E-008
  0.39810717055349693        3.8561663908929648E-008
  0.44668359215096348        3.4604252633713104E-008
  0.50118723362727247        3.1144475518515335E-008
  0.56234132519034907        2.8115807234167357E-008
  0.63095734448019303        2.5461162536423283E-008
  0.70794578438413736        2.3131520832670810E-008
  0.79432823472428216        2.1084756030675009E-008
  0.89125093813374590        1.9284640927141566E-008
   1.0000000000000000        1.7699999999999990E-008
