   1.0000000000000006E-005   6580.0000000000036     
   1.1220184543019630E-005   5268.6374740197616     
   1.2589254117941661E-005   4194.5313599344299     
   1.4125375446227555E-005   3320.7268027641721     
   1.5848931924611141E-005   2614.5640684594641     
   1.7782794100389229E-005   2047.5463183195193     
   1.9952623149688786E-005   1595.1016095726789     
   2.2387211385683379E-005   1236.2747808479562     
   2.5118864315095822E-005   953.37897817408850     
   2.8183829312644549E-005   731.63067258626450     
   3.1622776601683795E-005   558.78646085615094     
   3.5481338923357534E-005   424.79495406647396     
   3.9810717055349695E-005   321.47277146532451     
   4.4668359215096348E-005   242.21011525014501     
   5.0118723362727251E-005   181.70859135229463     
   5.6234132519034907E-005   135.75180623006324     
   6.3095734448019293E-005   101.00772930060448     
   7.0794578438413731E-005   74.860772102817393     
   7.9432823472428221E-005   55.270903645260695     
   8.9125093813374588E-005   40.656806577327146     
   1.0000000000000005E-004   29.800000000000004     
   1.1220184543019630E-004   21.727301087647341     
   1.2589254117941674E-004   15.731969974077440     
   1.4125375446227541E-004   11.314404963472706     
   1.5848931924611142E-004   8.0841635118916475     
   1.7782794100389227E-004   5.7395348290170869     
   1.9952623149688788E-004   4.0498600429534903     
   2.2387211385683400E-004   2.8405897993221161     
   2.5118864315095795E-004   1.9809143432678151     
   2.8183829312644550E-004   1.3737098477442704     
   3.1622776601683794E-004  0.94750158331339762     
   3.5481338923357532E-004  0.65013563516840500     
   3.9810717055349735E-004  0.44386465999965719     
   4.4668359215096305E-004  0.30158046892369977     
   5.0118723362727253E-004  0.20396017636360922     
   5.6234132519034910E-004  0.13732845834229793     
   6.3095734448019298E-004   9.2072977107143433E-002
   7.0794578438413802E-004   6.1481404336794006E-002
   7.9432823472428131E-004   4.0895808634184488E-002
   8.9125093813374593E-004   2.7103209693891413E-002
   1.0000000000000002E-003   1.7899999999999996E-002
   1.1220184543019630E-003   1.1595850851443174E-002
   1.2589254117941675E-003   7.2741991704269975E-003
   1.4125375446227540E-003   4.4393296400673113E-003
   1.5848931924611141E-003   2.6479873241324306E-003
   1.7782794100389228E-003   1.5509484800057477E-003
   1.9952623149688789E-003   8.9614536972097236E-004
   2.2387211385683399E-003   5.1318723414241392E-004
   2.5118864315095794E-003   2.9262145876923507E-004
   2.8183829312644548E-003   1.6691144092946777E-004
   3.1622776601683794E-003   9.5682455518726210E-005
   3.5481338923357532E-003   5.5381083730369789E-005
   3.9810717055349734E-003   3.2515480898857543E-005
   4.4668359215096305E-003   1.9455176194478925E-005
   5.0118723362727246E-003   1.1918265942134166E-005
   5.6234132519034910E-003   7.5100106712027843E-006
   6.3095734448019303E-003   4.8902861970826427E-006
   7.0794578438413804E-003   3.3060612878329513E-006
   7.9432823472428138E-003   2.3312405437112430E-006
   8.9125093813374589E-003   1.7225803932196900E-006
   1.0000000000000002E-002   1.3399999999999988E-006
   1.1220184543019630E-002   1.0777505396350614E-006
   1.2589254117941675E-002   8.7705504588285208E-007
   1.4125375446227540E-002   7.2164709774768039E-007
   1.5848931924611141E-002   5.9993826949190039E-007
   1.7782794100389229E-002   5.0357736965330328E-007
   1.9952623149688788E-002   4.2647939142686639E-007
   2.2387211385683399E-002   3.6416345751705156E-007
   2.5118864315095794E-002   3.1329640424274981E-007
   2.8183829312644550E-002   2.7137476055399119E-007
   3.1622776601683791E-002   2.3650087709699847E-007
   3.5481338923357530E-002   2.0722377513114628E-007
   3.9810717055349734E-002   1.8242493213955806E-007
   4.4668359215096300E-002   1.6123556934641956E-007
   5.0118723362727248E-002   1.4297622661835416E-007
   5.6234132519034911E-002   1.2711224341946148E-007
   6.3095734448019303E-002   1.1322068463884061E-007
   7.0794578438413802E-002   1.0096556353288641E-007
   7.9432823472428138E-002   9.0079120630045666E-008
   8.9125093813374592E-002   8.0347548959275296E-008
  0.10000000000000001        7.1600000000000046E-008
  0.11220184543019630        6.3807687643558468E-008
  0.12589254117941662        5.6951731540577542E-008
  0.14125375446227553        5.0915385499466335E-008
  0.15848931924611143        4.5596714632480391E-008
  0.17782794100389229        4.0906725220773756E-008
  0.19952623149688789        3.6767724811509980E-008
  0.22387211385683378        3.3111885786210508E-008
  0.25118864315095824        2.9879988411766039E-008
  0.28183829312644548        2.7020321941269402E-008
  0.31622776601683794        2.4487724672660100E-008
  0.35481338923357530        2.2242746004941572E-008
  0.39810717055349693        2.0250915463268411E-008
  0.44668359215096348        1.8482105406421493E-008
  0.50118723362727247        1.6909975695305721E-008
  0.56234132519034907        1.5511490002031499E-008
  0.63095734448019303        1.4266494689033136E-008
  0.70794578438413736        1.3157352299571345E-008
  0.79432823472428216        1.2168622687533818E-008
  0.89125093813374590        1.1286785687798590E-008
   1.0000000000000000        1.0500000000000005E-008
