   1.0000000000000006E-005   19199.999999999982     
   1.1220184543019630E-005   16146.267229942821     
   1.2589254117941661E-005   13496.567604838310     
   1.4125375446227555E-005   11215.508693600679     
   1.5848931924611141E-005   9266.6596887662763     
   1.7782794100389229E-005   7613.7778367638703     
   1.9952623149688786E-005   6221.7719304418670     
   2.2387211385683379E-005   5057.4200663398824     
   2.5118864315095822E-005   4089.8668854883304     
   2.8183829312644549E-005   3290.9302433589369     
   3.1622776601683795E-005   2635.2492049486586     
   3.5481338923357534E-005   2100.3050084470274     
   3.9810717055349695E-005   1666.3447606408238     
   4.4668359215096348E-005   1316.2346525884109     
   5.0118723362727251E-005   1035.2658789037023     
   5.6234132519034907E-005   810.93258769710076     
   6.3095734448019293E-005   632.69737221903949     
   7.0794578438413731E-005   491.75624704382687     
   7.9432823472428221E-005   380.81186430428244     
   8.9125093813374588E-005   293.86099008611023     
   1.0000000000000005E-004   225.99999999999991     
   1.1220184543019630E-004   172.91094947103977     
   1.2589254117941674E-004   131.36989139935159     
   1.4125375446227541E-004   99.126882643327406     
   1.5848931924611142E-004   74.297173524083448     
   1.7782794100389227E-004   55.322442400537490     
   1.9952623149688788E-004   40.929984592887614     
   2.2387211385683400E-004   30.092340921779833     
   2.5118864315095795E-004   21.989102080406255     
   2.8183829312644550E-004   15.971993351905825     
   3.1622776601683794E-004   11.533837354692940     
   3.5481338923357532E-004   8.2816061966828993     
   3.9810717055349735E-004   5.9134965996700242     
   4.4668359215096305E-004   4.1997759748072605     
   5.0118723362727253E-004   2.9670363628754930     
   5.6234132519034910E-004   2.0854393175365034     
   6.3095734448019298E-004   1.4585226006900387     
   7.0794578438413802E-004   1.0151557065823589     
   7.9432823472428131E-004  0.70326502921543732     
   8.9125093813374593E-004  0.48499272260302828     
   1.0000000000000002E-003  0.33300000000000002     
   1.1220184543019630E-003  0.22433272740262816     
   1.2589254117941675E-003  0.14652061057240950     
   1.4125375446227540E-003   9.3171485651151090E-002
   1.5848931924611141E-003   5.7925004450158607E-002
   1.7782794100389228E-003   3.5356431278693916E-002
   1.9952623149688789E-003   2.1277010040631834E-002
   2.2387211385683399E-003   1.2676902208236271E-002
   2.5118864315095794E-003   7.5092503711580473E-003
   2.8183829312644548E-003   4.4410071186630701E-003
   3.1622776601683794E-003   2.6332271917153837E-003
   3.5481338923357532E-003   1.5719463051020483E-003
   3.9810717055349734E-003   9.4874638627779262E-004
   4.4668359215096305E-003   5.8136134329117583E-004
   5.0118723362727246E-003   3.6320037831568324E-004
   5.6234132519034910E-003   2.3231170726374832E-004
   6.3095734448019303E-003   1.5277106299805955E-004
   7.0794578438413804E-003   1.0372342320699776E-004
   7.9432823472428138E-003   7.3012775234124059E-005
   8.9125093813374589E-003   5.3509104443377333E-005
   1.0000000000000002E-002   4.0999999999999994E-005
   1.1220184543019630E-002   3.2325636750232680E-005
   1.2589254117941675E-002   2.5732594022808217E-005
   1.4125375446227540E-002   2.0674906595920500E-005
   1.5848931924611141E-002   1.6760127254265944E-005
   1.7782794100389229E-002   1.3703613295425034E-005
   1.9952623149688788E-002   1.1297104984633759E-005
   2.2387211385683399E-002   9.3869343700126884E-006
   2.5118864315095794E-002   7.8587813285980426E-006
   2.8183829312644550E-002   6.6269194838021788E-006
   3.1622776601683791E-002   5.6265671874397695E-006
   3.5481338923357530E-002   4.8084035589356622E-006
   3.9810717055349734E-002   4.1346062413628743E-006
   4.4668359215096300E-002   3.5759670363939034E-006
   5.0118723362727248E-002   3.1097768217500379E-006
   5.6234132519034911E-002   2.7182635533698846E-006
   6.3095734448019303E-002   2.3874307648708198E-006
   7.0794578438413802E-002   2.1061880944343586E-006
   7.9432823472428138E-002   1.8656961892803620E-006
   8.9125093813374592E-002   1.6588700204852531E-006
  0.10000000000000001        1.4800000000000004E-006
  0.11220184543019630        1.3235076152511426E-006
  0.12589254117941662        1.1854972783620481E-006
  0.14125375446227553        1.0638225069272497E-006
  0.15848931924611143        9.5657140044146287E-007
  0.17782794100389229        8.6204576689144729E-007
  0.19952623149688789        7.7874106550177612E-007
  0.22387211385683378        7.0532740955542952E-007
  0.25118864315095824        6.4063178826229070E-007
  0.28183829312644548        5.8362159879477250E-007
  0.31622776601683794        5.3338952662823890E-007
  0.35481338923357530        4.8913977205375056E-007
  0.39810717055349693        4.5017559114865753E-007
  0.44668359215096348        4.1588809875988224E-007
  0.50118723362727247        3.8574626755035810E-007
  0.56234132519034907        3.5928804947833909E-007
  0.63095734448019303        3.3611254304049000E-007
  0.70794578438413736        3.1587313024353469E-007
  0.79432823472428216        2.9827151080741807E-007
  0.89125093813374590        2.8305256696451830E-007
   1.0000000000000000        2.6999999999999974E-007
