   1.0000000000000006E-005   5460.0000000000009     
   1.1220184543019630E-005   4260.2698253436038     
   1.2589254117941661E-005   3310.2464572836889     
   1.4125375446227555E-005   2561.4841291330035     
   1.5848931924611141E-005   1974.0606090508400     
   1.7782794100389229E-005   1515.2912862510273     
   1.9952623149688786E-005   1158.5851449482402     
   2.2387211385683379E-005   882.44029115163517     
   2.5118864315095822E-005   669.57249138448276     
   2.8183829312644549E-005   506.16735644719620     
   3.1622776601683795E-005   381.24510607122858     
   3.5481338923357534E-005   286.12604505479516     
   3.9810717055349695E-005   213.98475477474125     
   4.4668359215096348E-005   159.48137031321357     
   5.0118723362727251E-005   118.45901695542030     
   5.6234132519034907E-005   87.697393798952675     
   6.3095734448019293E-005   64.713517110645668     
   7.0794578438413731E-005   47.601696527308640     
   7.9432823472428221E-005   34.905858672764381     
   8.9125093813374588E-005   25.518317974562990     
   1.0000000000000005E-004   18.599999999999998     
   1.1220184543019630E-004   13.513437463521262     
   1.2589254117941674E-004   9.7823581262340156     
   1.4125375446227541E-004   7.0550079106807466     
   1.5848931924611142E-004   5.0684955850827293     
   1.7782794100389227E-004   3.6269340254202049     
   1.9952623149688788E-004   2.5848220511814981     
   2.2387211385683400E-004   1.8344397420508574     
   2.5118864315095795E-004   1.2963117354749167     
   2.8183829312644550E-004  0.91201094799156690     
   3.1622776601683794E-004  0.63874371949131192     
   3.5481338923357532E-004  0.44528762064232424     
   3.9810717055349735E-004  0.30895368739321977     
   4.4668359215096305E-004  0.21332233182981342     
   5.0118723362727253E-004  0.14656181513801042     
   5.6234132519034910E-004  0.10018398816738822     
   6.3095734448019298E-004   6.8127140616384113E-002
   7.0794578438413802E-004   4.6082683989450389E-002
   7.9432823472428131E-004   3.1002914633019664E-002
   8.9125093813374593E-004   2.0742726111447823E-002
   1.0000000000000002E-003   1.3799999999999998E-002
   1.1220184543019630E-003   8.9904696177572265E-003
   1.2589254117941675E-003   5.6663314979212773E-003
   1.4125375446227540E-003   3.4711114017734936E-003
   1.5848931924611141E-003   2.0764083278883025E-003
   1.7782794100389228E-003   1.2186114983489564E-003
   1.9952623149688789E-003   7.0494745071791409E-004
   2.2387211385683399E-003   4.0384791364009049E-004
   2.5118864315095794E-003   2.3018617309659013E-004
   2.8183829312644548E-003   1.3115099060169420E-004
   3.1622776601683794E-003   7.5045651889578841E-005
   3.5481338923357532E-003   4.3328312394958428E-005
   3.9810717055349734E-003   2.5359515789804536E-005
   4.4668359215096305E-003   1.5116935044455089E-005
   5.0118723362727246E-003   9.2208468197131217E-006
   5.6234132519034910E-003   5.7821959035362349E-006
   6.3095734448019303E-003   3.7450739114691913E-006
   7.0794578438413804E-003   2.5171218835842095E-006
   7.9432823472428138E-003   1.7638230819854247E-006
   8.9125093813374589E-003   1.2946231998123968E-006
   1.0000000000000002E-002   1.0000000000000006E-006
   1.1220184543019630E-002   7.9821995890866710E-007
   1.2589254117941675E-002   6.4429822001859546E-007
   1.4125375446227540E-002   5.2558242015959876E-007
   1.5848931924611141E-002   4.3304403774452846E-007
   1.7782794100389229E-002   3.6017072915618771E-007
   1.9952623149688788E-002   3.0221615040924886E-007
   2.2387211385683399E-002   2.5568638931115862E-007
   2.5118864315095794E-002   2.1798470503703931E-007
   2.8183829312644550E-002   1.8716329804772863E-007
   3.1622776601683791E-002   1.6174817745591327E-007
   3.5481338923357530E-002   1.4061444134365977E-007
   3.9810717055349734E-002   1.2289665526320923E-007
   4.4668359215096300E-002   1.0792389053758749E-007
   5.0118723362727248E-002   9.5172241559885828E-008
   5.6234132519034911E-002   8.4229837696688422E-008
   6.3095734448019303E-002   7.4770859651556225E-008
   7.0794578438413802E-002   6.6536095577229112E-008
   7.9432823472428138E-002   5.9318281891618448E-008
   8.9125093813374592E-002   5.2950968942620660E-008
  0.10000000000000001        4.7300000000000000E-008
  0.11220184543019630        4.2291380334469296E-008
  0.12589254117941662        3.7874916386027318E-008
  0.14125375446227553        3.3979297665583854E-008
  0.15848931924611143        3.0541741385177066E-008
  0.17782794100389229        2.7507027683737986E-008
  0.19952623149688789        2.4826631317703900E-008
  0.22387211385683378        2.2457943040055272E-008
  0.25118864315095824        2.0363573729821831E-008
  0.28183829312644548        1.8510734363841623E-008
  0.31622776601683794        1.6870685095993587E-008
  0.35481338923357530        1.5418246986829411E-008
  0.39810717055349693        1.4131370276314166E-008
  0.44668359215096348        1.2990753488392114E-008
  0.50118723362727247        1.1979508077928336E-008
  0.56234132519034907        1.1082863762479154E-008
  0.63095734448019303        1.0287910111471354E-008
  0.70794578438413736        9.5833703851047613E-009
  0.79432823472428216        8.9594040186953000E-009
  0.89125093813374590        8.4074345314702088E-009
   1.0000000000000000        7.9200000000000157E-009
