   1.0000000000000006E-005   101.00000000000001     
   1.1220184543019630E-005   73.577226084405723     
   1.2589254117941661E-005   53.683116095047602     
   1.4125375446227555E-005   39.229280473328117     
   1.5848931924611141E-005   28.712257276541475     
   1.7782794100389229E-005   21.048189707614569     
   1.9952623149688786E-005   15.454630630334014     
   2.2387211385683379E-005   11.365931322206382     
   2.5118864315095822E-005   8.3725932307064070     
   2.8183829312644549E-005   6.1777392459753440     
   3.1622776601683795E-005   4.5658308751545693     
   3.5481338923357534E-005   3.3801563049664400     
   3.9810717055349695E-005   2.5066085187473366     
   4.4668359215096348E-005   1.8619801805801597     
   5.0118723362727251E-005   1.3855061593438982     
   5.6234132519034907E-005   1.0327442401279758     
   6.3095734448019293E-005  0.77114148160907181     
   7.0794578438413731E-005  0.57681741308337064     
   7.9432823472428221E-005  0.43222683016584013     
   8.9125093813374588E-005  0.32445927493178123     
   1.0000000000000005E-004  0.24399999999999999     
   1.1220184543019630E-004  0.18472931530182468     
   1.2589254117941674E-004  0.14134099756809423     
   1.4125375446227541E-004  0.10911765794404814     
   1.5848931924611142E-004   8.4864232176817933E-002
   1.7782794100389227E-004   6.6384290464399198E-002
   1.9952623149688788E-004   5.2146497661791920E-002
   2.2387211385683400E-004   4.1068834930279567E-002
   2.5118864315095795E-004   3.2376898605878009E-002
   2.8183829312644550E-004   2.5509500054681472E-002
   3.1622776601683794E-004   2.0054909351300821E-002
   3.5481338923357532E-004   1.5707234516691961E-002
   3.9810717055349735E-004   1.2236218850305578E-002
   4.4668359215096305E-004   9.4661077069336137E-003
   5.0118723362727253E-004   7.2607345549693678E-003
   5.6234132519034910E-004   5.5129341454471011E-003
   6.3095734448019298E-004   4.1370082897405581E-003
   7.0794578438413802E-004   3.0633705554426447E-003
   7.9432823472428131E-004   2.2347577233195865E-003
   8.9125093813374593E-004   1.6035678677435744E-003
   1.0000000000000002E-003   1.1299999999999995E-003
   1.1220184543019630E-003   7.5856930479015162E-004
   1.2589254117941675E-003   4.7403577870824154E-004
   1.4125375446227540E-003   2.7836005321893746E-004
   1.5848931924611141E-003   1.5504705735634321E-004
   1.7782794100389228E-003   8.2691690531006221E-005
   1.9952623149688789E-003   4.2626810171318550E-005
   2.2387211385683399E-003   2.1439137899816270E-005
   2.5118864315095794E-003   1.0619797011319086E-005
   2.8183829312644548E-003   5.2298643603810132E-006
   3.1622776601683794E-003   2.5847041697304513E-006
   3.5481338923357532E-003   1.2940717801311386E-006
   3.9810717055349734E-003   6.6254272797555706E-007
   4.4668359215096305E-003   3.5015337350105430E-007
   5.0118723362727246E-003   1.9282908176096984E-007
   5.6234132519034910E-003   1.1169595435358848E-007
   6.3095734448019303E-003   6.8696394122189024E-008
   7.0794578438413804E-003   4.5283806381548785E-008
   7.9432823472428138E-003   3.2295743694808859E-008
   8.9125093813374589E-003   2.5154861645212824E-008
   1.0000000000000002E-002   2.1599999999999988E-008
   1.1220184543019630E-002   1.9597865352119915E-008
   1.2589254117941675E-002   1.7891592890601752E-008
   1.4125375446227540E-002   1.6430332540307172E-008
   1.5848931924611141E-002   1.5173043222362232E-008
   1.7782794100389229E-002   1.4086396879668864E-008
   1.9952623149688788E-002   1.3143163711592091E-008
   2.2387211385683399E-002   1.2320960762965202E-008
   2.5118864315095794E-002   1.1601276545388143E-008
   2.8183829312644550E-002   1.0968706610096518E-008
   3.1622776601683791E-002   1.0410351292916884E-008
   3.5481338923357530E-002   9.9153388712324800E-009
   3.9810717055349734E-002   9.4744462870127641E-009
   4.4668359215096300E-002   9.0797962385415778E-009
   5.0118723362727248E-002   8.7246144292722988E-009
   5.6234132519034911E-002   8.4030345202697402E-009
   6.3095734448019303E-002   8.1099411785762990E-009
   7.0794578438413802E-002   7.8408437776573309E-009
   7.9432823472428138E-002   7.5917749563835344E-009
   8.9125093813374592E-002   7.3592095038106661E-009
  0.10000000000000001        7.1400000000000080E-009
  0.11220184543019630        6.9302885730126916E-009
  0.12589254117941662        6.7284892307688833E-009
  0.14125375446227553        6.5350535834137995E-009
  0.15848931924611143        6.3503593986873829E-009
  0.17782794100389229        6.1747194500703217E-009
  0.19952623149688789        6.0083903638909535E-009
  0.22387211385683378        5.8515813870909100E-009
  0.25118864315095824        5.7044630210968739E-009
  0.28183829312644548        5.5671754897114688E-009
  0.31622776601683794        5.4398370301073861E-009
  0.35481338923357530        5.3225520159953166E-009
  0.39810717055349693        5.2154189410337818E-009
  0.44668359215096348        5.1185383088500958E-009
  0.50118723362727247        5.0320204940206727E-009
  0.56234132519034907        4.9559936564736845E-009
  0.63095734448019303        4.8906118105815898E-009
  0.70794578438413736        4.8360631703479372E-009
  0.79432823472428216        4.7925789143304186E-009
  0.89125093813374590        4.7604425391813153E-009
   1.0000000000000000        4.7400000000000064E-009
