   1.0000000000000006E-005   20599.999999999993     
   1.1220184543019630E-005   17446.673102183024     
   1.2589254117941661E-005   14678.868072276968     
   1.4125375446227555E-005   12271.053775757164     
   1.5848931924611141E-005   10194.250676511943     
   1.7782794100389229E-005   8417.5891349253325     
   1.9952623149688786E-005   6909.6160206679469     
   2.2387211385683379E-005   5639.3452844342228     
   2.5118864315095822E-005   4577.0625832340265     
   2.8183829312644549E-005   3694.9044781069297     
   3.1622776601683795E-005   2967.2394125685437     
   3.5481338923357534E-005   2370.8811291931347     
   3.9810717055349695E-005   1885.1659941697380     
   4.4668359215096348E-005   1491.9245103723649     
   5.0118723362727251E-005   1175.3747155869589     
   5.6234132519034907E-005   921.96172341265867     
   6.3095734448019293E-005   720.16381892083837     
   7.0794578438413731E-005   560.28161942508552     
   7.9432823472428221E-005   434.22310609964399     
   8.9125093813374588E-005   335.29399106123856     
   1.0000000000000005E-004   257.99999999999994     
   1.1220184543019630E-004   197.28003840140423     
   1.2589254117941674E-004   149.50830689144124     
   1.4125375446227541E-004   112.33945215633391     
   1.5848931924611142E-004   83.724032123691003     
   1.7782794100389227E-004   61.913432547938349     
   1.9952623149688788E-004   45.446725689593194     
   2.2387211385683400E-004   33.126026295880436     
   2.5118864315095795E-004   23.985632172217318     
   2.8183829312644550E-004   17.258940725297361     
   3.1622776601683794E-004   12.345944003074788     
   3.5481338923357532E-004   8.7830978929378407     
   3.9810717055349735E-004   6.2165646638703782     
   4.4668359215096305E-004   4.3792380799366510     
   5.0118723362727253E-004   3.0715534939873890     
   5.6234132519034910E-004   2.1458289146862790     
   6.3095734448019298E-004   1.4937421726097060     
   7.0794578438413802E-004   1.0364916049492132     
   7.9432823472428131E-004  0.71718564634093762     
   8.9125093813374593E-004  0.49503864136583181     
   1.0000000000000002E-003  0.34100000000000003     
   1.1220184543019630E-003  0.23153219133061625     
   1.2589254117941675E-003  0.15336255327781859     
   1.4125375446227540E-003   9.9439098189345848E-002
   1.5848931924611141E-003   6.3329181610961113E-002
   1.7782794100389228E-003   3.9750114138064341E-002
   1.9952623149688789E-003   2.4674004710086555E-002
   2.2387211385683399E-003   1.5198006261834252E-002
   2.5118864315095794E-003   9.3209088491842031E-003
   2.8183829312644548E-003   5.7112809207423600E-003
   3.1622776601683794E-003   3.5082566471368818E-003
   3.5481338923357532E-003   2.1677576009952247E-003
   3.9810717055349734E-003   1.3519809078223581E-003
   4.4668359215096305E-003   8.5398419525916107E-004
   5.0118723362727246E-003   5.4818543810691302E-004
   5.6234132519034910E-003   3.5882483761534383E-004
   6.3095734448019303E-003   2.4032214585195709E-004
   7.0794578438413804E-003   1.6524956956968267E-004
   7.9432823472428138E-003   1.1705799516748324E-004
   8.9125093813374589E-003   8.5714635199945146E-005
   1.0000000000000002E-002   6.5099999999999970E-005
   1.1220184543019630E-002   5.0644352855907543E-005
   1.2589254117941675E-002   3.9754538388635519E-005
   1.4125375446227540E-002   3.1479045732948781E-005
   1.5848931924611141E-002   2.5136746163985208E-005
   1.7782794100389229E-002   2.0235909155976440E-005
   1.9952623149688788E-002   1.6418597112001971E-005
   2.2387211385683399E-002   1.3422163890443701E-005
   2.5118864315095794E-002   1.1052377198410698E-005
   2.8183829312644550E-002   9.1645053978174419E-006
   3.1622776601683791E-002   7.6499049629910228E-006
   3.5481338923357530E-002   6.4264365885357036E-006
   3.9810717055349734E-002   5.4315664194548949E-006
   4.4668359215096300E-002   4.6173643652514149E-006
   5.0118723362727248E-002   3.9468524090929982E-006
   5.6234132519034911E-002   3.3913203516043100E-006
   6.3095734448019303E-002   2.9283395897259906E-006
   7.0794578438413802E-002   2.5402839131126198E-006
   7.9432823472428138E-002   2.2132209679154954E-006
   8.9125093813374592E-002   1.9360764226193439E-006
  0.10000000000000001        1.7000000000000007E-006
  0.11220184543019630        1.4966818144215191E-006
  0.12589254117941662        1.3201629894524119E-006
  0.14125375446227553        1.1668729098315461E-006
  0.15848931924611143        1.0337080915227432E-006
  0.17782794100389229        9.1797541488607334E-007
  0.19952623149688789        8.1734118279266231E-007
  0.22387211385683378        7.2978567258475745E-007
  0.25118864315095824        6.5356279970205196E-007
  0.28183829312644548        5.8716448407108352E-007
  0.31622776601683794        5.2928930221467648E-007
  0.35481338923357530        4.7881501367871809E-007
  0.39810717055349693        4.3477456586913994E-007
  0.44668359215096348        3.9633520359744853E-007
  0.50118723362727247        3.6278033607834284E-007
  0.56234132519034907        3.3349384291213692E-007
  0.63095734448019303        3.0794653030315570E-007
  0.70794578438413736        2.8568447839455397E-007
  0.79432823472428216        2.6631904944516786E-007
  0.89125093813374590        2.4951835420108132E-007
   1.0000000000000000        2.3499999999999976E-007
