   1.0000000000000006E-005   19899.999999999989     
   1.1220184543019630E-005   16803.485168863503     
   1.2589254117941661E-005   14099.359244723039     
   1.4125375446227555E-005   11757.710351361980     
   1.5848931924611141E-005   9746.2862564105435     
   1.7782794100389229E-005   8031.8991361394819     
   1.9952623149688786E-005   6581.5723498458610     
   2.2387211385683379E-005   5363.4354364733008     
   2.5118864315095822E-005   4347.3848831548157     
   2.8183829312644549E-005   3505.5358608867150     
   3.1622776601683795E-005   2812.4944880058551     
   3.5481338923357534E-005   2245.4818092622336     
   3.9810717055349695E-005   1784.3401622459053     
   4.4668359215096348E-005   1411.4505319312152     
   5.0118723362727251E-005   1111.5864061226837     
   5.6234132519034907E-005   871.72600051281700     
   6.3095734448019293E-005   680.84089280814544     
   7.0794578438413731E-005   529.67537007019803     
   7.9432823472428221E-005   410.52734549450469     
   8.9125093813374588E-005   317.03865918388817     
   1.0000000000000005E-004   243.99999999999989     
   1.1220184543019630E-004   186.74837038079508     
   1.2589254117941674E-004   141.84288346498167     
   1.4125375446227541E-004   106.93757006497529     
   1.5848931924611142E-004   80.041163799085837     
   1.7782794100389227E-004   59.490154167691124     
   1.9952623149688788E-004   43.915082614648504     
   2.2387211385683400E-004   32.203829394691503     
   2.5118864315095795E-004   23.464690337863857     
   2.8183829312644550E-004   16.991195134721604     
   3.1622776601683794E-004   12.229905792475446     
   3.5481338923357532E-004   8.7518662709568638     
   3.9810717055349735E-004   6.2279469563885446     
   4.4668359215096305E-004   4.4080255300858102     
   5.0118723362727253E-004   3.1037487303686428     
   5.6234132519034910E-004   2.1745057464553970     
   6.3095734448019298E-004   1.5161927267113302     
   7.0794578438413802E-004   1.0523407698465632     
   7.9432823472428131E-004  0.72720158166114790     
   8.9125093813374593E-004  0.50042380213093796     
   1.0000000000000002E-003  0.34300000000000003     
   1.1220184543019630E-003  0.23077359411862902     
   1.2589254117941675E-003  0.15059785004978860     
   1.4125375446227540E-003   9.5717955730645052E-002
   1.5848931924611141E-003   5.9499232437806179E-002
   1.7782794100389228E-003   3.6322349930367363E-002
   1.9952623149688789E-003   2.1866660400381620E-002
   2.2387211385683399E-003   1.3035816854466404E-002
   2.5118864315095794E-003   7.7275643282239872E-003
   2.8183829312644548E-003   4.5740079733981023E-003
   3.1622776601683794E-003   2.7145786926904007E-003
   3.5481338923357532E-003   1.6220360622204088E-003
   3.9810717055349734E-003   9.7987899242778990E-004
   4.4668359215096305E-003   6.0095171787097985E-004
   5.0118723362727246E-003   3.7571906108535926E-004
   5.6234132519034910E-003   2.4046103379320508E-004
   6.3095734448019303E-003   1.5819230215485765E-004
   7.0794578438413804E-003   1.0742032412257876E-004
   7.9432823472428138E-003   7.5604799676057811E-005
   8.9125093813374589E-003   5.5382861737355125E-005
   1.0000000000000002E-002   4.2400000000000028E-005
   1.1220184543019630E-002   3.3379661908484979E-005
   1.2589254117941675E-002   2.6510933099383356E-005
   1.4125375446227540E-002   2.1237663750538849E-005
   1.5848931924611141E-002   1.7156897506011384E-005
   1.7782794100389229E-002   1.3974385063818229E-005
   1.9952623149688788E-002   1.1473613901009211E-005
   2.2387211385683399E-002   9.4940819447736825E-006
   2.5118864315095794E-002   7.9159416234669462E-006
   2.8183829312644550E-002   6.6490667891448267E-006
   3.1622776601683791E-002   5.6252128067324091E-006
   3.5481338923357530E-002   4.7923553174573051E-006
   3.9810717055349734E-002   4.1105742649946012E-006
   4.4668359215096300E-002   3.5490414042267559E-006
   5.0118723362727248E-002   3.0838010690218242E-006
   5.6234132519034911E-002   2.6961249047361983E-006
   6.3095734448019303E-002   2.3712845383510902E-006
   7.0794578438413802E-002   2.0976304664080088E-006
   7.9432823472428138E-002   1.8658966680193608E-006
   8.9125093813374592E-002   1.6686725959527956E-006
  0.10000000000000001        1.5000000000000005E-006
  0.11220184543019630        1.3525800864683567E-006
  0.12589254117941662        1.2213361919889372E-006
  0.14125375446227553        1.1046391546765738E-006
  0.15848931924611143        1.0009930658958027E-006
  0.17782794100389229        9.0903288817678517E-007
  0.19952623149688789        8.2751995453187494E-007
  0.22387211385683378        7.5533597077368151E-007
  0.25118864315095824        6.9147603635485616E-007
  0.28183829312644548        6.3504110324274205E-007
  0.31622776601683794        5.8523020767687368E-007
  0.35481338923357530        5.4133273675937866E-007
  0.39810717055349693        5.0272093052302683E-007
  0.44668359215096348        4.6884276983889957E-007
  0.50118723362727247        4.3921536046800168E-007
  0.56234132519034907        4.1341889283836712E-007
  0.63095734448019303        3.9109123486470933E-007
  0.70794578438413736        3.7192320054339072E-007
  0.79432823472428216        3.5565452954204916E-007
  0.89125093813374590        3.4207061218215596E-007
   1.0000000000000000        3.3100000000000009E-007
