   1.0000000000000006E-005   11699.999999999989     
   1.1220184543019630E-005   9274.6460900497350     
   1.2589254117941661E-005   7325.6193232951082     
   1.4125375446227555E-005   5765.6819492152790     
   1.5848931924611141E-005   4522.1000923183465     
   1.7782794100389229E-005   3534.5703721486466     
   1.9952623149688786E-005   2753.3656294664324     
   2.2387211385683379E-005   2137.6950519253223     
   2.5118864315095822E-005   1654.2686804246739     
   2.8183829312644549E-005   1276.0526460750339     
   3.1622776601683795E-005   981.19924615643322     
   3.5481338923357534E-005   752.13484108070850     
   3.9810717055349695E-005   574.78829387462213     
   4.4668359215096348E-005   437.94305979265033     
   5.0118723362727251E-005   332.69687907985838     
   5.6234132519034907E-005   252.01417521691639     
   6.3095734448019293E-005   190.35758889657484     
   7.0794578438413731E-005   143.38648659817753     
   7.9432823472428221E-005   107.71169811674670     
   8.9125093813374588E-005   80.697106472725679     
   1.0000000000000005E-004   60.299999999999983     
   1.1220184543019630E-004   44.964902211233714     
   1.2589254117941674E-004   33.469473122160970     
   1.4125375446227541E-004   24.859966277393241     
   1.5848931924611142E-004   18.419854156288949     
   1.7782794100389227E-004   13.610164912516304     
   1.9952623149688788E-004   10.025122581923075     
   2.2387211385683400E-004   7.3590652767402203     
   2.5118864315095795E-004   5.3817043289460136     
   2.8183829312644550E-004   3.9195732342471814     
   3.1622776601683794E-004   2.8420849774101171     
   3.5481338923357532E-004   2.0510309633208323     
   3.9810717055349735E-004   1.4726576982410591     
   4.4668359215096305E-004   1.0516794805893126     
   5.0118723362727253E-004  0.74674880746155736     
   5.6234132519034910E-004  0.52702689613799392     
   6.3095734448019298E-004  0.36958614427014391     
   7.0794578438413802E-004  0.25744282870707069     
   7.9432823472428131E-004  0.17806792069349137     
   8.9125093813374593E-004  0.12226098859747604     
   1.0000000000000002E-003   8.3299999999999985E-002
   1.1220184543019630E-003   5.5336313571852903E-002
   1.2589254117941675E-003   3.5350965951887435E-002
   1.4125375446227540E-003   2.1835968161106098E-002
   1.5848931924611141E-003   1.3112273263850505E-002
   1.7782794100389228E-003   7.6961259918502277E-003
   1.9952623149688789E-003   4.4392463959464171E-003
   2.2387211385683399E-003   2.5301338886718982E-003
   2.5118864315095794E-003   1.4326140091166924E-003
   2.8183829312644548E-003   8.1025288731246343E-004
   3.1622776601683794E-003   4.6022684856037832E-004
   3.5481338923357532E-003   2.6395965404813940E-004
   3.9810717055349734E-003   1.5369921617261733E-004
   4.4668359215096305E-003   9.1354201049038250E-005
   5.0118723362727246E-003   5.5726585037758135E-005
   5.6234132519034910E-003   3.5077419590493308E-005
   6.3095734448019303E-003   2.2907537875333689E-005
   7.0794578438413804E-003   1.5605188643044301E-005
   7.9432823472428138E-003   1.1149457416709947E-005
   8.9125093813374589E-003   8.4001455291509240E-006
   1.0000000000000002E-002   6.7100000000000069E-006
   1.1220184543019630E-002   5.5510160441996898E-006
   1.2589254117941675E-002   4.6285304542459660E-006
   1.4125375446227540E-002   3.8893849471358058E-006
   1.5848931924611141E-002   3.2933081792820582E-006
   1.7782794100389229E-002   2.8095963926630762E-006
   1.9952623149688788E-002   2.4146939858265589E-006
   2.2387211385683399E-002   2.0904189998788131E-006
   2.5118864315095794E-002   1.8226536402964034E-006
   2.8183829312644550E-002   1.6003721683399645E-006
   3.1622776601683791E-002   1.4149150046769443E-006
   3.5481338923357530E-002   1.2594435697563512E-006
   3.9810717055349734E-002   1.1285285581826808E-006
   4.4668359215096300E-002   1.0178372781175592E-006
   5.0118723362727248E-002   9.2389494434056615E-007
   5.6234132519034911E-002   8.4390147694256539E-007
   6.3095734448019303E-002   7.7559017999167143E-007
   7.0794578438413802E-002   7.1711818330514868E-007
   7.9432823472428138E-002   6.6698109695248787E-007
   8.9125093813374592E-002   6.2394621507577176E-007
  0.10000000000000001        5.8699999999999931E-007
  0.11220184543019630        5.5385489394386677E-007
  0.12589254117941662        5.2281212196886469E-007
  0.14125375446227553        4.9386277696454068E-007
  0.15848931924611143        4.6697880949413455E-007
  0.17782794100389229        4.4211731814410678E-007
  0.19952623149688789        4.1922444038325306E-007
  0.22387211385683378        3.9823883927125348E-007
  0.25118864315095824        3.7909479883480807E-007
  0.28183829312644548        3.6172495466222551E-007
  0.31622776601683794        3.4606269682043950E-007
  0.35481338923357530        3.3204429020443071E-007
  0.39810717055349693        3.1961076355377019E-007
  0.44668359215096348        3.0870962329421475E-007
  0.50118723362727247        2.9929645277188792E-007
  0.56234132519034907        2.9133646204584591E-007
  0.63095734448019303        2.8480605892803779E-007
  0.70794578438413736        2.7969451921036716E-007
  0.79432823472428216        2.7600584391386009E-007
  0.89125093813374590        2.7376090503297482E-007
   1.0000000000000000        2.7300000000000029E-007
