   1.0000000000000006E-005   5130.0000000000000     
   1.0000000000000005E-004   16.399999999999999     
   1.0000000000000002E-003   1.1700000000000000E-002
   1.0000000000000002E-002   9.6400000000000000E-007
  0.10000000000000001        4.5900000000000001E-008
   1.0000000000000000        6.5599999999999997E-009
