   1.0000000000000006E-005   6390.0000000000000     
   1.0000000000000005E-004   15.400000000000000     
   1.0000000000000002E-003   2.2700000000000001E-002
   1.0000000000000002E-002   1.6300000000000001E-006
  0.10000000000000001        2.1700000000000000E-007
   1.0000000000000000        1.0200000000000000E-007
