   1.0000000000000006E-005   19600.000000000000     
   1.0000000000000005E-004   263.00000000000000     
   1.0000000000000002E-003  0.64200000000000002     
   1.0000000000000002E-002   2.5599999999999999E-005
  0.10000000000000001        9.6400000000000000E-007
   1.0000000000000000        3.1399999999999998E-007
