   1.0000000000000006E-005   17800.000000000000     
   1.0000000000000005E-004   168.00000000000000     
   1.0000000000000002E-003  0.10600000000000000     
   1.0000000000000002E-002   1.3100000000000000E-005
  0.10000000000000001        5.3499999999999996E-007
   1.0000000000000000        9.7500000000000006E-008
