   1.0000000000000006E-005   5530.0000000000000     
   1.0000000000000005E-004   11.600000000000000     
   1.0000000000000002E-003   1.7700000000000000E-002
   1.0000000000000002E-002   1.3000000000000000E-006
  0.10000000000000001        1.8099999999999999E-007
   1.0000000000000000        8.6500000000000000E-008
