   1.0000000000000006E-005   7270.0000000000000     
   1.0000000000000005E-004   43.200000000000003     
   1.0000000000000002E-003   4.5699999999999998E-002
   1.0000000000000002E-002   1.8600000000000000E-006
  0.10000000000000001        1.4100000000000001E-007
   1.0000000000000000        2.2799999999999999E-008
