   1.0000000000000006E-005   13100.000000000000     
   1.0000000000000005E-004   76.500000000000000     
   1.0000000000000002E-003  0.10100000000000001     
   1.0000000000000002E-002   8.9500000000000007E-006
  0.10000000000000001        7.1299999999999999E-007
   1.0000000000000000        3.1500000000000000E-007
