   1.0000000000000006E-005   20000.000000000000     
   1.0000000000000005E-004   272.00000000000000     
   1.0000000000000002E-003  0.56599999999999995     
   1.0000000000000002E-002   3.1399999999999998E-005
  0.10000000000000001        8.4499999999999996E-007
   1.0000000000000000        1.6500000000000001E-007
