   1.0000000000000006E-005   8770.0000000000000     
   1.0000000000000005E-004   31.600000000000001     
   1.0000000000000002E-003   4.3900000000000002E-002
   1.0000000000000002E-002   3.1200000000000002E-006
  0.10000000000000001        3.0100000000000001E-007
   1.0000000000000000        1.3100000000000000E-007
