   1.0000000000000006E-005   17600.000000000000     
   1.0000000000000005E-004   161.00000000000000     
   1.0000000000000002E-003  0.10100000000000001     
   1.0000000000000002E-002   1.2300000000000001E-005
  0.10000000000000001        5.0299999999999999E-007
   1.0000000000000000        7.9800000000000000E-008
