   1.0000000000000006E-005   5350.0000000000000     
   1.0000000000000005E-004   17.800000000000001     
   1.0000000000000002E-003   1.3200000000000000E-002
   1.0000000000000002E-002   9.9399999999999993E-007
  0.10000000000000001        4.7400000000000001E-008
   1.0000000000000000        7.5300000000000003E-009
