   1.0000000000000006E-005   9410.0000000000000     
   1.0000000000000005E-004   36.299999999999997     
   1.0000000000000002E-003   4.8700000000000000E-002
   1.0000000000000002E-002   3.5400000000000000E-006
  0.10000000000000001        3.2399999999999999E-007
   1.0000000000000000        1.3700000000000000E-007
