   1.0000000000000006E-005   12200.000000000000     
   1.0000000000000005E-004   268.00000000000000     
   1.0000000000000002E-003  0.20399999999999999     
   1.0000000000000002E-002   4.8099999999999997E-006
  0.10000000000000001        5.8599999999999998E-007
   1.0000000000000000        2.6700000000000000E-007
