   1.0000000000000006E-005   4060.0000000000000     
   1.0000000000000005E-004   13.000000000000000     
   1.0000000000000002E-003   9.1900000000000003E-003
   1.0000000000000002E-002   8.2699999999999998E-007
  0.10000000000000001        4.2599999999999998E-008
   1.0000000000000000        5.8200000000000002E-009
