   1.0000000000000006E-005   101.00000000000000     
   1.0000000000000005E-004  0.24399999999999999     
   1.0000000000000002E-003   1.1299999999999999E-003
   1.0000000000000002E-002   2.1600000000000002E-008
  0.10000000000000001        7.1399999999999997E-009
   1.0000000000000000        4.7399999999999998E-009
