   1.0000000000000006E-005   8700.0000000000000     
   1.0000000000000005E-004   82.299999999999997     
   1.0000000000000002E-003   5.8299999999999998E-002
   1.0000000000000002E-002   1.8400000000000000E-006
  0.10000000000000001        1.1700000000000000E-007
   1.0000000000000000        2.6300000000000001E-008
