   1.0000000000000006E-005   8540.0000000000000     
   1.0000000000000005E-004   29.600000000000001     
   1.0000000000000002E-003   4.1799999999999997E-002
   1.0000000000000002E-002   2.9600000000000000E-006
  0.10000000000000001        2.9700000000000003E-007
   1.0000000000000000        1.3199999999999999E-007
