   1.0000000000000006E-005   7940.0000000000000     
   1.0000000000000005E-004   58.700000000000003     
   1.0000000000000002E-003   5.6000000000000001E-002
   1.0000000000000002E-002   1.7799999999999999E-006
  0.10000000000000001        1.2100000000000001E-007
   1.0000000000000000        2.5100000000000000E-008
