   1.0000000000000006E-005   12000.000000000000     
   1.0000000000000005E-004   263.00000000000000     
   1.0000000000000002E-003  0.22100000000000000     
   1.0000000000000002E-002   4.8199999999999996E-006
  0.10000000000000001        6.0399999999999996E-007
   1.0000000000000000        2.5600000000000002E-007
