   1.0000000000000006E-005   5570.0000000000000     
   1.0000000000000005E-004   19.500000000000000     
   1.0000000000000002E-003   1.4500000000000001E-002
   1.0000000000000002E-002   1.0200000000000000E-006
  0.10000000000000001        4.8599999999999998E-008
   1.0000000000000000        8.3500000000000003E-009
