   1.0000000000000006E-005   14700.000000000000     
   1.0000000000000005E-004   194.00000000000000     
   1.0000000000000002E-003   3.5999999999999997E-002
   1.0000000000000002E-002   5.3700000000000003E-006
  0.10000000000000001        1.6800000000000000E-007
   1.0000000000000000        2.0800000000000001E-008
