   1.0000000000000006E-005   7570.0000000000000     
   1.0000000000000005E-004   21.899999999999999     
   1.0000000000000002E-003   3.2399999999999998E-002
   1.0000000000000002E-002   2.2000000000000001E-006
  0.10000000000000001        2.6800000000000002E-007
   1.0000000000000000        1.3100000000000000E-007
