   1.0000000000000006E-005   10200.000000000000     
   1.0000000000000005E-004   44.899999999999999     
   1.0000000000000002E-003   6.2000000000000000E-002
   1.0000000000000002E-002   4.6800000000000001E-006
  0.10000000000000001        4.2100000000000002E-007
   1.0000000000000000        1.9200000000000000E-007
