   1.0000000000000006E-005   5290.0000000000000     
   1.0000000000000005E-004   17.399999999999999     
   1.0000000000000002E-003   1.2800000000000001E-002
   1.0000000000000002E-002   9.8799999999999990E-007
  0.10000000000000001        4.7199999999999999E-008
   1.0000000000000000        7.3000000000000000E-009
