   1.0000000000000006E-005   5810.0000000000000     
   1.0000000000000005E-004   21.399999999999999     
   1.0000000000000002E-003   1.5500000000000000E-002
   1.0000000000000002E-002   1.0699999999999999E-006
  0.10000000000000001        5.1800000000000001E-008
   1.0000000000000000        9.0699999999999995E-009
