   1.0000000000000006E-005   20600.000000000000     
   1.0000000000000005E-004   262.00000000000000     
   1.0000000000000002E-003  0.32000000000000001     
   1.0000000000000002E-002   5.7000000000000003E-005
  0.10000000000000001        1.3400000000000001E-006
   1.0000000000000000        2.0800000000000001E-007
