   1.0000000000000006E-005   15100.000000000000     
   1.0000000000000005E-004   179.00000000000000     
   1.0000000000000002E-003   6.4199999999999993E-002
   1.0000000000000002E-002   5.3700000000000003E-006
  0.10000000000000001        2.0500000000000000E-007
   1.0000000000000000        5.5400000000000000E-008
