   1.0000000000000006E-005   4860.0000000000000     
   1.0000000000000005E-004   15.100000000000000     
   1.0000000000000002E-003   1.0900000000000000E-002
   1.0000000000000002E-002   1.1200000000000001E-006
  0.10000000000000001        6.6199999999999997E-008
   1.0000000000000000        7.3700000000000000E-009
