   1.0000000000000006E-005   20000.000000000000     
   1.0000000000000005E-004   247.00000000000000     
   1.0000000000000002E-003  0.34799999999999998     
   1.0000000000000002E-002   4.2899999999999999E-005
  0.10000000000000001        1.5000000000000000E-006
   1.0000000000000000        3.3599999999999999E-007
