   1.0000000000000006E-005   88.799999999999997     
   1.0000000000000005E-004  0.33000000000000002     
   1.0000000000000002E-003   1.4900000000000000E-003
   1.0000000000000002E-002   2.9200000000000000E-008
  0.10000000000000001        9.6699999999999999E-009
   1.0000000000000000        6.3400000000000000E-009
