   1.0000000000000006E-005   12400.000000000000     
   1.0000000000000005E-004   68.200000000000003     
   1.0000000000000002E-003   9.2299999999999993E-002
   1.0000000000000002E-002   7.7600000000000002E-006
  0.10000000000000001        6.6899999999999997E-007
   1.0000000000000000        3.1100000000000002E-007
