   1.0000000000000006E-005   11700.000000000000     
   1.0000000000000005E-004   60.299999999999997     
   1.0000000000000002E-003   8.3299999999999999E-002
   1.0000000000000002E-002   6.7100000000000001E-006
  0.10000000000000001        5.8699999999999995E-007
   1.0000000000000000        2.7300000000000002E-007
