   1.0000000000000006E-005   5460.0000000000000     
   1.0000000000000005E-004   18.600000000000001     
   1.0000000000000002E-003   1.3800000000000000E-002
   1.0000000000000002E-002   9.9999999999999995E-007
  0.10000000000000001        4.7300000000000000E-008
   1.0000000000000000        7.9200000000000008E-009
