   1.0000000000000006E-005   472.00000000000000     
   1.0000000000000005E-004  0.86799999999999999     
   1.0000000000000002E-003   3.8700000000000002E-003
   1.0000000000000002E-002   1.0300000000000000E-007
  0.10000000000000001        2.4000000000000000E-008
   1.0000000000000000        1.3900000000000000E-008
