   1.0000000000000006E-005   20500.000000000000     
   1.0000000000000005E-004   258.00000000000000     
   1.0000000000000002E-003  0.38000000000000000     
   1.0000000000000002E-002   5.9100000000000000E-005
  0.10000000000000001        1.6700000000000001E-006
   1.0000000000000000        2.2999999999999999E-007
