   1.0000000000000006E-005   6820.0000000000000     
   1.0000000000000005E-004   33.299999999999997     
   1.0000000000000002E-003   2.1999999999999999E-002
   1.0000000000000002E-002   1.4899999999999999E-006
  0.10000000000000001        8.7400000000000002E-008
   1.0000000000000000        1.2800000000000000E-008
