   1.0000000000000006E-005   4660.0000000000000     
   1.0000000000000005E-004   14.400000000000000     
   1.0000000000000002E-003   1.0400000000000000E-002
   1.0000000000000002E-002   1.0400000000000000E-006
  0.10000000000000001        5.9300000000000002E-008
   1.0000000000000000        6.7999999999999997E-009
