   1.0000000000000006E-005   1820.0000000000000     
   1.0000000000000005E-004   2.4100000000000001     
   1.0000000000000002E-003   6.1500000000000001E-003
   1.0000000000000002E-002   3.5600000000000001E-007
  0.10000000000000001        6.2600000000000005E-008
   1.0000000000000000        3.4300000000000003E-008
