   1.0000000000000006E-005   9470.0000000000000     
   1.0000000000000005E-004   114.00000000000000     
   1.0000000000000002E-003   6.7500000000000004E-002
   1.0000000000000002E-002   2.0899999999999999E-006
  0.10000000000000001        1.3700000000000000E-007
   1.0000000000000000        3.1599999999999998E-008
