   1.0000000000000006E-005   12400.000000000000     
   1.0000000000000005E-004   274.00000000000000     
   1.0000000000000002E-003  0.18300000000000000     
   1.0000000000000002E-002   4.8300000000000003E-006
  0.10000000000000001        5.6400000000000002E-007
   1.0000000000000000        2.8099999999999999E-007
