   1.0000000000000006E-005   4770.0000000000000     
   1.0000000000000005E-004   14.699999999999999     
   1.0000000000000002E-003   1.0699999999999999E-002
   1.0000000000000002E-002   1.1500000000000000E-006
  0.10000000000000001        7.0599999999999997E-008
   1.0000000000000000        7.6000000000000002E-009
