   1.0000000000000006E-005   5870.0000000000000     
   1.0000000000000005E-004   21.899999999999999     
   1.0000000000000002E-003   1.5699999999999999E-002
   1.0000000000000002E-002   1.0800000000000000E-006
  0.10000000000000001        5.2600000000000001E-008
   1.0000000000000000        9.2400000000000004E-009
