   1.0000000000000006E-005   2010.0000000000000     
   1.0000000000000005E-004   2.6600000000000001     
   1.0000000000000002E-003   6.4999999999999997E-003
   1.0000000000000002E-002   4.0999999999999999E-007
  0.10000000000000001        7.1299999999999997E-008
   1.0000000000000000        4.0399999999999998E-008
