   1.0000000000000006E-005   13600.000000000000     
   1.0000000000000005E-004   83.500000000000000     
   1.0000000000000002E-003  0.10600000000000000     
   1.0000000000000002E-002   9.9499999999999996E-006
  0.10000000000000001        7.1699999999999997E-007
   1.0000000000000000        2.8799999999999998E-007
