   1.0000000000000006E-005   18400.000000000000     
   1.0000000000000005E-004   198.00000000000000     
   1.0000000000000002E-003  0.23599999999999999     
   1.0000000000000002E-002   1.5400000000000002E-005
  0.10000000000000001        7.9699999999999995E-007
   1.0000000000000000        2.7599999999999998E-007
