   1.0000000000000006E-005   12600.000000000000     
   1.0000000000000005E-004   70.299999999999997     
   1.0000000000000002E-003   9.5000000000000001E-002
   1.0000000000000002E-002   8.0600000000000008E-006
  0.10000000000000001        6.9400000000000005E-007
   1.0000000000000000        3.2399999999999999E-007
