   1.0000000000000006E-005   18900.000000000000     
   1.0000000000000005E-004   231.00000000000000     
   1.0000000000000002E-003  0.45800000000000002     
   1.0000000000000002E-002   1.8300000000000001E-005
  0.10000000000000001        9.7199999999999997E-007
   1.0000000000000000        3.8400000000000000E-007
