ORDEM 3.1   :  ORDEM Telescope/Radar Mode
 Surface Area Debris Flux (#/m^2/yr)
  Year: 2021  Sensor lat. =  18.344  Pointing AZ =   0.000  Pointing EL =  90.000
 *
 *
 *
 *
 *
 *
 *
 Alt       Rng        >10um      >100um     >1mm       >1cm       >10cm      >1m
 --------  --------   --------   --------   --------   --------   --------   --------  
    200.0     202.1   1.88E+02   4.71E-01   8.00E-04   1.71E-07   1.20E-08   5.03E-09
    205.0     207.1   1.88E+02   4.71E-01   8.00E-04   1.71E-07   1.20E-08   5.03E-09
    205.0     207.1   1.95E+02   5.11E-01   9.33E-04   1.97E-07   1.30E-08   5.48E-09
    210.0     212.1   1.95E+02   5.11E-01   9.33E-04   1.97E-07   1.30E-08   5.48E-09
    210.0     212.1   1.97E+02   5.31E-01   1.01E-03   2.15E-07   1.38E-08   5.88E-09
    215.0     217.1   1.97E+02   5.31E-01   1.01E-03   2.15E-07   1.38E-08   5.88E-09
    215.0     217.1   1.99E+02   5.36E-01   1.07E-03   2.29E-07   1.45E-08   6.23E-09
    220.0     222.1   1.99E+02   5.36E-01   1.07E-03   2.29E-07   1.45E-08   6.23E-09
    220.0     222.1   2.01E+02   5.40E-01   1.13E-03   2.40E-07   1.52E-08   6.54E-09
    225.0     227.1   2.01E+02   5.40E-01   1.13E-03   2.40E-07   1.52E-08   6.54E-09
    225.0     227.1   2.01E+02   5.44E-01   1.17E-03   2.50E-07   1.56E-08   6.79E-09
    230.0     232.1   2.01E+02   5.44E-01   1.17E-03   2.50E-07   1.56E-08   6.79E-09
    230.0     232.1   2.02E+02   5.58E-01   1.26E-03   2.68E-07   1.67E-08   7.21E-09
    235.0     237.1   2.02E+02   5.58E-01   1.26E-03   2.68E-07   1.67E-08   7.21E-09
    235.0     237.1   2.19E+02   6.56E-01   1.60E-03   3.30E-07   2.12E-08   8.60E-09
    240.0     242.1   2.19E+02   6.56E-01   1.60E-03   3.30E-07   2.12E-08   8.60E-09
    240.0     242.1   2.24E+02   6.93E-01   1.79E-03   3.67E-07   2.39E-08   9.51E-09
    245.0     247.1   2.24E+02   6.93E-01   1.79E-03   3.67E-07   2.39E-08   9.51E-09
    245.0     247.1   2.28E+02   7.16E-01   1.93E-03   3.98E-07   2.59E-08   1.03E-08
    250.0     252.1   2.28E+02   7.16E-01   1.93E-03   3.98E-07   2.59E-08   1.03E-08
    250.0     252.1   2.31E+02   7.26E-01   2.04E-03   4.23E-07   2.75E-08   1.09E-08
    255.0     257.1   2.31E+02   7.26E-01   2.04E-03   4.23E-07   2.75E-08   1.09E-08
    255.0     257.1   2.36E+02   7.35E-01   2.13E-03   4.45E-07   2.89E-08   1.14E-08
    260.0     262.1   2.36E+02   7.35E-01   2.13E-03   4.45E-07   2.89E-08   1.14E-08
    260.0     262.1   2.38E+02   7.43E-01   2.22E-03   4.63E-07   3.01E-08   1.18E-08
    265.0     267.1   2.38E+02   7.43E-01   2.22E-03   4.63E-07   3.01E-08   1.18E-08
    265.0     267.1   2.50E+02   8.13E-01   2.55E-03   5.00E-07   3.23E-08   1.30E-08
    270.0     272.1   2.50E+02   8.13E-01   2.55E-03   5.00E-07   3.23E-08   1.30E-08
    270.0     272.1   2.65E+02   9.36E-01   3.11E-03   5.47E-07   3.51E-08   1.50E-08
    275.0     277.1   2.65E+02   9.36E-01   3.11E-03   5.47E-07   3.51E-08   1.50E-08
    275.0     277.1   2.70E+02   9.83E-01   3.43E-03   5.82E-07   3.71E-08   1.61E-08
    280.0     282.1   2.70E+02   9.83E-01   3.43E-03   5.82E-07   3.71E-08   1.61E-08
    280.0     282.1   2.76E+02   1.00E+00   3.66E-03   6.16E-07   3.91E-08   1.69E-08
    285.0     287.1   2.76E+02   1.00E+00   3.66E-03   6.16E-07   3.91E-08   1.69E-08
    285.0     287.1   2.78E+02   1.02E+00   3.85E-03   6.44E-07   4.06E-08   1.75E-08
    290.0     292.1   2.78E+02   1.02E+00   3.85E-03   6.44E-07   4.06E-08   1.75E-08
    290.0     292.1   2.81E+02   1.03E+00   4.02E-03   6.69E-07   4.18E-08   1.81E-08
    295.0     297.1   2.81E+02   1.03E+00   4.02E-03   6.69E-07   4.18E-08   1.81E-08
    295.0     297.1   2.82E+02   1.04E+00   4.18E-03   6.90E-07   4.28E-08   1.85E-08
    300.0     302.1   2.82E+02   1.04E+00   4.18E-03   6.90E-07   4.28E-08   1.85E-08
    300.0     302.1   3.03E+02   1.20E+00   4.61E-03   7.53E-07   4.92E-08   2.08E-08
    305.0     307.1   3.03E+02   1.20E+00   4.61E-03   7.53E-07   4.92E-08   2.08E-08
    305.0     307.1   3.20E+02   1.30E+00   4.97E-03   8.06E-07   5.48E-08   2.28E-08
    310.0     312.1   3.20E+02   1.30E+00   4.97E-03   8.06E-07   5.48E-08   2.28E-08
    310.0     312.1   3.28E+02   1.37E+00   5.24E-03   8.48E-07   5.80E-08   2.41E-08
    315.0     317.1   3.28E+02   1.37E+00   5.24E-03   8.48E-07   5.80E-08   2.41E-08
    315.0     317.1   3.34E+02   1.40E+00   5.45E-03   8.84E-07   6.04E-08   2.52E-08
    320.0     322.1   3.34E+02   1.40E+00   5.45E-03   8.84E-07   6.04E-08   2.52E-08
    320.0     322.1   3.42E+02   1.43E+00   5.64E-03   9.19E-07   6.26E-08   2.62E-08
    325.0     327.1   3.42E+02   1.43E+00   5.64E-03   9.19E-07   6.26E-08   2.62E-08
    325.0     327.1   3.45E+02   1.44E+00   5.79E-03   9.47E-07   6.40E-08   2.68E-08
    330.0     332.1   3.45E+02   1.44E+00   5.79E-03   9.47E-07   6.40E-08   2.68E-08
    330.0     332.1   3.51E+02   1.48E+00   5.95E-03   9.83E-07   6.57E-08   2.78E-08
    335.0     337.1   3.51E+02   1.48E+00   5.95E-03   9.83E-07   6.57E-08   2.78E-08
    335.0     337.1   3.86E+02   1.66E+00   6.29E-03   1.07E-06   7.05E-08   3.13E-08
    340.0     342.1   3.86E+02   1.66E+00   6.29E-03   1.07E-06   7.05E-08   3.13E-08
    340.0     342.1   4.04E+02   1.76E+00   6.54E-03   1.14E-06   7.36E-08   3.34E-08
    345.0     347.1   4.04E+02   1.76E+00   6.54E-03   1.14E-06   7.36E-08   3.34E-08
    345.0     347.1   4.17E+02   1.86E+00   6.75E-03   1.18E-06   7.61E-08   3.47E-08
    350.0     352.1   4.17E+02   1.86E+00   6.75E-03   1.18E-06   7.61E-08   3.47E-08
    350.0     352.1   4.29E+02   1.93E+00   6.92E-03   1.23E-06   7.83E-08   3.57E-08
    355.0     357.1   4.29E+02   1.93E+00   6.92E-03   1.23E-06   7.83E-08   3.57E-08
    355.0     357.1   4.43E+02   1.98E+00   7.06E-03   1.27E-06   8.06E-08   3.66E-08
    360.0     362.1   4.43E+02   1.98E+00   7.06E-03   1.27E-06   8.06E-08   3.66E-08
    360.0     362.1   4.50E+02   2.00E+00   7.12E-03   1.30E-06   8.18E-08   3.70E-08
    365.0     367.1   4.50E+02   2.00E+00   7.12E-03   1.30E-06   8.18E-08   3.70E-08
    365.0     367.1   4.78E+02   2.13E+00   7.59E-03   1.38E-06   8.82E-08   3.98E-08
    370.0     372.1   4.78E+02   2.13E+00   7.59E-03   1.38E-06   8.82E-08   3.98E-08
    370.0     372.1   5.11E+02   2.31E+00   8.34E-03   1.49E-06   9.82E-08   4.42E-08
    375.0     377.1   5.11E+02   2.31E+00   8.34E-03   1.49E-06   9.82E-08   4.42E-08
    375.0     377.1   5.31E+02   2.46E+00   8.84E-03   1.56E-06   1.04E-07   4.67E-08
    380.0     382.1   5.31E+02   2.46E+00   8.84E-03   1.56E-06   1.04E-07   4.67E-08
    380.0     382.1   5.57E+02   2.64E+00   9.31E-03   1.63E-06   1.10E-07   4.92E-08
    385.0     387.1   5.57E+02   2.64E+00   9.31E-03   1.63E-06   1.10E-07   4.92E-08
    385.0     387.1   5.74E+02   2.74E+00   9.56E-03   1.69E-06   1.15E-07   5.11E-08
    390.0     392.1   5.74E+02   2.74E+00   9.56E-03   1.69E-06   1.15E-07   5.11E-08
    390.0     392.1   5.97E+02   2.82E+00   9.79E-03   1.74E-06   1.19E-07   5.32E-08
    395.0     397.1   5.97E+02   2.82E+00   9.79E-03   1.74E-06   1.19E-07   5.32E-08
    395.0     397.1   6.14E+02   2.86E+00   9.92E-03   1.78E-06   1.22E-07   5.47E-08
    400.0     402.1   6.14E+02   2.86E+00   9.92E-03   1.78E-06   1.22E-07   5.47E-08
    400.0     402.1   6.54E+02   3.16E+00   1.09E-02   1.95E-06   1.31E-07   5.81E-08
    405.0     407.1   6.54E+02   3.16E+00   1.09E-02   1.95E-06   1.31E-07   5.81E-08
    405.0     407.1   6.89E+02   3.40E+00   1.17E-02   2.09E-06   1.39E-07   6.12E-08
    410.0     412.1   6.89E+02   3.40E+00   1.17E-02   2.09E-06   1.39E-07   6.12E-08
    410.0     412.1   7.11E+02   3.60E+00   1.23E-02   2.19E-06   1.43E-07   6.27E-08
    415.0     417.1   7.11E+02   3.60E+00   1.23E-02   2.19E-06   1.43E-07   6.27E-08
    415.0     417.1   7.37E+02   3.80E+00   1.28E-02   2.28E-06   1.47E-07   6.43E-08
    420.0     422.1   7.37E+02   3.80E+00   1.28E-02   2.28E-06   1.47E-07   6.43E-08
    420.0     422.1   7.66E+02   3.99E+00   1.33E-02   2.37E-06   1.52E-07   6.62E-08
    425.0     427.1   7.66E+02   3.99E+00   1.33E-02   2.37E-06   1.52E-07   6.62E-08
    425.0     427.1   7.90E+02   4.09E+00   1.34E-02   2.43E-06   1.55E-07   6.73E-08
    430.0     432.1   7.90E+02   4.09E+00   1.34E-02   2.43E-06   1.55E-07   6.73E-08
    430.0     432.1   8.20E+02   4.24E+00   1.38E-02   2.53E-06   1.61E-07   7.02E-08
    435.0     437.1   8.20E+02   4.24E+00   1.38E-02   2.53E-06   1.61E-07   7.02E-08
    435.0     437.1   8.86E+02   4.83E+00   1.59E-02   2.84E-06   1.92E-07   8.40E-08
    440.0     442.1   8.86E+02   4.83E+00   1.59E-02   2.84E-06   1.92E-07   8.40E-08
    440.0     442.1   9.34E+02   5.18E+00   1.72E-02   3.05E-06   2.12E-07   9.28E-08
    445.0     447.1   9.34E+02   5.18E+00   1.72E-02   3.05E-06   2.12E-07   9.28E-08
    445.0     447.1   9.73E+02   5.44E+00   1.81E-02   3.20E-06   2.25E-07   9.81E-08
    450.0     452.1   9.73E+02   5.44E+00   1.81E-02   3.20E-06   2.25E-07   9.81E-08
    450.0     452.1   1.01E+03   5.70E+00   1.89E-02   3.34E-06   2.36E-07   1.02E-07
    455.0     457.1   1.01E+03   5.70E+00   1.89E-02   3.34E-06   2.36E-07   1.02E-07
    455.0     457.1   1.04E+03   6.00E+00   1.97E-02   3.47E-06   2.48E-07   1.07E-07
    460.0     462.1   1.04E+03   6.00E+00   1.97E-02   3.47E-06   2.48E-07   1.07E-07
    460.0     462.1   1.08E+03   6.19E+00   2.00E-02   3.57E-06   2.56E-07   1.10E-07
    465.0     467.1   1.08E+03   6.19E+00   2.00E-02   3.57E-06   2.56E-07   1.10E-07
    465.0     467.1   1.14E+03   6.77E+00   2.19E-02   3.82E-06   2.83E-07   1.21E-07
    470.0     472.1   1.14E+03   6.77E+00   2.19E-02   3.82E-06   2.83E-07   1.21E-07
    470.0     472.1   1.21E+03   7.57E+00   2.48E-02   4.16E-06   3.26E-07   1.37E-07
    475.0     477.1   1.21E+03   7.57E+00   2.48E-02   4.16E-06   3.26E-07   1.37E-07
    475.0     477.1   1.26E+03   8.04E+00   2.66E-02   4.37E-06   3.52E-07   1.47E-07
    480.0     482.1   1.26E+03   8.04E+00   2.66E-02   4.37E-06   3.52E-07   1.47E-07
    480.0     482.1   1.31E+03   8.49E+00   2.81E-02   4.54E-06   3.74E-07   1.57E-07
    485.0     487.1   1.31E+03   8.49E+00   2.81E-02   4.54E-06   3.74E-07   1.57E-07
    485.0     487.1   1.35E+03   8.83E+00   2.91E-02   4.68E-06   3.88E-07   1.62E-07
    490.0     492.1   1.35E+03   8.83E+00   2.91E-02   4.68E-06   3.88E-07   1.62E-07
    490.0     492.1   1.40E+03   9.23E+00   3.02E-02   4.83E-06   4.01E-07   1.68E-07
    495.0     497.1   1.40E+03   9.23E+00   3.02E-02   4.83E-06   4.01E-07   1.68E-07
    495.0     497.1   1.44E+03   9.52E+00   3.09E-02   4.95E-06   4.10E-07   1.71E-07
    500.0     502.1   1.44E+03   9.52E+00   3.09E-02   4.95E-06   4.10E-07   1.71E-07
    500.0     502.1   1.53E+03   1.07E+01   3.38E-02   5.37E-06   4.30E-07   1.82E-07
    505.0     507.1   1.53E+03   1.07E+01   3.38E-02   5.37E-06   4.30E-07   1.82E-07
    505.0     507.1   1.62E+03   1.17E+01   3.65E-02   5.74E-06   4.49E-07   1.91E-07
    510.0     512.1   1.62E+03   1.17E+01   3.65E-02   5.74E-06   4.49E-07   1.91E-07
    510.0     512.1   1.69E+03   1.24E+01   3.80E-02   5.98E-06   4.57E-07   1.95E-07
    515.0     517.1   1.69E+03   1.24E+01   3.80E-02   5.98E-06   4.57E-07   1.95E-07
    515.0     517.1   1.75E+03   1.30E+01   3.93E-02   6.19E-06   4.67E-07   1.98E-07
    520.0     522.1   1.75E+03   1.30E+01   3.93E-02   6.19E-06   4.67E-07   1.98E-07
    520.0     522.1   1.80E+03   1.36E+01   4.08E-02   6.40E-06   4.79E-07   2.03E-07
    525.0     527.1   1.80E+03   1.36E+01   4.08E-02   6.40E-06   4.79E-07   2.03E-07
    525.0     527.1   1.85E+03   1.40E+01   4.16E-02   6.57E-06   4.88E-07   2.06E-07
    530.0     532.1   1.85E+03   1.40E+01   4.16E-02   6.57E-06   4.88E-07   2.06E-07
    530.0     532.1   1.92E+03   1.47E+01   4.27E-02   6.74E-06   4.96E-07   2.10E-07
    535.0     537.1   1.92E+03   1.47E+01   4.27E-02   6.74E-06   4.96E-07   2.10E-07
    535.0     537.1   2.04E+03   1.65E+01   4.71E-02   6.93E-06   5.07E-07   2.20E-07
    540.0     542.1   2.04E+03   1.65E+01   4.71E-02   6.93E-06   5.07E-07   2.20E-07
    540.0     542.1   2.14E+03   1.77E+01   4.99E-02   7.11E-06   5.16E-07   2.27E-07
    545.0     547.1   2.14E+03   1.77E+01   4.99E-02   7.11E-06   5.16E-07   2.27E-07
    545.0     547.1   2.22E+03   1.86E+01   5.13E-02   7.26E-06   5.20E-07   2.30E-07
    550.0     552.1   2.22E+03   1.86E+01   5.13E-02   7.26E-06   5.20E-07   2.30E-07
    550.0     552.1   2.29E+03   1.94E+01   5.29E-02   7.42E-06   5.28E-07   2.33E-07
    555.0     557.1   2.29E+03   1.94E+01   5.29E-02   7.42E-06   5.28E-07   2.33E-07
    555.0     557.1   2.36E+03   2.03E+01   5.49E-02   7.59E-06   5.40E-07   2.38E-07
    560.0     562.1   2.36E+03   2.03E+01   5.49E-02   7.59E-06   5.40E-07   2.38E-07
    560.0     562.1   2.42E+03   2.09E+01   5.59E-02   7.73E-06   5.47E-07   2.41E-07
    565.0     567.1   2.42E+03   2.09E+01   5.59E-02   7.73E-06   5.47E-07   2.41E-07
    565.0     567.1   2.52E+03   2.25E+01   5.93E-02   8.00E-06   5.66E-07   2.43E-07
    570.0     572.1   2.52E+03   2.25E+01   5.93E-02   8.00E-06   5.66E-07   2.43E-07
    570.0     572.1   2.66E+03   2.48E+01   6.41E-02   8.38E-06   5.91E-07   2.40E-07
    575.0     577.1   2.66E+03   2.48E+01   6.41E-02   8.38E-06   5.91E-07   2.40E-07
    575.0     577.1   2.76E+03   2.63E+01   6.67E-02   8.62E-06   6.06E-07   2.37E-07
    580.0     582.1   2.76E+03   2.63E+01   6.67E-02   8.62E-06   6.06E-07   2.37E-07
    580.0     582.1   2.85E+03   2.76E+01   6.91E-02   8.84E-06   6.21E-07   2.37E-07
    585.0     587.1   2.85E+03   2.76E+01   6.91E-02   8.84E-06   6.21E-07   2.37E-07
    585.0     587.1   2.93E+03   2.86E+01   7.06E-02   9.01E-06   6.32E-07   2.36E-07
    590.0     592.1   2.93E+03   2.86E+01   7.06E-02   9.01E-06   6.32E-07   2.36E-07
    590.0     592.1   3.00E+03   2.97E+01   7.28E-02   9.20E-06   6.46E-07   2.38E-07
    595.0     597.1   3.00E+03   2.97E+01   7.28E-02   9.20E-06   6.46E-07   2.38E-07
    595.0     597.1   3.07E+03   3.06E+01   7.40E-02   9.36E-06   6.56E-07   2.38E-07
    600.0     602.1   3.07E+03   3.06E+01   7.40E-02   9.36E-06   6.56E-07   2.38E-07
    600.0     602.1   3.21E+03   3.35E+01   7.87E-02   9.79E-06   7.06E-07   2.63E-07
    605.0     607.1   3.21E+03   3.35E+01   7.87E-02   9.79E-06   7.06E-07   2.63E-07
    605.0     607.1   3.33E+03   3.63E+01   8.34E-02   1.02E-05   7.58E-07   2.88E-07
    610.0     612.1   3.33E+03   3.63E+01   8.34E-02   1.02E-05   7.58E-07   2.88E-07
    610.0     612.1   3.42E+03   3.80E+01   8.50E-02   1.05E-05   7.82E-07   3.00E-07
    615.0     617.1   3.42E+03   3.80E+01   8.50E-02   1.05E-05   7.82E-07   3.00E-07
    615.0     617.1   3.51E+03   3.96E+01   8.66E-02   1.07E-05   8.03E-07   3.10E-07
    620.0     622.1   3.51E+03   3.96E+01   8.66E-02   1.07E-05   8.03E-07   3.10E-07
    620.0     622.1   3.60E+03   4.12E+01   8.81E-02   1.09E-05   8.22E-07   3.19E-07
    625.0     627.1   3.60E+03   4.12E+01   8.81E-02   1.09E-05   8.22E-07   3.19E-07
    625.0     627.1   3.67E+03   4.23E+01   8.88E-02   1.10E-05   8.35E-07   3.26E-07
    630.0     632.1   3.67E+03   4.23E+01   8.88E-02   1.10E-05   8.35E-07   3.26E-07
    630.0     632.1   3.77E+03   4.40E+01   9.01E-02   1.12E-05   8.45E-07   3.24E-07
    635.0     637.1   3.77E+03   4.40E+01   9.01E-02   1.12E-05   8.45E-07   3.24E-07
    635.0     637.1   3.92E+03   4.80E+01   9.72E-02   1.18E-05   8.52E-07   2.90E-07
    640.0     642.1   3.92E+03   4.80E+01   9.72E-02   1.18E-05   8.52E-07   2.90E-07
    640.0     642.1   4.04E+03   5.11E+01   1.02E-01   1.22E-05   8.62E-07   2.69E-07
    645.0     647.1   4.04E+03   5.11E+01   1.02E-01   1.22E-05   8.62E-07   2.69E-07
    645.0     647.1   4.14E+03   5.32E+01   1.04E-01   1.24E-05   8.65E-07   2.53E-07
    650.0     652.1   4.14E+03   5.32E+01   1.04E-01   1.24E-05   8.65E-07   2.53E-07
    650.0     652.1   4.23E+03   5.52E+01   1.07E-01   1.26E-05   8.71E-07   2.40E-07
    655.0     657.1   4.23E+03   5.52E+01   1.07E-01   1.26E-05   8.71E-07   2.40E-07
    655.0     657.1   4.33E+03   5.73E+01   1.10E-01   1.28E-05   8.77E-07   2.30E-07
    660.0     662.1   4.33E+03   5.73E+01   1.10E-01   1.28E-05   8.77E-07   2.30E-07
    660.0     662.1   4.41E+03   5.88E+01   1.11E-01   1.29E-05   8.74E-07   2.18E-07
    665.0     667.1   4.41E+03   5.88E+01   1.11E-01   1.29E-05   8.74E-07   2.18E-07
    665.0     667.1   4.53E+03   6.19E+01   1.17E-01   1.33E-05   8.74E-07   2.11E-07
    670.0     672.1   4.53E+03   6.19E+01   1.17E-01   1.33E-05   8.74E-07   2.11E-07
    670.0     672.1   4.67E+03   6.64E+01   1.25E-01   1.40E-05   8.70E-07   2.07E-07
    675.0     677.1   4.67E+03   6.64E+01   1.25E-01   1.40E-05   8.70E-07   2.07E-07
    675.0     677.1   4.79E+03   6.95E+01   1.30E-01   1.43E-05   8.66E-07   2.04E-07
    680.0     682.1   4.79E+03   6.95E+01   1.30E-01   1.43E-05   8.66E-07   2.04E-07
    680.0     682.1   4.89E+03   7.22E+01   1.33E-01   1.46E-05   8.65E-07   2.03E-07
    685.0     687.1   4.89E+03   7.22E+01   1.33E-01   1.46E-05   8.65E-07   2.03E-07
    685.0     687.1   4.99E+03   7.43E+01   1.36E-01   1.49E-05   8.63E-07   2.01E-07
    690.0     692.1   4.99E+03   7.43E+01   1.36E-01   1.49E-05   8.63E-07   2.01E-07
    690.0     692.1   5.08E+03   7.66E+01   1.40E-01   1.51E-05   8.70E-07   2.01E-07
    695.0     697.1   5.08E+03   7.66E+01   1.40E-01   1.51E-05   8.70E-07   2.01E-07
    695.0     697.1   5.18E+03   7.85E+01   1.41E-01   1.54E-05   8.75E-07   2.01E-07
    700.0     702.1   5.18E+03   7.85E+01   1.41E-01   1.54E-05   8.75E-07   2.01E-07
    700.0     702.1   5.32E+03   8.32E+01   1.51E-01   1.63E-05   8.86E-07   1.93E-07
    705.0     707.1   5.32E+03   8.32E+01   1.51E-01   1.63E-05   8.86E-07   1.93E-07
    705.0     707.1   5.46E+03   8.80E+01   1.60E-01   1.72E-05   9.03E-07   1.88E-07
    710.0     712.1   5.46E+03   8.80E+01   1.60E-01   1.72E-05   9.03E-07   1.88E-07
    710.0     712.1   5.58E+03   9.10E+01   1.64E-01   1.77E-05   9.06E-07   1.83E-07
    715.0     717.1   5.58E+03   9.10E+01   1.64E-01   1.77E-05   9.06E-07   1.83E-07
    715.0     717.1   5.69E+03   9.39E+01   1.68E-01   1.81E-05   9.15E-07   1.82E-07
    720.0     722.1   5.69E+03   9.39E+01   1.68E-01   1.81E-05   9.15E-07   1.82E-07
    720.0     722.1   5.79E+03   9.65E+01   1.71E-01   1.84E-05   9.23E-07   1.81E-07
    725.0     727.1   5.79E+03   9.65E+01   1.71E-01   1.84E-05   9.23E-07   1.81E-07
    725.0     727.1   5.89E+03   9.87E+01   1.75E-01   1.87E-05   9.32E-07   1.81E-07
    730.0     732.1   5.89E+03   9.87E+01   1.75E-01   1.87E-05   9.32E-07   1.81E-07
    730.0     732.1   6.00E+03   1.01E+02   1.79E-01   1.91E-05   9.46E-07   1.86E-07
    735.0     737.1   6.00E+03   1.01E+02   1.79E-01   1.91E-05   9.46E-07   1.86E-07
    735.0     737.1   6.18E+03   1.07E+02   1.96E-01   2.03E-05   9.99E-07   2.26E-07
    740.0     742.1   6.18E+03   1.07E+02   1.96E-01   2.03E-05   9.99E-07   2.26E-07
    740.0     742.1   6.32E+03   1.11E+02   2.07E-01   2.11E-05   1.04E-06   2.53E-07
    745.0     747.1   6.32E+03   1.11E+02   2.07E-01   2.11E-05   1.04E-06   2.53E-07
    745.0     747.1   6.44E+03   1.14E+02   2.13E-01   2.15E-05   1.06E-06   2.70E-07
    750.0     752.1   6.44E+03   1.14E+02   2.13E-01   2.15E-05   1.06E-06   2.70E-07
    750.0     752.1   6.55E+03   1.17E+02   2.18E-01   2.19E-05   1.09E-06   2.84E-07
    755.0     757.1   6.55E+03   1.17E+02   2.18E-01   2.19E-05   1.09E-06   2.84E-07
    755.0     757.1   6.65E+03   1.20E+02   2.25E-01   2.23E-05   1.11E-06   3.00E-07
    760.0     762.1   6.65E+03   1.20E+02   2.25E-01   2.23E-05   1.11E-06   3.00E-07
    760.0     762.1   6.74E+03   1.22E+02   2.27E-01   2.24E-05   1.13E-06   3.08E-07
    765.0     767.1   6.74E+03   1.22E+02   2.27E-01   2.24E-05   1.13E-06   3.08E-07
    765.0     767.1   6.85E+03   1.25E+02   2.32E-01   2.28E-05   1.14E-06   3.22E-07
    770.0     772.1   6.85E+03   1.25E+02   2.32E-01   2.28E-05   1.14E-06   3.22E-07
    770.0     772.1   6.96E+03   1.29E+02   2.35E-01   2.34E-05   1.15E-06   3.39E-07
    775.0     777.1   6.96E+03   1.29E+02   2.35E-01   2.34E-05   1.15E-06   3.39E-07
    775.0     777.1   7.05E+03   1.32E+02   2.37E-01   2.36E-05   1.16E-06   3.48E-07
    780.0     782.1   7.05E+03   1.32E+02   2.37E-01   2.36E-05   1.16E-06   3.48E-07
    780.0     782.1   7.14E+03   1.35E+02   2.39E-01   2.36E-05   1.17E-06   3.54E-07
    785.0     787.1   7.14E+03   1.35E+02   2.39E-01   2.36E-05   1.17E-06   3.54E-07
    785.0     787.1   7.22E+03   1.37E+02   2.40E-01   2.35E-05   1.17E-06   3.57E-07
    790.0     792.1   7.22E+03   1.37E+02   2.40E-01   2.35E-05   1.17E-06   3.57E-07
    790.0     792.1   7.31E+03   1.40E+02   2.43E-01   2.36E-05   1.17E-06   3.60E-07
    795.0     797.1   7.31E+03   1.40E+02   2.43E-01   2.36E-05   1.17E-06   3.60E-07
    795.0     797.1   7.38E+03   1.41E+02   2.44E-01   2.36E-05   1.16E-06   3.58E-07
    800.0     802.1   7.38E+03   1.41E+02   2.44E-01   2.36E-05   1.16E-06   3.58E-07
    800.0     802.1   7.44E+03   1.44E+02   2.49E-01   2.47E-05   1.17E-06   3.50E-07
    805.0     807.1   7.44E+03   1.44E+02   2.49E-01   2.47E-05   1.17E-06   3.50E-07
    805.0     807.1   7.52E+03   1.47E+02   2.55E-01   2.58E-05   1.19E-06   3.46E-07
    810.0     812.1   7.52E+03   1.47E+02   2.55E-01   2.58E-05   1.19E-06   3.46E-07
    810.0     812.1   7.59E+03   1.49E+02   2.56E-01   2.63E-05   1.18E-06   3.34E-07
    815.0     817.1   7.59E+03   1.49E+02   2.56E-01   2.63E-05   1.18E-06   3.34E-07
    815.0     817.1   7.65E+03   1.51E+02   2.59E-01   2.66E-05   1.17E-06   3.26E-07
    820.0     822.1   7.65E+03   1.51E+02   2.59E-01   2.66E-05   1.17E-06   3.26E-07
    820.0     822.1   7.71E+03   1.52E+02   2.60E-01   2.67E-05   1.17E-06   3.20E-07
    825.0     827.1   7.71E+03   1.52E+02   2.60E-01   2.67E-05   1.17E-06   3.20E-07
    825.0     827.1   7.77E+03   1.54E+02   2.63E-01   2.69E-05   1.17E-06   3.19E-07
    830.0     832.1   7.77E+03   1.54E+02   2.63E-01   2.69E-05   1.17E-06   3.19E-07
    830.0     832.1   7.82E+03   1.55E+02   2.61E-01   2.71E-05   1.17E-06   3.13E-07
    835.0     837.1   7.82E+03   1.55E+02   2.61E-01   2.71E-05   1.17E-06   3.13E-07
    835.0     837.1   7.80E+03   1.57E+02   2.45E-01   2.83E-05   1.16E-06   2.86E-07
    840.0     842.1   7.80E+03   1.57E+02   2.45E-01   2.83E-05   1.16E-06   2.86E-07
    840.0     842.1   7.82E+03   1.59E+02   2.35E-01   2.89E-05   1.15E-06   2.69E-07
    845.0     847.1   7.82E+03   1.59E+02   2.35E-01   2.89E-05   1.15E-06   2.69E-07
    845.0     847.1   7.84E+03   1.60E+02   2.25E-01   2.88E-05   1.15E-06   2.57E-07
    850.0     852.1   7.84E+03   1.60E+02   2.25E-01   2.88E-05   1.15E-06   2.57E-07
    850.0     852.1   7.87E+03   1.61E+02   2.20E-01   2.87E-05   1.15E-06   2.50E-07
    855.0     857.1   7.87E+03   1.61E+02   2.20E-01   2.87E-05   1.15E-06   2.50E-07
    855.0     857.1   7.89E+03   1.63E+02   2.16E-01   2.86E-05   1.16E-06   2.44E-07
    860.0     862.1   7.89E+03   1.63E+02   2.16E-01   2.86E-05   1.16E-06   2.44E-07
    860.0     862.1   7.91E+03   1.64E+02   2.10E-01   2.84E-05   1.15E-06   2.35E-07
    865.0     867.1   7.91E+03   1.64E+02   2.10E-01   2.84E-05   1.15E-06   2.35E-07
    865.0     867.1   7.93E+03   1.65E+02   2.15E-01   2.81E-05   1.11E-06   2.26E-07
    870.0     872.1   7.93E+03   1.65E+02   2.15E-01   2.81E-05   1.11E-06   2.26E-07
    870.0     872.1   7.94E+03   1.66E+02   2.28E-01   2.75E-05   1.03E-06   2.10E-07
    875.0     877.1   7.94E+03   1.66E+02   2.28E-01   2.75E-05   1.03E-06   2.10E-07
    875.0     877.1   7.97E+03   1.67E+02   2.36E-01   2.68E-05   9.82E-07   2.01E-07
    880.0     882.1   7.97E+03   1.67E+02   2.36E-01   2.68E-05   9.82E-07   2.01E-07
    880.0     882.1   7.99E+03   1.68E+02   2.41E-01   2.62E-05   9.44E-07   1.94E-07
    885.0     887.1   7.99E+03   1.68E+02   2.41E-01   2.62E-05   9.44E-07   1.94E-07
    885.0     887.1   8.02E+03   1.69E+02   2.45E-01   2.56E-05   9.16E-07   1.89E-07
    890.0     892.1   8.02E+03   1.69E+02   2.45E-01   2.56E-05   9.16E-07   1.89E-07
    890.0     892.1   8.06E+03   1.71E+02   2.52E-01   2.51E-05   9.01E-07   1.86E-07
    895.0     897.1   8.06E+03   1.71E+02   2.52E-01   2.51E-05   9.01E-07   1.86E-07
    895.0     897.1   8.08E+03   1.72E+02   2.55E-01   2.46E-05   8.84E-07   1.82E-07
    900.0     902.1   8.08E+03   1.72E+02   2.55E-01   2.46E-05   8.84E-07   1.82E-07
    900.0     902.1   8.09E+03   1.72E+02   2.71E-01   2.28E-05   8.82E-07   1.93E-07
    905.0     907.1   8.09E+03   1.72E+02   2.71E-01   2.28E-05   8.82E-07   1.93E-07
    905.0     907.1   8.11E+03   1.72E+02   2.86E-01   2.10E-05   8.86E-07   2.05E-07
    910.0     912.1   8.11E+03   1.72E+02   2.86E-01   2.10E-05   8.86E-07   2.05E-07
    910.0     912.1   8.14E+03   1.72E+02   2.97E-01   2.03E-05   8.83E-07   2.10E-07
    915.0     917.1   8.14E+03   1.72E+02   2.97E-01   2.03E-05   8.83E-07   2.10E-07
    915.0     917.1   8.16E+03   1.73E+02   3.11E-01   2.01E-05   8.83E-07   2.16E-07
    920.0     922.1   8.16E+03   1.73E+02   3.11E-01   2.01E-05   8.83E-07   2.16E-07
    920.0     922.1   8.19E+03   1.73E+02   3.22E-01   2.00E-05   8.78E-07   2.18E-07
    925.0     927.1   8.19E+03   1.73E+02   3.22E-01   2.00E-05   8.78E-07   2.18E-07
    925.0     927.1   8.22E+03   1.74E+02   3.36E-01   1.98E-05   8.78E-07   2.20E-07
    930.0     932.1   8.22E+03   1.74E+02   3.36E-01   1.98E-05   8.78E-07   2.20E-07
    930.0     932.1   8.26E+03   1.74E+02   3.49E-01   1.95E-05   8.85E-07   2.31E-07
    935.0     937.1   8.26E+03   1.74E+02   3.49E-01   1.95E-05   8.85E-07   2.31E-07
    935.0     937.1   8.30E+03   1.71E+02   3.75E-01   1.82E-05   9.37E-07   2.90E-07
    940.0     942.1   8.30E+03   1.71E+02   3.75E-01   1.82E-05   9.37E-07   2.90E-07
    940.0     942.1   8.36E+03   1.70E+02   3.98E-01   1.73E-05   9.71E-07   3.25E-07
    945.0     947.1   8.36E+03   1.70E+02   3.98E-01   1.73E-05   9.71E-07   3.25E-07
    945.0     947.1   8.41E+03   1.69E+02   4.11E-01   1.71E-05   9.94E-07   3.53E-07
    950.0     952.1   8.41E+03   1.69E+02   4.11E-01   1.71E-05   9.94E-07   3.53E-07
    950.0     952.1   8.45E+03   1.69E+02   4.25E-01   1.71E-05   1.02E-06   3.80E-07
    955.0     957.1   8.45E+03   1.69E+02   4.25E-01   1.71E-05   1.02E-06   3.80E-07
    955.0     957.1   8.50E+03   1.68E+02   4.39E-01   1.70E-05   1.05E-06   4.09E-07
    960.0     962.1   8.50E+03   1.68E+02   4.39E-01   1.70E-05   1.05E-06   4.09E-07
    960.0     962.1   8.54E+03   1.66E+02   4.48E-01   1.70E-05   1.07E-06   4.37E-07
    965.0     967.1   8.54E+03   1.66E+02   4.48E-01   1.70E-05   1.07E-06   4.37E-07
    965.0     967.1   8.54E+03   1.64E+02   4.27E-01   1.62E-05   1.07E-06   4.39E-07
    970.0     972.1   8.54E+03   1.64E+02   4.27E-01   1.62E-05   1.07E-06   4.39E-07
    970.0     972.1   8.49E+03   1.58E+02   3.75E-01   1.44E-05   1.03E-06   4.16E-07
    975.0     977.1   8.49E+03   1.58E+02   3.75E-01   1.44E-05   1.03E-06   4.16E-07
    975.0     977.1   8.48E+03   1.55E+02   3.45E-01   1.35E-05   1.03E-06   4.15E-07
    980.0     982.1   8.48E+03   1.55E+02   3.45E-01   1.35E-05   1.03E-06   4.15E-07
    980.0     982.1   8.46E+03   1.51E+02   3.16E-01   1.31E-05   1.02E-06   4.13E-07
    985.0     987.1   8.46E+03   1.51E+02   3.16E-01   1.31E-05   1.02E-06   4.13E-07
    985.0     987.1   8.45E+03   1.48E+02   2.91E-01   1.28E-05   1.01E-06   4.10E-07
    990.0     992.1   8.45E+03   1.48E+02   2.91E-01   1.28E-05   1.01E-06   4.10E-07
    990.0     992.1   8.43E+03   1.45E+02   2.67E-01   1.24E-05   9.95E-07   4.07E-07
    995.0     997.1   8.43E+03   1.45E+02   2.67E-01   1.24E-05   9.95E-07   4.07E-07
    995.0     997.1   8.40E+03   1.41E+02   2.41E-01   1.20E-05   9.72E-07   3.94E-07
   1000.0    1002.1   8.40E+03   1.41E+02   2.41E-01   1.20E-05   9.72E-07   3.94E-07
   1000.0    1002.1   8.29E+03   1.38E+02   2.10E-01   1.11E-05   8.98E-07   3.43E-07
   1005.0    1007.1   8.29E+03   1.38E+02   2.10E-01   1.11E-05   8.98E-07   3.43E-07
   1005.0    1007.1   8.18E+03   1.35E+02   1.79E-01   1.03E-05   8.24E-07   2.92E-07
   1010.0    1012.1   8.18E+03   1.35E+02   1.79E-01   1.03E-05   8.24E-07   2.92E-07
   1010.0    1012.1   8.11E+03   1.33E+02   1.56E-01   9.79E-06   7.59E-07   2.45E-07
   1015.0    1017.1   8.11E+03   1.33E+02   1.56E-01   9.79E-06   7.59E-07   2.45E-07
   1015.0    1017.1   8.06E+03   1.31E+02   1.37E-01   9.44E-06   7.08E-07   2.06E-07
   1020.0    1022.1   8.06E+03   1.31E+02   1.37E-01   9.44E-06   7.08E-07   2.06E-07
   1020.0    1022.1   8.01E+03   1.29E+02   1.21E-01   9.14E-06   6.61E-07   1.71E-07
   1025.0    1027.1   8.01E+03   1.29E+02   1.21E-01   9.14E-06   6.61E-07   1.71E-07
   1025.0    1027.1   7.96E+03   1.27E+02   1.08E-01   8.92E-06   6.25E-07   1.41E-07
   1030.0    1032.1   7.96E+03   1.27E+02   1.08E-01   8.92E-06   6.25E-07   1.41E-07
   1030.0    1032.1   7.91E+03   1.26E+02   1.02E-01   8.72E-06   5.97E-07   1.18E-07
   1035.0    1037.1   7.91E+03   1.26E+02   1.02E-01   8.72E-06   5.97E-07   1.18E-07
   1035.0    1037.1   7.84E+03   1.24E+02   1.05E-01   8.52E-06   5.89E-07   1.11E-07
   1040.0    1042.1   7.84E+03   1.24E+02   1.05E-01   8.52E-06   5.89E-07   1.11E-07
   1040.0    1042.1   7.80E+03   1.23E+02   1.08E-01   8.38E-06   5.84E-07   1.04E-07
   1045.0    1047.1   7.80E+03   1.23E+02   1.08E-01   8.38E-06   5.84E-07   1.04E-07
   1045.0    1047.1   7.76E+03   1.22E+02   1.10E-01   8.25E-06   5.80E-07   1.00E-07
   1050.0    1052.1   7.76E+03   1.22E+02   1.10E-01   8.25E-06   5.80E-07   1.00E-07
   1050.0    1052.1   7.73E+03   1.21E+02   1.11E-01   8.13E-06   5.77E-07   9.76E-08
   1055.0    1057.1   7.73E+03   1.21E+02   1.11E-01   8.13E-06   5.77E-07   9.76E-08
   1055.0    1057.1   7.70E+03   1.20E+02   1.13E-01   8.01E-06   5.74E-07   9.62E-08
   1060.0    1062.1   7.70E+03   1.20E+02   1.13E-01   8.01E-06   5.74E-07   9.62E-08
   1060.0    1062.1   7.68E+03   1.19E+02   1.16E-01   7.90E-06   5.72E-07   9.68E-08
   1065.0    1067.1   7.68E+03   1.19E+02   1.16E-01   7.90E-06   5.72E-07   9.68E-08
   1065.0    1067.1   7.65E+03   1.18E+02   1.15E-01   7.67E-06   5.61E-07   1.01E-07
   1070.0    1072.1   7.65E+03   1.18E+02   1.15E-01   7.67E-06   5.61E-07   1.01E-07
   1070.0    1072.1   7.62E+03   1.16E+02   1.10E-01   7.32E-06   5.38E-07   1.07E-07
   1075.0    1077.1   7.62E+03   1.16E+02   1.10E-01   7.32E-06   5.38E-07   1.07E-07
   1075.0    1077.1   7.60E+03   1.15E+02   1.09E-01   7.08E-06   5.26E-07   1.13E-07
   1080.0    1082.1   7.60E+03   1.15E+02   1.09E-01   7.08E-06   5.26E-07   1.13E-07
   1080.0    1082.1   7.57E+03   1.13E+02   1.09E-01   6.87E-06   5.14E-07   1.17E-07
   1085.0    1087.1   7.57E+03   1.13E+02   1.09E-01   6.87E-06   5.14E-07   1.17E-07
   1085.0    1087.1   7.55E+03   1.12E+02   1.08E-01   6.67E-06   5.03E-07   1.21E-07
   1090.0    1092.1   7.55E+03   1.12E+02   1.08E-01   6.67E-06   5.03E-07   1.21E-07
   1090.0    1092.1   7.52E+03   1.12E+02   1.09E-01   6.47E-06   4.93E-07   1.24E-07
   1095.0    1097.1   7.52E+03   1.12E+02   1.09E-01   6.47E-06   4.93E-07   1.24E-07
   1095.0    1097.1   7.48E+03   1.10E+02   1.09E-01   6.29E-06   4.80E-07   1.26E-07
   1100.0    1102.1   7.48E+03   1.10E+02   1.09E-01   6.29E-06   4.80E-07   1.26E-07
   1100.0    1102.1   7.41E+03   1.09E+02   1.03E-01   6.01E-06   4.39E-07   1.13E-07
   1105.0    1107.1   7.41E+03   1.09E+02   1.03E-01   6.01E-06   4.39E-07   1.13E-07
   1105.0    1107.1   7.34E+03   1.08E+02   9.80E-02   5.76E-06   4.02E-07   1.01E-07
   1110.0    1112.1   7.34E+03   1.08E+02   9.80E-02   5.76E-06   4.02E-07   1.01E-07
   1110.0    1112.1   7.29E+03   1.07E+02   9.37E-02   5.54E-06   3.73E-07   9.12E-08
   1115.0    1117.1   7.29E+03   1.07E+02   9.37E-02   5.54E-06   3.73E-07   9.12E-08
   1115.0    1117.1   7.24E+03   1.06E+02   9.05E-02   5.36E-06   3.50E-07   8.46E-08
   1120.0    1122.1   7.24E+03   1.06E+02   9.05E-02   5.36E-06   3.50E-07   8.46E-08
   1120.0    1122.1   7.20E+03   1.05E+02   8.76E-02   5.19E-06   3.30E-07   7.95E-08
   1125.0    1127.1   7.20E+03   1.05E+02   8.76E-02   5.19E-06   3.30E-07   7.95E-08
   1125.0    1127.1   7.16E+03   1.04E+02   8.54E-02   5.02E-06   3.14E-07   7.68E-08
   1130.0    1132.1   7.16E+03   1.04E+02   8.54E-02   5.02E-06   3.14E-07   7.68E-08
   1130.0    1132.1   7.12E+03   1.03E+02   8.43E-02   4.88E-06   3.01E-07   7.53E-08
   1135.0    1137.1   7.12E+03   1.03E+02   8.43E-02   4.88E-06   3.01E-07   7.53E-08
   1135.0    1137.1   7.08E+03   1.04E+02   8.83E-02   4.77E-06   2.92E-07   7.59E-08
   1140.0    1142.1   7.08E+03   1.04E+02   8.83E-02   4.77E-06   2.92E-07   7.59E-08
   1140.0    1142.1   7.04E+03   1.03E+02   9.01E-02   4.65E-06   2.82E-07   7.58E-08
   1145.0    1147.1   7.04E+03   1.03E+02   9.01E-02   4.65E-06   2.82E-07   7.58E-08
   1145.0    1147.1   7.01E+03   1.03E+02   9.14E-02   4.55E-06   2.74E-07   7.59E-08
   1150.0    1152.1   7.01E+03   1.03E+02   9.14E-02   4.55E-06   2.74E-07   7.59E-08
   1150.0    1152.1   6.98E+03   1.03E+02   9.21E-02   4.46E-06   2.65E-07   7.55E-08
   1155.0    1157.1   6.98E+03   1.03E+02   9.21E-02   4.46E-06   2.65E-07   7.55E-08
   1155.0    1157.1   6.95E+03   1.03E+02   9.18E-02   4.36E-06   2.55E-07   7.41E-08
   1160.0    1162.1   6.95E+03   1.03E+02   9.18E-02   4.36E-06   2.55E-07   7.41E-08
   1160.0    1162.1   6.92E+03   1.02E+02   8.94E-02   4.26E-06   2.43E-07   7.07E-08
   1165.0    1167.1   6.92E+03   1.02E+02   8.94E-02   4.26E-06   2.43E-07   7.07E-08
   1165.0    1167.1   6.89E+03   1.02E+02   8.69E-02   4.19E-06   2.39E-07   7.22E-08
   1170.0    1172.1   6.89E+03   1.02E+02   8.69E-02   4.19E-06   2.39E-07   7.22E-08
   1170.0    1172.1   6.86E+03   1.02E+02   8.49E-02   4.14E-06   2.44E-07   7.98E-08
   1175.0    1177.1   6.86E+03   1.02E+02   8.49E-02   4.14E-06   2.44E-07   7.98E-08
   1175.0    1177.1   6.84E+03   1.02E+02   8.29E-02   4.08E-06   2.45E-07   8.39E-08
   1180.0    1182.1   6.84E+03   1.02E+02   8.29E-02   4.08E-06   2.45E-07   8.39E-08
   1180.0    1182.1   6.81E+03   1.02E+02   7.96E-02   4.01E-06   2.43E-07   8.62E-08
   1185.0    1187.1   6.81E+03   1.02E+02   7.96E-02   4.01E-06   2.43E-07   8.62E-08
   1185.0    1187.1   6.79E+03   1.02E+02   7.67E-02   3.94E-06   2.42E-07   8.80E-08
   1190.0    1192.1   6.79E+03   1.02E+02   7.67E-02   3.94E-06   2.42E-07   8.80E-08
   1190.0    1192.1   6.77E+03   1.02E+02   7.43E-02   3.88E-06   2.41E-07   9.01E-08
   1195.0    1197.1   6.77E+03   1.02E+02   7.43E-02   3.88E-06   2.41E-07   9.01E-08
   1195.0    1197.1   6.75E+03   1.01E+02   7.16E-02   3.82E-06   2.38E-07   9.04E-08
   1200.0    1202.1   6.75E+03   1.01E+02   7.16E-02   3.82E-06   2.38E-07   9.04E-08
   1200.0    1202.1   6.70E+03   1.02E+02   6.37E-02   3.82E-06   2.23E-07   7.90E-08
   1205.0    1207.1   6.70E+03   1.02E+02   6.37E-02   3.82E-06   2.23E-07   7.90E-08
   1205.0    1207.1   6.66E+03   1.02E+02   5.65E-02   3.82E-06   2.08E-07   6.84E-08
   1210.0    1212.1   6.66E+03   1.02E+02   5.65E-02   3.82E-06   2.08E-07   6.84E-08
   1210.0    1212.1   6.63E+03   1.02E+02   5.03E-02   3.80E-06   1.93E-07   5.85E-08
   1215.0    1217.1   6.63E+03   1.02E+02   5.03E-02   3.80E-06   1.93E-07   5.85E-08
   1215.0    1217.1   6.61E+03   1.03E+02   4.56E-02   3.77E-06   1.82E-07   5.04E-08
   1220.0    1222.1   6.61E+03   1.03E+02   4.56E-02   3.77E-06   1.82E-07   5.04E-08
   1220.0    1222.1   6.58E+03   1.03E+02   4.15E-02   3.74E-06   1.71E-07   4.31E-08
   1225.0    1227.1   6.58E+03   1.03E+02   4.15E-02   3.74E-06   1.71E-07   4.31E-08
   1225.0    1227.1   6.55E+03   1.03E+02   3.87E-02   3.72E-06   1.62E-07   3.76E-08
   1230.0    1232.1   6.55E+03   1.03E+02   3.87E-02   3.72E-06   1.62E-07   3.76E-08
   1230.0    1232.1   6.53E+03   1.03E+02   3.63E-02   3.73E-06   1.56E-07   3.27E-08
   1235.0    1237.1   6.53E+03   1.03E+02   3.63E-02   3.73E-06   1.56E-07   3.27E-08
   1235.0    1237.1   6.49E+03   1.05E+02   3.43E-02   3.92E-06   1.59E-07   2.76E-08
   1240.0    1242.1   6.49E+03   1.05E+02   3.43E-02   3.92E-06   1.59E-07   2.76E-08
   1240.0    1242.1   6.46E+03   1.06E+02   3.29E-02   4.04E-06   1.59E-07   2.40E-08
   1245.0    1247.1   6.46E+03   1.06E+02   3.29E-02   4.04E-06   1.59E-07   2.40E-08
   1245.0    1247.1   6.44E+03   1.08E+02   3.22E-02   4.13E-06   1.61E-07   2.19E-08
   1250.0    1252.1   6.44E+03   1.08E+02   3.22E-02   4.13E-06   1.61E-07   2.19E-08
   1250.0    1252.1   6.42E+03   1.09E+02   3.17E-02   4.22E-06   1.63E-07   2.04E-08
   1255.0    1257.1   6.42E+03   1.09E+02   3.17E-02   4.22E-06   1.63E-07   2.04E-08
   1255.0    1257.1   6.40E+03   1.10E+02   3.13E-02   4.29E-06   1.65E-07   1.91E-08
   1260.0    1262.1   6.40E+03   1.10E+02   3.13E-02   4.29E-06   1.65E-07   1.91E-08
   1260.0    1262.1   6.39E+03   1.10E+02   3.11E-02   4.36E-06   1.68E-07   1.81E-08
   1265.0    1267.1   6.39E+03   1.10E+02   3.11E-02   4.36E-06   1.68E-07   1.81E-08
   1265.0    1267.1   6.37E+03   1.12E+02   3.13E-02   4.35E-06   1.67E-07   1.78E-08
   1270.0    1272.1   6.37E+03   1.12E+02   3.13E-02   4.35E-06   1.67E-07   1.78E-08
   1270.0    1272.1   6.35E+03   1.14E+02   3.22E-02   4.27E-06   1.64E-07   1.82E-08
   1275.0    1277.1   6.35E+03   1.14E+02   3.22E-02   4.27E-06   1.64E-07   1.82E-08
   1275.0    1277.1   6.33E+03   1.16E+02   3.28E-02   4.24E-06   1.63E-07   1.83E-08
   1280.0    1282.1   6.33E+03   1.16E+02   3.28E-02   4.24E-06   1.63E-07   1.83E-08
   1280.0    1282.1   6.32E+03   1.18E+02   3.32E-02   4.17E-06   1.60E-07   1.84E-08
   1285.0    1287.1   6.32E+03   1.18E+02   3.32E-02   4.17E-06   1.60E-07   1.84E-08
   1285.0    1287.1   6.31E+03   1.19E+02   3.35E-02   4.12E-06   1.58E-07   1.85E-08
   1290.0    1292.1   6.31E+03   1.19E+02   3.35E-02   4.12E-06   1.58E-07   1.85E-08
   1290.0    1292.1   6.30E+03   1.21E+02   3.39E-02   4.05E-06   1.55E-07   1.85E-08
   1295.0    1297.1   6.30E+03   1.21E+02   3.39E-02   4.05E-06   1.55E-07   1.85E-08
   1295.0    1297.1   6.29E+03   1.22E+02   3.39E-02   3.96E-06   1.51E-07   1.85E-08
   1300.0    1302.1   6.29E+03   1.22E+02   3.39E-02   3.96E-06   1.51E-07   1.85E-08
   1300.0    1302.1   6.27E+03   1.24E+02   3.82E-02   3.78E-06   1.52E-07   2.21E-08
   1305.0    1307.1   6.27E+03   1.24E+02   3.82E-02   3.78E-06   1.52E-07   2.21E-08
   1305.0    1307.1   6.26E+03   1.26E+02   4.19E-02   3.60E-06   1.52E-07   2.52E-08
   1310.0    1312.1   6.26E+03   1.26E+02   4.19E-02   3.60E-06   1.52E-07   2.52E-08
   1310.0    1312.1   6.25E+03   1.28E+02   4.43E-02   3.44E-06   1.51E-07   2.74E-08
   1315.0    1317.1   6.25E+03   1.28E+02   4.43E-02   3.44E-06   1.51E-07   2.74E-08
   1315.0    1317.1   6.24E+03   1.29E+02   4.61E-02   3.31E-06   1.50E-07   2.91E-08
   1320.0    1322.1   6.24E+03   1.29E+02   4.61E-02   3.31E-06   1.50E-07   2.91E-08
   1320.0    1322.1   6.24E+03   1.31E+02   4.74E-02   3.20E-06   1.49E-07   3.04E-08
   1325.0    1327.1   6.24E+03   1.31E+02   4.74E-02   3.20E-06   1.49E-07   3.04E-08
   1325.0    1327.1   6.23E+03   1.32E+02   4.88E-02   3.12E-06   1.48E-07   3.16E-08
   1330.0    1332.1   6.23E+03   1.32E+02   4.88E-02   3.12E-06   1.48E-07   3.16E-08
   1330.0    1332.1   6.23E+03   1.34E+02   5.00E-02   3.07E-06   1.50E-07   3.32E-08
   1335.0    1337.1   6.23E+03   1.34E+02   5.00E-02   3.07E-06   1.50E-07   3.32E-08
   1335.0    1337.1   6.20E+03   1.36E+02   5.31E-02   3.12E-06   1.59E-07   3.87E-08
   1340.0    1342.1   6.20E+03   1.36E+02   5.31E-02   3.12E-06   1.59E-07   3.87E-08
   1340.0    1342.1   6.20E+03   1.38E+02   5.53E-02   3.15E-06   1.64E-07   4.22E-08
   1345.0    1347.1   6.20E+03   1.38E+02   5.53E-02   3.15E-06   1.64E-07   4.22E-08
   1345.0    1347.1   6.19E+03   1.39E+02   5.71E-02   3.18E-06   1.68E-07   4.41E-08
   1350.0    1352.1   6.19E+03   1.39E+02   5.71E-02   3.18E-06   1.68E-07   4.41E-08
   1350.0    1352.1   6.18E+03   1.41E+02   5.90E-02   3.21E-06   1.71E-07   4.56E-08
   1355.0    1357.1   6.18E+03   1.41E+02   5.90E-02   3.21E-06   1.71E-07   4.56E-08
   1355.0    1357.1   6.17E+03   1.42E+02   6.06E-02   3.24E-06   1.74E-07   4.69E-08
   1360.0    1362.1   6.17E+03   1.42E+02   6.06E-02   3.24E-06   1.74E-07   4.69E-08
   1360.0    1362.1   6.16E+03   1.44E+02   6.24E-02   3.27E-06   1.77E-07   4.83E-08
   1365.0    1367.1   6.16E+03   1.44E+02   6.24E-02   3.27E-06   1.77E-07   4.83E-08
   1365.0    1367.1   6.15E+03   1.45E+02   6.80E-02   3.36E-06   1.98E-07   5.81E-08
   1370.0    1372.1   6.15E+03   1.45E+02   6.80E-02   3.36E-06   1.98E-07   5.81E-08
   1370.0    1372.1   6.11E+03   1.46E+02   7.77E-02   3.51E-06   2.36E-07   7.59E-08
   1375.0    1377.1   6.11E+03   1.46E+02   7.77E-02   3.51E-06   2.36E-07   7.59E-08
   1375.0    1377.1   6.09E+03   1.47E+02   8.47E-02   3.62E-06   2.63E-07   8.83E-08
   1380.0    1382.1   6.09E+03   1.47E+02   8.47E-02   3.62E-06   2.63E-07   8.83E-08
   1380.0    1382.1   6.08E+03   1.48E+02   9.00E-02   3.71E-06   2.86E-07   9.91E-08
   1385.0    1387.1   6.08E+03   1.48E+02   9.00E-02   3.71E-06   2.86E-07   9.91E-08
   1385.0    1387.1   6.07E+03   1.49E+02   9.49E-02   3.80E-06   3.07E-07   1.09E-07
   1390.0    1392.1   6.07E+03   1.49E+02   9.49E-02   3.80E-06   3.07E-07   1.09E-07
   1390.0    1392.1   6.06E+03   1.50E+02   9.92E-02   3.88E-06   3.28E-07   1.19E-07
   1395.0    1397.1   6.06E+03   1.50E+02   9.92E-02   3.88E-06   3.28E-07   1.19E-07
   1395.0    1397.1   6.04E+03   1.51E+02   1.02E-01   3.96E-06   3.45E-07   1.26E-07
   1400.0    1402.1   6.04E+03   1.51E+02   1.02E-01   3.96E-06   3.45E-07   1.26E-07
   1400.0    1402.1   6.01E+03   1.50E+02   1.13E-01   4.17E-06   4.02E-07   1.59E-07
   1405.0    1407.1   6.01E+03   1.50E+02   1.13E-01   4.17E-06   4.02E-07   1.59E-07
   1405.0    1407.1   5.98E+03   1.50E+02   1.22E-01   4.35E-06   4.52E-07   1.88E-07
   1410.0    1412.1   5.98E+03   1.50E+02   1.22E-01   4.35E-06   4.52E-07   1.88E-07
   1410.0    1412.1   5.95E+03   1.50E+02   1.27E-01   4.49E-06   4.81E-07   2.05E-07
   1415.0    1417.1   5.95E+03   1.50E+02   1.27E-01   4.49E-06   4.81E-07   2.05E-07
   1415.0    1417.1   5.93E+03   1.49E+02   1.30E-01   4.61E-06   4.99E-07   2.14E-07
   1420.0    1422.1   5.93E+03   1.49E+02   1.30E-01   4.61E-06   4.99E-07   2.14E-07
   1420.0    1422.1   5.91E+03   1.49E+02   1.32E-01   4.71E-06   5.13E-07   2.21E-07
   1425.0    1427.1   5.91E+03   1.49E+02   1.32E-01   4.71E-06   5.13E-07   2.21E-07
   1425.0    1427.1   5.89E+03   1.50E+02   1.35E-01   4.81E-06   5.28E-07   2.28E-07
   1430.0    1432.1   5.89E+03   1.50E+02   1.35E-01   4.81E-06   5.28E-07   2.28E-07
   1430.0    1432.1   5.86E+03   1.49E+02   1.36E-01   4.92E-06   5.38E-07   2.30E-07
   1435.0    1437.1   5.86E+03   1.49E+02   1.36E-01   4.92E-06   5.38E-07   2.30E-07
   1435.0    1437.1   5.80E+03   1.46E+02   1.36E-01   5.10E-06   5.41E-07   2.21E-07
   1440.0    1442.1   5.80E+03   1.46E+02   1.36E-01   5.10E-06   5.41E-07   2.21E-07
   1440.0    1442.1   5.76E+03   1.45E+02   1.36E-01   5.26E-06   5.51E-07   2.18E-07
   1445.0    1447.1   5.76E+03   1.45E+02   1.36E-01   5.26E-06   5.51E-07   2.18E-07
   1445.0    1447.1   5.73E+03   1.43E+02   1.37E-01   5.40E-06   5.69E-07   2.23E-07
   1450.0    1452.1   5.73E+03   1.43E+02   1.37E-01   5.40E-06   5.69E-07   2.23E-07
   1450.0    1452.1   5.70E+03   1.42E+02   1.38E-01   5.53E-06   5.90E-07   2.30E-07
   1455.0    1457.1   5.70E+03   1.42E+02   1.38E-01   5.53E-06   5.90E-07   2.30E-07
   1455.0    1457.1   5.67E+03   1.41E+02   1.39E-01   5.62E-06   6.06E-07   2.36E-07
   1460.0    1462.1   5.67E+03   1.41E+02   1.39E-01   5.62E-06   6.06E-07   2.36E-07
   1460.0    1462.1   5.64E+03   1.40E+02   1.41E-01   5.72E-06   6.25E-07   2.45E-07
   1465.0    1467.1   5.64E+03   1.40E+02   1.41E-01   5.72E-06   6.25E-07   2.45E-07
   1465.0    1467.1   5.60E+03   1.37E+02   1.44E-01   5.83E-06   6.41E-07   2.53E-07
   1470.0    1472.1   5.60E+03   1.37E+02   1.44E-01   5.83E-06   6.41E-07   2.53E-07
   1470.0    1472.1   5.54E+03   1.33E+02   1.49E-01   5.99E-06   6.58E-07   2.62E-07
   1475.0    1477.1   5.54E+03   1.33E+02   1.49E-01   5.99E-06   6.58E-07   2.62E-07
   1475.0    1477.1   5.51E+03   1.30E+02   1.52E-01   6.10E-06   6.67E-07   2.67E-07
   1480.0    1482.1   5.51E+03   1.30E+02   1.52E-01   6.10E-06   6.67E-07   2.67E-07
   1480.0    1482.1   5.47E+03   1.28E+02   1.54E-01   6.14E-06   6.65E-07   2.66E-07
   1485.0    1487.1   5.47E+03   1.28E+02   1.54E-01   6.14E-06   6.65E-07   2.66E-07
   1485.0    1487.1   5.43E+03   1.26E+02   1.56E-01   6.17E-06   6.64E-07   2.67E-07
   1490.0    1492.1   5.43E+03   1.26E+02   1.56E-01   6.17E-06   6.64E-07   2.67E-07
   1490.0    1492.1   5.40E+03   1.24E+02   1.58E-01   6.18E-06   6.61E-07   2.66E-07
   1495.0    1497.1   5.40E+03   1.24E+02   1.58E-01   6.18E-06   6.61E-07   2.66E-07
   1495.0    1497.1   5.37E+03   1.22E+02   1.59E-01   6.15E-06   6.54E-07   2.64E-07
   1500.0    1502.1   5.37E+03   1.22E+02   1.59E-01   6.15E-06   6.54E-07   2.64E-07
   1500.0    1502.1   5.29E+03   1.16E+02   1.44E-01   5.73E-06   6.23E-07   2.67E-07
   1505.0    1507.1   5.29E+03   1.16E+02   1.44E-01   5.73E-06   6.23E-07   2.67E-07
   1505.0    1507.1   5.21E+03   1.11E+02   1.31E-01   5.34E-06   5.94E-07   2.71E-07
   1510.0    1512.1   5.21E+03   1.11E+02   1.31E-01   5.34E-06   5.94E-07   2.71E-07
   1510.0    1512.1   5.15E+03   1.07E+02   1.22E-01   5.03E-06   5.67E-07   2.70E-07
   1515.0    1517.1   5.15E+03   1.07E+02   1.22E-01   5.03E-06   5.67E-07   2.70E-07
   1515.0    1517.1   5.09E+03   1.03E+02   1.13E-01   4.75E-06   5.38E-07   2.63E-07
   1520.0    1522.1   5.09E+03   1.03E+02   1.13E-01   4.75E-06   5.38E-07   2.63E-07
   1520.0    1522.1   5.04E+03   9.96E+01   1.05E-01   4.51E-06   5.08E-07   2.53E-07
   1525.0    1527.1   5.04E+03   9.96E+01   1.05E-01   4.51E-06   5.08E-07   2.53E-07
   1525.0    1527.1   4.98E+03   9.65E+01   9.88E-02   4.32E-06   4.82E-07   2.43E-07
   1530.0    1532.1   4.98E+03   9.65E+01   9.88E-02   4.32E-06   4.82E-07   2.43E-07
   1530.0    1532.1   4.92E+03   9.28E+01   9.09E-02   4.08E-06   4.39E-07   2.18E-07
   1535.0    1537.1   4.92E+03   9.28E+01   9.09E-02   4.08E-06   4.39E-07   2.18E-07
   1535.0    1537.1   4.83E+03   8.82E+01   7.76E-02   3.70E-06   3.44E-07   1.56E-07
   1540.0    1542.1   4.83E+03   8.82E+01   7.76E-02   3.70E-06   3.44E-07   1.56E-07
   1540.0    1542.1   4.75E+03   8.41E+01   6.78E-02   3.43E-06   2.76E-07   1.10E-07
   1545.0    1547.1   4.75E+03   8.41E+01   6.78E-02   3.43E-06   2.76E-07   1.10E-07
   1545.0    1547.1   4.69E+03   8.07E+01   6.09E-02   3.23E-06   2.28E-07   7.75E-08
   1550.0    1552.1   4.69E+03   8.07E+01   6.09E-02   3.23E-06   2.28E-07   7.75E-08
   1550.0    1552.1   4.63E+03   7.79E+01   5.61E-02   3.08E-06   1.96E-07   5.70E-08
   1555.0    1557.1   4.63E+03   7.79E+01   5.61E-02   3.08E-06   1.96E-07   5.70E-08
   1555.0    1557.1   4.58E+03   7.50E+01   5.25E-02   2.94E-06   1.72E-07   4.35E-08
   1560.0    1562.1   4.58E+03   7.50E+01   5.25E-02   2.94E-06   1.72E-07   4.35E-08
   1560.0    1562.1   4.53E+03   7.24E+01   5.04E-02   2.83E-06   1.58E-07   3.78E-08
   1565.0    1567.1   4.53E+03   7.24E+01   5.04E-02   2.83E-06   1.58E-07   3.78E-08
   1565.0    1567.1   4.47E+03   6.94E+01   4.83E-02   2.73E-06   1.46E-07   3.41E-08
   1570.0    1572.1   4.47E+03   6.94E+01   4.83E-02   2.73E-06   1.46E-07   3.41E-08
   1570.0    1572.1   4.41E+03   6.65E+01   4.63E-02   2.64E-06   1.38E-07   3.19E-08
   1575.0    1577.1   4.41E+03   6.65E+01   4.63E-02   2.64E-06   1.38E-07   3.19E-08
   1575.0    1577.1   4.35E+03   6.36E+01   4.49E-02   2.55E-06   1.31E-07   3.04E-08
   1580.0    1582.1   4.35E+03   6.36E+01   4.49E-02   2.55E-06   1.31E-07   3.04E-08
   1580.0    1582.1   4.30E+03   6.11E+01   4.40E-02   2.49E-06   1.26E-07   2.93E-08
   1585.0    1587.1   4.30E+03   6.11E+01   4.40E-02   2.49E-06   1.26E-07   2.93E-08
   1585.0    1587.1   4.24E+03   5.88E+01   4.32E-02   2.43E-06   1.22E-07   2.82E-08
   1590.0    1592.1   4.24E+03   5.88E+01   4.32E-02   2.43E-06   1.22E-07   2.82E-08
   1590.0    1592.1   4.19E+03   5.64E+01   4.25E-02   2.37E-06   1.18E-07   2.73E-08
   1595.0    1597.1   4.19E+03   5.64E+01   4.25E-02   2.37E-06   1.18E-07   2.73E-08
   1595.0    1597.1   4.14E+03   5.42E+01   4.19E-02   2.32E-06   1.14E-07   2.64E-08
   1600.0    1602.1   4.14E+03   5.42E+01   4.19E-02   2.32E-06   1.14E-07   2.64E-08
   1600.0    1602.1   4.08E+03   5.19E+01   4.09E-02   2.29E-06   1.11E-07   2.55E-08
   1605.0    1607.1   4.08E+03   5.19E+01   4.09E-02   2.29E-06   1.11E-07   2.55E-08
   1605.0    1607.1   4.03E+03   4.99E+01   3.99E-02   2.27E-06   1.09E-07   2.48E-08
   1610.0    1612.1   4.03E+03   4.99E+01   3.99E-02   2.27E-06   1.09E-07   2.48E-08
   1610.0    1612.1   3.97E+03   4.79E+01   3.90E-02   2.24E-06   1.07E-07   2.42E-08
   1615.0    1617.1   3.97E+03   4.79E+01   3.90E-02   2.24E-06   1.07E-07   2.42E-08
   1615.0    1617.1   3.93E+03   4.61E+01   3.84E-02   2.22E-06   1.05E-07   2.36E-08
   1620.0    1622.1   3.93E+03   4.61E+01   3.84E-02   2.22E-06   1.05E-07   2.36E-08
   1620.0    1622.1   3.88E+03   4.44E+01   3.78E-02   2.19E-06   1.03E-07   2.31E-08
   1625.0    1627.1   3.88E+03   4.44E+01   3.78E-02   2.19E-06   1.03E-07   2.31E-08
   1625.0    1627.1   3.83E+03   4.28E+01   3.74E-02   2.17E-06   1.02E-07   2.26E-08
   1630.0    1632.1   3.83E+03   4.28E+01   3.74E-02   2.17E-06   1.02E-07   2.26E-08
   1630.0    1632.1   3.79E+03   4.11E+01   3.70E-02   2.16E-06   1.01E-07   2.21E-08
   1635.0    1637.1   3.79E+03   4.11E+01   3.70E-02   2.16E-06   1.01E-07   2.21E-08
   1635.0    1637.1   3.73E+03   3.94E+01   3.67E-02   2.16E-06   1.02E-07   2.17E-08
   1640.0    1642.1   3.73E+03   3.94E+01   3.67E-02   2.16E-06   1.02E-07   2.17E-08
   1640.0    1642.1   3.68E+03   3.78E+01   3.66E-02   2.16E-06   1.02E-07   2.15E-08
   1645.0    1647.1   3.68E+03   3.78E+01   3.66E-02   2.16E-06   1.02E-07   2.15E-08
   1645.0    1647.1   3.63E+03   3.63E+01   3.65E-02   2.16E-06   1.03E-07   2.13E-08
   1650.0    1652.1   3.63E+03   3.63E+01   3.65E-02   2.16E-06   1.03E-07   2.13E-08
   1650.0    1652.1   3.58E+03   3.48E+01   3.62E-02   2.16E-06   1.02E-07   2.09E-08
   1655.0    1657.1   3.58E+03   3.48E+01   3.62E-02   2.16E-06   1.02E-07   2.09E-08
   1655.0    1657.1   3.54E+03   3.33E+01   3.58E-02   2.15E-06   1.02E-07   2.06E-08
   1660.0    1662.1   3.54E+03   3.33E+01   3.58E-02   2.15E-06   1.02E-07   2.06E-08
   1660.0    1662.1   3.49E+03   3.21E+01   3.56E-02   2.15E-06   1.02E-07   2.03E-08
   1665.0    1667.1   3.49E+03   3.21E+01   3.56E-02   2.15E-06   1.02E-07   2.03E-08
   1665.0    1667.1   3.45E+03   3.07E+01   3.56E-02   2.17E-06   1.01E-07   2.04E-08
   1670.0    1672.1   3.45E+03   3.07E+01   3.56E-02   2.17E-06   1.01E-07   2.04E-08
   1670.0    1672.1   3.40E+03   2.93E+01   3.63E-02   2.23E-06   1.01E-07   2.09E-08
   1675.0    1677.1   3.40E+03   2.93E+01   3.63E-02   2.23E-06   1.01E-07   2.09E-08
   1675.0    1677.1   3.35E+03   2.81E+01   3.62E-02   2.27E-06   1.00E-07   2.10E-08
   1680.0    1682.1   3.35E+03   2.81E+01   3.62E-02   2.27E-06   1.00E-07   2.10E-08
   1680.0    1682.1   3.31E+03   2.70E+01   3.54E-02   2.28E-06   9.85E-08   2.08E-08
   1685.0    1687.1   3.31E+03   2.70E+01   3.54E-02   2.28E-06   9.85E-08   2.08E-08
   1685.0    1687.1   3.27E+03   2.60E+01   3.42E-02   2.29E-06   9.70E-08   2.04E-08
   1690.0    1692.1   3.27E+03   2.60E+01   3.42E-02   2.29E-06   9.70E-08   2.04E-08
   1690.0    1692.1   3.23E+03   2.50E+01   3.28E-02   2.29E-06   9.51E-08   1.98E-08
   1695.0    1697.1   3.23E+03   2.50E+01   3.28E-02   2.29E-06   9.51E-08   1.98E-08
   1695.0    1697.1   3.19E+03   2.40E+01   3.11E-02   2.28E-06   9.31E-08   1.90E-08
   1700.0    1702.1   3.19E+03   2.40E+01   3.11E-02   2.28E-06   9.31E-08   1.90E-08
   1700.0    1702.1   3.14E+03   2.29E+01   2.75E-02   2.18E-06   8.74E-08   1.71E-08
   1705.0    1707.1   3.14E+03   2.29E+01   2.75E-02   2.18E-06   8.74E-08   1.71E-08
   1705.0    1707.1   3.10E+03   2.19E+01   2.41E-02   2.09E-06   8.22E-08   1.53E-08
   1710.0    1712.1   3.10E+03   2.19E+01   2.41E-02   2.09E-06   8.22E-08   1.53E-08
   1710.0    1712.1   3.06E+03   2.09E+01   2.14E-02   2.01E-06   7.76E-08   1.36E-08
   1715.0    1717.1   3.06E+03   2.09E+01   2.14E-02   2.01E-06   7.76E-08   1.36E-08
   1715.0    1717.1   3.02E+03   2.00E+01   1.91E-02   1.94E-06   7.36E-08   1.21E-08
   1720.0    1722.1   3.02E+03   2.00E+01   1.91E-02   1.94E-06   7.36E-08   1.21E-08
   1720.0    1722.1   2.98E+03   1.92E+01   1.71E-02   1.87E-06   7.01E-08   1.09E-08
   1725.0    1727.1   2.98E+03   1.92E+01   1.71E-02   1.87E-06   7.01E-08   1.09E-08
   1725.0    1727.1   2.94E+03   1.84E+01   1.55E-02   1.81E-06   6.69E-08   9.96E-09
   1730.0    1732.1   2.94E+03   1.84E+01   1.55E-02   1.81E-06   6.69E-08   9.96E-09
   1730.0    1732.1   2.91E+03   1.77E+01   1.45E-02   1.75E-06   6.42E-08   9.34E-09
   1735.0    1737.1   2.91E+03   1.77E+01   1.45E-02   1.75E-06   6.42E-08   9.34E-09
   1735.0    1737.1   2.87E+03   1.71E+01   1.38E-02   1.67E-06   6.07E-08   8.66E-09
   1740.0    1742.1   2.87E+03   1.71E+01   1.38E-02   1.67E-06   6.07E-08   8.66E-09
   1740.0    1742.1   2.84E+03   1.65E+01   1.31E-02   1.61E-06   5.82E-08   8.14E-09
   1745.0    1747.1   2.84E+03   1.65E+01   1.31E-02   1.61E-06   5.82E-08   8.14E-09
   1745.0    1747.1   2.80E+03   1.59E+01   1.27E-02   1.55E-06   5.64E-08   7.83E-09
   1750.0    1752.1   2.80E+03   1.59E+01   1.27E-02   1.55E-06   5.64E-08   7.83E-09
   1750.0    1752.1   2.77E+03   1.54E+01   1.24E-02   1.51E-06   5.50E-08   7.64E-09
   1755.0    1757.1   2.77E+03   1.54E+01   1.24E-02   1.51E-06   5.50E-08   7.64E-09
   1755.0    1757.1   2.73E+03   1.49E+01   1.22E-02   1.46E-06   5.38E-08   7.46E-09
   1760.0    1762.1   2.73E+03   1.49E+01   1.22E-02   1.46E-06   5.38E-08   7.46E-09
   1760.0    1762.1   2.70E+03   1.44E+01   1.20E-02   1.43E-06   5.26E-08   7.30E-09
   1765.0    1767.1   2.70E+03   1.44E+01   1.20E-02   1.43E-06   5.26E-08   7.30E-09
   1765.0    1767.1   2.67E+03   1.40E+01   1.19E-02   1.39E-06   5.15E-08   7.24E-09
   1770.0    1772.1   2.67E+03   1.40E+01   1.19E-02   1.39E-06   5.15E-08   7.24E-09
   1770.0    1772.1   2.64E+03   1.36E+01   1.18E-02   1.36E-06   5.05E-08   7.28E-09
   1775.0    1777.1   2.64E+03   1.36E+01   1.18E-02   1.36E-06   5.05E-08   7.28E-09
   1775.0    1777.1   2.61E+03   1.33E+01   1.17E-02   1.32E-06   4.93E-08   7.27E-09
   1780.0    1782.1   2.61E+03   1.33E+01   1.17E-02   1.32E-06   4.93E-08   7.27E-09
   1780.0    1782.1   2.58E+03   1.30E+01   1.16E-02   1.29E-06   4.81E-08   7.27E-09
   1785.0    1787.1   2.58E+03   1.30E+01   1.16E-02   1.29E-06   4.81E-08   7.27E-09
   1785.0    1787.1   2.55E+03   1.26E+01   1.16E-02   1.26E-06   4.70E-08   7.30E-09
   1790.0    1792.1   2.55E+03   1.26E+01   1.16E-02   1.26E-06   4.70E-08   7.30E-09
   1790.0    1792.1   2.52E+03   1.24E+01   1.15E-02   1.24E-06   4.59E-08   7.35E-09
   1795.0    1797.1   2.52E+03   1.24E+01   1.15E-02   1.24E-06   4.59E-08   7.35E-09
   1795.0    1797.1   2.49E+03   1.21E+01   1.15E-02   1.21E-06   4.48E-08   7.39E-09
   1800.0    1802.1   2.49E+03   1.21E+01   1.15E-02   1.21E-06   4.48E-08   7.39E-09
   1800.0    1802.1   2.46E+03   1.18E+01   1.13E-02   1.20E-06   4.37E-08   7.25E-09
   1805.0    1807.1   2.46E+03   1.18E+01   1.13E-02   1.20E-06   4.37E-08   7.25E-09
   1805.0    1807.1   2.43E+03   1.15E+01   1.11E-02   1.18E-06   4.26E-08   7.12E-09
   1810.0    1812.1   2.43E+03   1.15E+01   1.11E-02   1.18E-06   4.26E-08   7.12E-09
   1810.0    1812.1   2.40E+03   1.13E+01   1.10E-02   1.16E-06   4.16E-08   7.02E-09
   1815.0    1817.1   2.40E+03   1.13E+01   1.10E-02   1.16E-06   4.16E-08   7.02E-09
   1815.0    1817.1   2.37E+03   1.10E+01   1.08E-02   1.15E-06   4.06E-08   6.90E-09
   1820.0    1822.1   2.37E+03   1.10E+01   1.08E-02   1.15E-06   4.06E-08   6.90E-09
   1820.0    1822.1   2.34E+03   1.08E+01   1.06E-02   1.13E-06   3.97E-08   6.77E-09
   1825.0    1827.1   2.34E+03   1.08E+01   1.06E-02   1.13E-06   3.97E-08   6.77E-09
   1825.0    1827.1   2.32E+03   1.06E+01   1.05E-02   1.12E-06   3.89E-08   6.65E-09
   1830.0    1832.1   2.32E+03   1.06E+01   1.05E-02   1.12E-06   3.89E-08   6.65E-09
   1830.0    1832.1   2.29E+03   1.04E+01   1.03E-02   1.10E-06   3.82E-08   6.53E-09
   1835.0    1837.1   2.29E+03   1.04E+01   1.03E-02   1.10E-06   3.82E-08   6.53E-09
   1835.0    1837.1   2.26E+03   1.02E+01   1.00E-02   1.09E-06   3.82E-08   6.47E-09
   1840.0    1842.1   2.26E+03   1.02E+01   1.00E-02   1.09E-06   3.82E-08   6.47E-09
   1840.0    1842.1   2.24E+03   9.98E+00   9.84E-03   1.08E-06   3.79E-08   6.37E-09
   1845.0    1847.1   2.24E+03   9.98E+00   9.84E-03   1.08E-06   3.79E-08   6.37E-09
   1845.0    1847.1   2.21E+03   9.81E+00   9.62E-03   1.07E-06   3.76E-08   6.27E-09
   1850.0    1852.1   2.21E+03   9.81E+00   9.62E-03   1.07E-06   3.76E-08   6.27E-09
   1850.0    1852.1   2.19E+03   9.65E+00   9.38E-03   1.06E-06   3.73E-08   6.15E-09
   1855.0    1857.1   2.19E+03   9.65E+00   9.38E-03   1.06E-06   3.73E-08   6.15E-09
   1855.0    1857.1   2.17E+03   9.51E+00   9.17E-03   1.05E-06   3.69E-08   6.04E-09
   1860.0    1862.1   2.17E+03   9.51E+00   9.17E-03   1.05E-06   3.69E-08   6.04E-09
   1860.0    1862.1   2.14E+03   9.37E+00   8.95E-03   1.04E-06   3.66E-08   5.93E-09
   1865.0    1867.1   2.14E+03   9.37E+00   8.95E-03   1.04E-06   3.66E-08   5.93E-09
   1865.0    1867.1   2.12E+03   9.24E+00   8.78E-03   1.04E-06   3.68E-08   5.88E-09
   1870.0    1872.1   2.12E+03   9.24E+00   8.78E-03   1.04E-06   3.68E-08   5.88E-09
   1870.0    1872.1   2.10E+03   9.11E+00   8.61E-03   1.04E-06   3.76E-08   5.87E-09
   1875.0    1877.1   2.10E+03   9.11E+00   8.61E-03   1.04E-06   3.76E-08   5.87E-09
   1875.0    1877.1   2.07E+03   8.99E+00   8.47E-03   1.04E-06   3.80E-08   5.84E-09
   1880.0    1882.1   2.07E+03   8.99E+00   8.47E-03   1.04E-06   3.80E-08   5.84E-09
   1880.0    1882.1   2.05E+03   8.89E+00   8.34E-03   1.03E-06   3.85E-08   5.83E-09
   1885.0    1887.1   2.05E+03   8.89E+00   8.34E-03   1.03E-06   3.85E-08   5.83E-09
   1885.0    1887.1   2.03E+03   8.81E+00   8.23E-03   1.03E-06   3.88E-08   5.83E-09
   1890.0    1892.1   2.03E+03   8.81E+00   8.23E-03   1.03E-06   3.88E-08   5.83E-09
   1890.0    1892.1   2.01E+03   8.73E+00   8.11E-03   1.03E-06   3.90E-08   5.83E-09
   1895.0    1897.1   2.01E+03   8.73E+00   8.11E-03   1.03E-06   3.90E-08   5.83E-09
   1895.0    1897.1   1.99E+03   8.66E+00   8.00E-03   1.02E-06   3.92E-08   5.84E-09
   1900.0    1902.1   1.99E+03   8.66E+00   8.00E-03   1.02E-06   3.92E-08   5.84E-09
   1900.0    1902.1   1.97E+03   8.58E+00   7.84E-03   9.97E-07   3.75E-08   5.71E-09
   1905.0    1907.1   1.97E+03   8.58E+00   7.84E-03   9.97E-07   3.75E-08   5.71E-09
   1905.0    1907.1   1.95E+03   8.52E+00   7.69E-03   9.76E-07   3.61E-08   5.61E-09
   1910.0    1912.1   1.95E+03   8.52E+00   7.69E-03   9.76E-07   3.61E-08   5.61E-09
   1910.0    1912.1   1.93E+03   8.46E+00   7.56E-03   9.61E-07   3.49E-08   5.55E-09
   1915.0    1917.1   1.93E+03   8.46E+00   7.56E-03   9.61E-07   3.49E-08   5.55E-09
   1915.0    1917.1   1.91E+03   8.40E+00   7.44E-03   9.49E-07   3.40E-08   5.50E-09
   1920.0    1922.1   1.91E+03   8.40E+00   7.44E-03   9.49E-07   3.40E-08   5.50E-09
   1920.0    1922.1   1.89E+03   8.35E+00   7.32E-03   9.38E-07   3.32E-08   5.46E-09
   1925.0    1927.1   1.89E+03   8.35E+00   7.32E-03   9.38E-07   3.32E-08   5.46E-09
   1925.0    1927.1   1.87E+03   8.30E+00   7.21E-03   9.28E-07   3.26E-08   5.44E-09
   1930.0    1932.1   1.87E+03   8.30E+00   7.21E-03   9.28E-07   3.26E-08   5.44E-09
   1930.0    1932.1   1.85E+03   8.25E+00   7.12E-03   9.19E-07   3.21E-08   5.42E-09
   1935.0    1937.1   1.85E+03   8.25E+00   7.12E-03   9.19E-07   3.21E-08   5.42E-09
   1935.0    1937.1   1.83E+03   8.19E+00   7.06E-03   9.12E-07   3.16E-08   5.40E-09
   1940.0    1942.1   1.83E+03   8.19E+00   7.06E-03   9.12E-07   3.16E-08   5.40E-09
   1940.0    1942.1   1.81E+03   8.14E+00   7.00E-03   9.05E-07   3.12E-08   5.38E-09
   1945.0    1947.1   1.81E+03   8.14E+00   7.00E-03   9.05E-07   3.12E-08   5.38E-09
   1945.0    1947.1   1.80E+03   8.10E+00   6.92E-03   8.98E-07   3.08E-08   5.36E-09
   1950.0    1952.1   1.80E+03   8.10E+00   6.92E-03   8.98E-07   3.08E-08   5.36E-09
   1950.0    1952.1   1.78E+03   8.06E+00   6.84E-03   8.92E-07   3.04E-08   5.34E-09
   1955.0    1957.1   1.78E+03   8.06E+00   6.84E-03   8.92E-07   3.04E-08   5.34E-09
   1955.0    1957.1   1.76E+03   8.02E+00   6.76E-03   8.86E-07   3.00E-08   5.33E-09
   1960.0    1962.1   1.76E+03   8.02E+00   6.76E-03   8.86E-07   3.00E-08   5.33E-09
   1960.0    1962.1   1.75E+03   7.98E+00   6.69E-03   8.80E-07   2.97E-08   5.32E-09
   1965.0    1967.1   1.75E+03   7.98E+00   6.69E-03   8.80E-07   2.97E-08   5.32E-09
   1965.0    1967.1   1.73E+03   7.94E+00   6.62E-03   8.76E-07   2.93E-08   5.33E-09
   1970.0    1972.1   1.73E+03   7.94E+00   6.62E-03   8.76E-07   2.93E-08   5.33E-09
   1970.0    1972.1   1.71E+03   7.89E+00   6.56E-03   8.72E-07   2.90E-08   5.36E-09
   1975.0    1977.1   1.71E+03   7.89E+00   6.56E-03   8.72E-07   2.90E-08   5.36E-09
   1975.0    1977.1   1.69E+03   7.85E+00   6.51E-03   8.68E-07   2.87E-08   5.39E-09
   1980.0    1982.1   1.69E+03   7.85E+00   6.51E-03   8.68E-07   2.87E-08   5.39E-09
   1980.0    1982.1   1.68E+03   7.82E+00   6.47E-03   8.65E-07   2.85E-08   5.43E-09
   1985.0    1987.1   1.68E+03   7.82E+00   6.47E-03   8.65E-07   2.85E-08   5.43E-09
   1985.0    1987.1   1.66E+03   7.78E+00   6.43E-03   8.61E-07   2.82E-08   5.45E-09
   1990.0    1992.1   1.66E+03   7.78E+00   6.43E-03   8.61E-07   2.82E-08   5.45E-09
   1990.0    1992.1   1.65E+03   7.75E+00   6.39E-03   8.58E-07   2.80E-08   5.47E-09
   1995.0    1997.1   1.65E+03   7.75E+00   6.39E-03   8.58E-07   2.80E-08   5.47E-09
   1995.0    1997.1   1.63E+03   7.73E+00   6.35E-03   8.54E-07   2.77E-08   5.48E-09
   2000.0    2002.1   1.63E+03   7.73E+00   6.35E-03   8.54E-07   2.77E-08   5.48E-09
