<?xml version="1.0" standalone="yes"?>
<DocumentElement>
  <ProjectValues>
    <Version>0.3</Version>
    <SpacecraftObservationYear>2010</SpacecraftObservationYear>
    <SpacecraftOrbitTypeAxis>false</SpacecraftOrbitTypeAxis>
    <SpacecraftPerigee>400</SpacecraftPerigee>
    <SpacecraftApogee>400</SpacecraftApogee>
    <SpacecraftAxis>6778.136</SpacecraftAxis>
    <SpacecraftEccentricity>0</SpacecraftEccentricity>
    <SpacecraftInclination>51.6</SpacecraftInclination>
    <SpacecraftRandomArg>true</SpacecraftRandomArg>
    <SpacecraftArgOfPerigee>0</SpacecraftArgOfPerigee>
    <SpacecraftRandomRaan>true</SpacecraftRandomRaan>
    <SpacecraftRaan>0</SpacecraftRaan>
    <RadarObservationYear>2018</RadarObservationYear>
    <RadarLatitude>42.623287</RadarLatitude>
    <RadarAzimuth>180</RadarAzimuth>
    <RadarElevation>90</RadarElevation>
    <TleLine1 />
    <TleLine2 />
    <SpacecraftIglooFile>IGLOO_10x10x1.SIG</SpacecraftIglooFile>
    <TelescopeIglooFile>ALT_5_LEO.TIG</TelescopeIglooFile>
  </ProjectValues>
</DocumentElement>