ORDEM 3.1   :  ORDEM Telescope/Radar Mode
 Surface Area Debris Flux (#/m^2/yr)
  Year: 2021  Sensor lat. =  42.620  Pointing AZ =  90.000  Pointing EL =  75.000
 *
 *
 *
 *
 *
 *
 *
 Alt       Rng        >10um      >100um     >1mm       >1cm       >10cm      >1m
 --------  --------   --------   --------   --------   --------   --------   --------  
    200.0     216.9   2.28E+02   5.85E-01   6.81E-04   1.24E-07   1.05E-08   3.27E-09
    205.0     222.1   2.28E+02   5.85E-01   6.81E-04   1.24E-07   1.05E-08   3.27E-09
    205.0     222.1   2.37E+02   6.32E-01   7.86E-04   1.39E-07   1.24E-08   4.39E-09
    210.0     227.2   2.37E+02   6.32E-01   7.86E-04   1.39E-07   1.24E-08   4.39E-09
    210.0     227.2   2.40E+02   6.55E-01   8.46E-04   1.49E-07   1.37E-08   4.99E-09
    215.0     232.4   2.40E+02   6.55E-01   8.46E-04   1.49E-07   1.37E-08   4.99E-09
    215.0     232.4   2.42E+02   6.61E-01   8.84E-04   1.56E-07   1.46E-08   5.37E-09
    220.0     237.6   2.42E+02   6.61E-01   8.84E-04   1.56E-07   1.46E-08   5.37E-09
    220.0     237.6   2.46E+02   6.66E-01   9.17E-04   1.61E-07   1.53E-08   5.70E-09
    225.0     242.7   2.46E+02   6.66E-01   9.17E-04   1.61E-07   1.53E-08   5.70E-09
    225.0     242.7   2.46E+02   6.70E-01   9.47E-04   1.65E-07   1.59E-08   5.95E-09
    230.0     247.9   2.46E+02   6.70E-01   9.47E-04   1.65E-07   1.59E-08   5.95E-09
    230.0     247.9   2.48E+02   6.88E-01   1.03E-03   1.74E-07   1.69E-08   6.24E-09
    235.0     253.1   2.48E+02   6.88E-01   1.03E-03   1.74E-07   1.69E-08   6.24E-09
    235.0     253.1   2.68E+02   8.16E-01   1.41E-03   2.12E-07   2.13E-08   6.85E-09
    240.0     258.2   2.68E+02   8.16E-01   1.41E-03   2.12E-07   2.13E-08   6.85E-09
    240.0     258.2   2.75E+02   8.65E-01   1.63E-03   2.34E-07   2.39E-08   7.34E-09
    245.0     263.4   2.75E+02   8.65E-01   1.63E-03   2.34E-07   2.39E-08   7.34E-09
    245.0     263.4   2.78E+02   8.95E-01   1.78E-03   2.55E-07   2.61E-08   8.10E-09
    250.0     268.5   2.78E+02   8.95E-01   1.78E-03   2.55E-07   2.61E-08   8.10E-09
    250.0     268.5   2.81E+02   9.08E-01   1.89E-03   2.72E-07   2.79E-08   8.73E-09
    255.0     273.7   2.81E+02   9.08E-01   1.89E-03   2.72E-07   2.79E-08   8.73E-09
    255.0     273.7   2.87E+02   9.19E-01   1.99E-03   2.86E-07   2.96E-08   9.23E-09
    260.0     278.9   2.87E+02   9.19E-01   1.99E-03   2.86E-07   2.96E-08   9.23E-09
    260.0     278.9   2.88E+02   9.29E-01   2.07E-03   2.97E-07   3.09E-08   9.56E-09
    265.0     284.0   2.88E+02   9.29E-01   2.07E-03   2.97E-07   3.09E-08   9.56E-09
    265.0     284.0   3.02E+02   1.02E+00   2.50E-03   3.23E-07   3.38E-08   1.12E-08
    270.0     289.2   3.02E+02   1.02E+00   2.50E-03   3.23E-07   3.38E-08   1.12E-08
    270.0     289.2   3.19E+02   1.17E+00   3.25E-03   3.57E-07   3.77E-08   1.41E-08
    275.0     294.4   3.19E+02   1.17E+00   3.25E-03   3.57E-07   3.77E-08   1.41E-08
    275.0     294.4   3.26E+02   1.23E+00   3.66E-03   3.83E-07   4.06E-08   1.57E-08
    280.0     299.5   3.26E+02   1.23E+00   3.66E-03   3.83E-07   4.06E-08   1.57E-08
    280.0     299.5   3.33E+02   1.26E+00   3.97E-03   4.09E-07   4.33E-08   1.66E-08
    285.0     304.7   3.33E+02   1.26E+00   3.97E-03   4.09E-07   4.33E-08   1.66E-08
    285.0     304.7   3.35E+02   1.28E+00   4.22E-03   4.29E-07   4.50E-08   1.73E-08
    290.0     309.8   3.35E+02   1.28E+00   4.22E-03   4.29E-07   4.50E-08   1.73E-08
    290.0     309.8   3.39E+02   1.30E+00   4.44E-03   4.47E-07   4.64E-08   1.78E-08
    295.0     315.0   3.39E+02   1.30E+00   4.44E-03   4.47E-07   4.64E-08   1.78E-08
    295.0     315.0   3.41E+02   1.31E+00   4.64E-03   4.62E-07   4.74E-08   1.81E-08
    300.0     320.2   3.41E+02   1.31E+00   4.64E-03   4.62E-07   4.74E-08   1.81E-08
    300.0     320.2   3.66E+02   1.50E+00   5.16E-03   5.31E-07   5.86E-08   2.06E-08
    305.0     325.3   3.66E+02   1.50E+00   5.16E-03   5.31E-07   5.86E-08   2.06E-08
    305.0     325.3   3.88E+02   1.64E+00   5.60E-03   5.89E-07   6.85E-08   2.26E-08
    310.0     330.5   3.88E+02   1.64E+00   5.60E-03   5.89E-07   6.85E-08   2.26E-08
    310.0     330.5   3.97E+02   1.72E+00   5.93E-03   6.29E-07   7.32E-08   2.42E-08
    315.0     335.6   3.97E+02   1.72E+00   5.93E-03   6.29E-07   7.32E-08   2.42E-08
    315.0     335.6   4.05E+02   1.76E+00   6.20E-03   6.63E-07   7.60E-08   2.56E-08
    320.0     340.8   4.05E+02   1.76E+00   6.20E-03   6.63E-07   7.60E-08   2.56E-08
    320.0     340.8   4.14E+02   1.79E+00   6.43E-03   6.96E-07   7.86E-08   2.70E-08
    325.0     346.0   4.14E+02   1.79E+00   6.43E-03   6.96E-07   7.86E-08   2.70E-08
    325.0     346.0   4.17E+02   1.81E+00   6.61E-03   7.21E-07   8.01E-08   2.79E-08
    330.0     351.1   4.17E+02   1.81E+00   6.61E-03   7.21E-07   8.01E-08   2.79E-08
    330.0     351.1   4.24E+02   1.85E+00   6.79E-03   7.55E-07   8.04E-08   2.85E-08
    335.0     356.3   4.24E+02   1.85E+00   6.79E-03   7.55E-07   8.04E-08   2.85E-08
    335.0     356.3   4.67E+02   2.08E+00   7.00E-03   8.45E-07   7.66E-08   2.86E-08
    340.0     361.4   4.67E+02   2.08E+00   7.00E-03   8.45E-07   7.66E-08   2.86E-08
    340.0     361.4   4.88E+02   2.20E+00   7.20E-03   9.03E-07   7.43E-08   2.85E-08
    345.0     366.6   4.88E+02   2.20E+00   7.20E-03   9.03E-07   7.43E-08   2.85E-08
    345.0     366.6   5.04E+02   2.33E+00   7.40E-03   9.52E-07   7.50E-08   2.85E-08
    350.0     371.7   5.04E+02   2.33E+00   7.40E-03   9.52E-07   7.50E-08   2.85E-08
    350.0     371.7   5.18E+02   2.41E+00   7.55E-03   9.93E-07   7.61E-08   2.85E-08
    355.0     376.9   5.18E+02   2.41E+00   7.55E-03   9.93E-07   7.61E-08   2.85E-08
    355.0     376.9   5.35E+02   2.47E+00   7.67E-03   1.03E-06   7.76E-08   2.86E-08
    360.0     382.1   5.35E+02   2.47E+00   7.67E-03   1.03E-06   7.76E-08   2.86E-08
    360.0     382.1   5.44E+02   2.50E+00   7.71E-03   1.06E-06   7.82E-08   2.84E-08
    365.0     387.2   5.44E+02   2.50E+00   7.71E-03   1.06E-06   7.82E-08   2.84E-08
    365.0     387.2   5.78E+02   2.66E+00   8.15E-03   1.14E-06   8.48E-08   3.06E-08
    370.0     392.4   5.78E+02   2.66E+00   8.15E-03   1.14E-06   8.48E-08   3.06E-08
    370.0     392.4   6.17E+02   2.87E+00   8.87E-03   1.26E-06   9.59E-08   3.44E-08
    375.0     397.5   6.17E+02   2.87E+00   8.87E-03   1.26E-06   9.59E-08   3.44E-08
    375.0     397.5   6.42E+02   3.05E+00   9.37E-03   1.33E-06   1.03E-07   3.67E-08
    380.0     402.7   6.42E+02   3.05E+00   9.37E-03   1.33E-06   1.03E-07   3.67E-08
    380.0     402.7   6.73E+02   3.28E+00   9.86E-03   1.40E-06   1.09E-07   3.87E-08
    385.0     407.8   6.73E+02   3.28E+00   9.86E-03   1.40E-06   1.09E-07   3.87E-08
    385.0     407.8   6.95E+02   3.39E+00   1.01E-02   1.46E-06   1.13E-07   4.02E-08
    390.0     413.0   6.95E+02   3.39E+00   1.01E-02   1.46E-06   1.13E-07   4.02E-08
    390.0     413.0   7.22E+02   3.49E+00   1.03E-02   1.51E-06   1.18E-07   4.18E-08
    395.0     418.1   7.22E+02   3.49E+00   1.03E-02   1.51E-06   1.18E-07   4.18E-08
    395.0     418.1   7.43E+02   3.53E+00   1.04E-02   1.55E-06   1.20E-07   4.30E-08
    400.0     423.3   7.43E+02   3.53E+00   1.04E-02   1.55E-06   1.20E-07   4.30E-08
    400.0     423.3   7.93E+02   3.88E+00   1.15E-02   1.73E-06   1.32E-07   4.98E-08
    405.0     428.5   7.93E+02   3.88E+00   1.15E-02   1.73E-06   1.32E-07   4.98E-08
    405.0     428.5   8.37E+02   4.15E+00   1.26E-02   1.89E-06   1.43E-07   5.60E-08
    410.0     433.6   8.37E+02   4.15E+00   1.26E-02   1.89E-06   1.43E-07   5.60E-08
    410.0     433.6   8.65E+02   4.38E+00   1.33E-02   1.99E-06   1.48E-07   5.97E-08
    415.0     438.8   8.65E+02   4.38E+00   1.33E-02   1.99E-06   1.48E-07   5.97E-08
    415.0     438.8   8.96E+02   4.61E+00   1.39E-02   2.08E-06   1.53E-07   6.26E-08
    420.0     443.9   8.96E+02   4.61E+00   1.39E-02   2.08E-06   1.53E-07   6.26E-08
    420.0     443.9   9.32E+02   4.84E+00   1.44E-02   2.17E-06   1.58E-07   6.54E-08
    425.0     449.1   9.32E+02   4.84E+00   1.44E-02   2.17E-06   1.58E-07   6.54E-08
    425.0     449.1   9.62E+02   4.95E+00   1.46E-02   2.24E-06   1.61E-07   6.67E-08
    430.0     454.2   9.62E+02   4.95E+00   1.46E-02   2.24E-06   1.61E-07   6.67E-08
    430.0     454.2   9.99E+02   5.13E+00   1.51E-02   2.34E-06   1.67E-07   6.99E-08
    435.0     459.4   9.99E+02   5.13E+00   1.51E-02   2.34E-06   1.67E-07   6.99E-08
    435.0     459.4   1.08E+03   5.81E+00   1.74E-02   2.66E-06   1.99E-07   8.52E-08
    440.0     464.5   1.08E+03   5.81E+00   1.74E-02   2.66E-06   1.99E-07   8.52E-08
    440.0     464.5   1.14E+03   6.21E+00   1.89E-02   2.88E-06   2.18E-07   9.43E-08
    445.0     469.7   1.14E+03   6.21E+00   1.89E-02   2.88E-06   2.18E-07   9.43E-08
    445.0     469.7   1.19E+03   6.51E+00   1.99E-02   3.05E-06   2.31E-07   9.96E-08
    450.0     474.8   1.19E+03   6.51E+00   1.99E-02   3.05E-06   2.31E-07   9.96E-08
    450.0     474.8   1.23E+03   6.80E+00   2.07E-02   3.19E-06   2.43E-07   1.04E-07
    455.0     480.0   1.23E+03   6.80E+00   2.07E-02   3.19E-06   2.43E-07   1.04E-07
    455.0     480.0   1.28E+03   7.16E+00   2.16E-02   3.33E-06   2.56E-07   1.10E-07
    460.0     485.1   1.28E+03   7.16E+00   2.16E-02   3.33E-06   2.56E-07   1.10E-07
    460.0     485.1   1.32E+03   7.37E+00   2.20E-02   3.43E-06   2.66E-07   1.14E-07
    465.0     490.3   1.32E+03   7.37E+00   2.20E-02   3.43E-06   2.66E-07   1.14E-07
    465.0     490.3   1.39E+03   8.03E+00   2.40E-02   3.69E-06   2.95E-07   1.28E-07
    470.0     495.4   1.39E+03   8.03E+00   2.40E-02   3.69E-06   2.95E-07   1.28E-07
    470.0     495.4   1.49E+03   8.91E+00   2.69E-02   4.04E-06   3.40E-07   1.50E-07
    475.0     500.6   1.49E+03   8.91E+00   2.69E-02   4.04E-06   3.40E-07   1.50E-07
    475.0     500.6   1.55E+03   9.42E+00   2.87E-02   4.26E-06   3.67E-07   1.64E-07
    480.0     505.7   1.55E+03   9.42E+00   2.87E-02   4.26E-06   3.67E-07   1.64E-07
    480.0     505.7   1.61E+03   9.93E+00   3.03E-02   4.43E-06   3.90E-07   1.76E-07
    485.0     510.9   1.61E+03   9.93E+00   3.03E-02   4.43E-06   3.90E-07   1.76E-07
    485.0     510.9   1.67E+03   1.03E+01   3.13E-02   4.57E-06   4.06E-07   1.84E-07
    490.0     516.0   1.67E+03   1.03E+01   3.13E-02   4.57E-06   4.06E-07   1.84E-07
    490.0     516.0   1.72E+03   1.08E+01   3.25E-02   4.71E-06   4.21E-07   1.91E-07
    495.0     521.2   1.72E+03   1.08E+01   3.25E-02   4.71E-06   4.21E-07   1.91E-07
    495.0     521.2   1.77E+03   1.11E+01   3.31E-02   4.83E-06   4.32E-07   1.95E-07
    500.0     526.3   1.77E+03   1.11E+01   3.31E-02   4.83E-06   4.32E-07   1.95E-07
    500.0     526.3   1.89E+03   1.24E+01   3.71E-02   5.25E-06   4.47E-07   1.99E-07
    505.0     531.5   1.89E+03   1.24E+01   3.71E-02   5.25E-06   4.47E-07   1.99E-07
    505.0     531.5   2.00E+03   1.37E+01   4.06E-02   5.63E-06   4.62E-07   2.03E-07
    510.0     536.6   2.00E+03   1.37E+01   4.06E-02   5.63E-06   4.62E-07   2.03E-07
    510.0     536.6   2.08E+03   1.44E+01   4.25E-02   5.87E-06   4.67E-07   2.01E-07
    515.0     541.8   2.08E+03   1.44E+01   4.25E-02   5.87E-06   4.67E-07   2.01E-07
    515.0     541.8   2.15E+03   1.51E+01   4.42E-02   6.08E-06   4.75E-07   2.01E-07
    520.0     546.9   2.15E+03   1.51E+01   4.42E-02   6.08E-06   4.75E-07   2.01E-07
    520.0     546.9   2.22E+03   1.58E+01   4.60E-02   6.29E-06   4.87E-07   2.04E-07
    525.0     552.1   2.22E+03   1.58E+01   4.60E-02   6.29E-06   4.87E-07   2.04E-07
    525.0     552.1   2.28E+03   1.63E+01   4.70E-02   6.45E-06   4.96E-07   2.06E-07
    530.0     557.2   2.28E+03   1.63E+01   4.70E-02   6.45E-06   4.96E-07   2.06E-07
    530.0     557.2   2.36E+03   1.71E+01   4.83E-02   6.64E-06   5.09E-07   2.10E-07
    535.0     562.4   2.36E+03   1.71E+01   4.83E-02   6.64E-06   5.09E-07   2.10E-07
    535.0     562.4   2.52E+03   1.93E+01   5.35E-02   7.07E-06   5.44E-07   2.29E-07
    540.0     567.5   2.52E+03   1.93E+01   5.35E-02   7.07E-06   5.44E-07   2.29E-07
    540.0     567.5   2.64E+03   2.08E+01   5.67E-02   7.38E-06   5.70E-07   2.42E-07
    545.0     572.7   2.64E+03   2.08E+01   5.67E-02   7.38E-06   5.70E-07   2.42E-07
    545.0     572.7   2.73E+03   2.18E+01   5.82E-02   7.62E-06   5.86E-07   2.50E-07
    550.0     577.8   2.73E+03   2.18E+01   5.82E-02   7.62E-06   5.86E-07   2.50E-07
    550.0     577.8   2.82E+03   2.28E+01   6.00E-02   7.85E-06   6.03E-07   2.57E-07
    555.0     583.0   2.82E+03   2.28E+01   6.00E-02   7.85E-06   6.03E-07   2.57E-07
    555.0     583.0   2.91E+03   2.39E+01   6.22E-02   8.10E-06   6.22E-07   2.64E-07
    560.0     588.1   2.91E+03   2.39E+01   6.22E-02   8.10E-06   6.22E-07   2.64E-07
    560.0     588.1   2.98E+03   2.46E+01   6.32E-02   8.28E-06   6.33E-07   2.68E-07
    565.0     593.3   2.98E+03   2.46E+01   6.32E-02   8.28E-06   6.33E-07   2.68E-07
    565.0     593.3   3.11E+03   2.66E+01   6.76E-02   8.68E-06   6.60E-07   2.72E-07
    570.0     598.4   3.11E+03   2.66E+01   6.76E-02   8.68E-06   6.60E-07   2.72E-07
    570.0     598.4   3.29E+03   2.95E+01   7.41E-02   9.23E-06   6.96E-07   2.72E-07
    575.0     603.6   3.29E+03   2.95E+01   7.41E-02   9.23E-06   6.96E-07   2.72E-07
    575.0     603.6   3.41E+03   3.14E+01   7.75E-02   9.59E-06   7.18E-07   2.70E-07
    580.0     608.7   3.41E+03   3.14E+01   7.75E-02   9.59E-06   7.18E-07   2.70E-07
    580.0     608.7   3.52E+03   3.30E+01   8.05E-02   9.91E-06   7.39E-07   2.70E-07
    585.0     613.9   3.52E+03   3.30E+01   8.05E-02   9.91E-06   7.39E-07   2.70E-07
    585.0     613.9   3.62E+03   3.42E+01   8.25E-02   1.02E-05   7.54E-07   2.69E-07
    590.0     619.0   3.62E+03   3.42E+01   8.25E-02   1.02E-05   7.54E-07   2.69E-07
    590.0     619.0   3.71E+03   3.56E+01   8.52E-02   1.04E-05   7.72E-07   2.71E-07
    595.0     624.2   3.71E+03   3.56E+01   8.52E-02   1.04E-05   7.72E-07   2.71E-07
    595.0     624.2   3.80E+03   3.67E+01   8.66E-02   1.07E-05   7.84E-07   2.71E-07
    600.0     629.3   3.80E+03   3.67E+01   8.66E-02   1.07E-05   7.84E-07   2.71E-07
    600.0     629.3   3.97E+03   4.03E+01   9.27E-02   1.13E-05   8.55E-07   3.08E-07
    605.0     634.5   3.97E+03   4.03E+01   9.27E-02   1.13E-05   8.55E-07   3.08E-07
    605.0     634.5   4.12E+03   4.38E+01   9.86E-02   1.19E-05   9.26E-07   3.46E-07
    610.0     639.6   4.12E+03   4.38E+01   9.86E-02   1.19E-05   9.26E-07   3.46E-07
    610.0     639.6   4.24E+03   4.59E+01   1.01E-01   1.22E-05   9.59E-07   3.64E-07
    615.0     644.7   4.24E+03   4.59E+01   1.01E-01   1.22E-05   9.59E-07   3.64E-07
    615.0     644.7   4.35E+03   4.79E+01   1.03E-01   1.25E-05   9.87E-07   3.78E-07
    620.0     649.9   4.35E+03   4.79E+01   1.03E-01   1.25E-05   9.87E-07   3.78E-07
    620.0     649.9   4.46E+03   4.98E+01   1.05E-01   1.28E-05   1.01E-06   3.90E-07
    625.0     655.0   4.46E+03   4.98E+01   1.05E-01   1.28E-05   1.01E-06   3.90E-07
    625.0     655.0   4.56E+03   5.13E+01   1.06E-01   1.30E-05   1.03E-06   3.99E-07
    630.0     660.2   4.56E+03   5.13E+01   1.06E-01   1.30E-05   1.03E-06   3.99E-07
    630.0     660.2   4.67E+03   5.33E+01   1.07E-01   1.33E-05   1.05E-06   3.97E-07
    635.0     665.3   4.67E+03   5.33E+01   1.07E-01   1.33E-05   1.05E-06   3.97E-07
    635.0     665.3   4.86E+03   5.83E+01   1.16E-01   1.41E-05   1.07E-06   3.53E-07
    640.0     670.5   4.86E+03   5.83E+01   1.16E-01   1.41E-05   1.07E-06   3.53E-07
    640.0     670.5   5.01E+03   6.21E+01   1.22E-01   1.47E-05   1.09E-06   3.26E-07
    645.0     675.6   5.01E+03   6.21E+01   1.22E-01   1.47E-05   1.09E-06   3.26E-07
    645.0     675.6   5.14E+03   6.47E+01   1.25E-01   1.50E-05   1.10E-06   3.04E-07
    650.0     680.8   5.14E+03   6.47E+01   1.25E-01   1.50E-05   1.10E-06   3.04E-07
    650.0     680.8   5.26E+03   6.72E+01   1.28E-01   1.52E-05   1.11E-06   2.89E-07
    655.0     685.9   5.26E+03   6.72E+01   1.28E-01   1.52E-05   1.11E-06   2.89E-07
    655.0     685.9   5.38E+03   6.98E+01   1.32E-01   1.56E-05   1.12E-06   2.75E-07
    660.0     691.0   5.38E+03   6.98E+01   1.32E-01   1.56E-05   1.12E-06   2.75E-07
    660.0     691.0   5.49E+03   7.17E+01   1.34E-01   1.57E-05   1.12E-06   2.62E-07
    665.0     696.2   5.49E+03   7.17E+01   1.34E-01   1.57E-05   1.12E-06   2.62E-07
    665.0     696.2   5.64E+03   7.55E+01   1.41E-01   1.63E-05   1.12E-06   2.51E-07
    670.0     701.3   5.64E+03   7.55E+01   1.41E-01   1.63E-05   1.12E-06   2.51E-07
    670.0     701.3   5.81E+03   8.11E+01   1.53E-01   1.71E-05   1.10E-06   2.40E-07
    675.0     706.5   5.81E+03   8.11E+01   1.53E-01   1.71E-05   1.10E-06   2.40E-07
    675.0     706.5   5.95E+03   8.50E+01   1.59E-01   1.76E-05   1.08E-06   2.34E-07
    680.0     711.6   5.95E+03   8.50E+01   1.59E-01   1.76E-05   1.08E-06   2.34E-07
    680.0     711.6   6.09E+03   8.83E+01   1.63E-01   1.80E-05   1.07E-06   2.31E-07
    685.0     716.8   6.09E+03   8.83E+01   1.63E-01   1.80E-05   1.07E-06   2.31E-07
    685.0     716.8   6.20E+03   9.10E+01   1.67E-01   1.83E-05   1.07E-06   2.28E-07
    690.0     721.9   6.20E+03   9.10E+01   1.67E-01   1.83E-05   1.07E-06   2.28E-07
    690.0     721.9   6.33E+03   9.39E+01   1.71E-01   1.86E-05   1.07E-06   2.28E-07
    695.0     727.0   6.33E+03   9.39E+01   1.71E-01   1.86E-05   1.07E-06   2.28E-07
    695.0     727.0   6.44E+03   9.63E+01   1.74E-01   1.89E-05   1.08E-06   2.27E-07
    700.0     732.2   6.44E+03   9.63E+01   1.74E-01   1.89E-05   1.08E-06   2.27E-07
    700.0     732.2   6.62E+03   1.02E+02   1.86E-01   2.02E-05   1.09E-06   2.18E-07
    705.0     737.3   6.62E+03   1.02E+02   1.86E-01   2.02E-05   1.09E-06   2.18E-07
    705.0     737.3   6.80E+03   1.08E+02   1.99E-01   2.15E-05   1.12E-06   2.11E-07
    710.0     742.5   6.80E+03   1.08E+02   1.99E-01   2.15E-05   1.12E-06   2.11E-07
    710.0     742.5   6.95E+03   1.12E+02   2.04E-01   2.21E-05   1.13E-06   2.05E-07
    715.0     747.6   6.95E+03   1.12E+02   2.04E-01   2.21E-05   1.13E-06   2.05E-07
    715.0     747.6   7.08E+03   1.15E+02   2.10E-01   2.27E-05   1.14E-06   2.03E-07
    720.0     752.7   7.08E+03   1.15E+02   2.10E-01   2.27E-05   1.14E-06   2.03E-07
    720.0     752.7   7.21E+03   1.19E+02   2.14E-01   2.31E-05   1.15E-06   1.99E-07
    725.0     757.9   7.21E+03   1.19E+02   2.14E-01   2.31E-05   1.15E-06   1.99E-07
    725.0     757.9   7.33E+03   1.21E+02   2.19E-01   2.35E-05   1.16E-06   1.97E-07
    730.0     763.0   7.33E+03   1.21E+02   2.19E-01   2.35E-05   1.16E-06   1.97E-07
    730.0     763.0   7.48E+03   1.25E+02   2.24E-01   2.40E-05   1.18E-06   2.03E-07
    735.0     768.2   7.48E+03   1.25E+02   2.24E-01   2.40E-05   1.18E-06   2.03E-07
    735.0     768.2   7.70E+03   1.31E+02   2.46E-01   2.56E-05   1.25E-06   2.52E-07
    740.0     773.3   7.70E+03   1.31E+02   2.46E-01   2.56E-05   1.25E-06   2.52E-07
    740.0     773.3   7.89E+03   1.37E+02   2.60E-01   2.68E-05   1.30E-06   2.85E-07
    745.0     778.4   7.89E+03   1.37E+02   2.60E-01   2.68E-05   1.30E-06   2.85E-07
    745.0     778.4   8.04E+03   1.40E+02   2.67E-01   2.74E-05   1.34E-06   3.07E-07
    750.0     783.6   8.04E+03   1.40E+02   2.67E-01   2.74E-05   1.34E-06   3.07E-07
    750.0     783.6   8.18E+03   1.44E+02   2.74E-01   2.79E-05   1.37E-06   3.27E-07
    755.0     788.7   8.18E+03   1.44E+02   2.74E-01   2.79E-05   1.37E-06   3.27E-07
    755.0     788.7   8.31E+03   1.48E+02   2.82E-01   2.84E-05   1.41E-06   3.50E-07
    760.0     793.9   8.31E+03   1.48E+02   2.82E-01   2.84E-05   1.41E-06   3.50E-07
    760.0     793.9   8.42E+03   1.50E+02   2.85E-01   2.86E-05   1.44E-06   3.65E-07
    765.0     799.0   8.42E+03   1.50E+02   2.85E-01   2.86E-05   1.44E-06   3.65E-07
    765.0     799.0   8.56E+03   1.54E+02   2.93E-01   2.93E-05   1.47E-06   3.93E-07
    770.0     804.1   8.56E+03   1.54E+02   2.93E-01   2.93E-05   1.47E-06   3.93E-07
    770.0     804.1   8.70E+03   1.59E+02   3.02E-01   3.02E-05   1.52E-06   4.32E-07
    775.0     809.3   8.70E+03   1.59E+02   3.02E-01   3.02E-05   1.52E-06   4.32E-07
    775.0     809.3   8.83E+03   1.63E+02   3.07E-01   3.05E-05   1.55E-06   4.57E-07
    780.0     814.4   8.83E+03   1.63E+02   3.07E-01   3.05E-05   1.55E-06   4.57E-07
    780.0     814.4   8.95E+03   1.66E+02   3.11E-01   3.04E-05   1.57E-06   4.75E-07
    785.0     819.5   8.95E+03   1.66E+02   3.11E-01   3.04E-05   1.57E-06   4.75E-07
    785.0     819.5   9.05E+03   1.69E+02   3.13E-01   3.03E-05   1.58E-06   4.84E-07
    790.0     824.7   9.05E+03   1.69E+02   3.13E-01   3.03E-05   1.58E-06   4.84E-07
    790.0     824.7   9.16E+03   1.72E+02   3.19E-01   3.05E-05   1.59E-06   4.91E-07
    795.0     829.8   9.16E+03   1.72E+02   3.19E-01   3.05E-05   1.59E-06   4.91E-07
    795.0     829.8   9.25E+03   1.74E+02   3.20E-01   3.05E-05   1.58E-06   4.87E-07
    800.0     835.0   9.25E+03   1.74E+02   3.20E-01   3.05E-05   1.58E-06   4.87E-07
    800.0     835.0   9.34E+03   1.78E+02   3.22E-01   3.20E-05   1.58E-06   4.84E-07
    805.0     840.1   9.34E+03   1.78E+02   3.22E-01   3.20E-05   1.58E-06   4.84E-07
    805.0     840.1   9.44E+03   1.82E+02   3.28E-01   3.34E-05   1.59E-06   4.86E-07
    810.0     845.2   9.44E+03   1.82E+02   3.28E-01   3.34E-05   1.59E-06   4.86E-07
    810.0     845.2   9.52E+03   1.85E+02   3.26E-01   3.40E-05   1.56E-06   4.69E-07
    815.0     850.4   9.52E+03   1.85E+02   3.26E-01   3.40E-05   1.56E-06   4.69E-07
    815.0     850.4   9.61E+03   1.87E+02   3.29E-01   3.44E-05   1.55E-06   4.57E-07
    820.0     855.5   9.61E+03   1.87E+02   3.29E-01   3.44E-05   1.55E-06   4.57E-07
    820.0     855.5   9.68E+03   1.89E+02   3.30E-01   3.46E-05   1.54E-06   4.47E-07
    825.0     860.6   9.68E+03   1.89E+02   3.30E-01   3.46E-05   1.54E-06   4.47E-07
    825.0     860.6   9.75E+03   1.92E+02   3.34E-01   3.48E-05   1.54E-06   4.46E-07
    830.0     865.8   9.75E+03   1.92E+02   3.34E-01   3.48E-05   1.54E-06   4.46E-07
    830.0     865.8   9.82E+03   1.94E+02   3.31E-01   3.51E-05   1.54E-06   4.34E-07
    835.0     870.9   9.82E+03   1.94E+02   3.31E-01   3.51E-05   1.54E-06   4.34E-07
    835.0     870.9   9.80E+03   1.96E+02   3.05E-01   3.68E-05   1.47E-06   3.78E-07
    840.0     876.1   9.80E+03   1.96E+02   3.05E-01   3.68E-05   1.47E-06   3.78E-07
    840.0     876.1   9.82E+03   1.99E+02   2.89E-01   3.77E-05   1.44E-06   3.42E-07
    845.0     881.2   9.82E+03   1.99E+02   2.89E-01   3.77E-05   1.44E-06   3.42E-07
    845.0     881.2   9.84E+03   2.01E+02   2.74E-01   3.77E-05   1.41E-06   3.20E-07
    850.0     886.3   9.84E+03   2.01E+02   2.74E-01   3.77E-05   1.41E-06   3.20E-07
    850.0     886.3   9.88E+03   2.03E+02   2.66E-01   3.76E-05   1.40E-06   3.07E-07
    855.0     891.5   9.88E+03   2.03E+02   2.66E-01   3.76E-05   1.40E-06   3.07E-07
    855.0     891.5   9.91E+03   2.06E+02   2.60E-01   3.74E-05   1.40E-06   2.98E-07
    860.0     896.6   9.91E+03   2.06E+02   2.60E-01   3.74E-05   1.40E-06   2.98E-07
    860.0     896.6   9.93E+03   2.07E+02   2.53E-01   3.72E-05   1.38E-06   2.87E-07
    865.0     901.7   9.93E+03   2.07E+02   2.53E-01   3.72E-05   1.38E-06   2.87E-07
    865.0     901.7   9.96E+03   2.09E+02   2.58E-01   3.69E-05   1.34E-06   2.75E-07
    870.0     906.9   9.96E+03   2.09E+02   2.58E-01   3.69E-05   1.34E-06   2.75E-07
    870.0     906.9   9.97E+03   2.11E+02   2.70E-01   3.62E-05   1.26E-06   2.54E-07
    875.0     912.0   9.97E+03   2.11E+02   2.70E-01   3.62E-05   1.26E-06   2.54E-07
    875.0     912.0   1.00E+04   2.14E+02   2.79E-01   3.54E-05   1.22E-06   2.41E-07
    880.0     917.1   1.00E+04   2.14E+02   2.79E-01   3.54E-05   1.22E-06   2.41E-07
    880.0     917.1   1.00E+04   2.16E+02   2.86E-01   3.46E-05   1.19E-06   2.33E-07
    885.0     922.3   1.00E+04   2.16E+02   2.86E-01   3.46E-05   1.19E-06   2.33E-07
    885.0     922.3   1.01E+04   2.18E+02   2.92E-01   3.38E-05   1.16E-06   2.26E-07
    890.0     927.4   1.01E+04   2.18E+02   2.92E-01   3.38E-05   1.16E-06   2.26E-07
    890.0     927.4   1.01E+04   2.21E+02   3.01E-01   3.32E-05   1.15E-06   2.23E-07
    895.0     932.5   1.01E+04   2.21E+02   3.01E-01   3.32E-05   1.15E-06   2.23E-07
    895.0     932.5   1.02E+04   2.22E+02   3.06E-01   3.27E-05   1.13E-06   2.19E-07
    900.0     937.7   1.02E+04   2.22E+02   3.06E-01   3.27E-05   1.13E-06   2.19E-07
    900.0     937.7   1.02E+04   2.23E+02   3.38E-01   3.02E-05   1.15E-06   2.49E-07
    905.0     942.8   1.02E+04   2.23E+02   3.38E-01   3.02E-05   1.15E-06   2.49E-07
    905.0     942.8   1.03E+04   2.24E+02   3.69E-01   2.75E-05   1.17E-06   2.80E-07
    910.0     947.9   1.03E+04   2.24E+02   3.69E-01   2.75E-05   1.17E-06   2.80E-07
    910.0     947.9   1.03E+04   2.25E+02   3.89E-01   2.66E-05   1.18E-06   2.97E-07
    915.0     953.1   1.03E+04   2.25E+02   3.89E-01   2.66E-05   1.18E-06   2.97E-07
    915.0     953.1   1.03E+04   2.26E+02   4.10E-01   2.64E-05   1.19E-06   3.11E-07
    920.0     958.2   1.03E+04   2.26E+02   4.10E-01   2.64E-05   1.19E-06   3.11E-07
    920.0     958.2   1.04E+04   2.27E+02   4.26E-01   2.62E-05   1.19E-06   3.17E-07
    925.0     963.3   1.04E+04   2.27E+02   4.26E-01   2.62E-05   1.19E-06   3.17E-07
    925.0     963.3   1.04E+04   2.28E+02   4.44E-01   2.60E-05   1.19E-06   3.23E-07
    930.0     968.5   1.04E+04   2.28E+02   4.44E-01   2.60E-05   1.19E-06   3.23E-07
    930.0     968.5   1.05E+04   2.28E+02   4.62E-01   2.55E-05   1.20E-06   3.35E-07
    935.0     973.6   1.05E+04   2.28E+02   4.62E-01   2.55E-05   1.20E-06   3.35E-07
    935.0     973.6   1.06E+04   2.25E+02   4.95E-01   2.37E-05   1.25E-06   3.99E-07
    940.0     978.7   1.06E+04   2.25E+02   4.95E-01   2.37E-05   1.25E-06   3.99E-07
    940.0     978.7   1.06E+04   2.24E+02   5.24E-01   2.23E-05   1.28E-06   4.37E-07
    945.0     983.9   1.06E+04   2.24E+02   5.24E-01   2.23E-05   1.28E-06   4.37E-07
    945.0     983.9   1.07E+04   2.23E+02   5.40E-01   2.21E-05   1.30E-06   4.66E-07
    950.0     989.0   1.07E+04   2.23E+02   5.40E-01   2.21E-05   1.30E-06   4.66E-07
    950.0     989.0   1.08E+04   2.22E+02   5.58E-01   2.20E-05   1.33E-06   4.98E-07
    955.0     994.1   1.08E+04   2.22E+02   5.58E-01   2.20E-05   1.33E-06   4.98E-07
    955.0     994.1   1.08E+04   2.21E+02   5.76E-01   2.20E-05   1.37E-06   5.34E-07
    960.0     999.3   1.08E+04   2.21E+02   5.76E-01   2.20E-05   1.37E-06   5.34E-07
    960.0     999.3   1.09E+04   2.20E+02   5.88E-01   2.19E-05   1.40E-06   5.70E-07
    965.0    1004.4   1.09E+04   2.20E+02   5.88E-01   2.19E-05   1.40E-06   5.70E-07
    965.0    1004.4   1.09E+04   2.16E+02   5.60E-01   2.08E-05   1.39E-06   5.70E-07
    970.0    1009.5   1.09E+04   2.16E+02   5.60E-01   2.08E-05   1.39E-06   5.70E-07
    970.0    1009.5   1.08E+04   2.09E+02   4.90E-01   1.83E-05   1.34E-06   5.39E-07
    975.0    1014.6   1.08E+04   2.09E+02   4.90E-01   1.83E-05   1.34E-06   5.39E-07
    975.0    1014.6   1.08E+04   2.05E+02   4.51E-01   1.71E-05   1.33E-06   5.37E-07
    980.0    1019.8   1.08E+04   2.05E+02   4.51E-01   1.71E-05   1.33E-06   5.37E-07
    980.0    1019.8   1.08E+04   2.01E+02   4.13E-01   1.65E-05   1.31E-06   5.34E-07
    985.0    1024.9   1.08E+04   2.01E+02   4.13E-01   1.65E-05   1.31E-06   5.34E-07
    985.0    1024.9   1.08E+04   1.97E+02   3.80E-01   1.61E-05   1.30E-06   5.31E-07
    990.0    1030.0   1.08E+04   1.97E+02   3.80E-01   1.61E-05   1.30E-06   5.31E-07
    990.0    1030.0   1.08E+04   1.93E+02   3.48E-01   1.56E-05   1.29E-06   5.28E-07
    995.0    1035.2   1.08E+04   1.93E+02   3.48E-01   1.56E-05   1.29E-06   5.28E-07
    995.0    1035.2   1.07E+04   1.88E+02   3.13E-01   1.51E-05   1.25E-06   5.11E-07
   1000.0    1040.3   1.07E+04   1.88E+02   3.13E-01   1.51E-05   1.25E-06   5.11E-07
   1000.0    1040.3   1.06E+04   1.85E+02   2.73E-01   1.39E-05   1.16E-06   4.45E-07
   1005.0    1045.4   1.06E+04   1.85E+02   2.73E-01   1.39E-05   1.16E-06   4.45E-07
   1005.0    1045.4   1.04E+04   1.82E+02   2.33E-01   1.28E-05   1.07E-06   3.78E-07
   1010.0    1050.6   1.04E+04   1.82E+02   2.33E-01   1.28E-05   1.07E-06   3.78E-07
   1010.0    1050.6   1.03E+04   1.78E+02   2.02E-01   1.21E-05   9.87E-07   3.17E-07
   1015.0    1055.7   1.03E+04   1.78E+02   2.02E-01   1.21E-05   9.87E-07   3.17E-07
   1015.0    1055.7   1.03E+04   1.76E+02   1.77E-01   1.17E-05   9.20E-07   2.66E-07
   1020.0    1060.8   1.03E+04   1.76E+02   1.77E-01   1.17E-05   9.20E-07   2.66E-07
   1020.0    1060.8   1.02E+04   1.74E+02   1.57E-01   1.13E-05   8.58E-07   2.18E-07
   1025.0    1065.9   1.02E+04   1.74E+02   1.57E-01   1.13E-05   8.58E-07   2.18E-07
   1025.0    1065.9   1.01E+04   1.72E+02   1.41E-01   1.10E-05   8.09E-07   1.79E-07
   1030.0    1071.1   1.01E+04   1.72E+02   1.41E-01   1.10E-05   8.09E-07   1.79E-07
   1030.0    1071.1   1.01E+04   1.70E+02   1.33E-01   1.07E-05   7.72E-07   1.48E-07
   1035.0    1076.2   1.01E+04   1.70E+02   1.33E-01   1.07E-05   7.72E-07   1.48E-07
   1035.0    1076.2   9.99E+03   1.68E+02   1.38E-01   1.05E-05   7.61E-07   1.39E-07
   1040.0    1081.3   9.99E+03   1.68E+02   1.38E-01   1.05E-05   7.61E-07   1.39E-07
   1040.0    1081.3   9.93E+03   1.66E+02   1.42E-01   1.03E-05   7.54E-07   1.29E-07
   1045.0    1086.5   9.93E+03   1.66E+02   1.42E-01   1.03E-05   7.54E-07   1.29E-07
   1045.0    1086.5   9.88E+03   1.65E+02   1.45E-01   1.01E-05   7.49E-07   1.24E-07
   1050.0    1091.6   9.88E+03   1.65E+02   1.45E-01   1.01E-05   7.49E-07   1.24E-07
   1050.0    1091.6   9.84E+03   1.64E+02   1.48E-01   9.99E-06   7.45E-07   1.20E-07
   1055.0    1096.7   9.84E+03   1.64E+02   1.48E-01   9.99E-06   7.45E-07   1.20E-07
   1055.0    1096.7   9.80E+03   1.64E+02   1.51E-01   9.84E-06   7.43E-07   1.18E-07
   1060.0    1101.8   9.80E+03   1.64E+02   1.51E-01   9.84E-06   7.43E-07   1.18E-07
   1060.0    1101.8   9.77E+03   1.63E+02   1.55E-01   9.69E-06   7.40E-07   1.20E-07
   1065.0    1107.0   9.77E+03   1.63E+02   1.55E-01   9.69E-06   7.40E-07   1.20E-07
   1065.0    1107.0   9.74E+03   1.62E+02   1.54E-01   9.39E-06   7.26E-07   1.26E-07
   1070.0    1112.1   9.74E+03   1.62E+02   1.54E-01   9.39E-06   7.26E-07   1.26E-07
   1070.0    1112.1   9.71E+03   1.58E+02   1.49E-01   8.94E-06   6.98E-07   1.35E-07
   1075.0    1117.2   9.71E+03   1.58E+02   1.49E-01   8.94E-06   6.98E-07   1.35E-07
   1075.0    1117.2   9.68E+03   1.57E+02   1.49E-01   8.64E-06   6.84E-07   1.44E-07
   1080.0    1122.3   9.68E+03   1.57E+02   1.49E-01   8.64E-06   6.84E-07   1.44E-07
   1080.0    1122.3   9.65E+03   1.56E+02   1.49E-01   8.36E-06   6.70E-07   1.51E-07
   1085.0    1127.5   9.65E+03   1.56E+02   1.49E-01   8.36E-06   6.70E-07   1.51E-07
   1085.0    1127.5   9.62E+03   1.54E+02   1.49E-01   8.10E-06   6.57E-07   1.57E-07
   1090.0    1132.6   9.62E+03   1.54E+02   1.49E-01   8.10E-06   6.57E-07   1.57E-07
   1090.0    1132.6   9.58E+03   1.53E+02   1.51E-01   7.84E-06   6.45E-07   1.62E-07
   1095.0    1137.7   9.58E+03   1.53E+02   1.51E-01   7.84E-06   6.45E-07   1.62E-07
   1095.0    1137.7   9.54E+03   1.52E+02   1.51E-01   7.60E-06   6.30E-07   1.65E-07
   1100.0    1142.9   9.54E+03   1.52E+02   1.51E-01   7.60E-06   6.30E-07   1.65E-07
   1100.0    1142.9   9.44E+03   1.50E+02   1.44E-01   7.24E-06   5.75E-07   1.48E-07
   1105.0    1148.0   9.44E+03   1.50E+02   1.44E-01   7.24E-06   5.75E-07   1.48E-07
   1105.0    1148.0   9.35E+03   1.49E+02   1.37E-01   6.91E-06   5.27E-07   1.33E-07
   1110.0    1153.1   9.35E+03   1.49E+02   1.37E-01   6.91E-06   5.27E-07   1.33E-07
   1110.0    1153.1   9.27E+03   1.48E+02   1.32E-01   6.63E-06   4.87E-07   1.20E-07
   1115.0    1158.2   9.27E+03   1.48E+02   1.32E-01   6.63E-06   4.87E-07   1.20E-07
   1115.0    1158.2   9.21E+03   1.47E+02   1.28E-01   6.39E-06   4.56E-07   1.11E-07
   1120.0    1163.4   9.21E+03   1.47E+02   1.28E-01   6.39E-06   4.56E-07   1.11E-07
   1120.0    1163.4   9.15E+03   1.45E+02   1.24E-01   6.16E-06   4.30E-07   1.04E-07
   1125.0    1168.5   9.15E+03   1.45E+02   1.24E-01   6.16E-06   4.30E-07   1.04E-07
   1125.0    1168.5   9.09E+03   1.44E+02   1.21E-01   5.94E-06   4.09E-07   1.01E-07
   1130.0    1173.6   9.09E+03   1.44E+02   1.21E-01   5.94E-06   4.09E-07   1.01E-07
   1130.0    1173.6   9.04E+03   1.43E+02   1.20E-01   5.76E-06   3.91E-07   9.91E-08
   1135.0    1178.7   9.04E+03   1.43E+02   1.20E-01   5.76E-06   3.91E-07   9.91E-08
   1135.0    1178.7   8.99E+03   1.43E+02   1.26E-01   5.61E-06   3.79E-07   1.00E-07
   1140.0    1183.9   8.99E+03   1.43E+02   1.26E-01   5.61E-06   3.79E-07   1.00E-07
   1140.0    1183.9   8.94E+03   1.42E+02   1.28E-01   5.46E-06   3.66E-07   1.00E-07
   1145.0    1189.0   8.94E+03   1.42E+02   1.28E-01   5.46E-06   3.66E-07   1.00E-07
   1145.0    1189.0   8.89E+03   1.42E+02   1.30E-01   5.32E-06   3.54E-07   1.00E-07
   1150.0    1194.1   8.89E+03   1.42E+02   1.30E-01   5.32E-06   3.54E-07   1.00E-07
   1150.0    1194.1   8.86E+03   1.42E+02   1.31E-01   5.20E-06   3.42E-07   9.97E-08
   1155.0    1199.2   8.86E+03   1.42E+02   1.31E-01   5.20E-06   3.42E-07   9.97E-08
   1155.0    1199.2   8.82E+03   1.41E+02   1.31E-01   5.08E-06   3.29E-07   9.76E-08
   1160.0    1204.4   8.82E+03   1.41E+02   1.31E-01   5.08E-06   3.29E-07   9.76E-08
   1160.0    1204.4   8.77E+03   1.41E+02   1.28E-01   4.95E-06   3.12E-07   9.27E-08
   1165.0    1209.5   8.77E+03   1.41E+02   1.28E-01   4.95E-06   3.12E-07   9.27E-08
   1165.0    1209.5   8.74E+03   1.41E+02   1.24E-01   4.86E-06   3.07E-07   9.40E-08
   1170.0    1214.6   8.74E+03   1.41E+02   1.24E-01   4.86E-06   3.07E-07   9.40E-08
   1170.0    1214.6   8.70E+03   1.41E+02   1.21E-01   4.79E-06   3.12E-07   1.03E-07
   1175.0    1219.7   8.70E+03   1.41E+02   1.21E-01   4.79E-06   3.12E-07   1.03E-07
   1175.0    1219.7   8.68E+03   1.41E+02   1.18E-01   4.71E-06   3.12E-07   1.08E-07
   1180.0    1224.9   8.68E+03   1.41E+02   1.18E-01   4.71E-06   3.12E-07   1.08E-07
   1180.0    1224.9   8.64E+03   1.41E+02   1.13E-01   4.62E-06   3.09E-07   1.11E-07
   1185.0    1230.0   8.64E+03   1.41E+02   1.13E-01   4.62E-06   3.09E-07   1.11E-07
   1185.0    1230.0   8.61E+03   1.40E+02   1.09E-01   4.54E-06   3.06E-07   1.13E-07
   1190.0    1235.1   8.61E+03   1.40E+02   1.09E-01   4.54E-06   3.06E-07   1.13E-07
   1190.0    1235.1   8.58E+03   1.40E+02   1.06E-01   4.47E-06   3.05E-07   1.15E-07
   1195.0    1240.2   8.58E+03   1.40E+02   1.06E-01   4.47E-06   3.05E-07   1.15E-07
   1195.0    1240.2   8.55E+03   1.40E+02   1.02E-01   4.38E-06   3.01E-07   1.15E-07
   1200.0    1245.3   8.55E+03   1.40E+02   1.02E-01   4.38E-06   3.01E-07   1.15E-07
   1200.0    1245.3   8.50E+03   1.40E+02   9.16E-02   4.40E-06   2.79E-07   9.94E-08
   1205.0    1250.5   8.50E+03   1.40E+02   9.16E-02   4.40E-06   2.79E-07   9.94E-08
   1205.0    1250.5   8.45E+03   1.41E+02   8.18E-02   4.39E-06   2.59E-07   8.49E-08
   1210.0    1255.6   8.45E+03   1.41E+02   8.18E-02   4.39E-06   2.59E-07   8.49E-08
   1210.0    1255.6   8.41E+03   1.41E+02   7.35E-02   4.37E-06   2.39E-07   7.13E-08
   1215.0    1260.7   8.41E+03   1.41E+02   7.35E-02   4.37E-06   2.39E-07   7.13E-08
   1215.0    1260.7   8.37E+03   1.42E+02   6.72E-02   4.33E-06   2.23E-07   6.03E-08
   1220.0    1265.8   8.37E+03   1.42E+02   6.72E-02   4.33E-06   2.23E-07   6.03E-08
   1220.0    1265.8   8.33E+03   1.42E+02   6.18E-02   4.30E-06   2.08E-07   5.04E-08
   1225.0    1271.0   8.33E+03   1.42E+02   6.18E-02   4.30E-06   2.08E-07   5.04E-08
   1225.0    1271.0   8.30E+03   1.43E+02   5.80E-02   4.27E-06   1.96E-07   4.30E-08
   1230.0    1276.1   8.30E+03   1.43E+02   5.80E-02   4.27E-06   1.96E-07   4.30E-08
   1230.0    1276.1   8.27E+03   1.43E+02   5.49E-02   4.29E-06   1.88E-07   3.64E-08
   1235.0    1281.2   8.27E+03   1.43E+02   5.49E-02   4.29E-06   1.88E-07   3.64E-08
   1235.0    1281.2   8.22E+03   1.46E+02   5.22E-02   4.54E-06   1.91E-07   2.95E-08
   1240.0    1286.3   8.22E+03   1.46E+02   5.22E-02   4.54E-06   1.91E-07   2.95E-08
   1240.0    1286.3   8.19E+03   1.48E+02   5.04E-02   4.70E-06   1.92E-07   2.47E-08
   1245.0    1291.4   8.19E+03   1.48E+02   5.04E-02   4.70E-06   1.92E-07   2.47E-08
   1245.0    1291.4   8.16E+03   1.49E+02   4.95E-02   4.82E-06   1.94E-07   2.21E-08
   1250.0    1296.6   8.16E+03   1.49E+02   4.95E-02   4.82E-06   1.94E-07   2.21E-08
   1250.0    1296.6   8.14E+03   1.51E+02   4.90E-02   4.94E-06   1.97E-07   2.01E-08
   1255.0    1301.7   8.14E+03   1.51E+02   4.90E-02   4.94E-06   1.97E-07   2.01E-08
   1255.0    1301.7   8.12E+03   1.52E+02   4.87E-02   5.04E-06   2.00E-07   1.84E-08
   1260.0    1306.8   8.12E+03   1.52E+02   4.87E-02   5.04E-06   2.00E-07   1.84E-08
   1260.0    1306.8   8.10E+03   1.53E+02   4.85E-02   5.13E-06   2.04E-07   1.73E-08
   1265.0    1311.9   8.10E+03   1.53E+02   4.85E-02   5.13E-06   2.04E-07   1.73E-08
   1265.0    1311.9   8.08E+03   1.56E+02   4.92E-02   5.12E-06   2.03E-07   1.70E-08
   1270.0    1317.0   8.08E+03   1.56E+02   4.92E-02   5.12E-06   2.03E-07   1.70E-08
   1270.0    1317.0   8.05E+03   1.59E+02   5.07E-02   5.02E-06   1.99E-07   1.75E-08
   1275.0    1322.2   8.05E+03   1.59E+02   5.07E-02   5.02E-06   1.99E-07   1.75E-08
   1275.0    1322.2   8.04E+03   1.62E+02   5.19E-02   4.99E-06   1.98E-07   1.78E-08
   1280.0    1327.3   8.04E+03   1.62E+02   5.19E-02   4.99E-06   1.98E-07   1.78E-08
   1280.0    1327.3   8.02E+03   1.64E+02   5.26E-02   4.90E-06   1.95E-07   1.80E-08
   1285.0    1332.4   8.02E+03   1.64E+02   5.26E-02   4.90E-06   1.95E-07   1.80E-08
   1285.0    1332.4   8.01E+03   1.66E+02   5.33E-02   4.83E-06   1.92E-07   1.82E-08
   1290.0    1337.5   8.01E+03   1.66E+02   5.33E-02   4.83E-06   1.92E-07   1.82E-08
   1290.0    1337.5   8.00E+03   1.68E+02   5.40E-02   4.75E-06   1.88E-07   1.83E-08
   1295.0    1342.6   8.00E+03   1.68E+02   5.40E-02   4.75E-06   1.88E-07   1.83E-08
   1295.0    1342.6   7.99E+03   1.70E+02   5.42E-02   4.63E-06   1.83E-07   1.83E-08
   1300.0    1347.8   7.99E+03   1.70E+02   5.42E-02   4.63E-06   1.83E-07   1.83E-08
   1300.0    1347.8   7.97E+03   1.73E+02   6.12E-02   4.39E-06   1.84E-07   2.34E-08
   1305.0    1352.9   7.97E+03   1.73E+02   6.12E-02   4.39E-06   1.84E-07   2.34E-08
   1305.0    1352.9   7.95E+03   1.76E+02   6.75E-02   4.15E-06   1.85E-07   2.79E-08
   1310.0    1358.0   7.95E+03   1.76E+02   6.75E-02   4.15E-06   1.85E-07   2.79E-08
   1310.0    1358.0   7.94E+03   1.78E+02   7.14E-02   3.95E-06   1.84E-07   3.09E-08
   1315.0    1363.1   7.94E+03   1.78E+02   7.14E-02   3.95E-06   1.84E-07   3.09E-08
   1315.0    1363.1   7.93E+03   1.80E+02   7.45E-02   3.79E-06   1.83E-07   3.34E-08
   1320.0    1368.2   7.93E+03   1.80E+02   7.45E-02   3.79E-06   1.83E-07   3.34E-08
   1320.0    1368.2   7.92E+03   1.82E+02   7.66E-02   3.65E-06   1.82E-07   3.52E-08
   1325.0    1373.4   7.92E+03   1.82E+02   7.66E-02   3.65E-06   1.82E-07   3.52E-08
   1325.0    1373.4   7.92E+03   1.85E+02   7.88E-02   3.54E-06   1.82E-07   3.69E-08
   1330.0    1378.5   7.92E+03   1.85E+02   7.88E-02   3.54E-06   1.82E-07   3.69E-08
   1330.0    1378.5   7.92E+03   1.87E+02   8.06E-02   3.48E-06   1.84E-07   3.91E-08
   1335.0    1383.6   7.92E+03   1.87E+02   8.06E-02   3.48E-06   1.84E-07   3.91E-08
   1335.0    1383.6   7.89E+03   1.89E+02   8.41E-02   3.55E-06   1.97E-07   4.72E-08
   1340.0    1388.7   7.89E+03   1.89E+02   8.41E-02   3.55E-06   1.97E-07   4.72E-08
   1340.0    1388.7   7.87E+03   1.92E+02   8.69E-02   3.59E-06   2.05E-07   5.24E-08
   1345.0    1393.8   7.87E+03   1.92E+02   8.69E-02   3.59E-06   2.05E-07   5.24E-08
   1345.0    1393.8   7.87E+03   1.95E+02   8.91E-02   3.64E-06   2.10E-07   5.51E-08
   1350.0    1398.9   7.87E+03   1.95E+02   8.91E-02   3.64E-06   2.10E-07   5.51E-08
   1350.0    1398.9   7.86E+03   1.97E+02   9.16E-02   3.68E-06   2.14E-07   5.73E-08
   1355.0    1404.1   7.86E+03   1.97E+02   9.16E-02   3.68E-06   2.14E-07   5.73E-08
   1355.0    1404.1   7.85E+03   1.99E+02   9.37E-02   3.72E-06   2.18E-07   5.92E-08
   1360.0    1409.2   7.85E+03   1.99E+02   9.37E-02   3.72E-06   2.18E-07   5.92E-08
   1360.0    1409.2   7.84E+03   2.01E+02   9.63E-02   3.77E-06   2.23E-07   6.12E-08
   1365.0    1414.3   7.84E+03   2.01E+02   9.63E-02   3.77E-06   2.23E-07   6.12E-08
   1365.0    1414.3   7.82E+03   2.02E+02   1.04E-01   3.89E-06   2.50E-07   7.39E-08
   1370.0    1419.4   7.82E+03   2.02E+02   1.04E-01   3.89E-06   2.50E-07   7.39E-08
   1370.0    1419.4   7.77E+03   2.04E+02   1.18E-01   4.09E-06   3.01E-07   9.69E-08
   1375.0    1424.5   7.77E+03   2.04E+02   1.18E-01   4.09E-06   3.01E-07   9.69E-08
   1375.0    1424.5   7.75E+03   2.05E+02   1.28E-01   4.24E-06   3.36E-07   1.13E-07
   1380.0    1429.7   7.75E+03   2.05E+02   1.28E-01   4.24E-06   3.36E-07   1.13E-07
   1380.0    1429.7   7.73E+03   2.07E+02   1.35E-01   4.36E-06   3.67E-07   1.27E-07
   1385.0    1434.8   7.73E+03   2.07E+02   1.35E-01   4.36E-06   3.67E-07   1.27E-07
   1385.0    1434.8   7.72E+03   2.08E+02   1.42E-01   4.48E-06   3.95E-07   1.41E-07
   1390.0    1439.9   7.72E+03   2.08E+02   1.42E-01   4.48E-06   3.95E-07   1.41E-07
   1390.0    1439.9   7.70E+03   2.09E+02   1.48E-01   4.60E-06   4.23E-07   1.54E-07
   1395.0    1445.0   7.70E+03   2.09E+02   1.48E-01   4.60E-06   4.23E-07   1.54E-07
   1395.0    1445.0   7.68E+03   2.10E+02   1.51E-01   4.70E-06   4.44E-07   1.63E-07
   1400.0    1450.1   7.68E+03   2.10E+02   1.51E-01   4.70E-06   4.44E-07   1.63E-07
   1400.0    1450.1   7.64E+03   2.09E+02   1.67E-01   4.98E-06   5.22E-07   2.09E-07
   1405.0    1455.2   7.64E+03   2.09E+02   1.67E-01   4.98E-06   5.22E-07   2.09E-07
   1405.0    1455.2   7.60E+03   2.08E+02   1.80E-01   5.24E-06   5.90E-07   2.49E-07
   1410.0    1460.3   7.60E+03   2.08E+02   1.80E-01   5.24E-06   5.90E-07   2.49E-07
   1410.0    1460.3   7.57E+03   2.07E+02   1.87E-01   5.43E-06   6.30E-07   2.71E-07
   1415.0    1465.5   7.57E+03   2.07E+02   1.87E-01   5.43E-06   6.30E-07   2.71E-07
   1415.0    1465.5   7.54E+03   2.07E+02   1.91E-01   5.59E-06   6.54E-07   2.84E-07
   1420.0    1470.6   7.54E+03   2.07E+02   1.91E-01   5.59E-06   6.54E-07   2.84E-07
   1420.0    1470.6   7.52E+03   2.07E+02   1.94E-01   5.73E-06   6.74E-07   2.94E-07
   1425.0    1475.7   7.52E+03   2.07E+02   1.94E-01   5.73E-06   6.74E-07   2.94E-07
   1425.0    1475.7   7.49E+03   2.07E+02   1.98E-01   5.87E-06   6.94E-07   3.04E-07
   1430.0    1480.8   7.49E+03   2.07E+02   1.98E-01   5.87E-06   6.94E-07   3.04E-07
   1430.0    1480.8   7.46E+03   2.06E+02   1.99E-01   6.01E-06   7.07E-07   3.06E-07
   1435.0    1485.9   7.46E+03   2.06E+02   1.99E-01   6.01E-06   7.07E-07   3.06E-07
   1435.0    1485.9   7.37E+03   2.02E+02   1.97E-01   6.27E-06   7.12E-07   2.93E-07
   1440.0    1491.0   7.37E+03   2.02E+02   1.97E-01   6.27E-06   7.12E-07   2.93E-07
   1440.0    1491.0   7.32E+03   2.00E+02   1.96E-01   6.48E-06   7.25E-07   2.89E-07
   1445.0    1496.2   7.32E+03   2.00E+02   1.96E-01   6.48E-06   7.25E-07   2.89E-07
   1445.0    1496.2   7.27E+03   1.98E+02   1.97E-01   6.67E-06   7.49E-07   2.95E-07
   1450.0    1501.3   7.27E+03   1.98E+02   1.97E-01   6.67E-06   7.49E-07   2.95E-07
   1450.0    1501.3   7.23E+03   1.97E+02   1.99E-01   6.85E-06   7.78E-07   3.05E-07
   1455.0    1506.4   7.23E+03   1.97E+02   1.99E-01   6.85E-06   7.78E-07   3.05E-07
   1455.0    1506.4   7.19E+03   1.95E+02   2.00E-01   6.98E-06   8.00E-07   3.13E-07
   1460.0    1511.5   7.19E+03   1.95E+02   2.00E-01   6.98E-06   8.00E-07   3.13E-07
   1460.0    1511.5   7.16E+03   1.94E+02   2.03E-01   7.12E-06   8.26E-07   3.25E-07
   1465.0    1516.6   7.16E+03   1.94E+02   2.03E-01   7.12E-06   8.26E-07   3.25E-07
   1465.0    1516.6   7.10E+03   1.90E+02   2.07E-01   7.27E-06   8.47E-07   3.36E-07
   1470.0    1521.7   7.10E+03   1.90E+02   2.07E-01   7.27E-06   8.47E-07   3.36E-07
   1470.0    1521.7   7.03E+03   1.84E+02   2.16E-01   7.49E-06   8.71E-07   3.49E-07
   1475.0    1526.8   7.03E+03   1.84E+02   2.16E-01   7.49E-06   8.71E-07   3.49E-07
   1475.0    1526.8   6.98E+03   1.81E+02   2.20E-01   7.63E-06   8.83E-07   3.55E-07
   1480.0    1532.0   6.98E+03   1.81E+02   2.20E-01   7.63E-06   8.83E-07   3.55E-07
   1480.0    1532.0   6.93E+03   1.78E+02   2.23E-01   7.70E-06   8.81E-07   3.55E-07
   1485.0    1537.1   6.93E+03   1.78E+02   2.23E-01   7.70E-06   8.81E-07   3.55E-07
   1485.0    1537.1   6.88E+03   1.75E+02   2.26E-01   7.75E-06   8.81E-07   3.55E-07
   1490.0    1542.2   6.88E+03   1.75E+02   2.26E-01   7.75E-06   8.81E-07   3.55E-07
   1490.0    1542.2   6.84E+03   1.72E+02   2.29E-01   7.76E-06   8.76E-07   3.54E-07
   1495.0    1547.3   6.84E+03   1.72E+02   2.29E-01   7.76E-06   8.76E-07   3.54E-07
   1495.0    1547.3   6.80E+03   1.70E+02   2.31E-01   7.72E-06   8.67E-07   3.52E-07
   1500.0    1552.4   6.80E+03   1.70E+02   2.31E-01   7.72E-06   8.67E-07   3.52E-07
   1500.0    1552.4   6.69E+03   1.62E+02   2.13E-01   7.18E-06   8.43E-07   3.74E-07
   1505.0    1557.5   6.69E+03   1.62E+02   2.13E-01   7.18E-06   8.43E-07   3.74E-07
   1505.0    1557.5   6.59E+03   1.54E+02   1.97E-01   6.67E-06   8.22E-07   3.96E-07
   1510.0    1562.6   6.59E+03   1.54E+02   1.97E-01   6.67E-06   8.22E-07   3.96E-07
   1510.0    1562.6   6.51E+03   1.48E+02   1.86E-01   6.28E-06   7.97E-07   4.06E-07
   1515.0    1567.8   6.51E+03   1.48E+02   1.86E-01   6.28E-06   7.97E-07   4.06E-07
   1515.0    1567.8   6.43E+03   1.43E+02   1.75E-01   5.92E-06   7.64E-07   4.03E-07
   1520.0    1572.9   6.43E+03   1.43E+02   1.75E-01   5.92E-06   7.64E-07   4.03E-07
   1520.0    1572.9   6.35E+03   1.38E+02   1.65E-01   5.61E-06   7.29E-07   3.95E-07
   1525.0    1578.0   6.35E+03   1.38E+02   1.65E-01   5.61E-06   7.29E-07   3.95E-07
   1525.0    1578.0   6.28E+03   1.34E+02   1.56E-01   5.35E-06   6.97E-07   3.83E-07
   1530.0    1583.1   6.28E+03   1.34E+02   1.56E-01   5.35E-06   6.97E-07   3.83E-07
   1530.0    1583.1   6.19E+03   1.28E+02   1.45E-01   5.03E-06   6.36E-07   3.47E-07
   1535.0    1588.2   6.19E+03   1.28E+02   1.45E-01   5.03E-06   6.36E-07   3.47E-07
   1535.0    1588.2   6.06E+03   1.21E+02   1.24E-01   4.50E-06   4.87E-07   2.42E-07
   1540.0    1593.3   6.06E+03   1.21E+02   1.24E-01   4.50E-06   4.87E-07   2.42E-07
   1540.0    1593.3   5.95E+03   1.15E+02   1.09E-01   4.13E-06   3.80E-07   1.65E-07
   1545.0    1598.4   5.95E+03   1.15E+02   1.09E-01   4.13E-06   3.80E-07   1.65E-07
   1545.0    1598.4   5.86E+03   1.10E+02   9.87E-02   3.85E-06   3.06E-07   1.12E-07
   1550.0    1603.5   5.86E+03   1.10E+02   9.87E-02   3.85E-06   3.06E-07   1.12E-07
   1550.0    1603.5   5.78E+03   1.06E+02   9.14E-02   3.65E-06   2.57E-07   7.77E-08
   1555.0    1608.6   5.78E+03   1.06E+02   9.14E-02   3.65E-06   2.57E-07   7.77E-08
   1555.0    1608.6   5.70E+03   1.02E+02   8.60E-02   3.47E-06   2.21E-07   5.63E-08
   1560.0    1613.8   5.70E+03   1.02E+02   8.60E-02   3.47E-06   2.21E-07   5.63E-08
   1560.0    1613.8   5.63E+03   9.83E+01   8.28E-02   3.32E-06   2.02E-07   4.79E-08
   1565.0    1618.9   5.63E+03   9.83E+01   8.28E-02   3.32E-06   2.02E-07   4.79E-08
   1565.0    1618.9   5.55E+03   9.38E+01   7.92E-02   3.19E-06   1.86E-07   4.28E-08
   1570.0    1624.0   5.55E+03   9.38E+01   7.92E-02   3.19E-06   1.86E-07   4.28E-08
   1570.0    1624.0   5.47E+03   8.95E+01   7.50E-02   3.07E-06   1.75E-07   3.96E-08
   1575.0    1629.1   5.47E+03   8.95E+01   7.50E-02   3.07E-06   1.75E-07   3.96E-08
   1575.0    1629.1   5.38E+03   8.52E+01   7.22E-02   2.96E-06   1.66E-07   3.75E-08
   1580.0    1634.2   5.38E+03   8.52E+01   7.22E-02   2.96E-06   1.66E-07   3.75E-08
   1580.0    1634.2   5.30E+03   8.14E+01   7.03E-02   2.87E-06   1.59E-07   3.59E-08
   1585.0    1639.3   5.30E+03   8.14E+01   7.03E-02   2.87E-06   1.59E-07   3.59E-08
   1585.0    1639.3   5.23E+03   7.80E+01   6.87E-02   2.80E-06   1.53E-07   3.44E-08
   1590.0    1644.4   5.23E+03   7.80E+01   6.87E-02   2.80E-06   1.53E-07   3.44E-08
   1590.0    1644.4   5.16E+03   7.45E+01   6.75E-02   2.72E-06   1.47E-07   3.30E-08
   1595.0    1649.5   5.16E+03   7.45E+01   6.75E-02   2.72E-06   1.47E-07   3.30E-08
   1595.0    1649.5   5.08E+03   7.13E+01   6.63E-02   2.66E-06   1.43E-07   3.18E-08
   1600.0    1654.6   5.08E+03   7.13E+01   6.63E-02   2.66E-06   1.43E-07   3.18E-08
   1600.0    1654.6   5.00E+03   6.78E+01   6.46E-02   2.62E-06   1.38E-07   3.06E-08
   1605.0    1659.8   5.00E+03   6.78E+01   6.46E-02   2.62E-06   1.38E-07   3.06E-08
   1605.0    1659.8   4.93E+03   6.49E+01   6.29E-02   2.59E-06   1.36E-07   2.97E-08
   1610.0    1664.9   4.93E+03   6.49E+01   6.29E-02   2.59E-06   1.36E-07   2.97E-08
   1610.0    1664.9   4.85E+03   6.20E+01   6.14E-02   2.56E-06   1.33E-07   2.89E-08
   1615.0    1670.0   4.85E+03   6.20E+01   6.14E-02   2.56E-06   1.33E-07   2.89E-08
   1615.0    1670.0   4.78E+03   5.94E+01   6.02E-02   2.53E-06   1.31E-07   2.80E-08
   1620.0    1675.1   4.78E+03   5.94E+01   6.02E-02   2.53E-06   1.31E-07   2.80E-08
   1620.0    1675.1   4.72E+03   5.69E+01   5.92E-02   2.51E-06   1.28E-07   2.73E-08
   1625.0    1680.2   4.72E+03   5.69E+01   5.92E-02   2.51E-06   1.28E-07   2.73E-08
   1625.0    1680.2   4.66E+03   5.45E+01   5.83E-02   2.48E-06   1.26E-07   2.66E-08
   1630.0    1685.3   4.66E+03   5.45E+01   5.83E-02   2.48E-06   1.26E-07   2.66E-08
   1630.0    1685.3   4.59E+03   5.20E+01   5.74E-02   2.46E-06   1.25E-07   2.61E-08
   1635.0    1690.4   4.59E+03   5.20E+01   5.74E-02   2.46E-06   1.25E-07   2.61E-08
   1635.0    1690.4   4.51E+03   4.94E+01   5.68E-02   2.47E-06   1.26E-07   2.56E-08
   1640.0    1695.5   4.51E+03   4.94E+01   5.68E-02   2.47E-06   1.26E-07   2.56E-08
   1640.0    1695.5   4.44E+03   4.72E+01   5.65E-02   2.47E-06   1.27E-07   2.53E-08
   1645.0    1700.6   4.44E+03   4.72E+01   5.65E-02   2.47E-06   1.27E-07   2.53E-08
   1645.0    1700.6   4.38E+03   4.49E+01   5.61E-02   2.47E-06   1.28E-07   2.51E-08
   1650.0    1705.7   4.38E+03   4.49E+01   5.61E-02   2.47E-06   1.28E-07   2.51E-08
   1650.0    1705.7   4.31E+03   4.27E+01   5.55E-02   2.47E-06   1.28E-07   2.46E-08
   1655.0    1710.8   4.31E+03   4.27E+01   5.55E-02   2.47E-06   1.28E-07   2.46E-08
   1655.0    1710.8   4.25E+03   4.06E+01   5.47E-02   2.46E-06   1.27E-07   2.42E-08
   1660.0    1716.0   4.25E+03   4.06E+01   5.47E-02   2.46E-06   1.27E-07   2.42E-08
   1660.0    1716.0   4.19E+03   3.88E+01   5.41E-02   2.46E-06   1.27E-07   2.39E-08
   1665.0    1721.1   4.19E+03   3.88E+01   5.41E-02   2.46E-06   1.27E-07   2.39E-08
   1665.0    1721.1   4.13E+03   3.68E+01   5.38E-02   2.49E-06   1.26E-07   2.39E-08
   1670.0    1726.2   4.13E+03   3.68E+01   5.38E-02   2.49E-06   1.26E-07   2.39E-08
   1670.0    1726.2   4.06E+03   3.48E+01   5.44E-02   2.57E-06   1.25E-07   2.46E-08
   1675.0    1731.3   4.06E+03   3.48E+01   5.44E-02   2.57E-06   1.25E-07   2.46E-08
   1675.0    1731.3   4.00E+03   3.31E+01   5.39E-02   2.62E-06   1.24E-07   2.47E-08
   1680.0    1736.4   4.00E+03   3.31E+01   5.39E-02   2.62E-06   1.24E-07   2.47E-08
   1680.0    1736.4   3.94E+03   3.15E+01   5.22E-02   2.64E-06   1.22E-07   2.43E-08
   1685.0    1741.5   3.94E+03   3.15E+01   5.22E-02   2.64E-06   1.22E-07   2.43E-08
   1685.0    1741.5   3.88E+03   3.00E+01   5.02E-02   2.66E-06   1.20E-07   2.37E-08
   1690.0    1746.6   3.88E+03   3.00E+01   5.02E-02   2.66E-06   1.20E-07   2.37E-08
   1690.0    1746.6   3.83E+03   2.85E+01   4.78E-02   2.66E-06   1.17E-07   2.29E-08
   1695.0    1751.7   3.83E+03   2.85E+01   4.78E-02   2.66E-06   1.17E-07   2.29E-08
   1695.0    1751.7   3.77E+03   2.71E+01   4.51E-02   2.65E-06   1.14E-07   2.16E-08
   1700.0    1756.8   3.77E+03   2.71E+01   4.51E-02   2.65E-06   1.14E-07   2.16E-08
   1700.0    1756.8   3.71E+03   2.55E+01   3.99E-02   2.52E-06   1.06E-07   1.90E-08
   1705.0    1761.9   3.71E+03   2.55E+01   3.99E-02   2.52E-06   1.06E-07   1.90E-08
   1705.0    1761.9   3.65E+03   2.40E+01   3.50E-02   2.40E-06   9.92E-08   1.66E-08
   1710.0    1767.0   3.65E+03   2.40E+01   3.50E-02   2.40E-06   9.92E-08   1.66E-08
   1710.0    1767.0   3.59E+03   2.26E+01   3.09E-02   2.29E-06   9.31E-08   1.43E-08
   1715.0    1772.1   3.59E+03   2.26E+01   3.09E-02   2.29E-06   9.31E-08   1.43E-08
   1715.0    1772.1   3.54E+03   2.14E+01   2.76E-02   2.20E-06   8.77E-08   1.23E-08
   1720.0    1777.3   3.54E+03   2.14E+01   2.76E-02   2.20E-06   8.77E-08   1.23E-08
   1720.0    1777.3   3.49E+03   2.02E+01   2.48E-02   2.11E-06   8.30E-08   1.07E-08
   1725.0    1782.4   3.49E+03   2.02E+01   2.48E-02   2.11E-06   8.30E-08   1.07E-08
   1725.0    1782.4   3.44E+03   1.90E+01   2.25E-02   2.04E-06   7.89E-08   9.49E-09
   1730.0    1787.5   3.44E+03   1.90E+01   2.25E-02   2.04E-06   7.89E-08   9.49E-09
   1730.0    1787.5   3.39E+03   1.80E+01   2.10E-02   1.96E-06   7.54E-08   8.70E-09
   1735.0    1792.6   3.39E+03   1.80E+01   2.10E-02   1.96E-06   7.54E-08   8.70E-09
   1735.0    1792.6   3.33E+03   1.71E+01   1.98E-02   1.85E-06   7.08E-08   7.84E-09
   1740.0    1797.7   3.33E+03   1.71E+01   1.98E-02   1.85E-06   7.08E-08   7.84E-09
   1740.0    1797.7   3.28E+03   1.62E+01   1.88E-02   1.77E-06   6.76E-08   7.19E-09
   1745.0    1802.8   3.28E+03   1.62E+01   1.88E-02   1.77E-06   6.76E-08   7.19E-09
   1745.0    1802.8   3.23E+03   1.53E+01   1.80E-02   1.70E-06   6.53E-08   6.82E-09
   1750.0    1807.9   3.23E+03   1.53E+01   1.80E-02   1.70E-06   6.53E-08   6.82E-09
   1750.0    1807.9   3.19E+03   1.46E+01   1.74E-02   1.64E-06   6.36E-08   6.61E-09
   1755.0    1813.0   3.19E+03   1.46E+01   1.74E-02   1.64E-06   6.36E-08   6.61E-09
   1755.0    1813.0   3.14E+03   1.39E+01   1.70E-02   1.59E-06   6.21E-08   6.43E-09
   1760.0    1818.1   3.14E+03   1.39E+01   1.70E-02   1.59E-06   6.21E-08   6.43E-09
   1760.0    1818.1   3.10E+03   1.33E+01   1.66E-02   1.54E-06   6.06E-08   6.26E-09
   1765.0    1823.2   3.10E+03   1.33E+01   1.66E-02   1.54E-06   6.06E-08   6.26E-09
   1765.0    1823.2   3.05E+03   1.26E+01   1.63E-02   1.49E-06   5.92E-08   6.12E-09
   1770.0    1828.3   3.05E+03   1.26E+01   1.63E-02   1.49E-06   5.92E-08   6.12E-09
   1770.0    1828.3   3.00E+03   1.20E+01   1.59E-02   1.45E-06   5.78E-08   5.99E-09
   1775.0    1833.4   3.00E+03   1.20E+01   1.59E-02   1.45E-06   5.78E-08   5.99E-09
   1775.0    1833.4   2.96E+03   1.15E+01   1.56E-02   1.41E-06   5.63E-08   5.89E-09
   1780.0    1838.5   2.96E+03   1.15E+01   1.56E-02   1.41E-06   5.63E-08   5.89E-09
   1780.0    1838.5   2.92E+03   1.10E+01   1.53E-02   1.37E-06   5.47E-08   5.83E-09
   1785.0    1843.6   2.92E+03   1.10E+01   1.53E-02   1.37E-06   5.47E-08   5.83E-09
   1785.0    1843.6   2.88E+03   1.06E+01   1.51E-02   1.34E-06   5.32E-08   5.83E-09
   1790.0    1848.7   2.88E+03   1.06E+01   1.51E-02   1.34E-06   5.32E-08   5.83E-09
   1790.0    1848.7   2.84E+03   1.02E+01   1.49E-02   1.31E-06   5.18E-08   5.86E-09
   1795.0    1853.8   2.84E+03   1.02E+01   1.49E-02   1.31E-06   5.18E-08   5.86E-09
   1795.0    1853.8   2.80E+03   9.73E+00   1.47E-02   1.28E-06   5.04E-08   5.86E-09
   1800.0    1858.9   2.80E+03   9.73E+00   1.47E-02   1.28E-06   5.04E-08   5.86E-09
   1800.0    1858.9   2.76E+03   9.34E+00   1.45E-02   1.25E-06   4.92E-08   5.86E-09
   1805.0    1864.0   2.76E+03   9.34E+00   1.45E-02   1.25E-06   4.92E-08   5.86E-09
   1805.0    1864.0   2.72E+03   8.97E+00   1.44E-02   1.23E-06   4.80E-08   5.82E-09
   1810.0    1869.2   2.72E+03   8.97E+00   1.44E-02   1.23E-06   4.80E-08   5.82E-09
   1810.0    1869.2   2.68E+03   8.65E+00   1.42E-02   1.21E-06   4.70E-08   5.76E-09
   1815.0    1874.3   2.68E+03   8.65E+00   1.42E-02   1.21E-06   4.70E-08   5.76E-09
   1815.0    1874.3   2.64E+03   8.30E+00   1.40E-02   1.19E-06   4.58E-08   5.65E-09
   1820.0    1879.4   2.64E+03   8.30E+00   1.40E-02   1.19E-06   4.58E-08   5.65E-09
   1820.0    1879.4   2.60E+03   7.99E+00   1.37E-02   1.18E-06   4.47E-08   5.52E-09
   1825.0    1884.5   2.60E+03   7.99E+00   1.37E-02   1.18E-06   4.47E-08   5.52E-09
   1825.0    1884.5   2.57E+03   7.70E+00   1.34E-02   1.16E-06   4.38E-08   5.38E-09
   1830.0    1889.6   2.57E+03   7.70E+00   1.34E-02   1.16E-06   4.38E-08   5.38E-09
   1830.0    1889.6   2.53E+03   7.41E+00   1.30E-02   1.14E-06   4.30E-08   5.26E-09
   1835.0    1894.7   2.53E+03   7.41E+00   1.30E-02   1.14E-06   4.30E-08   5.26E-09
   1835.0    1894.7   2.50E+03   7.15E+00   1.27E-02   1.13E-06   4.33E-08   5.20E-09
   1840.0    1899.8   2.50E+03   7.15E+00   1.27E-02   1.13E-06   4.33E-08   5.20E-09
   1840.0    1899.8   2.46E+03   6.90E+00   1.23E-02   1.12E-06   4.32E-08   5.10E-09
   1845.0    1904.9   2.46E+03   6.90E+00   1.23E-02   1.12E-06   4.32E-08   5.10E-09
   1845.0    1904.9   2.43E+03   6.67E+00   1.19E-02   1.11E-06   4.30E-08   4.98E-09
   1850.0    1910.0   2.43E+03   6.67E+00   1.19E-02   1.11E-06   4.30E-08   4.98E-09
   1850.0    1910.0   2.40E+03   6.45E+00   1.16E-02   1.09E-06   4.27E-08   4.84E-09
   1855.0    1915.1   2.40E+03   6.45E+00   1.16E-02   1.09E-06   4.27E-08   4.84E-09
   1855.0    1915.1   2.36E+03   6.26E+00   1.12E-02   1.08E-06   4.24E-08   4.70E-09
   1860.0    1920.2   2.36E+03   6.26E+00   1.12E-02   1.08E-06   4.24E-08   4.70E-09
   1860.0    1920.2   2.33E+03   6.07E+00   1.08E-02   1.07E-06   4.21E-08   4.58E-09
   1865.0    1925.3   2.33E+03   6.07E+00   1.08E-02   1.07E-06   4.21E-08   4.58E-09
   1865.0    1925.3   2.30E+03   5.90E+00   1.05E-02   1.07E-06   4.26E-08   4.51E-09
   1870.0    1930.4   2.30E+03   5.90E+00   1.05E-02   1.07E-06   4.26E-08   4.51E-09
   1870.0    1930.4   2.27E+03   5.75E+00   1.02E-02   1.07E-06   4.38E-08   4.52E-09
   1875.0    1935.5   2.27E+03   5.75E+00   1.02E-02   1.07E-06   4.38E-08   4.52E-09
   1875.0    1935.5   2.24E+03   5.60E+00   9.91E-03   1.07E-06   4.46E-08   4.51E-09
   1880.0    1940.6   2.24E+03   5.60E+00   9.91E-03   1.07E-06   4.46E-08   4.51E-09
   1880.0    1940.6   2.21E+03   5.48E+00   9.66E-03   1.07E-06   4.53E-08   4.51E-09
   1885.0    1945.7   2.21E+03   5.48E+00   9.66E-03   1.07E-06   4.53E-08   4.51E-09
   1885.0    1945.7   2.18E+03   5.37E+00   9.42E-03   1.07E-06   4.59E-08   4.51E-09
   1890.0    1950.8   2.18E+03   5.37E+00   9.42E-03   1.07E-06   4.59E-08   4.51E-09
   1890.0    1950.8   2.15E+03   5.27E+00   9.18E-03   1.06E-06   4.63E-08   4.54E-09
   1895.0    1955.9   2.15E+03   5.27E+00   9.18E-03   1.06E-06   4.63E-08   4.54E-09
   1895.0    1955.9   2.12E+03   5.19E+00   8.94E-03   1.06E-06   4.66E-08   4.56E-09
   1900.0    1961.0   2.12E+03   5.19E+00   8.94E-03   1.06E-06   4.66E-08   4.56E-09
   1900.0    1961.0   2.10E+03   5.11E+00   8.62E-03   1.03E-06   4.43E-08   4.40E-09
   1905.0    1966.1   2.10E+03   5.11E+00   8.62E-03   1.03E-06   4.43E-08   4.40E-09
   1905.0    1966.1   2.07E+03   5.03E+00   8.32E-03   1.00E-06   4.25E-08   4.27E-09
   1910.0    1971.2   2.07E+03   5.03E+00   8.32E-03   1.00E-06   4.25E-08   4.27E-09
   1910.0    1971.2   2.04E+03   4.96E+00   8.05E-03   9.80E-07   4.09E-08   4.19E-09
   1915.0    1976.3   2.04E+03   4.96E+00   8.05E-03   9.80E-07   4.09E-08   4.19E-09
   1915.0    1976.3   2.02E+03   4.90E+00   7.79E-03   9.65E-07   3.97E-08   4.14E-09
   1920.0    1981.4   2.02E+03   4.90E+00   7.79E-03   9.65E-07   3.97E-08   4.14E-09
   1920.0    1981.4   1.99E+03   4.84E+00   7.53E-03   9.51E-07   3.87E-08   4.09E-09
   1925.0    1986.5   1.99E+03   4.84E+00   7.53E-03   9.51E-07   3.87E-08   4.09E-09
   1925.0    1986.5   1.97E+03   4.79E+00   7.30E-03   9.39E-07   3.80E-08   4.06E-09
   1930.0    1991.6   1.97E+03   4.79E+00   7.30E-03   9.39E-07   3.80E-08   4.06E-09
   1930.0    1991.6   1.94E+03   4.73E+00   7.09E-03   9.29E-07   3.74E-08   4.04E-09
   1935.0    1996.7   1.94E+03   4.73E+00   7.09E-03   9.29E-07   3.74E-08   4.04E-09
   1935.0    1996.7   1.91E+03   4.67E+00   6.95E-03   9.21E-07   3.69E-08   4.02E-09
   1940.0    2001.8   1.91E+03   4.67E+00   6.95E-03   9.21E-07   3.69E-08   4.02E-09
   1940.0    2001.8   1.89E+03   4.63E+00   6.79E-03   9.13E-07   3.64E-08   4.00E-09
   1945.0    2006.9   1.89E+03   4.63E+00   6.79E-03   9.13E-07   3.64E-08   4.00E-09
   1945.0    2006.9   1.87E+03   4.59E+00   6.62E-03   9.05E-07   3.60E-08   3.98E-09
   1950.0    2012.0   1.87E+03   4.59E+00   6.62E-03   9.05E-07   3.60E-08   3.98E-09
   1950.0    2012.0   1.84E+03   4.55E+00   6.43E-03   8.98E-07   3.55E-08   3.97E-09
   1955.0    2017.1   1.84E+03   4.55E+00   6.43E-03   8.98E-07   3.55E-08   3.97E-09
   1955.0    2017.1   1.82E+03   4.51E+00   6.24E-03   8.91E-07   3.51E-08   3.95E-09
   1960.0    2022.2   1.82E+03   4.51E+00   6.24E-03   8.91E-07   3.51E-08   3.95E-09
   1960.0    2022.2   1.80E+03   4.48E+00   6.07E-03   8.84E-07   3.47E-08   3.95E-09
   1965.0    2027.3   1.80E+03   4.48E+00   6.07E-03   8.84E-07   3.47E-08   3.95E-09
   1965.0    2027.3   1.78E+03   4.44E+00   5.90E-03   8.79E-07   3.42E-08   3.97E-09
   1970.0    2032.4   1.78E+03   4.44E+00   5.90E-03   8.79E-07   3.42E-08   3.97E-09
   1970.0    2032.4   1.75E+03   4.39E+00   5.74E-03   8.75E-07   3.38E-08   4.01E-09
   1975.0    2037.5   1.75E+03   4.39E+00   5.74E-03   8.75E-07   3.38E-08   4.01E-09
   1975.0    2037.5   1.73E+03   4.35E+00   5.60E-03   8.72E-07   3.34E-08   4.06E-09
   1980.0    2042.6   1.73E+03   4.35E+00   5.60E-03   8.72E-07   3.34E-08   4.06E-09
   1980.0    2042.6   1.71E+03   4.32E+00   5.47E-03   8.68E-07   3.31E-08   4.10E-09
   1985.0    2047.7   1.71E+03   4.32E+00   5.47E-03   8.68E-07   3.31E-08   4.10E-09
   1985.0    2047.7   1.69E+03   4.29E+00   5.35E-03   8.64E-07   3.28E-08   4.13E-09
   1990.0    2052.8   1.69E+03   4.29E+00   5.35E-03   8.64E-07   3.28E-08   4.13E-09
   1990.0    2052.8   1.67E+03   4.26E+00   5.24E-03   8.60E-07   3.25E-08   4.16E-09
   1995.0    2057.9   1.67E+03   4.26E+00   5.24E-03   8.60E-07   3.25E-08   4.16E-09
   1995.0    2057.9   1.65E+03   4.24E+00   5.14E-03   8.57E-07   3.22E-08   4.18E-09
   2000.0    2063.0   1.65E+03   4.24E+00   5.14E-03   8.57E-07   3.22E-08   4.18E-09
