   1.0000000000000006E-005   181.99999999999994     
   1.1220184543019630E-005   128.44426510988677     
   1.2589254117941661E-005   90.542984742038811     
   1.4125375446227555E-005   63.752012176754690     
   1.5848931924611141E-005   44.836760923054598     
   1.7782794100389229E-005   31.497642717516023     
   1.9952623149688786E-005   22.101797940463456     
   2.2387211385683379E-005   15.491202434485652     
   2.5118864315095822E-005   10.845582206303222     
   2.8183829312644549E-005   7.5846068004585234     
   3.1622776601683795E-005   5.2981954330802665     
   3.5481338923357534E-005   3.6969180368036785     
   3.9810717055349695E-005   2.5767415377139651     
   4.4668359215096348E-005   1.7940036656217073     
   5.0118723362727251E-005   1.2476692395437856     
   5.6234132519034907E-005  0.86676532119555261     
   6.3095734448019293E-005  0.60149461902820789     
   7.0794578438413731E-005  0.41695805591288726     
   7.9432823472428221E-005  0.28872582966327648     
   8.9125093813374588E-005  0.19971643082160412     
   1.0000000000000005E-004  0.13800000000000001     
   1.1220184543019630E-004   9.5366202335072689E-002
   1.2589254117941674E-004   6.5971925892626473E-002
   1.4125375446227541E-004   4.5667224947261401E-002
   1.5848931924611142E-004   3.1620037442651745E-002
   1.7782794100389227E-004   2.1890916805907108E-002
   1.9952623149688788E-004   1.5147496022803101E-002
   2.2387211385683400E-004   1.0471878227912184E-002
   2.5118864315095795E-004   7.2301394339864961E-003
   2.8183829312644550E-004   4.9835478084528408E-003
   3.1622776601683794E-004   3.4279301617290273E-003
   3.5481338923357532E-004   2.3521130722808144E-003
   3.9810717055349735E-004   1.6093438075273066E-003
   4.4668359215096305E-004   1.0975779962547967E-003
   5.0118723362727253E-004   7.4584637811277632E-004
   5.6234132519034910E-004   5.0480346398743263E-004
   6.3095734448019298E-004   3.4016194756382500E-004
   7.0794578438413802E-004   2.2812406803157851E-004
   7.9432823472428131E-004   1.5219836062686846E-004
   8.9125093813374593E-004   1.0097964600516399E-004
   1.0000000000000002E-003   6.6600000000000060E-005
   1.1220184543019630E-003   4.3071048484529490E-005
   1.2589254117941675E-003   2.7029448142680820E-005
   1.4125375446227540E-003   1.6534231449304165E-005
   1.5848931924611141E-003   9.9033134325590241E-006
   1.7782794100389228E-003   5.8341997302474696E-006
   1.9952623149688789E-003   3.3957905625000633E-006
   2.2387211385683399E-003   1.9616156413358099E-006
   2.5118864315095794E-003   1.1296786683273861E-006
   2.8183829312644548E-003   6.5150613966635834E-007
   3.1622776601683794E-003   3.7797166939147958E-007
   3.5481338923357532E-003   2.2158059033780431E-007
   3.9810717055349734E-003   1.3185314419438758E-007
   4.4668359215096305E-003   8.0000030766117403E-008
   5.0118723362727246E-003   4.9714752821850908E-008
   5.6234132519034910E-003   3.1785603442068408E-008
   6.3095734448019303E-003   2.1002948233657148E-008
   7.0794578438413804E-003   1.4407521183465664E-008
   7.9432823472428138E-003   1.0306520092499345E-008
   8.9125093813374589E-003   7.7233053091538342E-009
   1.0000000000000002E-002   6.0899999999999970E-009
   1.1220184543019630E-002   4.9616351371576160E-009
   1.2589254117941675E-002   4.0870647977219508E-009
   1.4125375446227540E-002   3.4017688613809369E-009
   1.5848931924611141E-002   2.8591179476606899E-009
   1.7782794100389229E-002   2.4250502755277012E-009
   1.9952623149688788E-002   2.0744273941293357E-009
   2.2387211385683399E-002   1.7885124225474761E-009
   2.5118864315095794E-002   1.5532069510935683E-009
   2.8183829312644550E-002   1.3578060673761454E-009
   3.1622776601683791E-002   1.1941108160156865E-009
   3.5481338923357530E-002   1.0557896479819659E-009
   3.9810717055349734E-002   9.3791495244105346E-010
   4.4668359215096300E-002   8.3662381911007889E-010
   5.0118723362727248E-002   7.4886771613059354E-010
   5.6234132519034911E-002   6.7222633522662027E-010
   6.3095734448019303E-002   6.0476810616596981E-010
   7.0794578438413802E-002   5.4494489995271483E-010
   7.9432823472428138E-002   4.9151194145891907E-010
   8.9125093813374592E-002   4.4346641571789927E-010
  0.10000000000000001        4.0000000000000012E-010
  0.11220184543019630        3.6091848226199790E-010
  0.12589254117941662        3.2613284449456018E-010
  0.14125375446227553        2.9515989208415250E-010
  0.15848931924611143        2.6757075231861654E-010
  0.17782794100389229        2.4298503812394867E-010
  0.19952623149688789        2.2106557857976325E-010
  0.22387211385683378        2.0151367406897947E-010
  0.25118864315095824        1.8406483444967802E-010
  0.28183829312644548        1.6848495982444019E-010
  0.31622776601683794        1.5456692515064597E-010
  0.35481338923357530        1.4212753194030155E-010
  0.39810717055349693        1.3100479252245176E-010
  0.44668359215096348        1.2105551469096478E-010
  0.50118723362727247        1.1215315696091687E-010
  0.56234132519034907        1.0418592705062990E-010
  0.63095734448019303        9.7055098550361143E-011
  0.70794578438413736        9.0673523001464000E-011
  0.79432823472428216        8.4964316770083702E-011
  0.89125093813374590        7.9859704143672167E-011
   1.0000000000000000        7.5300000000000079E-011
