   1.0000000000000006E-005   144.99999999999997     
   1.1220184543019630E-005   101.24898702953280     
   1.2589254117941661E-005   70.645919370062941     
   1.4125375446227555E-005   49.255886241321811     
   1.5848931924611141E-005   34.316643871454687     
   1.7782794100389229E-005   23.890654295350600     
   1.9952623149688786E-005   16.619915000218910     
   2.2387211385683379E-005   11.553352467323174     
   2.5118864315095822E-005   8.0253996712546662     
   2.8183829312644549E-005   5.5706476688409108     
   3.1622776601683795E-005   3.8639014317702727     
   3.5481338923357534E-005   2.6781115685178403     
   3.9810717055349695E-005   1.8548744655172063     
   4.4668359215096348E-005   1.2837621374620209     
   5.0118723362727251E-005  0.88785028335146798     
   5.6234132519034907E-005  0.61359385211463779     
   6.3095734448019293E-005  0.42374959935983247     
   7.0794578438413731E-005  0.29243247023532454     
   7.9432823472428221E-005  0.20166513822946222     
   8.9125093813374588E-005  0.13897156854336687     
   1.0000000000000005E-004   9.5700000000000007E-002
   1.1220184543019630E-004   6.5931141783151292E-002
   1.2589254117941674E-004   4.5483685556841832E-002
   1.4125375446227541E-004   3.1408403595030332E-002
   1.5848931924611142E-004   2.1702012564822300E-002
   1.7782794100389227E-004   1.4998812005416310E-002
   1.9952623149688788E-004   1.0364663018904706E-002
   2.2387211385683400E-004   7.1586932895666682E-003
   2.5118864315095795E-004   4.9400499380941485E-003
   2.8183829312644550E-004   3.4047615932427202E-003
   3.1622776601683794E-004   2.3428184233047120E-003
   3.5481338923357532E-004   1.6088882468284530E-003
   3.9810717055349735E-004   1.1022680602904096E-003
   4.4668359215096305E-004   7.5311523559435875E-004
   5.0118723362727253E-004   5.1296446387612076E-004
   5.6234132519034910E-004   3.4817976916422000E-004
   6.3095734448019298E-004   2.3542303975714561E-004
   7.0794578438413802E-004   1.5851207098018281E-004
   7.9432823472428131E-004   1.0623862343861582E-004
   8.9125093813374593E-004   7.0851331662291912E-005
   1.0000000000000002E-003   4.6999999999999957E-005
   1.1220184543019630E-003   3.0628050866470872E-005
   1.2589254117941675E-003   1.9422468728998728E-005
   1.4125375446227540E-003   1.2035069424939402E-005
   1.5848931924611141E-003   7.3172416035144576E-006
   1.7782794100389228E-003   4.3832510401880323E-006
   1.9952623149688789E-003   2.5977118584930746E-006
   2.2387211385683399E-003   1.5294201948532804E-006
   2.5118864315095794E-003   8.9825450382363542E-007
   2.8183829312644548E-003   5.2845042832207746E-007
   3.1622776601683794E-003   3.1270649462179464E-007
   3.5481338923357532E-003   1.8689293000622616E-007
   3.9810717055349734E-003   1.1328377090253537E-007
   4.4668359215096305E-003   6.9928933142427887E-008
   5.0118723362727246E-003   4.4142407700064002E-008
   5.6234132519034910E-003   2.8612813920628549E-008
   6.3095734448019303E-003   1.9123443171499093E-008
   7.0794578438413804E-003   1.3233298328587517E-008
   7.9432823472428138E-003   9.5205522267585740E-009
   8.9125093813374589E-003   7.1506204653518836E-009
   1.0000000000000002E-002   5.6299999999999998E-009
   1.1220184543019630E-002   4.5706464425855962E-009
   1.2589254117941675E-002   3.7514084541576111E-009
   1.4125375446227540E-002   3.1109014622183280E-009
   1.5848931924611141E-002   2.6048398145555575E-009
   1.7782794100389229E-002   2.2009305476205218E-009
   1.9952623149688788E-002   1.8753826418815943E-009
   2.2387211385683399E-002   1.6104949563121417E-009
   2.5118864315095794E-002   1.3929722216558708E-009
   2.8183829312644550E-002   1.2127375893864199E-009
   3.1622776601683791E-002   1.0620872726940448E-009
   3.5481338923357530E-002   9.3508316742163078E-010
   3.9810717055349734E-002   8.2711258588698028E-010
   4.4668359215096300E-002   7.3456640354063005E-010
   5.0118723362727248E-002   6.5460183990757500E-010
   5.6234132519034911E-002   5.8496623214272623E-010
   6.3095734448019303E-002   5.2386510742212047E-010
   7.0794578438413802E-002   4.6986266374387294E-010
   7.9432823472428138E-002   4.2180611754540274E-010
   8.9125093813374592E-002   3.7876773086674347E-010
  0.10000000000000001        3.4000000000000017E-010
  0.11220184543019630        3.0530314434406834E-010
  0.12589254117941662        2.7456042640952663E-010
  0.14125375446227553        2.4730766301767307E-010
  0.15848931924611143        2.2313558804634368E-010
  0.17782794100389229        2.0168351942573998E-010
  0.19952623149688789        1.8263371283172226E-010
  0.22387211385683378        1.6570633743509482E-010
  0.25118864315095824        1.5065501317936634E-010
  0.28183829312644548        1.3726285334535996E-010
  0.31622776601683794        1.2533896049267071E-010
  0.35481338923357530        1.1471532814828072E-010
  0.39810717055349693        1.0524410476907264E-010
  0.44668359215096348        9.6795180485173871E-011
  0.50118723362727247        8.9254060899243017E-011
  0.56234132519034907        8.2519995750637229E-011
  0.63095734448019303        7.6504333541031317E-011
  0.70794578438413736        7.1129076256146261E-011
  0.79432823472428216        6.6325611109677672E-011
  0.89125093813374590        6.2033598788101564E-011
   1.0000000000000000        5.8200000000000074E-011
