   1.0000000000000006E-005   152.00000000000003     
   1.1220184543019630E-005   106.40802465546554     
   1.2589254117941661E-005   74.429187686062349     
   1.4125375446227555E-005   52.017736733002160     
   1.5848931924611141E-005   36.324535602696926     
   1.7782794100389229E-005   25.344883798108093     
   1.9952623149688786E-005   17.669461888934663     
   2.2387211385683379E-005   12.308363065456229     
   2.5118864315095822E-005   8.5668743832357688     
   2.8183829312644549E-005   5.9578668788683533     
   3.1622776601683795E-005   4.1400602132817834     
   3.5481338923357534E-005   2.8745585309068828     
   3.9810717055349695E-005   1.9942769091279242     
   4.4668359215096348E-005   1.3824541669653037     
   5.0118723362727251E-005  0.95756479215285284     
   5.6234132519034907E-005  0.66273348444898850     
   6.3095734448019293E-005  0.45831507755122564     
   7.0794578438413731E-005  0.31669778998970610     
   7.9432823472428221E-005  0.21866674877088235     
   8.9125093813374588E-005  0.15086151331052836     
   1.0000000000000005E-004  0.10400000000000001     
   1.1220184543019630E-004   7.1729895454209117E-002
   1.2589254117941674E-004   4.9546436871482691E-002
   1.4125375446227541E-004   3.4260371620130646E-002
   1.5848931924611142E-004   2.3706157402840395E-002
   1.7782794100389227E-004   1.6407474995911418E-002
   1.9952623149688788E-004   1.1354182545772029E-002
   2.2387211385683400E-004   7.8528186449467654E-003
   2.5118864315095795E-004   5.4259136563627507E-003
   2.8183829312644550E-004   3.7438621086469527E-003
   3.1622776601683794E-004   2.5786268904163297E-003
   3.5481338923357532E-004   1.7721517449052378E-003
   3.9810717055349735E-004   1.2147281157065704E-003
   4.4668359215096305E-004   8.3012803058681039E-004
   5.0118723362727253E-004   5.6535460322191264E-004
   5.6234132519034910E-004   3.8355591615108663E-004
   6.3095734448019298E-004   2.5911370200016448E-004
   7.0794578438413802E-004   1.7423205265489370E-004
   7.9432823472428131E-004   1.1656381376706063E-004
   8.9125093813374593E-004   7.7556732804532727E-005
   1.0000000000000002E-003   5.1300000000000048E-005
   1.1220184543019630E-003   3.3282000306664949E-005
   1.2589254117941675E-003   2.0963195056751139E-005
   1.4125375446227540E-003   1.2876509070116538E-005
   1.5848931924611141E-003   7.7476147316518286E-006
   1.7782794100389228E-003   4.5867357208549430E-006
   1.9952623149688789E-003   2.6837487173449921E-006
   2.2387211385683399E-003   1.5589027415292572E-006
   2.5118864315095794E-003   9.0296691550397224E-007
   2.8183829312644548E-003   5.2388614098598964E-007
   3.1622776601683794E-003   3.0580940874348929E-007
   3.5481338923357532E-003   1.8040569626597935E-007
   3.9810717055349734E-003   1.0803680361881517E-007
   4.4668359215096305E-003   6.5970821521020754E-008
   5.0118723362727246E-003   4.1259822075860188E-008
   5.6234132519034910E-003   2.6548177339980854E-008
   6.3095734448019303E-003   1.7652677116165899E-008
   7.0794578438413804E-003   1.2184046880922236E-008
   7.9432823472428138E-003   8.7682771574587895E-009
   8.9125093813374589E-003   6.6086889015547901E-009
   1.0000000000000002E-002   5.2399999999999927E-009
   1.1220184543019630E-002   4.2902737283114040E-009
   1.2589254117941675E-002   3.5486354909898604E-009
   1.4125375446227540E-002   2.9637411937919288E-009
   1.5848931924611141E-002   2.4980520121027689E-009
   1.7782794100389229E-002   2.1238547498185514E-009
   1.9952623149688788E-002   1.8204975683158663E-009
   2.2387211385683399E-002   1.5724511776147422E-009
   2.5118864315095794E-002   1.3679361701275949E-009
   2.8183829312644550E-002   1.1979423327485129E-009
   3.1622776601683791E-002   1.0555218498233465E-009
   3.5481338923357530E-002   9.3527559077955476E-010
   3.9810717055349734E-002   8.3297669168154764E-010
   4.4668359215096300E-002   7.4529257619389802E-010
   5.0118723362727248E-002   6.6957812765932342E-010
   5.6234132519034911E-002   6.0372068952548736E-010
   6.3095734448019303E-002   5.4602310187346482E-010
   7.0794578438413802E-002   4.9511485195008580E-010
   7.9432823472428138E-002   4.4988414549665538E-010
   8.9125093813374592E-002   4.0942564403407012E-010
  0.10000000000000001        3.7299999999999944E-010
  0.11220184543019630        3.4015366507163870E-010
  0.12589254117941662        3.1062258707694443E-010
  0.14125375446227553        2.8408034008486887E-010
  0.15848931924611143        2.6023056765732674E-010
  0.17782794100389229        2.3880484638510790E-010
  0.19952623149688789        2.1956058281424276E-010
  0.22387211385683378        2.0227897264896535E-010
  0.25118864315095824        1.8676304382390597E-010
  0.28183829312644548        1.7283579891132348E-010
  0.31622776601683794        1.6033846726063139E-010
  0.35481338923357530        1.4912887314465406E-010
  0.39810717055349693        1.3907992289843480E-010
  0.44668359215096348        1.3007821147533273E-010
  0.50118723362727247        1.2202274691218702E-010
  0.56234132519034907        1.1482378980030428E-010
  0.63095734448019303        1.0840180392196735E-010
  0.70794578438413736        1.0268651366389203E-010
  0.79432823472428216        9.7616063601406321E-011
  0.89125093813374590        9.3136275713169639E-011
   1.0000000000000000        8.9199999999999844E-011
