   1.0000000000000006E-005   3340.0000000000005     
   1.1220184543019630E-005   2381.7054551188471     
   1.2589254117941661E-005   1699.1260668401205     
   1.4125375446227555E-005   1212.7171880728922     
   1.5848931924611141E-005   865.94489246315516     
   1.7782794100389229E-005   618.61177342706867     
   1.9952623149688786E-005   442.12362708414412     
   2.2387211385683379E-005   316.13115383751347     
   2.5118864315095822E-005   226.14620827373096     
   2.8183829312644549E-005   161.84905901162691     
   3.1622776601683795E-005   115.88582420109479     
   3.5481338923357534E-005   83.013768270240902     
   3.9810717055349695E-005   59.493570621294346     
   4.4668359215096348E-005   42.657013411136347     
   5.0118723362727251E-005   30.599319842194308     
   5.6234132519034907E-005   21.960105907257937     
   6.3095734448019293E-005   15.767354401851373     
   7.0794578438413731E-005   11.326230166556787     
   7.9432823472428221E-005   8.1398144201148259     
   8.9125093813374588E-005   5.8525698226028107     
   1.0000000000000005E-004   4.2100000000000000     
   1.1220184543019630E-004   3.0373692815684277     
   1.2589254117941674E-004   2.2021251373881974     
   1.4125375446227541E-004   1.6031498241738582     
   1.5848931924611142E-004   1.1709888775638742     
   1.7782794100389227E-004  0.85750525674220979     
   1.9952623149688788E-004  0.62904975367906757     
   2.2387211385683400E-004  0.46190877045857764     
   2.5118864315095795E-004  0.33924171363051076     
   2.8183829312644550E-004  0.24900205880944110     
   3.1622776601683794E-004  0.18251396465368538     
   3.5481338923357532E-004  0.13348963747762374     
   3.9810717055349735E-004   9.7345554473740034E-002
   4.4668359215096305E-004   7.0722992637262158E-002
   5.0118723362727253E-004   5.1149323539352781E-002
   5.6234132519034910E-004   3.6797027698501024E-002
   6.3095734448019298E-004   2.6311038315188738E-002
   7.0794578438413802E-004   1.8684197882248118E-002
   7.9432823472428131E-004   1.3166822319025639E-002
   8.9125093813374593E-004   9.2006044303325103E-003
   1.0000000000000002E-003   6.3699999999999989E-003
   1.1220184543019630E-003   4.3181974249732252E-003
   1.2589254117941675E-003   2.8416651465311927E-003
   1.4125375446227540E-003   1.8227707839656244E-003
   1.5848931924611141E-003   1.1443565929655372E-003
   1.7782794100389228E-003   7.0606105776244957E-004
   1.9952623149688789E-003   4.2988878443323832E-004
   2.2387211385683399E-003   2.5934886420062860E-004
   2.5118864315095794E-003   1.5567123571709051E-004
   2.8183829312644548E-003   9.3348982649881781E-005
   3.1622776601683794E-003   5.6152540075878402E-005
   3.5481338923357532E-003   3.4022735716770160E-005
   3.9810717055349734E-003   2.0849251671366940E-005
   4.4668359215096305E-003   1.2975214131086452E-005
   5.0118723362727246E-003   8.2342267986757560E-006
   5.6234132519034910E-003   5.3505293629596064E-006
   6.3095734448019303E-003   3.5745199206119776E-006
   7.0794578438413804E-003   2.4652850477862643E-006
   7.9432823472428138E-003   1.7624890141961051E-006
   8.9125093813374589E-003   1.3115261664525016E-006
   1.0000000000000002E-002   1.0200000000000010E-006
   1.1220184543019630E-002   8.1727298478692287E-007
   1.2589254117941675E-002   6.6285223879949026E-007
   1.4125375446227540E-002   5.4372834952968909E-007
   1.5848931924611141E-002   4.5070870536232004E-007
   1.7782794100389229E-002   3.7721737480488622E-007
   1.9952623149688788E-002   3.1849473417286604E-007
   2.2387211385683399E-002   2.7105704779677957E-007
   2.5118864315095794E-002   2.3232721401203377E-007
   2.8183829312644550E-002   2.0037957522759068E-007
   3.1622776601683791E-002   1.7376162069319733E-007
   3.5481338923357530E-002   1.5136809978173134E-007
   3.9810717055349734E-002   1.3235123743087058E-007
   4.4668359215096300E-002   1.1605606826863896E-007
   5.0118723362727248E-002   1.0197341285587554E-007
   5.6234132519034911E-002   8.9705353656657519E-008
   6.3095734448019303E-002   7.8939638169975717E-008
   7.0794578438413802E-002   6.9430503405594797E-008
   7.9432823472428138E-002   6.0984148493434722E-008
   8.9125093813374592E-002   5.3447590983925586E-008
  0.10000000000000001        4.6699999999999962E-008
  0.11220184543019630        4.0755589584763293E-008
  0.12589254117941662        3.5611915345071268E-008
  0.14125375446227553        3.1156801529244322E-008
  0.15848931924611143        2.7294259576509410E-008
  0.17782794100389229        2.3942098444047138E-008
  0.19952623149688789        2.1029893953043699E-008
  0.22387211385683378        1.8497262501254574E-008
  0.25118864315095824        1.6292392887027375E-008
  0.28183829312644548        1.4370797089469804E-008
  0.31622776601683794        1.2694246852467448E-008
  0.35481338923357530        1.1229867996469273E-008
  0.39810717055349693        9.9493686749581429E-009
  0.44668359215096348        8.8283814236659654E-009
  0.50118723362727247        7.8459019224068171E-009
  0.56234132519034907        6.9838099885164026E-009
  0.63095734448019303        6.2264605204877659E-009
  0.70794578438413736        5.5603339722966464E-009
  0.79432823472428216        4.9737375153467136E-009
  0.89125093813374590        4.4565493800439733E-009
   1.0000000000000000        4.0000000000000011E-009
