   1.0000000000000006E-005   25500.000000000018     
   1.1220184543019630E-005   22098.043118219925     
   1.2589254117941661E-005   18984.397507352900     
   1.4125375446227555E-005   16172.873812217555     
   1.5848931924611141E-005   13666.048735196500     
   1.7782794100389229E-005   11457.295947070981     
   1.9952623149688786E-005   9532.8488565063290     
   2.2387211385683379E-005   7873.7696348081327     
   2.5118864315095822E-005   6457.7337216432588     
   2.8183829312644549E-005   5260.5724387722184     
   3.1622776601683795E-005   4257.5458256498550     
   3.5481338923357534E-005   3424.3419164396023     
   3.9810717055349695E-005   2737.8168288924621     
   4.4668359215096348E-005   2176.5023598427151     
   5.0118723362727251E-005   1720.9148966837527     
   5.6234132519034907E-005   1353.7022616125598     
   6.3095734448019293E-005   1059.6646212841247     
   7.0794578438413731E-005   825.68281607746837     
   7.9432823472428221E-005   640.58328093224645     
   8.9125093813374588E-005   494.96387794582955     
   1.0000000000000005E-004   381.00000000000011     
   1.1220184543019630E-004   290.55957959287821     
   1.2589254117941674E-004   218.42740142960616     
   1.4125375446227541E-004   162.01505889799128     
   1.5848931924611142E-004   118.68467244213215     
   1.7782794100389227E-004   85.948741515787134     
   1.9952623149688788E-004   61.589217715722967     
   2.2387211385683400E-004   43.712412749918528     
   2.5118864315095795E-004   30.757741254656004     
   2.8183829312644550E-004   21.476737814889276     
   3.1622776601683794E-004   14.895704643906205     
   3.5481338923357532E-004   10.271817524665474     
   3.9810717055349735E-004   7.0492301586984487     
   4.4668359215096305E-004   4.8190217060832365     
   5.0118723362727253E-004   3.2848346766285368     
   5.6234132519034910E-004   2.2347051954793904     
   6.3095734448019298E-004   1.5187758882847773     
   7.0794578438413802E-004   1.0321635715726911     
   7.9432823472428131E-004  0.70210066560084528     
   8.9125093813374593E-004  0.47847682919906526     
   1.0000000000000002E-003  0.32700000000000001     
   1.1220184543019630E-003  0.22167508254125687     
   1.2589254117941675E-003  0.14760817005119195     
   1.4125375446227540E-003   9.6798951647508555E-002
   1.5848931924611141E-003   6.2681589517568970E-002
   1.7782794100389228E-003   4.0184705231651942E-002
   1.9952623149688789E-003   2.5572627986931717E-002
   2.2387211385683399E-003   1.6196682611417507E-002
   2.5118864315095794E-003   1.0236589060643729E-002
   2.8183829312644548E-003   6.4729954560641678E-003
   3.1622776601683794E-003   4.1059959796321925E-003
   3.5481338923357532E-003   2.6196138107451136E-003
   3.9810717055349734E-003   1.6854035568682523E-003
   4.4668359215096305E-003   1.0963791633556502E-003
   5.0118723362727246E-003   7.2301985184725331E-004
   5.6234132519034910E-003   4.8463480561333110E-004
   6.3095734448019303E-003   3.3105203395480205E-004
   7.0794578438413804E-003   2.3106679948120741E-004
   7.9432823472428138E-003   1.6522692323888064E-004
   8.9125093813374589E-003   1.2135799986333839E-004
   1.0000000000000002E-002   9.1799999999999968E-005
   1.1220184543019630E-002   7.0803466378746419E-005
   1.2589254117941675E-002   5.5024870039648047E-005
   1.4125375446227540E-002   4.3082892798736089E-005
   1.5848931924611141E-002   3.3981353426895997E-005
   1.7782794100389229E-002   2.6996976759636813E-005
   1.9952623149688788E-002   2.1601151221578501E-005
   2.2387211385683399E-002   1.7405023957984515E-005
   2.5118864315095794E-002   1.4120724396037043E-005
   2.8183829312644550E-002   1.1533805157332202E-005
   3.1622776601683791E-002   9.4835335825684480E-006
   3.5481338923357530E-002   7.8487114672825593E-006
   3.9810717055349734E-002   6.5374111963980833E-006
   4.4668359215096300E-002   5.4795029065392499E-006
   5.0118723362727248E-002   4.6211822956635179E-006
   5.6234132519034911E-002   3.9209407495406242E-006
   6.3095734448019303E-002   3.3465811262218102E-006
   7.0794578438413802E-002   2.8729958179034977E-006
   7.9432823472428138E-002   2.4805035233055294E-006
   8.9125093813374592E-002   2.1535977074588592E-006
  0.10000000000000001        1.8799999999999989E-006
  0.11220184543019630        1.6470561394939122E-006
  0.12589254117941662        1.4457823381441196E-006
  0.14125375446227553        1.2718530642946409E-006
  0.15848931924611143        1.1215174417982037E-006
  0.17782794100389229        9.9152973390887241E-007
  0.19952623149688789        8.7908652754247592E-007
  0.22387211385683378        7.8177041487172365E-007
  0.25118864315095824        6.9749984522654654E-007
  0.28183829312644548        6.2448474065766129E-007
  0.31622776601683794        5.6118742358915168E-007
  0.35481338923357530        5.0628838649896195E-007
  0.39810717055349693        4.5865643468434258E-007
  0.44668359215096348        4.1732274832888081E-007
  0.50118723362727247        3.8145843485730466E-007
  0.56234132519034907        3.5035517349528439E-007
  0.63095734448019303        3.2340858842933095E-007
  0.70794578438413736        3.0010402307048725E-007
  0.79432823472428216        2.8000442432455219E-007
  0.89125093813374590        2.6274008159370430E-007
   1.0000000000000000        2.4799999999999984E-007
