   1.0000000000000006E-005   2.8399999999999999     
   1.1220184543019630E-005   2.2120310175956495     
   1.2589254117941661E-005   1.7152657610503095     
   1.4125375446227555E-005   1.3242536711140431     
   1.5848931924611141E-005   1.0179881916006950     
   1.7782794100389229E-005  0.77925268959115745     
   1.9952623149688786E-005  0.59403238391832436     
   2.2387211385683379E-005  0.45099362367562801     
   2.5118864315095822E-005  0.34102905211706636     
   2.8183829312644549E-005  0.25686520407200880     
   3.1622776601683795E-005  0.19272778325146139     
   3.5481338923357534E-005  0.14405911826056500     
   3.9810717055349695E-005  0.10728198051324453     
   4.4668359215096348E-005   7.9603954618767833E-002
   5.0118723362727251E-005   5.8856788676668395E-002
   5.6234132519034907E-005   4.3365540806583856E-002
   6.3095734448019293E-005   3.1842817155743289E-002
   7.0794578438413731E-005   2.3303917734160160E-002
   7.9432823472428221E-005   1.6999234309910287E-002
   8.9125093813374588E-005   1.2360754325987700E-002
   1.0000000000000005E-004   8.9600000000000009E-003
   1.1220184543019630E-004   6.4847359104690284E-003
   1.2589254117941674E-004   4.6907914180493535E-003
   1.4125375446227541E-004   3.3889363782635684E-003
   1.5848931924611142E-004   2.4436449131325227E-003
   1.7782794100389227E-004   1.7573735827974318E-003
   1.9952623149688788E-004   1.2596077493397086E-003
   2.2387211385683400E-004   8.9917808172388638E-004
   2.5118864315095795E-004   6.3883570517730569E-004
   2.8183829312644550E-004   4.5139802505654738E-004
   3.1622776601683794E-004   3.1699400945486579E-004
   3.5481338923357532E-004   2.2108399587270931E-004
   3.9810717055349735E-004   1.5302850267150499E-004
   4.4668359215096305E-004   1.0504854665091067E-004
   5.0118723362727253E-004   7.1466808263131144E-005
   5.6234132519034910E-004   4.8151438636471397E-005
   6.3095734448019298E-004   3.2106917539895950E-005
   7.0794578438413802E-004   2.1172217463203247E-005
   7.9432823472428131E-004   1.3797690229313682E-005
   8.9125093813374593E-004   8.8799939262419667E-006
   1.0000000000000002E-003   5.6399999999999985E-006
   1.1220184543019630E-003   3.4222405206733231E-006
   1.2589254117941675E-003   1.9340284495136033E-006
   1.4125375446227540E-003   1.0280320047943085E-006
   1.5848931924611141E-003   5.1905383575184060E-007
   1.7782794100389228E-003   2.5139157027621967E-007
   1.9952623149688789E-003   1.1794841181206981E-007
   2.2387211385683399E-003   5.4138610999926346E-008
   2.5118864315095794E-003   2.4550836277083989E-008
   2.8183829312644548E-003   1.1108110326804644E-008
   3.1622776601683794E-003   5.0640657608617187E-009
   3.5481338923357532E-003   2.3491691601221295E-009
   3.9810717055349734E-003   1.1198390070071243E-009
   4.4668359215096305E-003   5.5397961198831100E-010
   5.0118723362727246E-003   2.8720990088433900E-010
   5.6234132519034910E-003   1.5759520930131354E-010
   6.3095734448019303E-003   9.2426208689073367E-011
   7.0794578438413804E-003   5.8509492806659972E-011
   7.9432823472428138E-003   4.0374498390171573E-011
   8.9125093813374589E-003   3.0669599295357837E-011
   1.0000000000000002E-002   2.5900000000000006E-011
   1.1220184543019630E-002   2.3202911910690853E-011
   1.2589254117941675E-002   2.0903643642202202E-011
   1.4125375446227540E-002   1.8936374376185217E-011
   1.5848931924611141E-002   1.7247476694421105E-011
   1.7782794100389229E-002   1.5793077320512374E-011
   1.9952623149688788E-002   1.4537140139574178E-011
   2.2387211385683399E-002   1.3449953247896803E-011
   2.5118864315095794E-002   1.2506929909070820E-011
   2.8183829312644550E-002   1.1687654432519377E-011
   3.1622776601683791E-002   1.0975119948275284E-011
   3.5481338923357530E-002   1.0355117149369904E-011
   3.9810717055349734E-002   9.8157422824610221E-012
   4.4668359215096300E-002   9.3469997065807907E-012
   5.0118723362727248E-002   8.9404797420840957E-012
   5.6234132519034911E-002   8.5890966940853871E-012
   6.3095734448019303E-002   8.2868751539240822E-012
   7.0794578438413802E-002   8.0287751815663553E-012
   7.9432823472428138E-002   7.8105489195303468E-012
   8.9125093813374592E-002   7.6286227122025218E-012
  0.10000000000000001        7.4800000000000109E-012
  0.11220184543019630        7.3500147436265068E-012
  0.12589254117941662        7.2258133294341200E-012
  0.14125375446227553        7.1074937115991443E-012
  0.15848931924611143        6.9951455003997843E-012
  0.17782794100389229        6.8888518637905746E-012
  0.19952623149688789        6.7886914182491228E-012
  0.22387211385683378        6.6947401121743856E-012
  0.25118864315095824        6.6070731067825916E-012
  0.28183829312644548        6.5257666611086782E-012
  0.31622776601683794        6.4509000293950193E-012
  0.35481338923357530        6.3825573808601808E-012
  0.39810717055349693        6.3208297536119032E-012
  0.44668359215096348        6.2658170563313426E-012
  0.50118723362727247        6.2176301333414065E-012
  0.56234132519034907        6.1763929108200525E-012
  0.63095734448019303        6.1422446442727228E-012
  0.70794578438413736        6.1153422899830352E-012
  0.79432823472428216        6.0958630260785611E-012
  0.89125093813374590        6.0840069521372088E-012
   1.0000000000000000        6.0800000000000024E-012
