   1.0000000000000006E-005   285.00000000000000     
   1.1220184543019630E-005   210.33967349349970     
   1.2589254117941661E-005   154.81301094203920     
   1.4125375446227555E-005   113.63598965047046     
   1.5848931924611141E-005   83.187633987402535     
   1.7782794100389229E-005   60.736300008313869     
   1.9952623149688786E-005   44.227951990924879     
   2.2387211385683379E-005   32.123031160136009     
   2.5118864315095822E-005   23.271246858416287     
   2.8183829312644549E-005   16.815836844591814     
   3.1622776601683795E-005   12.120632053825561     
   3.5481338923357534E-005   8.7146962398368011     
   3.9810717055349695E-005   6.2504559247628260     
   4.4668359215096348E-005   4.4721447315150051     
   5.0118723362727251E-005   3.1921035125643855     
   5.6234132519034907E-005   2.2730411496039236     
   6.3095734448019293E-005   1.6148013315439078     
   7.0794578438413731E-005   1.1445232561812999     
   7.9432823472428221E-005  0.80934953166130219     
   8.9125093813374588E-005  0.57103909961270172     
   1.0000000000000005E-004  0.40200000000000002     
   1.1220184543019630E-004  0.28249930006874130     
   1.2589254117941674E-004  0.19822863746712860     
   1.4125375446227541E-004  0.13885908032522679     
   1.5848931924611142E-004   9.7082782381004651E-002
   1.7782794100389227E-004   6.7728484595792227E-002
   1.9952623149688788E-004   4.7137103081597714E-002
   2.2387211385683400E-004   3.2720352735019789E-002
   2.5118864315095795E-004   2.2648414051084739E-002
   2.8183829312644550E-004   1.5628723883548516E-002
   3.1622776601683794E-004   1.0749204280156530E-002
   3.5481338923357532E-004   7.3671135243934425E-003
   3.9810717055349735E-004   5.0302298298148156E-003
   4.4668359215096305E-004   3.4209670171666553E-003
   5.0118723362727253E-004   2.3167635443503117E-003
   5.6234132519034910E-004   1.5620231703103969E-003
   6.3095734448019298E-004   1.0482559650684638E-003
   7.0794578438413802E-004   7.0003941820171833E-004
   7.9432823472428131E-004   4.6510831358278197E-004
   8.9125093813374593E-004   3.0737131586273540E-004
   1.0000000000000002E-003   2.0200000000000006E-004
   1.1220184543019630E-003   1.3002987004512762E-004
   1.2589254117941675E-003   8.1024401168785978E-005
   1.4125375446227540E-003   4.9107641937367442E-005
   1.5848931924611141E-003   2.9088577728127392E-005
   1.7782794100389228E-003   1.6920596006944773E-005
   1.9952623149688789E-003   9.7119893004426536E-006
   2.2387211385683399E-003   5.5268758657636396E-006
   2.5118864315095794E-003   3.1333564906438745E-006
   2.8183829312644548E-003   1.7781897258606105E-006
   3.1622776601683794E-003   1.0149956507431667E-006
   3.5481338923357532E-003   5.8552800201050774E-007
   3.9810717055349734E-003   3.4301109482228640E-007
   4.4668359215096305E-003   2.0503371604783702E-007
   5.0118723362727246E-003   1.2565466654131332E-007
   5.6234132519034910E-003   7.9331888268327467E-008
   6.3095734448019303E-003   5.1845658921996187E-008
   7.0794578438413804E-003   3.5241310458458413E-008
   7.9432823472428138E-003   2.5034928262535214E-008
   8.9125093813374589E-003   1.8675614934151064E-008
   1.0000000000000002E-002   1.4700000000000013E-008
   1.1220184543019630E-002   1.1972515448556986E-008
   1.2589254117941675E-002   9.8588986657874260E-009
   1.4125375446227540E-002   8.2031787289728395E-009
   1.5848931924611141E-002   6.8925919571050620E-009
   1.7782794100389229E-002   5.8447432341712129E-009
   1.9952623149688788E-002   4.9988099670679716E-009
   2.2387211385683399E-002   4.3094514141821959E-009
   2.5118864315095794E-002   3.7425479308309957E-009
   2.8183829312644550E-002   3.2721908305077423E-009
   3.1622776601683791E-002   2.8785355322246212E-009
   3.5481338923357530E-002   2.5462564049482556E-009
   3.9810717055349734E-002   2.2634249132653565E-009
   4.4668359215096300E-002   2.0206882494578044E-009
   5.0118723362727248E-002   1.8106631215551534E-009
   5.6234132519034911E-002   1.6274848773590692E-009
   6.3095734448019303E-002   1.4664696586666123E-009
   7.0794578438413802E-002   1.3238594066042510E-009
   7.9432823472428138E-002   1.1966280046588148E-009
   8.9125093813374592E-002   1.0823328037057762E-009
  0.10000000000000001        9.7900000000000169E-010
  0.11220184543019630        8.8598504594102559E-010
  0.12589254117941662        8.0297262966051536E-010
  0.14125375446227553        7.2887389532819390E-010
  0.15848931924611143        6.6271684194342812E-010
  0.17782794100389229        6.0363474525400044E-010
  0.19952623149688789        5.5085553322237021E-010
  0.22387211385683378        5.0369207770626177E-010
  0.25118864315095824        4.6153335733195042E-010
  0.28183829312644548        4.2383644147374858E-010
  0.31622776601683794        3.9011924232325232E-010
  0.35481338923357530        3.5995398081192361E-010
  0.39810717055349693        3.3296131227533967E-010
  0.44668359215096348        3.0880505890766572E-010
  0.50118723362727247        2.8718749799165805E-010
  0.56234132519034907        2.6784515738912228E-010
  0.63095734448019303        2.5054507266607176E-010
  0.70794578438413736        2.3508146336739031E-010
  0.79432823472428216        2.2127278924018526E-010
  0.89125093813374590        2.0895915055188103E-010
   1.0000000000000000        1.9800000000000032E-010
