   1.0000000000000006E-005   14.699999999999998     
   1.1220184543019630E-005   11.355960259083425     
   1.2589254117941661E-005   8.7317171740783195     
   1.4125375446227555E-005   6.6831154045107031     
   1.5848931924611141E-005   5.0920891988779946     
   1.7782794100389229E-005   3.8626470269198854     
   1.9952623149688786E-005   2.9172944173058877     
   2.2387211385683379E-005   2.1938955733264272     
   2.5118864315095822E-005   1.6429575171699338     
   2.8183829312644549E-005   1.2253090581980222     
   3.1622776601683795E-005  0.91013982887923606     
   3.5481338923357534E-005  0.67336106195380596     
   3.9810717055349695E-005  0.49624885590766382     
   4.4668359215096348E-005  0.36433166260984745     
   5.0118723362727251E-005  0.26648601834451374     
   5.6234132519034907E-005  0.19420763189471166     
   6.3095734448019293E-005  0.14102845467359243     
   7.0794578438413731E-005  0.10205399934889876     
   7.9432823472428221E-005   7.3598739243317834E-002
   8.9125093813374588E-005   5.2900773575267297E-002
   1.0000000000000005E-004   3.7900000000000003E-002
   1.1220184543019630E-004   2.7097793021174967E-002
   1.2589254117941674E-004   1.9349834181992393E-002
   1.4125375446227541E-004   1.3791200933367572E-002
   1.5848931924611142E-004   9.8048585552588576E-003
   1.7782794100389227E-004   6.9490891768857962E-003
   1.9952623149688788E-004   4.9067579955464243E-003
   2.2387211385683400E-004   3.4496456882246508E-003
   2.5118864315095795E-004   2.4132390183395458E-003
   2.8183829312644550E-004   1.6788236467250883E-003
   3.1622776601683794E-004   1.1607043319967207E-003
   3.5481338923357532E-004   7.9704495635997484E-004
   3.9810717055349735E-004   5.4327736650370162E-004
   4.4668359215096305E-004   3.6734225266213313E-004
   5.0118723362727253E-004   2.4624279529293657E-004
   5.6234132519034910E-004   1.6354318515499313E-004
   6.3095734448019298E-004   1.0755003085466520E-004
   7.0794578438413802E-004   6.9989145586907381E-005
   7.9432823472428131E-004   4.5042844183870702E-005
   8.9125093813374593E-004   2.8650273885854905E-005
   1.0000000000000002E-003   1.8000000000000017E-005
   1.1220184543019630E-003   1.0830351167290806E-005
   1.2589254117941675E-003   6.0914878632157280E-006
   1.4125375446227540E-003   3.2329304794476198E-006
   1.5848931924611141E-003   1.6343415143674416E-006
   1.7782794100389228E-003   7.9440880696847358E-007
   1.9952623149688789E-003   3.7478431355494481E-007
   2.2387211385683399E-003   1.7323522506348978E-007
   2.5118864315095794E-003   7.9193543260840697E-008
   2.8183829312644548E-003   3.6142937072659172E-008
   3.1622776601683794E-003   1.6623349370040185E-008
   3.5481338923357532E-003   7.7777928769957419E-009
   3.9810717055349734E-003   3.7369586454858503E-009
   4.4668359215096305E-003   1.8611681567133376E-009
   5.0118723362727246E-003   9.6992837602394049E-010
   5.6234132519034910E-003   5.3390227752867675E-010
   6.3095734448019303E-003   3.1335257292761938E-010
   7.0794578438413804E-003   1.9794086616724332E-010
   7.9432823472428138E-003   1.3584689114508145E-010
   8.9125093813374589E-003   1.0224858454271061E-010
   1.0000000000000002E-002   8.5199999999999910E-011
   1.1220184543019630E-002   7.5185559672263361E-011
   1.2589254117941675E-002   6.6789720251330134E-011
   1.4125375446227540E-002   5.9716092227525444E-011
   1.5848931924611141E-002   5.3728649780452437E-011
   1.7782794100389229E-002   4.8638423191540379E-011
   1.9952623149688788E-002   4.4293325100818392E-011
   2.2387211385683399E-002   4.0570329994475324E-011
   2.5118864315095794E-002   3.7369430428974247E-011
   2.8183829312644550E-002   3.4608941896958958E-011
   3.1622776601683791E-002   3.2221836725775591E-011
   3.5481338923357530E-002   3.0152867134930084E-011
   3.9810717055349734E-002   2.8356296493232041E-011
   4.4668359215096300E-002   2.6794101571851811E-011
   5.0118723362727248E-002   2.5434541251055381E-011
   5.6234132519034911E-002   2.4251011639599775E-011
   6.3095734448019303E-002   2.3221126034681226E-011
   7.0794578438413802E-002   2.2325972138328949E-011
   7.9432823472428138E-002   2.1549509589831427E-011
   8.9125093813374592E-002   2.0878079009925352E-011
  0.10000000000000001        2.0299999999999984E-011
  0.11220184543019630        1.9776640222337713E-011
  0.12589254117941662        1.9276736655183855E-011
  0.14125375446227553        1.8800857890050083E-011
  0.15848931924611143        1.8349472937682083E-011
  0.17782794100389229        1.7922967669573359E-011
  0.19952623149688789        1.7521660952761296E-011
  0.22387211385683378        1.7145820456973769E-011
  0.25118864315095824        1.6795678141410884E-011
  0.28183829312644548        1.6471445455270948E-011
  0.31622776601683794        1.6173328311865508E-011
  0.35481338923357530        1.5901541921215257E-011
  0.39810717055349693        1.5656325590848367E-011
  0.44668359215096348        1.5437957629704257E-011
  0.50118723362727247        1.5246770516239467E-011
  0.56234132519034907        1.5083166519797983E-011
  0.63095734448019303        1.4947633994931029E-011
  0.70794578438413736        1.4840764602651646E-011
  0.79432823472428216        1.4763271751789705E-011
  0.89125093813374590        1.4716010599075144E-011
   1.0000000000000000        1.4700000000000011E-011
