   1.0000000000000006E-005   57.300000000000004     
   1.1220184543019630E-005   39.829234526267236     
   1.2589254117941661E-005   27.665257107035767     
   1.4125375446227555E-005   19.202322149286267     
   1.5848931924611141E-005   13.318642411467907     
   1.7782794100389229E-005   9.2311160300321085     
   1.9952623149688786E-005   6.3934810357546388     
   2.2387211385683379E-005   4.4249701982474692     
   2.5118864315095822E-005   3.0603704020529299     
   2.8183829312644549E-005   2.1150916324564575     
   3.1622776601683795E-005   1.4607530745833535     
   3.5481338923357534E-005   1.0081327788962200     
   3.9810717055349695E-005  0.69526896528158533     
   4.4668359215096348E-005  0.47916270850011794     
   5.0118723362727251E-005  0.32999633262477701     
   5.6234132519034907E-005  0.22710778833058343     
   6.3095734448019293E-005  0.15618978663552052     
   7.0794578438413731E-005  0.10734252361017348     
   7.9432823472428221E-005   7.3720863545612178E-002
   8.9125093813374588E-005   5.0595203379043593E-002
   1.0000000000000005E-004   3.4700000000000009E-002
   1.1220184543019630E-004   2.3861568547597460E-002
   1.2589254117941674E-004   1.6495250601786363E-002
   1.4125375446227541E-004   1.1451157847015571E-002
   1.5848931924611142E-004   7.9746306511494832E-003
   1.7782794100389227E-004   5.5652231911434242E-003
   1.9952623149688788E-004   3.8878147756353739E-003
   2.2387211385683400E-004   2.7159367759874440E-003
   2.5118864315095795E-004   1.8952434082314157E-003
   2.8183829312644550E-004   1.3197197676718629E-003
   3.1622776601683794E-004   9.1603058858779826E-004
   3.5481338923357532E-004   6.3312563225171063E-004
   3.9810717055349735E-004   4.3527289284915643E-004
   4.4668359215096305E-004   2.9734818452795321E-004
   5.0118723362727253E-004   2.0162345094756280E-004
   5.6234132519034910E-004   1.3555920660753573E-004
   6.3095734448019298E-004   9.0275385988488227E-005
   7.0794578438413802E-004   5.9484277323657624E-005
   7.9432823472428131E-004   3.8740717909130030E-005
   8.9125093813374593E-004   2.4911846382449918E-005
   1.0000000000000002E-003   1.5800000000000018E-005
   1.1220184543019630E-003   9.6412482679509410E-006
   1.2589254117941675E-003   5.5550208717688291E-006
   1.4125375446227540E-003   3.0465845312016558E-006
   1.5848931924611141E-003   1.6032998014934735E-006
   1.7782794100389228E-003   8.1618587223276149E-007
   1.9952623149688789E-003   4.0516796033192551E-007
   2.2387211385683399E-003   1.9772048383630840E-007
   2.5118864315095794E-003   9.5617556456921369E-008
   2.8183829312644548E-003   4.6194671589838866E-008
   3.1622776601683794E-003   2.2475701373991135E-008
   3.5481338923357532E-003   1.1101984283841939E-008
   3.9810717055349734E-003   5.6124541830666733E-009
   4.4668359215096305E-003   2.9273099858067754E-009
   5.0118723362727246E-003   1.5879878836968512E-009
   5.6234132519034910E-003   9.0320655113168892E-010
   6.3095734448019303E-003   5.4298428111197927E-010
   7.0794578438413804E-003   3.4781361581171852E-010
   7.9432823472428138E-003   2.3931168480590407E-010
   8.9125093813374589E-003   1.7829455983913763E-010
   1.0000000000000002E-002   1.4499999999999984E-010
   1.1220184543019630E-002   1.2405697062937183E-010
   1.2589254117941675E-002   1.0701754738972984E-010
   1.4125375446227540E-002   9.3057870652895349E-011
   1.5848931924611141E-002   8.1545343472783815E-011
   1.7782794100389229E-002   7.1990767453802217E-011
   1.9952623149688788E-002   6.4013218717248830E-011
   2.2387211385683399E-002   5.7314089066933706E-011
   2.5118864315095794E-002   5.1657767620029031E-011
   2.8183829312644550E-002   4.6857167078248585E-011
   3.1622776601683791E-002   4.2762808375085962E-011
   3.5481338923357530E-002   3.9254536150142575E-011
   3.9810717055349734E-002   3.6235191752359999E-011
   4.4668359215096300E-002   3.3625751884283676E-011
   5.0118723362727248E-002   3.1361571280227651E-011
   5.6234132519034911E-002   2.9389461967791830E-011
   6.3095734448019303E-002   2.7665410133694743E-011
   7.0794578438413802E-002   2.6152781710205995E-011
   7.9432823472428138E-002   2.4820904666900714E-011
   8.9125093813374592E-002   2.3643943283930227E-011
  0.10000000000000001        2.2600000000000014E-011
  0.11220184543019630        2.1639874116338899E-011
  0.12589254117941662        2.0728396758435636E-011
  0.14125375446227553        1.9866809525687860E-011
  0.15848931924611143        1.9055867137646927E-011
  0.17782794100389229        1.8295918536431836E-011
  0.19952623149688789        1.7586984215055639E-011
  0.22387211385683378        1.6928829245274370E-011
  0.25118864315095824        1.6321031779784568E-011
  0.28183829312644548        1.5763047067008357E-011
  0.31622776601683794        1.5254267245833832E-011
  0.35481338923357530        1.4794077387671483E-011
  0.39810717055349693        1.4381908430462651E-011
  0.44668359215096348        1.4017287811344963E-011
  0.50118723362727247        1.3699888760022639E-011
  0.56234132519034907        1.3429579373009391E-011
  0.63095734448019303        1.3206472760484206E-011
  0.70794578438413736        1.3030979754739437E-011
  0.79432823472428216        1.2903865906348838E-011
  0.89125093813374590        1.2826314788272247E-011
   1.0000000000000000        1.2800000000000012E-011
