   1.0000000000000006E-005   23.100000000000009     
   1.1220184543019630E-005   17.544925235063648     
   1.2589254117941661E-005   13.271095226359805     
   1.4125375446227555E-005   9.9977943055774094     
   1.5848931924611141E-005   7.5018833057894891     
   1.7782794100389229E-005   5.6070131285954670     
   1.9952623149688786E-005   4.1745963608922692     
   2.2387211385683379E-005   3.0963178940114839     
   2.5118864315095822E-005   2.2879746958281242     
   2.8183829312644549E-005   1.6844495184869730     
   3.1622776601683795E-005   1.2356411943107728     
   3.5481338923357534E-005  0.90319357430359004     
   3.9810717055349695E-005  0.65788482459685904     
   4.4668359215096348E-005  0.47755781198737352     
   5.0118723362727251E-005  0.34549007926114655     
   5.6234132519034907E-005  0.24911807399633501     
   6.3095734448019293E-005  0.17904467528660062     
   7.0794578438413731E-005  0.12827162143502868     
   7.9432823472428221E-005   9.1609233310902427E-002
   8.9125093813374588E-005   6.5224970058750525E-002
   1.0000000000000005E-004   4.6299999999999994E-002
   1.1220184543019630E-004   3.2814852383066570E-002
   1.2589254117941674E-004   2.3243996211599938E-002
   1.4125375446227541E-004   1.6444717858679753E-002
   1.5848931924611142E-004   1.1612928701290885E-002
   1.7782794100389227E-004   8.1805255867731432E-003
   1.9952623149688788E-004   5.7447241864962096E-003
   2.2387211385683400E-004   4.0191118925598998E-003
   2.5118864315095795E-004   2.7995508764691117E-003
   2.8183829312644550E-004   1.9402978233719007E-003
   3.1622776601683794E-004   1.3371945751964602E-003
   3.5481338923357532E-004   9.1578052929587269E-004
   3.9810717055349735E-004   6.2284962557375618E-004
   4.4668359215096305E-004   4.2043070389249270E-004
   5.0118723362727253E-004   2.8148124914328075E-004
   5.6234132519034910E-004   1.8679822905624842E-004
   6.3095734448019298E-004   1.2279726446263296E-004
   7.0794578438413802E-004   7.9913783926423103E-005
   7.9432823472428131E-004   5.1451279063391955E-005
   8.9125093813374593E-004   3.2751903565904727E-005
   1.0000000000000002E-003   2.0599999999999993E-005
   1.1220184543019630E-003   1.2439857195174573E-005
   1.2589254117941675E-003   7.0525990164670606E-006
   1.4125375446227540E-003   3.7870794085357123E-006
   1.5848931924611141E-003   1.9431970929100356E-006
   1.7782794100389228E-003   9.6121892464448941E-007
   1.9952623149688789E-003   4.6244127776732257E-007
   2.2387211385683399E-003   2.1830088212915898E-007
   2.5118864315095794E-003   1.0201283244486782E-007
   2.8183829312644548E-003   4.7609140175120314E-008
   3.1622776601683794E-003   2.2387102395897823E-008
   3.5481338923357532E-003   1.0700726099899585E-008
   3.9810717055349734E-003   5.2453228434681140E-009
   4.4668359215096305E-003   2.6601774782487930E-009
   5.0118723362727246E-003   1.4081995875073071E-009
   5.6234132519034910E-003   7.8499849511552538E-010
   6.3095734448019303E-003   4.6490074871245434E-010
   7.0794578438413804E-003   2.9510344275376430E-010
   7.9432823472428138E-003   2.0255674749152032E-010
   8.9125093813374589E-003   1.5167477548092674E-010
   1.0000000000000002E-002   1.2499999999999996E-010
   1.1220184543019630E-002   1.0881053603482109E-010
   1.2589254117941675E-002   9.5434080617670785E-011
   1.4125375446227540E-002   8.4314644250237473E-011
   1.5848931924611141E-002   7.5017894326576324E-011
   1.7782794100389229E-002   6.7202345926813795E-011
   1.9952623149688788E-002   6.0597829707410854E-011
   2.2387211385683399E-002   5.4989294201645290E-011
   2.5118864315095794E-002   5.0204543850767736E-011
   2.8183829312644550E-002   4.6104899184763661E-011
   3.1622776601683791E-002   4.2578039967248775E-011
   3.5481338923357530E-002   3.9532488886810311E-011
   3.9810717055349734E-002   3.6893335360726758E-011
   4.4668359215096300E-002   3.4598902095424895E-011
   5.0118723362727248E-002   3.2598132328661621E-011
   5.6234132519034911E-002   3.0848530978838982E-011
   6.3095734448019303E-002   2.9314533782330252E-011
   7.0794578438413802E-002   2.7966208852623447E-011
   7.9432823472428138E-002   2.6778217769416925E-011
   8.9125093813374592E-002   2.5728980335745286E-011
  0.10000000000000001        2.4800000000000033E-011
  0.11220184543019630        2.3944919747894678E-011
  0.12589254117941662        2.3129408324189869E-011
  0.14125375446227553        2.2354713572081516E-011
  0.15848931924611143        2.1621765961674325E-011
  0.17782794100389229        2.0931227468113050E-011
  0.19952623149688789        2.0283539035033662E-011
  0.22387211385683378        1.9678966362145809E-011
  0.25118864315095824        1.9117643896050808E-011
  0.28183829312644548        1.8599617031361817E-011
  0.31622776601683794        1.8124882646069568E-011
  0.35481338923357530        1.7693428202774830E-011
  0.39810717055349693        1.7305269748348057E-011
  0.44668359215096348        1.6960489241749683E-011
  0.50118723362727247        1.6659271736659898E-011
  0.56234132519034907        1.6401943046259152E-011
  0.63095734448019303        1.6189008626650523E-011
  0.70794578438413736        1.6021194538456084E-011
  0.79432823472428216        1.5899491489445882E-011
  0.89125093813374590        1.5825203132299437E-011
   1.0000000000000000        1.5800000000000016E-011
