   1.0000000000000006E-005   6.7999999999999998     
   1.1220184543019630E-005   5.2770389961313713     
   1.2589254117941661E-005   4.0761695048330697     
   1.4125375446227555E-005   3.1342167165611206     
   1.5848931924611141E-005   2.3991366130562244     
   1.7782794100389229E-005   1.8283713907255674     
   1.9952623149688786E-005   1.3873679327802177     
   2.2387211385683379E-005   1.0482647872358317     
   2.5118864315095822E-005  0.78874526822606050     
   2.8183829312644549E-005  0.59104871058656516     
   3.1622776601683795E-005  0.44112821168602873     
   3.5481338923357534E-005  0.32794103119133772     
   3.9810717055349695E-005  0.24285685240135690     
   4.4668359215096348E-005  0.17916903687168287     
   5.0118723362727251E-005  0.13169456839698490     
   5.6234132519034907E-005   9.6449368467310920E-002
   6.3095734448019293E-005   7.0386901560484175E-002
   7.0794578438413731E-005   5.1189343053139838E-002
   7.9432823472428221E-005   3.7101957732009326E-002
   8.9125093813374588E-005   2.6802664658385357E-002
   1.0000000000000005E-004   1.9300000000000005E-002
   1.1220184543019630E-004   1.3871096500074589E-002
   1.2589254117941674E-004   9.9587317215976013E-003
   1.4125375446227541E-004   7.1376593650894242E-003
   1.5848931924611142E-004   5.1036976352707014E-003
   1.7782794100389227E-004   3.6383977898541866E-003
   1.9952623149688788E-004   2.5843440704793855E-003
   2.2387211385683400E-004   1.8277811300205899E-003
   2.5118864315095795E-004   1.2863244823228725E-003
   2.8183829312644550E-004   9.0021897167266989E-004
   3.1622776601683794E-004   6.2608868569853377E-004
   3.5481338923357532E-004   4.3244652095410018E-004
   3.9810717055349735E-004   2.9645351654484402E-004
   4.4668359215096305E-004   2.0157062434517802E-004
   5.0118723362727253E-004   1.3585108164831459E-004
   5.6234132519034910E-004   9.0694922559731662E-005
   6.3095734448019298E-004   5.9938469762113514E-005
   7.0794578438413802E-004   3.9187713134109486E-005
   7.9432823472428131E-004   2.5329963887293292E-005
   8.9125093813374593E-004   1.6176270159076844E-005
   1.0000000000000002E-003   1.0200000000000009E-005
   1.1220184543019630E-003   6.1512971731677808E-006
   1.2589254117941675E-003   3.4604429338646577E-006
   1.4125375446227540E-003   1.8335562988660361E-006
   1.5848931924611141E-003   9.2396072299493284E-007
   1.7782794100389228E-003   4.4710404794625146E-007
   1.9952623149688789E-003   2.0977737816680631E-007
   2.2387211385683399E-003   9.6361331515459354E-008
   2.5118864315095794E-003   4.3756255317108181E-008
   2.8183829312644548E-003   1.9832152238524224E-008
   3.1622776601683794E-003   9.0592244567239012E-009
   3.5481338923357532E-003   4.2111701941895319E-009
   3.9810717055349734E-003   2.0114270985188242E-009
   4.4668359215096305E-003   9.9676930918679821E-010
   5.0118723362727246E-003   5.1745549615217417E-010
   5.6234132519034910E-003   2.8414398382210782E-010
   6.3095734448019303E-003   1.6664418695607464E-010
   7.0794578438413804E-003   1.0539675584411613E-010
   7.9432823472428138E-003   7.2585323557617262E-011
   8.9125093813374589E-003   5.4960923107760702E-011
   1.0000000000000002E-002   4.6200000000000071E-011
   1.1220184543019630E-002   4.1174419274338518E-011
   1.2589254117941675E-002   3.6914099980476651E-011
   1.4125375446227540E-002   3.3287864472718699E-011
   1.5848931924611141E-002   3.0189643755336275E-011
   1.7782794100389229E-002   2.7533283051120973E-011
   1.9952623149688788E-002   2.5248496541986691E-011
   2.2387211385683399E-002   2.3277702413036771E-011
   2.5118864315095794E-002   2.1573535392281156E-011
   2.8183829312644550E-002   2.0096883091440985E-011
   3.1622776601683791E-002   1.8815329138069199E-011
   3.5481338923357530E-002   1.7701913616696292E-011
   3.9810717055349734E-002   1.6734142085914846E-011
   4.4668359215096300E-002   1.5893190147438953E-011
   5.0118723362727248E-002   1.5163262487998794E-011
   5.6234132519034911E-002   1.4531074435997537E-011
   6.3095734448019303E-002   1.3985431068603923E-011
   7.0794578438413802E-002   1.3516884289298727E-011
   7.9432823472428138E-002   1.3117452457592698E-011
   8.9125093813374592E-002   1.2780390381724776E-011
  0.10000000000000001        1.2499999999999996E-011
  0.11220184543019630        1.2251736084273048E-011
  0.12589254117941662        1.2014543337257450E-011
  0.14125375446227553        1.1788626934507522E-011
  0.15848931924611143        1.1574168644518170E-011
  0.17782794100389229        1.1371331478506041E-011
  0.19952623149688789        1.1180264292501641E-011
  0.22387211385683378        1.1001106346748493E-011
  0.25118864315095824        1.0833991832455895E-011
  0.28183829312644548        1.0679054380915422E-011
  0.31622776601683794        1.0536431574923459E-011
  0.35481338923357530        1.0406269487424040E-011
  0.39810717055349693        1.0288727277384000E-011
  0.44668359215096348        1.0183981878222905E-011
  0.50118723362727247        1.0092232819759239E-011
  0.56234132519034907        1.0013707230720458E-011
  0.63095734448019303        9.9486650755418900E-012
  0.70794578438413736        9.8974046866091468E-012
  0.79432823472428216        9.8602686614700826E-012
  0.89125093813374590        9.8376502040696130E-012
   1.0000000000000000        9.8299999999999951E-012
