   1.0000000000000006E-005   24.499999999999996     
   1.1220184543019630E-005   18.490491965244139     
   1.2589254117941661E-005   13.900920045729338     
   1.4125375446227555E-005   10.410583007183570     
   1.5848931924611141E-005   7.7672398038538404     
   1.7782794100389229E-005   5.7735411058459496     
   1.9952623149688786E-005   4.2758791936795060     
   2.2387211385683379E-005   3.1552947622317000     
   2.5118864315095822E-005   2.3201150522134144     
   2.8183829312644549E-005   1.7000351919972070     
   3.1622776601683795E-005   1.2413916970056691     
   3.5481338923357534E-005  0.90341235400191400     
   3.9810717055349695E-005  0.65525932177065682     
   4.4668359215096348E-005  0.47371170336386842     
   5.0118723362727251E-005  0.34135987759620995     
   5.6234132519034907E-005  0.24520652170381463     
   6.3095734448019293E-005  0.17558866310140039     
   7.0794578438413731E-005  0.12535151001230524     
   7.9432823472428221E-005   8.9218525137289673E-002
   8.9125093813374588E-005   6.3313542125716077E-002
   1.0000000000000005E-004   4.4800000000000000E-002
   1.1220184543019630E-004   3.1657488767159132E-002
   1.2589254117941674E-004   2.2364798084183714E-002
   1.4125375446227541E-004   1.5785597552353623E-002
   1.5848931924611142E-004   1.1124539643410633E-002
   1.7782794100389227E-004   7.8224986762695393E-003
   1.9952623149688788E-004   5.4849014575372272E-003
   2.2387211385683400E-004   3.8323881904963890E-003
   2.5118864315095795E-004   2.6666433925742515E-003
   2.8183829312644550E-004   1.8465991326329040E-003
   3.1622776601683794E-004   1.2717741738704350E-003
   3.5481338923357532E-004   8.7055159686417127E-004
   3.9810717055349735E-004   5.9189357313404675E-004
   4.4668359215096305E-004   3.9946136076609895E-004
   5.0118723362727253E-004   2.6742710730616080E-004
   5.6234132519034910E-004   1.7748147329189873E-004
   6.3095734448019298E-004   1.1669037205957803E-004
   7.0794578438413802E-004   7.5957187728485661E-005
   7.9432823472428131E-004   4.8918376366196030E-005
   8.9125093813374593E-004   3.1150279533121691E-005
   1.0000000000000002E-003   1.9600000000000012E-005
   1.1220184543019630E-003   1.1847455491876508E-005
   1.2589254117941675E-003   6.7304679401843461E-006
   1.4125375446227540E-003   3.6248699024689607E-006
   1.5848931924611141E-003   1.8669917964083120E-006
   1.7782794100389228E-003   9.2762201452147789E-007
   1.9952623149688789E-003   4.4849144842342216E-007
   2.2387211385683399E-003   2.1284703246155133E-007
   2.5118864315095794E-003   1.0002007515938919E-007
   2.8183829312644548E-003   4.6944933509896771E-008
   3.1622776601683794E-003   2.2199750090458156E-008
   3.5481338923357532E-003   1.0669426571925793E-008
   3.9810717055349734E-003   5.2570673297885617E-009
   4.4668359215096305E-003   2.6787445306599866E-009
   5.0118723362727246E-003   1.4239022746895427E-009
   5.6234132519034910E-003   7.9646377789466791E-010
   6.3095734448019303E-003   4.7289493775143585E-010
   7.0794578438413804E-003   3.0064357094128226E-010
   7.9432823472428138E-003   2.0644464814991220E-010
   8.9125093813374589E-003   1.5445274046726202E-010
   1.0000000000000002E-002   1.2700000000000010E-010
   1.1220184543019630E-002   1.1022510284696224E-010
   1.2589254117941675E-002   9.6402793008953055E-011
   1.4125375446227540E-002   8.4942185915158503E-011
   1.5848931924611141E-002   7.5383164103800317E-011
   1.7782794100389229E-002   6.7365076181877807E-011
   1.9952623149688788E-002   6.0603424023221534E-011
   2.2387211385683399E-002   5.4872384504922814E-011
   2.5118864315095794E-002   4.9991620974008226E-011
   2.8183829312644550E-002   4.5816269007396263E-011
   3.1622776601683791E-002   4.2229285831501836E-011
   3.5481338923357530E-002   3.9135570555139768E-011
   3.9810717055349734E-002   3.6457418974176635E-011
   4.4668359215096300E-002   3.4130990017747191E-011
   5.0118723362727248E-002   3.2103543391140121E-011
   5.6234132519034911E-002   3.0331268373043304E-011
   6.3095734448019303E-002   2.8777568214163844E-011
   7.0794578438413802E-002   2.7411697539613195E-011
   7.9432823472428138E-002   2.6207674705622829E-011
   8.9125093813374592E-002   2.5143409447366185E-011
  0.10000000000000001        2.4200000000000040E-011
  0.11220184543019630        2.3331260506597146E-011
  0.12589254117941662        2.2503283890266041E-011
  0.14125375446227553        2.1717333902080191E-011
  0.15848931924611143        2.0974329462997085E-011
  0.17782794100389229        2.0274898274599780E-011
  0.19952623149688789        1.9619428728394153E-011
  0.22387211385683378        1.9008119808415297E-011
  0.25118864315095824        1.8441028844493547E-011
  0.28183829312644548        1.7918117120781924E-011
  0.31622776601683794        1.7439293477525554E-011
  0.35481338923357530        1.7004456165824128E-011
  0.39810717055349693        1.6613533328222157E-011
  0.44668359215096348        1.6266522585903503E-011
  0.50118723362727247        1.5963530320196243E-011
  0.56234132519034907        1.5704811346774676E-011
  0.63095734448019303        1.5490809800860573E-011
  0.70794578438413736        1.5322202187232050E-011
  0.79432823472428216        1.5199943707427733E-011
  0.89125093813374590        1.5125319167114090E-011
   1.0000000000000000        1.5099999999999979E-011
