   1.0000000000000006E-005   131.00000000000006     
   1.1220184543019630E-005   91.223019440004492     
   1.2589254117941661E-005   63.480657290602714     
   1.4125375446227555E-005   44.145149804312290     
   1.5848931924611141E-005   30.678206549501770     
   1.7782794100389229E-005   21.305077356936081     
   1.9952623149688786E-005   14.785745401258167     
   2.2387211385683379E-005   10.254419401371324     
   2.5118864315095822E-005   7.1070186638857598     
   2.8183829312644549E-005   4.9223574472941403     
   3.1622776601683795E-005   3.4069749085962697     
   3.5481338923357534E-005   2.3565442660467748     
   3.9810717055349695E-005   1.6288981592863609     
   4.4668359215096348E-005   1.1251870116994052     
   5.0118723362727251E-005  0.77672756774382312     
   5.6234132519034907E-005  0.53582965283486228     
   6.3095734448019293E-005  0.36940227628251793     
   7.0794578438413731E-005  0.25450010963079772     
   7.9432823472428221E-005  0.17522365989132213     
   8.9125093813374588E-005  0.12056317361018208     
   1.0000000000000005E-004   8.2900000000000001E-002
   1.1220184543019630E-004   5.7061633321540801E-002
   1.2589254117941674E-004   3.9369457998906190E-002
   1.4125375446227541E-004   2.7212400543828116E-002
   1.5848931924611142E-004   1.8833588101112207E-002
   1.7782794100389227E-004   1.3044417428879967E-002
   1.9952623149688788E-004   9.0366680124874272E-003
   2.2387211385683400E-004   6.2582167278632346E-003
   2.5118864315095795E-004   4.3303012989798217E-003
   2.8183829312644550E-004   2.9921095388723475E-003
   3.1622776601683794E-004   2.0634565664893107E-003
   3.5481338923357532E-004   1.4195093500367032E-003
   3.9810717055349735E-004   9.7358276711826915E-004
   4.4668359215096305E-004   6.6537396897329822E-004
   5.0118723362727253E-004   4.5288053459597037E-004
   5.6234132519034910E-004   3.0682661977468021E-004
   6.3095734448019298E-004   2.0680477492255261E-004
   7.0794578438413802E-004   1.3859668611135228E-004
   7.9432823472428131E-004   9.2307396308784532E-005
   8.9125093813374593E-004   6.1063000256661725E-005
   1.0000000000000002E-003   4.0099999999999985E-005
   1.1220184543019630E-003   2.5764293775204693E-005
   1.2589254117941675E-003   1.6019243962028737E-005
   1.4125375446227540E-003   9.6854798765668718E-006
   1.5848931924611141E-003   5.7221742324492838E-006
   1.7782794100389228E-003   3.3194587016895104E-006
   1.9952623149688789E-003   1.8999631259650547E-006
   2.2387211385683399E-003   1.0782022570833154E-006
   2.5118864315095794E-003   6.0959011288652721E-007
   2.8183829312644548E-003   3.4503540186649672E-007
   3.1622776601683794E-003   1.9646397087263341E-007
   3.5481338923357532E-003   1.1308399598688905E-007
   3.9810717055349734E-003   6.6118622334763676E-008
   4.4668359215096305E-003   3.9459930644877994E-008
   5.0118723362727246E-003   2.4154839900177709E-008
   5.6234132519034910E-003   1.5239572514708360E-008
   6.3095734448019303E-003   9.9578970909267576E-009
   7.0794578438413804E-003   6.7716446833331505E-009
   7.9432823472428138E-003   4.8156822271138658E-009
   8.9125093813374589E-003   3.5988526334854427E-009
   1.0000000000000002E-002   2.8399999999999960E-009
   1.1220184543019630E-002   2.3196807195315679E-009
   1.2589254117941675E-002   1.9152664554757055E-009
   1.4125375446227540E-002   1.5976023814413465E-009
   1.5848931924611141E-002   1.3455321951904823E-009
   1.7782794100389229E-002   1.1435437285504982E-009
   1.9952623149688788E-002   9.8014908241073353E-010
   2.2387211385683399E-002   8.4675850571693919E-010
   2.5118864315095794E-002   7.3688965120406955E-010
   2.8183829312644550E-002   6.4560694966500081E-010
   3.1622776601683791E-002   5.6912043040007453E-010
   3.5481338923357530E-002   5.0449606886452538E-010
   3.9810717055349734E-002   4.4944485966371524E-010
   4.4668359215096300E-002   4.0216795286193623E-010
   5.0118723362727248E-002   3.6124205576463453E-010
   5.6234132519034911E-002   3.2553399058272750E-010
   6.3095734448019303E-002   2.9413652805580997E-010
   7.0794578438413802E-002   2.6631986048068284E-010
   7.9432823472428138E-002   2.4149464839565797E-010
   8.9125093813374592E-002   2.1918368366256728E-010
  0.10000000000000001        1.9899999999999988E-010
  0.11220184543019630        1.8079035932606794E-010
  0.12589254117941662        1.6447889510218526E-010
  0.14125375446227553        1.4986785455378988E-010
  0.15848931924611143        1.3677945737513978E-010
  0.17782794100389229        1.2505412351815357E-010
  0.19952623149688789        1.1454881176222921E-010
  0.22387211385683378        1.0513547225818544E-010
  0.25118864315095824        9.6699613545560371E-011
  0.28183829312644548        8.9138982442897906E-011
  0.31622776601683794        8.2362353619089495E-011
  0.35481338923357530        7.6288424491190327E-011
  0.39810717055349693        7.0844810289356020E-011
  0.44668359215096348        6.5967133619695551E-011
  0.50118723362727247        6.1598202586068148E-011
  0.56234132519034907        5.7687271454970926E-011
  0.63095734448019303        5.4189377923833428E-011
  0.70794578438413736        5.1064751249062789E-011
  0.79432823472428216        4.8278285779066540E-011
  0.89125093813374590        4.5799074797822042E-011
   1.0000000000000000        4.3600000000000029E-011
