   1.0000000000000006E-005   28.000000000000000     
   1.1220184543019630E-005   20.694933341995409     
   1.2589254117941661E-005   15.248918371643892     
   1.4125375446227555E-005   11.202063479990608     
   1.5848931924611141E-005   8.2045728597381000     
   1.7782794100389229E-005   5.9913936452886762     
   1.9952623149688786E-005   4.3624316886887096     
   2.2387211385683379E-005   3.1671840801037785     
   2.5118864315095822E-005   2.2928562540166144     
   2.8183829312644549E-005   1.6552141184524083     
   3.1622776601683795E-005   1.1915721433541258     
   3.5481338923357534E-005  0.85544143452905963     
   3.9810717055349695E-005  0.61246176013108633     
   4.4668359215096348E-005  0.43732207956572089     
   5.0118723362727251E-005  0.31143867023565575     
   5.6234132519034907E-005  0.22121132053357276     
   6.3095734448019293E-005  0.15671869810040051     
   7.0794578438413731E-005  0.11074596504238554     
   7.9432823472428221E-005   7.8062708078177570E-002
   8.9125093813374588E-005   5.4888693592766338E-002
   1.0000000000000005E-004   3.8499999999999993E-002
   1.1220184543019630E-004   2.6994715965414834E-002
   1.2589254117941674E-004   1.8950031400625886E-002
   1.4125375446227541E-004   1.3308409846407800E-002
   1.5848931924611142E-004   9.3432804227476171E-003
   1.7782794100389227E-004   6.5524166680599027E-003
   1.9952623149688788E-004   4.5867435358371003E-003
   2.2387211385683400E-004   3.2024337900628660E-003
   2.5118864315095795E-004   2.2284378924645326E-003
   2.8183829312644550E-004   1.5443207443354521E-003
   3.1622776601683794E-004   1.0650328261573932E-003
   3.5481338923357532E-004   7.3038008409167621E-004
   3.9810717055349735E-004   4.9769951063110640E-004
   4.4668359215096305E-004   3.3673618708359614E-004
   5.0118723362727253E-004   2.2604170456342397E-004
   5.6234132519034910E-004   1.5043035726440584E-004
   6.3095734448019298E-004   9.9175055528633068E-005
   7.0794578438413802E-004   6.4723410265925165E-005
   7.9432823472428131E-004   4.1781519351844400E-005
   8.9125093813374593E-004   2.6658940444651276E-005
   1.0000000000000002E-003   1.6799999999999981E-005
   1.1220184543019630E-003   1.0174727190083587E-005
   1.2589254117941675E-003   5.7984645057246417E-006
   1.4125375446227540E-003   3.1360814087075040E-006
   1.5848931924611141E-003   1.6235030381337344E-006
   1.7782794100389228E-003   8.1136766126880239E-007
   1.9952623149688789E-003   3.9481027843653614E-007
   2.2387211385683399E-003   1.8865691690734297E-007
   2.5118864315095794E-003   8.9284875718583503E-008
   2.8183829312644548E-003   4.2209606659650134E-008
   3.1622776601683794E-003   2.0103899769734428E-008
   3.5481338923357532E-003   9.7295391931297427E-009
   3.9810717055349734E-003   4.8256358602009694E-009
   4.4668359215096305E-003   2.4738564424042189E-009
   5.0118723362727246E-003   1.3220852798534482E-009
   5.6234132519034910E-003   7.4287686285935678E-010
   6.3095734448019303E-003   4.4264334498578092E-010
   7.0794578438413804E-003   2.8208380152992342E-010
   7.9432823472428138E-003   1.9390848623389323E-010
   8.9125093813374589E-003   1.4501646066302500E-010
   1.0000000000000002E-002   1.1900000000000008E-010
   1.1220184543019630E-002   1.0299323506332225E-010
   1.2589254117941675E-002   8.9841701337755864E-011
   1.4125375446227540E-002   7.8966146283009763E-011
   1.5848931924611141E-002   6.9917164665901532E-011
   1.7782794100389229E-002   6.2343723775512609E-011
   1.9952623149688788E-002   5.5969820713755954E-011
   2.2387211385683399E-002   5.0577052643341646E-011
   2.5118864315095794E-002   4.5991515769708514E-011
   2.8183829312644550E-002   4.2073894335158781E-011
   3.1622776601683791E-002   3.8711915661162396E-011
   3.5481338923357530E-002   3.5814571152807019E-011
   3.9810717055349734E-002   3.3307663461548016E-011
   4.4668359215096300E-002   3.1130355488814206E-011
   5.0118723362727248E-002   2.9232480643579600E-011
   5.6234132519034911E-002   2.7572434844793221E-011
   6.3095734448019303E-002   2.6115515579394855E-011
   7.0794578438413802E-002   2.4832606408502682E-011
   7.9432823472428138E-002   2.3699129872190302E-011
   8.9125093813374592E-002   2.2694210075672613E-011
  0.10000000000000001        2.1800000000000011E-011
  0.11220184543019630        2.0974874713041759E-011
  0.12589254117941662        2.0188870097374100E-011
  0.14125375446227553        1.9443255137152634E-011
  0.15848931924611143        1.8738931621716740E-011
  0.17782794100389229        1.8076491217661499E-011
  0.19952623149688789        1.7456270615676568E-011
  0.22387211385683378        1.6878404372770475E-011
  0.25118864315095824        1.6342875260844650E-011
  0.28183829312644548        1.5849562103566397E-011
  0.31622776601683794        1.5398285236762716E-011
  0.35481338923357530        1.4988849865761938E-011
  0.39810717055349693        1.4621087719700978E-011
  0.44668359215096348        1.4294897521990693E-011
  0.50118723362727247        1.4010284912782771E-011
  0.56234132519034907        1.3767402579016237E-011
  0.63095734448019303        1.3566591476888734E-011
  0.70794578438413736        1.3408424177844153E-011
  0.79432823472428216        1.3293751541152547E-011
  0.89125093813374590        1.3223754124355557E-011
   1.0000000000000000        1.3200000000000018E-011
