   1.0000000000000006E-005   111.99999999999997     
   1.1220184543019630E-005   78.064105298623332     
   1.2589254117941661E-005   54.369556275392974     
   1.4125375446227555E-005   37.838350123681806     
   1.5848931924611141E-005   26.313678114034854     
   1.7782794100389229E-005   18.285416217323931     
   1.9952623149688786E-005   12.697055900394123     
   2.2387211385683379E-005   8.8100234511928495     
   2.5118864315095822E-005   6.1084062303709441     
   2.8183829312644549E-005   4.2321059854679914     
   3.1622776601683795E-005   2.9299748913101635     
   3.5481338923357534E-005   2.0269870038247708     
   3.9810717055349695E-005   1.4012599021504069     
   4.4668359215096348E-005  0.96798371853686926     
   5.0118723362727251E-005  0.66819004448764574     
   5.6234132519034907E-005  0.46090933241259563     
   6.3095734448019293E-005  0.31769875895362382     
   7.0794578438413731E-005  0.21882705375103711     
   7.9432823472428221E-005  0.15061663786115237     
   8.9125093813374588E-005  0.10359344794444786     
   1.0000000000000005E-004   7.1199999999999999E-002
   1.1220184543019630E-004   4.8999504411645238E-002
   1.2589254117941674E-004   3.3818640948800528E-002
   1.4125375446227541E-004   2.3393439745369216E-002
   1.5848931924611142E-004   1.6207879159266532E-002
   1.7782794100389227E-004   1.1240177463870312E-002
   1.9952623149688788E-004   7.7975060390691455E-003
   2.2387211385683400E-004   5.4074753233807563E-003
   2.5118864315095795E-004   3.7463672521573965E-003
   2.8183829312644550E-004   2.5913365918682324E-003
   3.1622776601683794E-004   1.7883630361093278E-003
   3.5481338923357532E-004   1.2306275146986905E-003
   3.9810717055349735E-004   8.4383461597902474E-004
   4.4668359215096305E-004   5.7619373850146302E-004
   5.0118723362727253E-004   3.9154430725439707E-004
   5.6234132519034910E-004   2.6461543739095359E-004
   6.3095734448019298E-004   1.7774280273389993E-004
   7.0794578438413802E-004   1.1858565497150983E-004
   7.9432823472428131E-004   7.8533739163665675E-005
   8.9125093813374593E-004   5.1592322920995076E-005
   1.0000000000000002E-003   3.3599999999999970E-005
   1.1220184543019630E-003   2.1340178863578742E-005
   1.2589254117941675E-003   1.3055781487588120E-005
   1.4125375446227540E-003   7.7360243141584138E-006
   1.5848931924611141E-003   4.4638234661487404E-006
   1.7782794100389228E-003   2.5219386835025457E-006
   1.9952623149688789E-003   1.4026989080845411E-006
   2.2387211385683399E-003   7.7225532885618731E-007
   2.5118864315095794E-003   4.2314380180256434E-007
   2.8183829312644548E-003   2.3201163502068873E-007
   3.1622776601683794E-003   1.2799421830968218E-007
   3.5481338923357532E-003   7.1432169880689740E-008
   3.9810717055349734E-003   4.0549390605878511E-008
   4.4668359215096305E-003   2.3541054638018610E-008
   5.0118723362727246E-003   1.4053441466207249E-008
   5.6234132519034910E-003   8.6739866454467681E-009
   6.3095734448019303E-003   5.5654231641785628E-009
   7.0794578438413804E-003   3.7323736213217920E-009
   7.9432823472428138E-003   2.6305320969858195E-009
   8.9125093813374589E-003   1.9590150341865663E-009
   1.0000000000000002E-002   1.5500000000000013E-009
   1.1220184543019630E-002   1.2732641962707268E-009
   1.2589254117941675E-002   1.0569738501086145E-009
   1.4125375446227540E-002   8.8622137625312134E-010
   1.5848931924611141E-002   7.5011152487658856E-010
   1.7782794100389229E-002   6.4060226370901001E-010
   1.9952623149688788E-002   5.5170064246993156E-010
   2.2387211385683399E-002   4.7889938125382217E-010
   2.5118864315095794E-002   4.1877833260004438E-010
   2.8183829312644550E-002   3.6871995983812191E-010
   3.1622776601683791E-002   3.2670440104815031E-010
   3.5481338923357530E-002   2.9116058977264170E-010
   3.9810717055349734E-002   2.6085720703271289E-010
   4.4668359215096300E-002   2.3482217671272600E-010
   5.0118723362727248E-002   2.1228278395169345E-010
   5.6234132519034911E-002   1.9262081264517666E-010
   6.3095734448019303E-002   1.7533870474997611E-010
   7.0794578438413802E-002   1.6003386719390226E-010
   7.9432823472428138E-002   1.4637904331964416E-010
   8.9125093813374592E-002   1.3410722715999022E-010
  0.10000000000000001        1.2300000000000004E-010
  0.11220184543019630        1.1292047039890415E-010
  0.12589254117941662        1.0379675462458770E-010
  0.14125375446227553        9.5543825816047102E-011
  0.15848931924611143        8.8083277205633397E-011
  0.17782794100389229        8.1343061407210433E-011
  0.19952623149688789        7.5257190591743452E-011
  0.22387211385683378        6.9765411030118178E-011
  0.25118864315095824        6.4812863220020684E-011
  0.28183829312644548        6.0349736795617126E-011
  0.31622776601683794        5.6330927647348607E-011
  0.35481338923357530        5.2715703148386606E-011
  0.39810717055349693        4.9467380082871941E-011
  0.44668359215096348        4.6553018784198357E-011
  0.50118723362727247        4.3943136102759297E-011
  0.56234132519034907        4.1611439114757153E-011
  0.63095734448019303        3.9534580940420881E-011
  0.70794578438413736        3.7691939646341233E-011
  0.79432823472428216        3.6065420949730603E-011
  0.89125093813374590        3.4639285312173017E-011
   1.0000000000000000        3.3400000000000009E-011
