   1.0000000000000006E-005   92.800000000000011     
   1.1220184543019630E-005   64.066382116111740     
   1.2589254117941661E-005   44.213850027547089     
   1.4125375446227555E-005   30.502300295019079     
   1.5848931924611141E-005   21.035516953469436     
   1.7782794100389229E-005   14.501747487681328     
   1.9952623149688786E-005   9.9938828480528379     
   2.2387211385683379E-005   6.8848605743200055     
   2.5118864315095822E-005   4.7413633607111896     
   2.8183829312644549E-005   3.2640645351943505     
   3.1622776601683795E-005   2.2462694780160519     
   3.5481338923357534E-005   1.5453000225185052     
   3.9810717055349695E-005   1.0627027768881818     
   4.4668359215096348E-005  0.73056537213508677     
   5.0118723362727251E-005  0.50205908317721615     
   5.6234132519034907E-005  0.34490482129556110     
   6.3095734448019293E-005  0.23686048105571142     
   7.0794578438413731E-005  0.16260543882107614     
   7.9432823472428221E-005  0.11159040698204906     
   8.9125093813374588E-005   7.6554055396353890E-002
   1.0000000000000005E-004   5.2499999999999991E-002
   1.1220184543019630E-004   3.6091396483874376E-002
   1.2589254117941674E-004   2.4925905507034010E-002
   1.4125375446227541E-004   1.7279071361253541E-002
   1.5848931924611142E-004   1.2012443829343755E-002
   1.7782794100389227E-004   8.3676437283445575E-003
   1.9952623149688788E-004   5.8351920270301606E-003
   2.2387211385683400E-004   4.0701143100814541E-003
   2.5118864315095795E-004   2.8371145083106366E-003
   2.8183829312644550E-004   1.9746278048979040E-003
   3.1622776601683794E-004   1.3710430084763272E-003
   3.5481338923357532E-004   9.4884151305177702E-004
   3.9810717055349735E-004   6.5393166332291988E-004
   4.4668359215096305E-004   4.4842154119250662E-004
   5.0118723362727253E-004   3.0568582519676193E-004
   5.6234132519034910E-004   2.0697514198891618E-004
   6.3095734448019298E-004   1.3907031997877807E-004
   7.0794578438413802E-004   9.2649571779788962E-005
   7.9432823472428131E-004   6.1145485571675491E-005
   8.9125093813374593E-004   3.9940796457726892E-005
   1.0000000000000002E-003   2.5799999999999994E-005
   1.1220184543019630E-003   1.6151186935780361E-005
   1.2589254117941675E-003   9.6514394194295401E-006
   1.4125375446227540E-003   5.5422620996013054E-006
   1.5848931924611141E-003   3.0788871823210659E-006
   1.7782794100389228E-003   1.6657762036185866E-006
   1.9952623149688789E-003   8.8360896350516199E-007
   2.2387211385683399E-003   4.6262443881749807E-007
   2.5118864315095794E-003   2.4067248797954571E-007
   2.8183829312644548E-003   1.2524435485106000E-007
   3.1622776601683794E-003   6.5633887294938319E-008
   3.5481338923357532E-003   3.4869102313256910E-008
   3.9810717055349734E-003   1.8906036761282295E-008
   4.4668359215096305E-003   1.0532021544944678E-008
   5.0118723362727246E-003   6.0684657862378021E-009
   5.6234132519034910E-003   3.6408804849222830E-009
   6.3095734448019303E-003   2.2898060747747732E-009
   7.0794578438413804E-003   1.5197080589512191E-009
   7.9432823472428138E-003   1.0715075399127949E-009
   8.9125093813374589E-003   8.0799433567582486E-010
   1.0000000000000002E-002   6.5600000000000032E-010
   1.1220184543019630E-002   5.5620440736724707E-010
   1.2589254117941675E-002   4.7549420057190314E-010
   1.4125375446227540E-002   4.0975988431560601E-010
   1.5848931924611141E-002   3.5586089935900474E-010
   1.7782794100389229E-002   3.1138015359484103E-010
   1.9952623149688788E-002   2.7444455059445003E-010
   2.2387211385683399E-002   2.4359284375635679E-010
   2.5118864315095794E-002   2.1767766657124375E-010
   2.8183829312644550E-002   1.9579241307239693E-010
   3.1622776601683791E-002   1.7721630863604660E-010
   3.5481338923357530E-002   1.6137288318341213E-010
   3.9810717055349734E-002   1.4779838198659896E-010
   4.4668359215096300E-002   1.3611759072596378E-010
   5.0118723362727248E-002   1.2602522561881194E-010
   5.6234132519034911E-002   1.1727152525442354E-010
   6.3095734448019303E-002   1.0965103300569173E-010
   7.0794578438413802E-002   1.0299381580640420E-010
   7.9432823472428138E-002   9.7158553578967003E-011
   8.9125093813374592E-002   9.2027072687252111E-011
  0.10000000000000001        8.7499999999999982E-011
  0.11220184543019630        8.3355593494471955E-011
  0.12589254117941662        7.9434730504386853E-011
  0.14125375446227553        7.5741837299907769E-011
  0.15848931924611143        7.2278931445127515E-011
  0.17782794100389229        6.9046049762407754E-011
  0.19952623149688789        6.6041651292682507E-011
  0.22387211385683378        6.3262992508093848E-011
  0.25118864315095824        6.0706473811969836E-011
  0.28183829312644548        5.8367957874284650E-011
  0.31622776601683794        5.6243061624903320E-011
  0.35481338923357530        5.4327424798646469E-011
  0.39810717055349693        5.2616958839360508E-011
  0.44668359215096348        5.1108080774188981E-011
  0.50118723362727247        4.9797937418393495E-011
  0.56234132519034907        4.8684626024471623E-011
  0.63095734448019303        4.7767418312091907E-011
  0.70794578438413736        4.7046995780719841E-011
  0.79432823472428216        4.6525705399596706E-011
  0.89125093813374590        4.6207846291273395E-011
   1.0000000000000000        4.6099999999999982E-011
