   1.0000000000000006E-005   22100.000000000018     
   1.1220184543019630E-005   18970.849392248572     
   1.2589254117941661E-005   16147.276718513620     
   1.4125375446227555E-005   13631.420801367833     
   1.5848931924611141E-005   11416.253462266024     
   1.7782794100389229E-005   9487.6364946374433     
   1.9952623149688786E-005   7826.2865379178565     
   2.2387211385683379E-005   6409.5573895598254     
   2.5118864315095822E-005   5212.9821900594807     
   2.8183829312644549E-005   4211.5471042831668     
   3.1622776601683795E-005   3380.6921109899722     
   3.5481338923357534E-005   2697.0526854897498     
   3.9810717055349695E-005   2138.9685971653121     
   4.4668359215096348E-005   1686.7933149773298     
   5.0118723362727251E-005   1323.0404851431792     
   5.6234132519034907E-005   1032.4036053751454     
   6.3095734448019293E-005   801.68235177138240     
   7.0794578438413731E-005   619.64490291484515     
   7.9432823472428221E-005   476.85078713257553     
   8.9125093813374588E-005   365.45381995884031     
   1.0000000000000005E-004   278.99999999999989     
   1.1220184543019630E-004   211.12149816619390     
   1.2589254117941674E-004   157.62275842576088     
   1.4125375446227541E-004   116.20507457512613     
   1.5848931924611142E-004   84.666667693493523     
   1.7782794100389227E-004   61.015832485419068     
   1.9952623149688788E-004   43.528811825253236     
   2.2387211385683400E-004   30.766406891166206     
   2.5118864315095795E-004   21.562739606981488     
   2.8183829312644550E-004   14.997531644739150     
   3.1622776601683794E-004   10.360621843001624     
   3.5481338923357532E-004   7.1148138561853731     
   3.9810717055349735E-004   4.8608748910980486     
   4.4668359215096305E-004   3.3067398056308503     
   5.0118723362727253E-004   2.2417221310816986     
   5.6234132519034910E-004   1.5157277742646649     
   6.3095734448019298E-004   1.0230098344716088     
   7.0794578438413802E-004  0.68979346666523766     
   7.9432823472428131E-004  0.46505092208232385     
   8.9125093813374593E-004  0.31375135166835427     
   1.0000000000000002E-003  0.21199999999999999     
   1.1220184543019630E-003  0.14161705975239103     
   1.2589254117941675E-003   9.2473202711064947E-002
   1.4125375446227540E-003   5.9222757493968298E-002
   1.5848931924611141E-003   3.7323772761467200E-002
   1.7782794100389228E-003   2.3225144292103001E-002
   1.9952623149688789E-003   1.4317232044269230E-002
   2.2387211385683399E-003   8.7728206695237079E-003
   2.5118864315095794E-003   5.3610612759525536E-003
   2.8183829312644548E-003   3.2782751995914798E-003
   3.1622776601683794E-003   2.0126810118050041E-003
   3.5481338923357532E-003   1.2447759270130655E-003
   3.9810717055349734E-003   7.7811876518807984E-004
   4.4668359215096305E-003   4.9327699309362455E-004
   5.0118723362727246E-003   3.1818366534790425E-004
   5.6234132519034910E-003   2.0953604216398942E-004
   6.3095734448019303E-003   1.4134655057289992E-004
   7.0794578438413804E-003   9.7996169597246405E-005
   7.9432823472428138E-003   7.0061943674100402E-005
   8.9125093813374589E-003   5.1827020605542971E-005
   1.0000000000000002E-002   3.9799999999999978E-005
   1.1220184543019630E-002   3.1345724791179669E-005
   1.2589254117941675E-002   2.4947639091881846E-005
   1.4125375446227540E-002   2.0053769135123503E-005
   1.5848931924611141E-002   1.6271872053189775E-005
   1.7782794100389229E-002   1.3320284835513594E-005
   1.9952623149688788E-002   1.0994703286854872E-005
   2.2387211385683399E-002   9.1454916172657950E-006
   2.5118864315095794E-002   7.6620268339008533E-006
   2.8183829312644550E-002   6.4617906137427880E-006
   3.1622776601683791E-002   5.4826967201139920E-006
   3.5481338923357530E-002   4.6776446294432963E-006
   3.9810717055349734E-002   4.0106190709569822E-006
   4.4668359215096300E-002   3.4538726732855038E-006
   5.0118723362727248E-002   2.9858740213008557E-006
   5.6234132519034911E-002   2.5898011239319286E-006
   6.3095734448019303E-002   2.2524266511759694E-006
   7.0794578438413802E-002   1.9632867560746792E-006
   7.9432823472428138E-002   1.7140566974770561E-006
   8.9125093813374592E-002   1.4980783455447455E-006
  0.10000000000000001        1.3100000000000006E-006
  0.11220184543019630        1.1466277201410663E-006
  0.12589254117941662        1.0054565148019146E-006
  0.14125375446227553        8.8335645660371320E-007
  0.15848931924611143        7.7764726284758204E-007
  0.17782794100389229        6.8603361702165530E-007
  0.19952623149688789        6.0654965810556346E-007
  0.22387211385683378        5.3751138447096540E-007
  0.25118864315095824        4.7747587901233041E-007
  0.28183829312644548        4.2520640424256330E-007
  0.31622776601683794        3.7964254181660571E-007
  0.35481338923357530        3.3987466171199552E-007
  0.39810717055349693        3.0512210350245145E-007
  0.44668359215096348        2.7471453717187235E-007
  0.50118723362727247        2.4807604502833747E-007
  0.56234132519034907        2.2471153070498025E-007
  0.63095734448019303        2.0419511709963959E-007
  0.70794578438413736        1.8616024343460255E-007
  0.79432823472428216        1.7029121334244973E-007
  0.89125093813374590        1.5631598184120099E-007
   1.0000000000000000        1.4399999999999989E-007
