   1.0000000000000006E-005   161.99999999999994     
   1.1220184543019630E-005   113.79494055717274     
   1.2589254117941661E-005   79.857416435034025     
   1.4125375446227555E-005   55.987807574203501     
   1.5848931924611141E-005   39.215622173218605     
   1.7782794100389229E-005   27.441872386790603     
   1.9952623149688786E-005   19.184871428874306     
   2.2387211385683379E-005   13.399731838511119     
   2.5118864315095822E-005   9.3503296486494332     
   2.8183829312644549E-005   6.5185781731672119     
   3.1622776601683795E-005   4.5402055379625370     
   3.5481338923357534E-005   3.1593400272716416     
   3.9810717055349695E-005   2.1964280679109103     
   4.4668359215096348E-005   1.5255937429175606     
   5.0118723362727251E-005   1.0586774222038000     
   5.6234132519034907E-005  0.73399445947182684     
   6.3095734448019293E-005  0.50842609156799912     
   7.0794578438413731E-005  0.35186035369565671     
   7.9432823472428221E-005  0.24328864346753928     
   8.9125093813374588E-005  0.16806755228554845     
   1.0000000000000005E-004  0.11600000000000001     
   1.1220184543019630E-004   8.0095071098791423E-002
   1.2589254117941674E-004   5.5381748307278295E-002
   1.4125375446227541E-004   3.8331762832098937E-002
   1.5848931924611142E-004   2.6546078598888162E-002
   1.7782794100389227E-004   1.8386946159356904E-002
   1.9952623149688788E-004   1.2732235705258287E-002
   2.2387211385683400E-004   8.8105651042205985E-003
   2.5118864315095795E-004   6.0901092145299049E-003
   2.8183829312644550E-004   4.2032653810664556E-003
   3.1622776601683794E-004   2.8953905101955129E-003
   3.5481338923357532E-004   1.9897764224585095E-003
   3.9810717055349735E-004   1.3636295519974765E-003
   4.4668359215096305E-004   9.3154043518982538E-004
   5.0118723362727253E-004   6.3407173204962388E-004
   5.6234132519034910E-004   4.2985763006097205E-004
   6.3095734448019298E-004   2.9012065337237432E-004
   7.0794578438413802E-004   1.9485816343029237E-004
   7.9432823472428131E-004   1.3018552727652152E-004
   8.9125093813374593E-004   8.6482680795748500E-005
   1.0000000000000002E-003   5.7100000000000012E-005
   1.1220184543019630E-003   3.6967863156837489E-005
   1.2589254117941675E-003   2.3229911232009649E-005
   1.4125375446227540E-003   1.4231258869807240E-005
   1.5848931924611141E-003   8.5378644679777106E-006
   1.7782794100389228E-003   5.0385197699977152E-006
   1.9952623149688789E-003   2.9379341242684785E-006
   2.2387211385683399E-003   1.7002160817167835E-006
   2.5118864315095794E-003   9.8090459409582859E-007
   2.8183829312644548E-003   5.6669268093901356E-007
   3.1622776601683794E-003   3.2930947617789162E-007
   3.5481338923357532E-003   1.9334557874733933E-007
   3.9810717055349734E-003   1.1520604271319593E-007
   4.4668359215096305E-003   6.9978539160764024E-008
   5.0118723362727246E-003   4.3525191251187573E-008
   5.6234132519034910E-003   2.7844556843647823E-008
   6.3095734448019303E-003   1.8403538842547907E-008
   7.0794578438413804E-003   1.2622965257487121E-008
   7.9432823472428138E-003   9.0252252122257183E-009
   8.9125093813374589E-003   6.7566111979075770E-009
   1.0000000000000002E-002   5.3200000000000015E-009
   1.1220184543019630E-002   4.3267596590547673E-009
   1.2589254117941675E-002   3.5576997736258063E-009
   1.4125375446227540E-002   2.9557269557697237E-009
   1.5848931924611141E-002   2.4795960024657476E-009
   1.7782794100389229E-002   2.0991924174448082E-009
   1.9952623149688788E-002   1.7923028023306895E-009
   2.2387211385683399E-002   1.5423801923314541E-009
   2.5118864315095794E-002   1.3369818834468899E-009
   2.8183829312644550E-002   1.1666665349584247E-009
   3.1622776601683791E-002   1.0242080874978883E-009
   3.5481338923357530E-002   9.0403034913156421E-010
   3.9810717055349734E-002   8.0179672200308602E-010
   4.4668359215096300E-002   7.1410998567735759E-010
   5.0118723362727248E-002   6.3829083190317090E-010
   5.6234132519034911E-002   5.7221321699397727E-010
   6.3095734448019303E-002   5.1418102838736809E-010
   7.0794578438413802E-002   4.6283501198041093E-010
   7.9432823472428138E-002   4.1708201207259799E-010
   8.9125093813374592E-002   3.7604076035581195E-010
  0.10000000000000001        3.3900000000000033E-010
  0.11220184543019630        3.0574432565133339E-010
  0.12589254117941662        2.7615974818324045E-010
  0.14125375446227553        2.4983242095700902E-010
  0.15848931924611143        2.2639500571148337E-010
  0.17782794100389229        2.0552170586946709E-010
  0.19952623149688789        1.8692377337352321E-010
  0.22387211385683378        1.7034545610410805E-010
  0.25118864315095824        1.5556035271602747E-010
  0.28183829312644548        1.4236814219570361E-010
  0.31622776601683794        1.3059165642439565E-010
  0.35481338923357530        1.2007426539181729E-010
  0.39810717055349693        1.1067754632554155E-010
  0.44668359215096348        1.0227920979093685E-010
  0.50118723362727247        9.4771257699629344E-011
  0.56234132519034907        8.8058350083228375E-011
  0.63095734448019303        8.2056359398622962E-011
  0.70794578438413736        7.6691092998363449E-011
  0.79432823472428216        7.1897166200857248E-011
  0.89125093813374590        6.7617010114678925E-011
   1.0000000000000000        6.3799999999999989E-011
