   1.0000000000000006E-005   119.99999999999996     
   1.1220184543019630E-005   83.524161833383431     
   1.2589254117941661E-005   58.094672998801578     
   1.4125375446227555E-005   40.378914504074345     
   1.5848931924611141E-005   28.045807484617722     
   1.7782794100389229E-005   19.466015986987244     
   1.9952623149688786E-005   13.501526055519230     
   2.2387211385683379E-005   9.3580666873886038     
   2.5118864315095822E-005   6.4816823561769823     
   2.8183829312644549E-005   4.4863021674290025     
   3.1622776601683795E-005   3.1030538021073850     
   3.5481338923357534E-005   2.1448204132902977     
   3.9810717055349695E-005   1.4814747210733925     
   4.4668359215096348E-005   1.0225865501815092     
   5.0118723362727251E-005  0.70535746148601342     
   5.6234132519034907E-005  0.48620861382983765     
   6.3095734448019293E-005  0.33491998693278957     
   7.0794578438413731E-005  0.23055012034239275     
   7.9432823472428221E-005  0.15859750444562204     
   8.9125093813374588E-005  0.10902720822807091     
   1.0000000000000005E-004   7.4899999999999994E-002
   1.1220184543019630E-004   5.1525365116211010E-002
   1.2589254117941674E-004   3.5550716062106476E-002
   1.4125375446227541E-004   2.4585671520817552E-002
   1.5848931924611142E-004   1.7031020722055517E-002
   1.7782794100389227E-004   1.1809801363276156E-002
   1.9952623149688788E-004   8.1923076771155678E-003
   2.2387211385683400E-004   5.6813310366312523E-003
   2.5118864315095795E-004   3.9363394942168979E-003
   2.8183829312644550E-004   2.7230276085788013E-003
   3.1622776601683794E-004   1.8795202934333095E-003
   3.5481338923357532E-004   1.2935877796399296E-003
   3.9810717055349735E-004   8.8719101010410425E-004
   4.4668359215096305E-004   6.0593932235493788E-004
   5.0118723362727253E-004   4.1186069723067126E-004
   5.6234132519034910E-004   2.7841921570958850E-004
   6.3095734448019298E-004   1.8706568816096914E-004
   7.0794578438413802E-004   1.2483994646888784E-004
   7.9432823472428131E-004   8.2698180062832036E-005
   8.9125093813374593E-004   5.4342511248552501E-005
   1.0000000000000002E-003   3.5399999999999986E-005
   1.1220184543019630E-003   2.2489436605033802E-005
   1.2589254117941675E-003   1.3763229812217071E-005
   1.4125375446227540E-003   8.1581409118079929E-006
   1.5848931924611141E-003   4.7092709815636645E-006
   1.7782794100389228E-003   2.6617691155371692E-006
   1.9952623149688789E-003   1.4811665181821316E-006
   2.2387211385683399E-003   8.1586213644007128E-007
   2.5118864315095794E-003   4.4727192738704319E-007
   2.8183829312644548E-003   2.4537542069967632E-007
   3.1622776601683794E-003   1.3544332609718816E-007
   3.5481338923357532E-003   7.5633445135825134E-008
   3.9810717055349734E-003   4.2959820591600637E-008
   4.4668359215096305E-003   2.4955479614744632E-008
   5.0118723362727246E-003   1.4906883314109001E-008
   5.6234132519034910E-003   9.2063574988225494E-009
   6.3095734448019303E-003   5.9105984282897698E-009
   7.0794578438413804E-003   3.9662518812360933E-009
   7.9432823472428138E-003   2.7970287459972670E-009
   8.9125093813374589E-003   2.0842218912666331E-009
   1.0000000000000002E-002   1.6500000000000015E-009
   1.1220184543019630E-002   1.3561539102812126E-009
   1.2589254117941675E-002   1.1263805300708024E-009
   1.4125375446227540E-002   9.4490029272159995E-010
   1.5848931924611141E-002   8.0017522851284938E-010
   1.7782794100389229E-002   6.8368502598993927E-010
   1.9952623149688788E-002   5.8907752901496619E-010
   2.2387211385683399E-002   5.1157326925368478E-010
   2.5118864315095794E-002   4.4754406878437286E-010
   2.8183829312644550E-002   3.9421207178268206E-010
   3.1622776601683791E-002   3.4943287401872969E-010
   3.5481338923357530E-002   3.1153791185108549E-010
   3.9810717055349734E-002   2.7921897517043330E-010
   4.4668359215096300E-002   2.5144291841583988E-010
   5.0118723362727248E-002   2.2738819841985298E-010
   5.6234132519034911E-002   2.0639731393145355E-010
   6.3095734448019303E-002   1.8794091879608348E-010
   7.0794578438413802E-002   1.7159056760507302E-010
   7.9432823472428138E-002   1.5699788892923249E-010
   8.9125093813374592E-002   1.4387857487026350E-010
  0.10000000000000001        1.3200000000000019E-010
  0.11220184543019630        1.2121699572902922E-010
  0.12589254117941662        1.1145378446691315E-010
  0.14125375446227553        1.0261997065728034E-010
  0.15848931924611143        9.4632161395891964E-011
  0.17782794100389229        8.7413696115400587E-011
  0.19952623149688789        8.0894333952939652E-011
  0.22387211385683378        7.5009913151859145E-011
  0.25118864315095824        6.9701994457714049E-011
  0.28183829312644548        6.4917498333494560E-011
  0.31622776601683794        6.0608343942643721E-011
  0.35481338923357530        5.6731096224970450E-011
  0.39810717055349693        5.3246626008629841E-011
  0.44668359215096348        5.0119786945819654E-011
  0.50118723362727247        4.7319112113560378E-011
  0.56234132519034907        4.4816532366238767E-011
  0.63095734448019303        4.2587117946376416E-011
  0.70794578438413736        4.0608844438685190E-011
  0.79432823472428216        3.8862383876479299E-011
  0.89125093813374590        3.7330921668392887E-011
   1.0000000000000000        3.6000000000000037E-011
