   1.0000000000000006E-005   606.99999999999989     
   1.1220184543019630E-005   489.11084328863416     
   1.2589254117941661E-005   391.97415728799956     
   1.4125375446227555E-005   312.45533979527693     
   1.5848931924611141E-005   247.76939851790641     
   1.7782794100389229E-005   195.47238376190597     
   1.9952623149688786E-005   153.44403368439595     
   2.2387211385683379E-005   119.86441947980950     
   2.5118864315095822E-005   93.186945430464093     
   2.8183829312644549E-005   72.109619482587675     
   3.1622776601683795E-005   55.546090413959213     
   3.5481338923357534E-005   42.597565817807393     
   3.9810717055349695E-005   32.526391806707693     
   4.4668359215096348E-005   24.731795334580003     
   5.0118723362727251E-005   18.728063556560148     
   5.6234132519034907E-005   14.125258640904349     
   6.3095734448019293E-005   10.612435753427722     
   7.0794578438413731E-005   7.9432402483893298     
   7.9432823472428221E-005   5.9237007216253579     
   8.9125093813374588E-005   4.4020009669381510     
   1.0000000000000005E-004   3.2599999999999993     
   1.1220184543019630E-004   2.4049137444958779     
   1.2589254117941674E-004   1.7660960788165407     
   1.4125375446227541E-004   1.2908703286732852     
   1.5848931924611142E-004  0.93891209497695161     
   1.7782794100389227E-004  0.67945676129941202     
   1.9952623149688788E-004  0.48911822387444681     
   2.2387211385683400E-004  0.35018823020680667     
   2.5118864315095795E-004  0.24931331917457780     
   2.8183829312644550E-004  0.17646809718264017     
   3.1622776601683794E-004  0.12416073211084891     
   3.5481338923357532E-004   8.6820087491481235E-002
   3.9810717055349735E-004   6.0324623335451660E-002
   4.4668359215096305E-004   4.1641658349775595E-002
   5.0118723362727253E-004   2.8552291266981032E-002
   5.6234132519034910E-004   1.9442585503170975E-002
   6.3095734448019298E-004   1.3145821356614041E-002
   7.0794578438413802E-004   8.8239419842472515E-003
   7.9432823472428131E-004   5.8789440068991190E-003
   8.9125093813374593E-004   3.8870338115308193E-003
   1.0000000000000002E-003   2.5499999999999989E-003
   1.1220184543019630E-003   1.6248989835386679E-003
   1.2589254117941675E-003   9.8885545042595399E-004
   1.4125375446227540E-003   5.7839134020819033E-004
   1.5848931924611141E-003   3.2723183344334254E-004
   1.7782794100389228E-003   1.8021725495260098E-004
   1.9952623149688789E-003   9.7231396515988139E-005
   2.2387211385683399E-003   5.1718780141106943E-005
   2.5118864315095794E-003   2.7295049493212109E-005
   2.8183829312644548E-003   1.4383866076538136E-005
   3.1622776601683794E-003   7.6170319035916469E-006
   3.5481338923357532E-003   4.0792148983415316E-006
   3.9810717055349734E-003   2.2233627740335201E-006
   4.4668359215096305E-003   1.2412214630802658E-006
   5.0118723362727246E-003   7.1425895352784209E-007
   5.6234132519034910E-003   4.2637511225821438E-007
   6.3095734448019303E-003   2.6571740668278223E-007
   7.0794578438413804E-003   1.7398124573544212E-007
   7.9432823472428138E-003   1.2044850312420041E-007
   8.9125093813374589E-003   8.8731778398781370E-008
   1.0000000000000002E-002   7.0000000000000018E-008
   1.1220184543019630E-002   5.7575462822601836E-008
   1.2589254117941675E-002   4.7851484682379594E-008
   1.4125375446227540E-002   4.0166325225198960E-008
   1.5848931924611141E-002   3.4035145364602510E-008
   1.7782794100389229E-002   2.9099268220882106E-008
   1.9952623149688788E-002   2.5090862822389197E-008
   2.2387211385683399E-002   2.1808124475700286E-008
   2.5118864315095794E-002   1.9097668642232087E-008
   2.8183829312644550E-002   1.6841928819563232E-008
   3.1622776601683791E-002   1.4950057426796817E-008
   3.5481338923357530E-002   1.3351300664467267E-008
   3.9810717055349734E-002   1.1990135619563138E-008
   4.4668359215096300E-002   1.0822673107296347E-008
   5.0118723362727248E-002   9.8139769862250476E-009
   5.6234132519034911E-002   8.9360522656891072E-009
   6.3095734448019303E-002   8.1663249720718591E-009
   7.0794578438413802E-002   7.4864862571743909E-009
   7.9432823472428138E-002   6.8816081986062040E-009
   8.9125093813374592E-002   6.3394636114787302E-009
  0.10000000000000001        5.8500000000000061E-009
  0.11220184543019630        5.4047303067710659E-009
  0.12589254117941662        4.9988699285900012E-009
  0.14125375446227553        4.6294098496375522E-009
  0.15848931924611143        4.2935028087296562E-009
  0.17782794100389229        3.9884718903215159E-009
  0.19952623149688789        3.7118150060218519E-009
  0.22387211385683378        3.4612060418717100E-009
  0.25118864315095824        3.2344933646868522E-009
  0.28183829312644548        3.0296962995811592E-009
  0.31622776601683794        2.8450001130442594E-009
  0.35481338923357530        2.6787499635747776E-009
  0.39810717055349693        2.5294442162109984E-009
  0.44668359215096348        2.3957274592250507E-009
  0.50118723362727247        2.2763835112741254E-009
  0.56234132519034907        2.1703286657114837E-009
  0.63095734448019303        2.0766053856871724E-009
  0.70794578438413736        1.9943766391999127E-009
  0.79432823472428216        1.9229210475198856E-009
  0.89125093813374590        1.8616290136318606E-009
   1.0000000000000000        1.8099999999999964E-009
