   1.0000000000000006E-005   68.299999999999997     
   1.1220184543019630E-005   47.184694905828330     
   1.2589254117941661E-005   32.581331552510342     
   1.4125375446227555E-005   22.486617953519524     
   1.5848931924611141E-005   15.511989091156185     
   1.7782794100389229E-005   10.695455393203897     
   1.9952623149688786E-005   7.3708897471368253     
   2.2387211385683379E-005   5.0772646002279851     
   2.5118864315095822E-005   3.4956611686992658     
   2.8183829312644549E-005   2.4055750894759869     
   3.1622776601683795E-005   1.6546226438477372     
   3.5481338923357534E-005   1.1375483646324054     
   3.9810717055349695E-005  0.78168547520540799     
   4.4668359215096348E-005  0.53689070139535000     
   5.0118723362727251E-005  0.36858002410847568     
   5.6234132519034907E-005  0.25291243390076740     
   6.3095734448019293E-005  0.17346084054120306     
   7.0794578438413731E-005  0.11891208498457784     
   7.9432823472428221E-005   8.1478725475837913E-002
   8.9125093813374588E-005   5.5802871677023164E-002
   1.0000000000000005E-004   3.8199999999999998E-002
   1.1220184543019630E-004   2.6226534365452459E-002
   1.2589254117941674E-004   1.8107295097747920E-002
   1.4125375446227541E-004   1.2558392035329524E-002
   1.5848931924611142E-004   8.7400703555576328E-003
   1.7782794100389227E-004   6.0971784871065278E-003
   1.9952623149688788E-004   4.2590096939853243E-003
   2.2387211385683400E-004   2.9756835266650313E-003
   2.5118864315095795E-004   2.0772841021035465E-003
   2.8183829312644550E-004   1.4473339543032476E-003
   3.1622776601683794E-004   1.0053978520881430E-003
   3.5481338923357532E-004   6.9556249504930542E-004
   3.9810717055349735E-004   4.7873591949176852E-004
   4.4668359215096305E-004   3.2745390704686742E-004
   5.0118723362727253E-004   2.2234701196223092E-004
   5.6234132519034910E-004   1.4971731455431882E-004
   6.3095734448019298E-004   9.9863095140033861E-005
   7.0794578438413802E-004   6.5911763399832199E-005
   7.9432823472428131E-004   4.3000985259170157E-005
   8.9125093813374593E-004   2.7700276321257947E-005
   1.0000000000000002E-003   1.7599999999999987E-005
   1.1220184543019630E-003   1.0764533141789697E-005
   1.2589254117941675E-003   6.2225825250641072E-006
   1.4125375446227540E-003   3.4267587609271693E-006
   1.5848931924611141E-003   1.8120837507843139E-006
   1.7782794100389228E-003   9.2746885407862954E-007
   1.9952623149688789E-003   4.6311751148213100E-007
   2.2387211385683399E-003   2.2740412518001469E-007
   2.5118864315095794E-003   1.1067899524749363E-007
   2.8183829312644548E-003   5.3819080957681443E-008
   3.1622776601683794E-003   2.6354574762326244E-008
   3.5481338923357532E-003   1.3099927199611976E-008
   3.9810717055349734E-003   6.6622258428805743E-009
   4.4668359215096305E-003   3.4942331976206179E-009
   5.0118723362727246E-003   1.9050700650691495E-009
   5.6234132519034910E-003   1.0882809308884351E-009
   6.3095734448019303E-003   6.5657834010065834E-010
   7.0794578438413804E-003   4.2168875119851469E-010
   7.9432823472428138E-003   2.9060419501402240E-010
   8.9125093813374589E-003   2.1660107497151626E-010
   1.0000000000000002E-002   1.7600000000000022E-010
   1.1220184543019630E-002   1.5036217027311018E-010
   1.2589254117941675E-002   1.2954966571513511E-010
   1.4125375446227540E-002   1.1253208947966156E-010
   1.5848931924611141E-002   9.8521139362709423E-011
   1.7782794100389229E-002   8.6909250913595325E-011
   1.9952623149688788E-002   7.7224784937001765E-011
   2.2387211385683399E-002   6.9099055280047673E-011
   2.5118864315095794E-002   6.2241893339492369E-011
   2.8183829312644550E-002   5.6423411984722106E-011
   3.1622776601683791E-002   5.1460303226480161E-011
   3.5481338923357530E-002   4.7205474213569390E-011
   3.9810717055349734E-002   4.3540157735968213E-011
   4.4668359215096300E-002   4.0367868859390117E-011
   5.0118723362727248E-002   3.7609747624496905E-011
   5.6234132519034911E-002   3.5200948852933598E-011
   6.3095734448019303E-002   3.3087827809628310E-011
   7.0794578438413802E-002   3.1225734387587371E-011
   7.9432823472428138E-002   2.9577275346101545E-011
   8.9125093813374592E-002   2.8110938699910328E-011
  0.10000000000000001        2.6800000000000036E-011
  0.11220184543019630        2.5588754470092471E-011
  0.12589254117941662        2.4438974186632190E-011
  0.14125375446227553        2.3352572673570714E-011
  0.15848931924611143        2.2330728314415428E-011
  0.17782794100389229        2.1374004716044019E-011
  0.19952623149688789        2.0482465562934271E-011
  0.22387211385683378        1.9655782912531533E-011
  0.25118864315095824        1.8893338404237689E-011
  0.28183829312644548        1.8194317307703994E-011
  0.31622776601683794        1.7557795725876464E-011
  0.35481338923357530        1.6982821602902861E-011
  0.39810717055349693        1.6468490477390301E-011
  0.44668359215096348        1.6014017180399219E-011
  0.50118723362727247        1.5618804919466670E-011
  0.56234132519034907        1.5282513431049402E-011
  0.63095734448019303        1.5005128142153218E-011
  0.70794578438413736        1.4787032578130851E-011
  0.79432823472428216        1.4629086611612467E-011
  0.89125093813374590        1.4532713595893946E-011
   1.0000000000000000        1.4499999999999982E-011
