   1.0000000000000006E-005   665.99999999999989     
   1.1220184543019630E-005   529.95461103148978     
   1.2589254117941661E-005   419.23192167913169     
   1.4125375446227555E-005   329.74201369361879     
   1.5848931924611141E-005   257.90012457548556     
   1.7782794100389229E-005   200.60381731307163     
   1.9952623149688786E-005   155.19947929783459     
   2.2387211385683379E-005   119.44220253148777     
   2.5118864315095822E-005   91.452350888956076     
   2.8183829312644549E-005   69.671397663432060     
   3.1622776601683795E-005   52.818954532207336     
   3.5481338923357534E-005   39.852333720167877     
   3.9810717055349695E-005   29.929498964781043     
   4.4668359215096348E-005   22.375869275048593     
   5.0118723362727251E-005   16.655137322098824     
   5.6234132519034907E-005   12.344042333493713     
   6.3095734448019293E-005   9.1108840761272010     
   7.0794578438413731E-005   6.6974676382993881     
   7.9432823472428221E-005   4.9041163144605235     
   8.9125093813374588E-005   3.5773710371363174     
   1.0000000000000005E-004   2.6000000000000001     
   1.1220184543019630E-004   1.8775569725311907     
   1.2589254117941674E-004   1.3438214771301034     
   1.4125375446227541E-004  0.95376797823675064     
   1.5848931924611142E-004  0.67161537745507138     
   1.7782794100389227E-004  0.46946074964553625     
   1.9952623149688788E-004  0.32591378927509446     
   2.2387211385683400E-004  0.22483038435337019     
   2.5118864315095795E-004  0.15419848899838942     
   2.8183829312644550E-004  0.10519669834691113     
   3.1622776601683794E-004   7.1424137649823458E-002
   3.5481338923357532E-004   4.8287290255771657E-002
   3.9810717055349735E-004   3.2522927074883398E-002
   4.4668359215096305E-004   2.1834306668874221E-002
   5.0118723362727253E-004   1.4618614190491914E-002
   5.6234132519034910E-004   9.7659399571357938E-003
   6.3095734448019298E-004   6.5130883615258728E-003
   7.0794578438413802E-004   4.3385938265246725E-003
   7.9432823472428131E-004   2.8881792901062188E-003
   8.9125093813374593E-004   1.9223677200771183E-003
   1.0000000000000002E-003   1.2799999999999999E-003
   1.1220184543019630E-003   8.4242076699950620E-004
   1.2589254117941675E-003   5.4249051714442057E-004
   1.4125375446227540E-003   3.4296062174887782E-004
   1.5848931924611141E-003   2.1356516370916185E-004
   1.7782794100389228E-003   1.3143034398623393E-004
   1.9952623149688789E-003   8.0201959813291115E-005
   2.2387211385683399E-003   4.8690412059060223E-005
   2.5118864315095794E-003   2.9506390111566638E-005
   2.8183829312644548E-003   1.7908033549178882E-005
   3.1622776601683794E-003   1.0921541389799384E-005
   3.5481338923357532E-003   6.7153587424310294E-006
   3.9810717055349734E-003   4.1768489898752011E-006
   4.4668359215096305E-003   2.6367419682897931E-006
   5.0118723362727246E-003   1.6950043597725009E-006
   5.6234132519034910E-003   1.1132773303837380E-006
   6.3095734448019303E-003   7.4956672345445295E-007
   7.0794578438413804E-003   5.1908280774110823E-007
   7.9432823472428138E-003   3.7096030062936365E-007
   8.9125093813374589E-003   2.7449073842052411E-007
   1.0000000000000002E-002   2.1100000000000018E-007
   1.1220184543019630E-002   1.6636794264687525E-007
   1.2589254117941675E-002   1.3251521015599198E-007
   1.4125375446227540E-002   1.0657700935383008E-007
   1.5848931924611141E-002   8.6507919706488814E-008
   1.7782794100389229E-002   7.0832989274745231E-008
   1.9952623149688788E-002   5.8478396782706304E-008
   2.2387211385683399E-002   4.8655098297925025E-008
   2.5118864315095794E-002   4.0778109077052054E-008
   2.8183829312644550E-002   3.4409983764824336E-008
   3.1622776601683791E-002   2.9220882707014301E-008
   3.5481338923357530E-002   2.4960110078656921E-008
   3.9810717055349734E-002   2.1435656399172833E-008
   4.4668359215096300E-002   1.8499373723622069E-008
   5.0118723362727248E-002   1.6036147306268624E-008
   5.6234132519034911E-002   1.3955925514865844E-008
   6.3095734448019303E-002   1.2187809769564882E-008
   7.0794578438413802E-002   1.0675640305087379E-008
   7.9432823472428138E-002   9.3746759155429062E-009
   8.9125093813374592E-002   8.2490793522452738E-009
  0.10000000000000001        7.2700000000000049E-009
  0.11220184543019630        6.4166465391708975E-009
  0.12589254117941662        5.6737117192238776E-009
  0.14125375446227553        5.0265277177997854E-009
  0.15848931924611143        4.4623824624188397E-009
  0.17782794100389229        3.9702660989386526E-009
  0.19952623149688789        3.5406482423972747E-009
  0.22387211385683378        3.1652827860532465E-009
  0.25118864315095824        2.8370372661731717E-009
  0.28183829312644548        2.5497440154065974E-009
  0.31622776601683794        2.2980705768976817E-009
  0.35481338923357530        2.0774070875000445E-009
  0.39810717055349693        1.8837685664701801E-009
  0.44668359215096348        1.7137102622999879E-009
  0.50118723362727247        1.5642544126751160E-009
  0.56234132519034907        1.4328269596684656E-009
  0.63095734448019303        1.3172029337164770E-009
  0.70794578438413736        1.2154593757654062E-009
  0.79432823472428216        1.1259348077152343E-009
  0.89125093813374590        1.0471943877193842E-009
   1.0000000000000000        9.7800000000000117E-010
