   1.0000000000000006E-005   177.00000000000009     
   1.1220184543019630E-005   124.77708903795030     
   1.2589254117941661E-005   87.863132398426359     
   1.4125375446227555E-005   61.800343398249368     
   1.5848931924611141E-005   43.419977308981345     
   1.7782794100389229E-005   30.472277739550815     
   1.9952623149688786E-005   21.361856345549494     
   2.2387211385683379E-005   14.958702770498649     
   2.5118864315095822E-005   10.463376922527507     
   2.8183829312644549E-005   7.3109687330115500     
   3.1622776601683795E-005   5.1027609826478146     
   3.5481338923357534E-005   3.5576637046684563     
   3.9810717055349695E-005   2.4777418245628837     
   4.4668359215096348E-005   1.7237759869251086     
   5.0118723362727251E-005   1.1979573081506367     
   5.6234132519034907E-005  0.83164833142679073     
   6.3095734448019293E-005  0.57673736432720091     
   7.0794578438413731E-005  0.39953843961632135     
   7.9432823472428221E-005  0.27649245652650151     
   8.9125093813374588E-005  0.19114122557465410     
   1.0000000000000005E-004  0.13200000000000001     
   1.1220184543019630E-004   9.1171917317034626E-002
   1.2589254117941674E-004   6.3040571524500225E-002
   1.4125375446227541E-004   4.3619533368250543E-002
   1.5848931924611142E-004   3.0190731166702574E-002
   1.7782794100389227E-004   2.0894304115355963E-002
   1.9952623149688788E-004   1.4453525050533017E-002
   2.2387211385683400E-004   9.9894403391783786E-003
   2.5118864315095795E-004   6.8954079936103764E-003
   2.8183829312644550E-004   4.7518216695819756E-003
   3.1622776601683794E-004   3.2679212106518775E-003
   3.5481338923357532E-004   2.2419412152189415E-003
   3.9810717055349735E-004   1.5337267341201915E-003
   4.4668359215096305E-004   1.0458581860503940E-003
   5.0118723362727253E-004   7.1060552594909212E-004
   5.6234132519034910E-004   4.8088945231365693E-004
   6.3095734448019298E-004   3.2400576367562500E-004
   7.0794578438413802E-004   2.1726059075160930E-004
   7.9432823472428131E-004   1.4493051477881231E-004
   8.9125093813374593E-004   9.6143359737796210E-005
   1.0000000000000002E-003   6.3399999999999969E-005
   1.1220184543019630E-003   4.0995914724026020E-005
   1.2589254117941675E-003   2.5725159935825104E-005
   1.4125375446227540E-003   1.5735937880415472E-005
   1.5848931924611141E-003   9.4252981130234726E-006
   1.7782794100389228E-003   5.5528550844767168E-006
   1.9952623149688789E-003   3.2322670313900272E-006
   2.2387211385683399E-003   1.8673195383999283E-006
   2.5118864315095794E-003   1.0754777592971244E-006
   2.8183829312644548E-003   6.2030670662611309E-007
   3.1622776601683794E-003   3.5990231303536004E-007
   3.5481338923357532E-003   2.1100210327382969E-007
   3.9810717055349734E-003   1.2556360723492975E-007
   4.4668359215096305E-003   7.6184479253264128E-008
   5.0118723362727246E-003   4.7341913814123193E-008
   5.6234132519034910E-003   3.0265828893379664E-008
   6.3095734448019303E-003   1.9995748088390183E-008
   7.0794578438413804E-003   1.3713614301341787E-008
   7.9432823472428138E-003   9.8072277649220044E-009
   8.9125093813374589E-003   7.3463483307959320E-009
   1.0000000000000002E-002   5.7899999999999918E-009
   1.1220184543019630E-002   4.7144506008720839E-009
   1.2589254117941675E-002   3.8807565855800692E-009
   1.4125375446227540E-002   3.2275338462869603E-009
   1.5848931924611141E-002   2.7103825737007208E-009
   1.7782794100389229E-002   2.2968470551368452E-009
   1.9952623149688788E-002   1.9629604404314292E-009
   2.2387211385683399E-002   1.6908508813235194E-009
   2.5118864315095794E-002   1.4670660261910093E-009
   2.8183829312644550E-002   1.2813887392564693E-009
   3.1622776601683791E-002   1.1259920861818004E-009
   3.5481338923357530E-002   9.9483089852500508E-010
   3.9810717055349734E-002   8.8319984847834963E-010
   4.4668359215096300E-002   7.8740977073745311E-010
   5.0118723362727248E-002   7.0454868233515033E-010
   5.6234132519034911E-002   6.3230397035622231E-010
   6.3095734448019303E-002   5.6882909959282428E-010
   7.0794578438413802E-002   5.1264295973753761E-010
   7.9432823472428138E-002   4.6255330165721483E-010
   8.9125093813374592E-002   4.1759805701949369E-010
  0.10000000000000001        3.7699999999999978E-010
  0.11220184543019630        3.4051284798898328E-010
  0.12589254117941662        3.0800897664636170E-010
  0.14125375446227553        2.7904569007348023E-010
  0.15848931924611143        2.5322914907193236E-010
  0.17782794100389229        2.3020929770701252E-010
  0.19952623149688789        2.0967524963626532E-010
  0.22387211385683378        1.9135110682846700E-010
  0.25118864315095824        1.7499218192845321E-010
  0.28183829312644548        1.6038159501813006E-010
  0.31622776601683794        1.4732721569629306E-010
  0.35481338923357530        1.3565892209023425E-010
  0.39810717055349693        1.2522614948710537E-010
  0.44668359215096348        1.1589570262237896E-010
  0.50118723362727247        1.0754980719646967E-010
  0.56234132519034907        1.0008437783661602E-010
  0.63095734448019303        9.3407481422614152E-011
  0.70794578438413736        8.7437976408275883E-011
  0.79432823472428216        8.2104310463052243E-011
  0.89125093813374590        7.7343460406812397E-011
   1.0000000000000000        7.3100000000000128E-011
