   1.0000000000000006E-005   798.00000000000034     
   1.1220184543019630E-005   640.38252084742339     
   1.2589254117941661E-005   510.52372953783373     
   1.4125375446227555E-005   404.38686612388437     
   1.5848931924611141E-005   318.30800049626401     
   1.7782794100389229E-005   249.01885396438155     
   1.9952623149688786E-005   193.64925373368891     
   2.2387211385683379E-005   149.71423874763886     
   2.5118864315095822E-005   115.09032733415017     
   2.8183829312644549E-005   87.984818678026443     
   3.1622776601683795E-005   66.901309684278175     
   3.5481338923357534E-005   50.603926177951543     
   3.9810717055349695E-005   38.082134597621646     
   4.4668359215096348E-005   28.517443470083911     
   5.0118723362727251E-005   21.252835929869804     
   5.6234132519034907E-005   15.765398154817559     
   6.3095734448019293E-005   11.642319402119348     
   7.0794578438413731E-005   8.5602283120529350     
   7.9432823472428221E-005   6.2676857989602128     
   8.9125093813374588E-005   4.5705648556865297     
   1.0000000000000005E-004   3.3199999999999998     
   1.1220184543019630E-004   2.3930856978444934     
   1.2589254117941674E-004   1.7059125610012786     
   1.4125375446227541E-004   1.2035616932590723     
   1.5848931924611142E-004  0.84106148518524204     
   1.7782794100389227E-004  0.58259889948097809     
   1.9952623149688788E-004  0.40033985246841580     
   2.2387211385683400E-004  0.27311148645902522     
   2.5118864315095795E-004  0.18511337931265948     
   2.8183829312644550E-004  0.12475474698371719     
   3.1622776601683794E-004   8.3662820849821420E-002
   3.5481338923357532E-004   5.5872590305341911E-002
   3.9810717055349735E-004   3.7186963120919736E-002
   4.4668359215096305E-004   2.4685558081998175E-002
   5.0118723362727253E-004   1.6356494901233636E-002
   5.6234132519034910E-004   1.0825982392033374E-002
   6.3095734448019298E-004   7.1632300187435879E-003
   7.0794578438413802E-004   4.7418707276594097E-003
   7.9432823472428131E-004   3.1428559883595287E-003
   8.9125093813374593E-004   2.0872185992412960E-003
   1.0000000000000002E-003   1.3899999999999995E-003
   1.1220184543019630E-003   9.1809311555309761E-004
   1.2589254117941675E-003   5.9567007284254208E-004
   1.4125375446227540E-003   3.8072138495369917E-004
   1.5848931924611141E-003   2.4039560434849496E-004
   1.7782794100389228E-003   1.5038303774962436E-004
   1.9952623149688789E-003   9.3467275819696203E-005
   2.2387211385683399E-003   5.7882067771667366E-005
   2.5118864315095794E-003   3.5816861762938621E-005
   2.8183829312644548E-003   2.2208814936102011E-005
   3.1622776601683794E-003   1.3838624361799385E-005
   3.5481338923357532E-003   8.6901136879292132E-006
   3.9810717055349734E-003   5.5151625488966126E-006
   4.4668359215096305E-003   3.5475360515660289E-006
   5.0118723362727246E-003   2.3193499455218466E-006
   5.6234132519034910E-003   1.5456530854096061E-006
   6.3095734448019303E-003   1.0529296911693546E-006
   7.0794578438413804E-003   7.3529843581765172E-007
   7.9432823472428138E-003   5.2788601249665071E-007
   8.9125093813374589E-003   3.9071872935430688E-007
   1.0000000000000002E-002   2.9900000000000023E-007
   1.1220184543019630E-002   2.3391931614096510E-007
   1.2589254117941675E-002   1.8460958055346540E-007
   1.4125375446227540E-002   1.4693367640128609E-007
   1.5848931924611141E-002   1.1791067387801697E-007
   1.7782794100389229E-002   9.5375158234137002E-008
   1.9952623149688788E-002   7.7741604965798615E-008
   2.2387211385683399E-002   6.3840094475368659E-008
   2.5118864315095794E-002   5.2800864671740545E-008
   2.8183829312644550E-002   4.3972560000187087E-008
   3.1622776601683791E-002   3.6863908095610064E-008
   3.5481338923357530E-002   3.1101806510275538E-008
   3.9810717055349734E-002   2.6400987946993094E-008
   4.4668359215096300E-002   2.2541913169617603E-008
   5.0118723362727248E-002   1.9354551122614471E-008
   5.6234132519034911E-002   1.6706400119213451E-008
   6.3095734448019303E-002   1.4493584435374990E-008
   7.0794578438413802E-002   1.2634195405840160E-008
   7.9432823472428138E-002   1.1063280905153502E-008
   8.9125093813374592E-002   9.7290528372576864E-009
  0.10000000000000001        8.5900000000000111E-009
  0.11220184543019630        7.6051373782639336E-009
  0.12589254117941662        6.7452814257945079E-009
  0.14125375446227553        5.9945507887798211E-009
  0.15848931924611143        5.3390160054149633E-009
  0.17782794100389229        4.7664853103323274E-009
  0.19952623149688789        4.2663079592202015E-009
  0.22387211385683378        3.8291951396393023E-009
  0.25118864315095824        3.4470580779335122E-009
  0.28183829312644548        3.1128626270240902E-009
  0.31622776601683794        2.8204994011752902E-009
  0.35481338923357530        2.5646683899181203E-009
  0.39810717055349693        2.3407769156456826E-009
  0.44668359215096348        2.1448497823005935E-009
  0.50118723362727247        1.9734504831339335E-009
  0.56234132519034907        1.8236123832533257E-009
  0.63095734448019303        1.6927788592995583E-009
  0.70794578438413736        1.5787514576920201E-009
  0.79432823472428216        1.4796452196882705E-009
  0.89125093813374590        1.3938504126295653E-009
   1.0000000000000000        1.3200000000000019E-009
