   1.0000000000000006E-005   12.199999999999999     
   1.1220184543019630E-005   9.4393382437056790     
   1.2589254117941661E-005   7.2692153518552738     
   1.4125375446227555E-005   5.5722718867341641     
   1.5848931924611141E-005   4.2521673459910616     
   1.7782794100389229E-005   3.2303991825388478     
   1.9952623149688786E-005   2.4434549608274532     
   2.2387211385683379E-005   1.8403028400847754     
   2.5118864315095822E-005   1.3802112867388825     
   2.8183829312644549E-005   1.0308789732393779     
   3.1622776601683795E-005  0.76684947686219163     
   3.5481338923357534E-005  0.56818192748366492     
   3.9810717055349695E-005  0.41934750199221854     
   4.4668359215096348E-005  0.30832203799484587     
   5.0118723362727251E-005  0.22584654304031146     
   5.6234132519034907E-005  0.16482960086294890     
   6.3095734448019293E-005  0.11986830258977077     
   7.0794578438413731E-005   8.6867115671069237E-002
   7.9432823472428221E-005   6.2736870862382527E-002
   8.9125093813374588E-005   4.5158678059418693E-002
   1.0000000000000005E-004   3.2399999999999991E-002
   1.1220184543019630E-004   2.3199445533672088E-002
   1.2589254117941674E-004   1.6591222602844045E-002
   1.4125375446227541E-004   1.1843385813204139E-002
   1.5848931924611142E-004   8.4333199768316137E-003
   1.7782794100389227E-004   5.9865278459920786E-003
   1.9952623149688788E-004   4.2338325212032749E-003
   2.2387211385683400E-004   2.9812822458487312E-003
   2.5118864315095795E-004   2.0888717528527410E-003
   2.8183829312644550E-004   1.4554196592294767E-003
   3.1622776601683794E-004   1.0077689783581599E-003
   3.5481338923357532E-004   6.9304037354825691E-004
   3.9810717055349735E-004   4.7305256214565507E-004
   4.4668359215096305E-004   3.2028904805575883E-004
   5.0118723362727253E-004   2.1497359378287834E-004
   5.6234132519034910E-004   1.4294435050104775E-004
   6.3095734448019298E-004   9.4105766812958272E-005
   7.0794578438413802E-004   6.1300124374559560E-005
   7.9432823472428131E-004   3.9484883551674997E-005
   8.9125093813374593E-004   2.5133517173560052E-005
   1.0000000000000002E-003   1.5800000000000018E-005
   1.1220184543019630E-003   9.5073999593362790E-006
   1.2589254117941675E-003   5.3434248557832366E-006
   1.4125375446227540E-003   2.8317758071733069E-006
   1.5848931924611141E-003   1.4285886676550614E-006
   1.7782794100389228E-003   6.9261622548974549E-007
   1.9952623149688789E-003   3.2579409073526914E-007
   2.2387211385683399E-003   1.5010210383176635E-007
   2.5118864315095794E-003   6.8383503146023208E-008
   2.8183829312644548E-003   3.1100319734029547E-008
   3.1622776601683794E-003   1.4254607385667759E-008
   3.5481338923357532E-003   6.6473801747553389E-009
   3.9810717055349734E-003   3.1840404793485417E-009
   4.4668359215096305E-003   1.5814934687619472E-009
   5.0118723362727246E-003   8.2232773584379984E-010
   5.6234132519034910E-003   4.5189667106807056E-010
   6.3095734448019303E-003   2.6495856759629588E-010
   7.0794578438413804E-003   1.6733599413720956E-010
   7.9432823472428138E-003   1.1492150343947425E-010
   8.9125093813374589E-003   8.6644642388845678E-011
   1.0000000000000002E-002   7.2399999999999874E-011
   1.1220184543019630E-002   6.4099358572252551E-011
   1.2589254117941675E-002   5.7115325234208566E-011
   1.4125375446227540E-002   5.1211685974751818E-011
   1.5848931924611141E-002   4.6199421619115461E-011
   1.7782794100389229E-002   4.1926503409451368E-011
   1.9952623149688788E-002   3.8270046322281872E-011
   2.2387211385683399E-002   3.5130243865799301E-011
   2.5118864315095794E-002   3.2425655974242673E-011
   2.8183829312644550E-002   3.0089529871847360E-011
   3.1622776601683791E-002   2.8066913446937380E-011
   3.5481338923357530E-002   2.6312379608703395E-011
   3.9810717055349734E-002   2.4788223912145779E-011
   4.4668359215096300E-002   2.3463030470150303E-011
   5.0118723362727248E-002   2.2310525745650115E-011
   5.6234132519034911E-002   2.1308658352462893E-011
   6.3095734448019303E-002   2.0438857039132246E-011
   7.0794578438413802E-002   1.9685429721747726E-011
   7.9432823472428138E-002   1.9035074606316787E-011
   8.9125093813374592E-002   1.8476480718566707E-011
  0.10000000000000001        1.8000000000000015E-011
  0.11220184543019630        1.7571131150082236E-011
  0.12589254117941662        1.7161410151911140E-011
  0.14125375446227553        1.6771267642240281E-011
  0.15848931924611143        1.6401067240272702E-011
  0.17782794100389229        1.6051117060531062E-011
  0.19952623149688789        1.5721681041768439E-011
  0.22387211385683378        1.5412990086702218E-011
  0.25118864315095824        1.5125253024565277E-011
  0.28183829312644548        1.4858667425008944E-011
  0.31622776601683794        1.4613430307942218E-011
  0.35481338923357530        1.4389748809703032E-011
  0.39810717055349693        1.4187850881806004E-011
  0.44668359215096348        1.4007996114752072E-011
  0.50118723362727247        1.3850486796392464E-011
  0.56234132519034907        1.3715679332586663E-011
  0.63095734448019303        1.3603996177885830E-011
  0.70794578438413736        1.3515938446329314E-011
  0.79432823472428216        1.3452099397859951E-011
  0.89125093813374590        1.3413179025174378E-011
   1.0000000000000000        1.3400000000000016E-011
