   1.0000000000000006E-005   197.99999999999991     
   1.1220184543019630E-005   140.31598920100106     
   1.2589254117941661E-005   99.321737443115467     
   1.4125375446227555E-005   70.222923884898435     
   1.5848931924611141E-005   49.592185016878268     
   1.7782794100389229E-005   34.982399460411528     
   1.9952623149688786E-005   24.648485638162743     
   2.2387211385683379E-005   17.347522787774668     
   2.5118864315095822E-005   12.195329784900860     
   2.8183829312644549E-005   8.5636866863305663     
   3.1622776601683795E-005   6.0067756212669980     
   3.5481338923357534E-005   4.2086009517903413     
   3.9810717055349695E-005   2.9454528093138630     
   4.4668359215096348E-005   2.0591436747403131     
   5.0118723362727251E-005   1.4379499597830498     
   5.6234132519034907E-005   1.0030572429867717     
   6.3095734448019293E-005  0.69893174557520699     
   7.0794578438413731E-005  0.48648919477843128     
   7.9432823472428221E-005  0.33825427595402374     
   8.9125093813374588E-005  0.23493479191113406     
   1.0000000000000005E-004  0.16299999999999998     
   1.1220184543019630E-004  0.11312109619481601     
   1.2589254117941674E-004   7.8608031862823599E-002
   1.4125375446227541E-004   5.4672376681474753E-002
   1.5848931924611142E-004   3.8041452710482850E-002
   1.7782794100389227E-004   2.6469439024779811E-002
   1.9952623149688788E-004   1.8409469827421036E-002
   2.2387211385683400E-004   1.2792549956598219E-002
   2.5118864315095795E-004   8.8777447347368164E-003
   2.8183829312644550E-004   6.1501863156524445E-003
   3.1622776601683794E-004   4.2513256686611146E-003
   3.5481338923357532E-004   2.9310373734002175E-003
   3.9810717055349735E-004   2.0146036288183817E-003
   4.4668359215096305E-004   1.3798743379478218E-003
   5.0118723362727253E-004   9.4141590237413768E-004
   5.6234132519034910E-004   6.3947855370553766E-004
   6.3095734448019298E-004   4.3229806888702734E-004
   7.0794578438413802E-004   2.9071260330623710E-004
   7.9432823472428131E-004   1.9439185939830171E-004
   8.9125093813374593E-004   1.2919221144029518E-004
   1.0000000000000002E-003   8.5299999999999959E-005
   1.1220184543019630E-003   5.5162132787072467E-005
   1.2589254117941675E-003   3.4563551502156044E-005
   1.4125375446227540E-003   2.1082058051383364E-005
   1.5848931924611141E-003   1.2576419616941173E-005
   1.7782794100389228E-003   7.3719510542188424E-006
   1.9952623149688789E-003   4.2660045535646087E-006
   2.2387211385683399E-003   2.4485313715985053E-006
   2.5118864315095794E-003   1.4004498322206640E-006
   2.8183829312644548E-003   8.0193469387574129E-007
   3.1622776601683794E-003   4.6190434936795400E-007
   3.5481338923357532E-003   2.6886776774833873E-007
   3.9810717055349734E-003   1.5890263932849832E-007
   4.4668359215096305E-003   9.5799049050774823E-008
   5.0118723362727246E-003   5.9191731183613723E-008
   5.6234132519034910E-003   3.7658470843473460E-008
   6.3095734448019303E-003   2.4785526803554828E-008
   7.0794578438413804E-003   1.6955066573870642E-008
   7.9432823472428138E-003   1.2111522928594927E-008
   8.9125093813374589E-003   9.0766995832306412E-009
   1.0000000000000002E-002   7.1699999999999924E-009
   1.1220184543019630E-002   5.8570486746827855E-009
   1.2589254117941675E-002   4.8370531273530208E-009
   1.4125375446227540E-002   4.0360665514757583E-009
   1.5848931924611141E-002   3.4005119680659167E-009
   1.7782794100389229E-002   2.8911585879495296E-009
   1.9952623149688788E-002   2.4789868891495065E-009
   2.2387211385683399E-002   2.1423200090052441E-009
   2.5118864315095794E-002   1.8648132554637501E-009
   2.8183829312644550E-002   1.6340311480442081E-009
   3.1622776601683791E-002   1.4404307508878899E-009
   3.5481338923357530E-002   1.2766286846103708E-009
   3.9810717055349734E-002   1.1368680554910441E-009
   4.4668359215096300E-002   1.0166275396602563E-009
   5.0118723362727248E-002   9.1233242199926723E-010
   5.6234132519034911E-002   8.2113936013460799E-010
   6.3095734448019303E-002   7.4077487484821538E-010
   7.0794578438413802E-002   6.6941327566268208E-010
   7.9432823472428138E-002   6.0558372052326713E-010
   8.9125093813374592E-002   5.4809892067612921E-010
  0.10000000000000001        4.9600000000000077E-010
  0.11220184543019630        4.4903652703839617E-010
  0.12589254117941662        4.0710381610050539E-010
  0.14125375446227553        3.6965425499246453E-010
  0.15848931924611143        3.3619929841458084E-010
  0.17782794100389229        3.0630351232841374E-010
  0.19952623149688789        2.7957913408192377E-010
  0.22387211385683378        2.5568112146836094E-010
  0.25118864315095824        2.3430266152659767E-010
  0.28183829312644548        2.1517110860621491E-010
  0.31622776601683794        1.9804432080160042E-010
  0.35481338923357530        1.8270736411815878E-010
  0.39810717055349693        1.6896955451136316E-010
  0.44668359215096348        1.5666180910288621E-010
  0.50118723362727247        1.4563427931730432E-010
  0.56234132519034907        1.3575424030833611E-010
  0.63095734448019303        1.2690421278360401E-010
  0.70794578438413736        1.1898029513506914E-010
  0.79432823472428216        1.1189068559567014E-010
  0.89125093813374590        1.0555437593939910E-010
   1.0000000000000000        9.9900000000000115E-011
