   1.0000000000000006E-005   50.800000000000004     
   1.1220184543019630E-005   35.501251412001416     
   1.2589254117941661E-005   24.786804933840301     
   1.4125375446227555E-005   17.290032337488590     
   1.5848931924611141E-005   12.049551005061444     
   1.7782794100389229E-005   8.3897140358826654     
   1.9952623149688786E-005   5.8361456172817192     
   2.2387211385683379E-005   4.0561049239808078     
   2.5118864315095822E-005   2.8164223051194783     
   2.8183829312644549E-005   1.9538595178150104     
   3.1622776601683795E-005   1.3542451612666613     
   3.5481338923357534E-005  0.93780184088630492     
   3.9810717055349695E-005  0.64883778435928707     
   4.4668359215096348E-005  0.44851180695211318     
   5.0118723362727251E-005  0.30976030009719180     
   5.6234132519034907E-005  0.21374363639042643     
   6.3095734448019293E-005  0.14735932545132197     
   7.0794578438413731E-005  0.10150337489785270     
   7.9432823472428221E-005   6.9855917159031139E-002
   8.9125093813374588E-005   4.8033828960033165E-002
   1.0000000000000005E-004   3.3000000000000002E-002
   1.1220184543019630E-004   2.2725110202833399E-002
   1.2589254117941674E-004   1.5726315292722542E-002
   1.4125375446227541E-004   1.0925210354419649E-002
   1.5848931924611142E-004   7.6114502259288525E-003
   1.7782794100389227E-004   5.3124238392667526E-003
   1.9952623149688788E-004   3.7107239684650885E-003
   2.2387211385683400E-004   2.5913026287499850E-003
   2.5118864315095795E-004   1.8072744196361713E-003
   2.8183829312644550E-004   1.2575621965705303E-003
   3.1622776601683794E-004   8.7214195280369716E-004
   3.5481338923357532E-004   6.0221301993114906E-004
   3.9810717055349735E-004   4.1359119877294769E-004
   4.4668359215096305E-004   2.8223024124303771E-004
   5.0118723362727253E-004   1.9116124168073038E-004
   5.6234132519034910E-004   1.2838465017900490E-004
   6.3095734448019298E-004   8.5407547473897275E-005
   7.0794578438413802E-004   5.6221472482034836E-005
   7.9432823472428131E-004   3.6583387982071186E-005
   8.9125093813374593E-004   2.3506842548119348E-005
   1.0000000000000002E-003   1.4900000000000000E-005
   1.1220184543019630E-003   9.0871258666893631E-006
   1.2589254117941675E-003   5.2325703111274955E-006
   1.4125375446227540E-003   2.8678381648808328E-006
   1.5848931924611141E-003   1.5081621223465877E-006
   1.7782794100389228E-003   7.6718132837777962E-007
   1.9952623149688789E-003   3.8054621754588821E-007
   2.2387211385683399E-003   1.8555769483473885E-007
   2.5118864315095794E-003   8.9663458328221132E-008
   2.8183829312644548E-003   4.3283238173449869E-008
   3.1622776601683794E-003   2.1042364005192488E-008
   3.5481338923357532E-003   1.0385863811782477E-008
   3.9810717055349734E-003   5.2464653825162918E-009
   4.4668359215096305E-003   2.7344493130710224E-009
   5.0118723362727246E-003   1.4823631321298576E-009
   5.6234132519034910E-003   8.4260450809039120E-010
   6.3095734448019303E-003   5.0626765460485184E-010
   7.0794578438413804E-003   3.2413549943651225E-010
   7.9432823472428138E-003   2.2292861187606371E-010
   8.9125093813374589E-003   1.6603536735519675E-010
   1.0000000000000002E-002   1.3500000000000013E-010
   1.1220184543019630E-002   1.1547636872602620E-010
   1.2589254117941675E-002   9.9585979240076856E-011
   1.4125375446227540E-002   8.6564408714384966E-011
   1.5848931924611141E-002   7.5824051137939045E-011
   1.7782794100389229E-002   6.6910058543291024E-011
   1.9952623149688788E-002   5.9467954887454547E-011
   2.2387211385683399E-002   5.3219663485367557E-011
   2.5118864315095794E-002   4.7945641298495056E-011
   2.8183829312644550E-002   4.3471476009519031E-011
   3.1622776601683791E-002   3.9657766076406659E-011
   3.5481338923357530E-002   3.6392431472683376E-011
   3.9810717055349734E-002   3.3584835413848989E-011
   4.4668359215096300E-002   3.1161263633661441E-011
   5.0118723362727248E-002   2.9061427383361202E-011
   5.6234132519034911E-002   2.7235742910399970E-011
   6.3095734448019303E-002   2.5643203232120844E-011
   7.0794578438413802E-002   2.4249704219629572E-011
   7.9432823472428138E-002   2.3026721052779300E-011
   8.9125093813374592E-002   2.1950256339703169E-011
  0.10000000000000001        2.1000000000000011E-011
  0.11220184543019630        2.0128599053950734E-011
  0.12589254117941662        1.9301565452101867E-011
  0.14125375446227553        1.8519887259270325E-011
  0.15848931924611143        1.7784147550279281E-011
  0.17782794100389229        1.7094593053518176E-011
  0.19952623149688789        1.6451199513196778E-011
  0.22387211385683378        1.5853733400002539E-011
  0.25118864315095824        1.5301809836750257E-011
  0.28183829312644548        1.4794946813100002E-011
  0.31622776601683794        1.4332615944561643E-011
  0.35481338923357530        1.3914290190058590E-011
  0.39810717055349693        1.3539489084482807E-011
  0.44668359215096348        1.3207822173960443E-011
  0.50118723362727247        1.2919031468742307E-011
  0.56234132519034907        1.2673033859314062E-011
  0.63095734448019303        1.2469964584031877E-011
  0.70794578438413736        1.2310223001088003E-011
  0.79432823472428216        1.2194522115298521E-011
  0.89125093813374590        1.2123943554711229E-011
   1.0000000000000000        1.2100000000000018E-011
