   1.0000000000000006E-005   26.199999999999999     
   1.1220184543019630E-005   19.578446495778191     
   1.2589254117941661E-005   14.579259280848206     
   1.4125375446227555E-005   10.819130349803384     
   1.5848931924611141E-005   8.0014423080844832     
   1.7782794100389229E-005   5.8976989952535179     
   1.9952623149688786E-005   4.3326608767000048     
   2.2387211385683379E-005   3.1725167916905099     
   2.5118864315095822E-005   2.3155260321241866     
   2.8183829312644549E-005   1.6846561885498281     
   3.1622776601683795E-005   1.2218225595400760     
   3.5481338923357534E-005  0.88340450671280624     
   3.9810717055349695E-005  0.63677361967601531     
   4.4668359215096348E-005  0.45761880875475386     
   5.0118723362727251E-005  0.32789544881427357     
   5.6234132519034907E-005  0.23426046407020001     
   6.3095734448019293E-005  0.16688375640748465     
   7.0794578438413731E-005  0.11854956370174859     
   7.9432823472428221E-005   8.3980034300694339E-002
   8.9125093813374588E-005   5.9328271925985041E-002
   1.0000000000000005E-004   4.1800000000000004E-002
   1.1220184543019630E-004   2.9423973158785269E-002
   1.2589254117941674E-004   2.0720655875653710E-002
   1.4125375446227541E-004   1.4587469667042018E-002
   1.5848931924611142E-004   1.0259539228441240E-002
   1.7782794100389227E-004   7.2035123708947477E-003
   1.9952623149688788E-004   5.0457584117832473E-003
   2.2387211385683400E-004   3.5234769363250091E-003
   2.5118864315095795E-004   2.4511866572533804E-003
   2.8183829312644550E-004   1.6976120234524707E-003
   3.1622776601683794E-004   1.1696468237182623E-003
   3.5481338923357532E-004   8.0116585337900207E-004
   3.9810717055349735E-004   5.4517839253658636E-004
   4.4668359215096305E-004   3.6829896173700251E-004
   5.0118723362727253E-004   2.4683409439846959E-004
   5.6234132519034910E-004   1.6400222110134462E-004
   6.3095734448019298E-004   1.0795217065039335E-004
   7.0794578438413802E-004   7.0347267518018164E-005
   7.9432823472428131E-004   4.5351789426006667E-005
   8.9125093813374593E-004   2.8904808749667482E-005
   1.0000000000000002E-003   1.8200000000000012E-005
   1.1220184543019630E-003   1.1012056856295172E-005
   1.2589254117941675E-003   6.2664868789246221E-006
   1.4125375446227540E-003   3.3827870372512943E-006
   1.5848931924611141E-003   1.7472546906737134E-006
   1.7782794100389228E-003   8.7097363241742796E-007
   1.9952623149688789E-003   4.2262699703050910E-007
   2.2387211385683399E-003   2.0134882575360938E-007
   2.5118864315095794E-003   9.4998512281665195E-008
   2.8183829312644548E-003   4.4770974297756906E-008
   3.1622776601683794E-003   2.1258103946401354E-008
   3.5481338923357532E-003   1.0257391865662915E-008
   3.9810717055349734E-003   5.0730601226992682E-009
   4.4668359215096305E-003   2.5939399223541088E-009
   5.0118723362727246E-003   1.3830658560224144E-009
   5.6234132519034910E-003   7.7563080681721293E-010
   6.3095734448019303E-003   4.6145853709497714E-010
   7.0794578438413804E-003   2.9377305862893210E-010
   7.9432823472428138E-003   2.0185015679171891E-010
   8.9125093813374589E-003   1.5098029312666913E-010
   1.0000000000000002E-002   1.2400000000000014E-010
   1.1220184543019630E-002   1.0744954450563119E-010
   1.2589254117941675E-002   9.3836972224205372E-011
   1.4125375446227540E-002   8.2568963479422840E-011
   1.5848931924611141E-002   7.3184657317993243E-011
   1.7782794100389229E-002   6.5323665169931438E-011
   1.9952623149688788E-002   5.8702319170019649E-011
   2.2387211385683399E-002   5.3095915664770365E-011
   2.5118864315095794E-002   4.8325353061035908E-011
   2.8183829312644550E-002   4.4247011893928940E-011
   3.1622776601683791E-002   4.0745042433951876E-011
   3.5481338923357530E-002   3.7725451223377798E-011
   3.9810717055349734E-002   3.5111539979980354E-011
   4.4668359215096300E-002   3.2840367202370814E-011
   5.0118723362727248E-002   3.0859987660600773E-011
   5.6234132519034911E-002   2.9127286918181586E-011
   6.3095734448019303E-002   2.7606273549626319E-011
   7.0794578438413802E-002   2.6266725349912253E-011
   7.9432823472428138E-002   2.5083110824101763E-011
   8.9125093813374592E-002   2.4033725920288167E-011
  0.10000000000000001        2.3100000000000032E-011
  0.11220184543019630        2.2238326135185034E-011
  0.12589254117941662        2.1417243994923519E-011
  0.14125375446227553        2.0638088415118504E-011
  0.15848931924611143        1.9901818843569199E-011
  0.17782794100389229        1.9209077355154711E-011
  0.19952623149688789        1.8560244781508372E-011
  0.22387211385683378        1.7955494574354353E-011
  0.25118864315095824        1.7394844211782447E-011
  0.28183829312644548        1.6878204127984559E-011
  0.31622776601683794        1.6405424300998132E-011
  0.35481338923357530        1.5976338772376726E-011
  0.39810717055349693        1.5590808500848186E-011
  0.44668359215096348        1.5248763073065535E-011
  0.50118723362727247        1.4950241913350748E-011
  0.56234132519034907        1.4695435756438750E-011
  0.63095734448019303        1.4484729279061549E-011
  0.70794578438413736        1.4318745935177082E-011
  0.79432823472428216        1.4198396214474845E-011
  0.89125093813374590        1.4124930754898266E-011
   1.0000000000000000        1.4100000000000021E-011
