   1.0000000000000006E-005   27.900000000000006     
   1.1220184543019630E-005   20.633945874882684     
   1.2589254117941661E-005   15.213160272197022     
   1.4125375446227555E-005   11.182292773313646     
   1.5848931924611141E-005   8.1946750311880869     
   1.7782794100389229E-005   5.9873861242386086     
   1.9952623149688786E-005   4.3617688379231208     
   2.2387211385683379E-005   3.1682764339356502     
   2.5118864315095822E-005   2.2947412678648207     
   2.8183829312644549E-005   1.6573331480414670     
   3.1622776601683795E-005   1.1936212279565237     
   3.5481338923357534E-005  0.85727285468132353     
   3.9810717055349695E-005  0.61402015354682926     
   4.4668359215096348E-005  0.43860379982035630     
   5.0118723362727251E-005  0.31246656883134771     
   5.6234132519034907E-005  0.22201960538111509     
   6.3095734448019293E-005  0.15734425417104986     
   7.0794578438413731E-005  0.11122372560729960     
   7.9432823472428221E-005   7.8423491108168902E-002
   8.9125093813374588E-005   5.5158479030135904E-002
   1.0000000000000005E-004   3.8699999999999998E-002
   1.1220184543019630E-004   2.7141830886230928E-002
   1.2589254117941674E-004   1.9057479008315274E-002
   1.4125375446227541E-004   1.3386365304261540E-002
   1.5848931924611142E-004   9.3994747372787169E-003
   1.7782794100389227E-004   6.5926643543655324E-003
   1.9952623149688788E-004   4.6153813602780591E-003
   2.2387211385683400E-004   3.2226730076084968E-003
   2.5118864315095795E-004   2.2426406636593729E-003
   2.8183829312644550E-004   1.5542136631213151E-003
   3.1622776601683794E-004   1.0718699837828942E-003
   3.5481338923357532E-004   7.3506649988087697E-004
   3.9810717055349735E-004   5.0088389050415927E-004
   4.4668359215096305E-004   3.3888019445100847E-004
   5.0118723362727253E-004   2.2747138869554985E-004
   5.6234132519034910E-004   1.5137411456117813E-004
   6.3095734448019298E-004   9.9791482829425903E-005
   7.0794578438413802E-004   6.5121611216232482E-005
   7.9432823472428131E-004   4.2035805818768700E-005
   8.9125093813374593E-004   2.6819394818410335E-005
   1.0000000000000002E-003   1.6900000000000014E-005
   1.1220184543019630E-003   1.0234085402717163E-005
   1.2589254117941675E-003   5.8310388391920856E-006
   1.4125375446227540E-003   3.1527564270660742E-006
   1.5848931924611141E-003   1.6315317001454434E-006
   1.7782794100389228E-003   8.1503122467037449E-007
   1.9952623149688789E-003   3.9640546703187428E-007
   2.2387211385683399E-003   1.8932357809498856E-007
   2.5118864315095794E-003   8.9553481722798313E-008
   2.8183829312644548E-003   4.2314184281366197E-008
   3.1622776601683794E-003   2.0143188651472933E-008
   3.5481338923357532E-003   9.7436626557155404E-009
   3.9810717055349734E-003   4.8303772917118252E-009
   4.4668359215096305E-003   2.4752421214068946E-009
   5.0118723362727246E-003   1.3223461678317145E-009
   5.6234132519034910E-003   7.4280787511132506E-010
   6.3095734448019303E-003   4.4251166659633030E-010
   7.0794578438413804E-003   2.8196997200101512E-010
   7.9432823472428138E-003   1.9383130984612446E-010
   8.9125093813374589E-003   1.4497761678134787E-010
   1.0000000000000002E-002   1.1900000000000008E-010
   1.1220184543019630E-002   1.0302738074818068E-010
   1.2589254117941675E-002   8.9899628883566089E-011
   1.4125375446227540E-002   7.9040450970409696E-011
   1.5848931924611141E-002   7.0002559411969137E-011
   1.7782794100389229E-002   6.2436443264253511E-011
   1.9952623149688788E-002   5.6067197265415728E-011
   2.2387211385683399E-002   5.0677212874217307E-011
   2.5118864315095794E-002   4.6093162680606013E-011
   2.8183829312644550E-002   4.2176150137790497E-011
   3.1622776601683791E-002   3.8814208002860331E-011
   3.5481338923357530E-002   3.5916550494170793E-011
   3.9810717055349734E-002   3.3409142912245308E-011
   4.4668359215096300E-002   3.1231266895164357E-011
   5.0118723362727248E-002   2.9332842474785292E-011
   5.6234132519034911E-002   2.7672328666177150E-011
   6.3095734448019303E-002   2.6215068784326340E-011
   7.0794578438413802E-002   2.4931979512027429E-011
   7.9432823472428138E-002   2.3798507122494474E-011
   8.9125093813374592E-002   2.2793792466025955E-011
  0.10000000000000001        2.1899999999999964E-011
  0.11220184543019630        2.1075363705354830E-011
  0.12589254117941662        2.0289767751855626E-011
  0.14125375446227553        1.9544476762904682E-011
  0.15848931924611143        1.8840392019337140E-011
  0.17782794100389229        1.8178107892098259E-011
  0.19952623149688789        1.7557966386711496E-011
  0.22387211385683378        1.6980109428605403E-011
  0.25118864315095824        1.6444528705019090E-011
  0.28183829312644548        1.5951113047021783E-011
  0.31622776601683794        1.5499693485775669E-011
  0.35481338923357530        1.5090086253128936E-011
  0.39810717055349693        1.4722134121332076E-011
  0.44668359215096348        1.4395746594224692E-011
  0.50118723362727247        1.4110939577442495E-011
  0.56234132519034907        1.3867875273524748E-011
  0.63095734448019303        1.3666903175590277E-011
  0.70794578438413736        1.3508603177789246E-011
  0.79432823472428216        1.3393831990618354E-011
  0.89125093813374590        1.3323774254674267E-011
   1.0000000000000000        1.3300000000000000E-011
