   1.0000000000000006E-005   323.99999999999994     
   1.1220184543019630E-005   242.15840788449529     
   1.2589254117941661E-005   180.37267054683039     
   1.4125375446227555E-005   133.89894174984155     
   1.5848931924611141E-005   99.068905864821843     
   1.7782794100389229E-005   73.058371496047585     
   1.9952623149688786E-005   53.702387392880361     
   2.2387211385683379E-005   39.348372131664107     
   2.5118864315095822E-005   28.740088703217680     
   2.8183829312644549E-005   20.926479958518936     
   3.1622776601683795E-005   15.190413258092908     
   3.5481338923357534E-005   10.993270443298805     
   3.9810717055349695E-005   7.9320736318227842     
   4.4668359215096348E-005   5.7064714660932658     
   5.0118723362727251E-005   4.0934381920637648     
   5.6234132519034907E-005   2.9279731163254792     
   6.3095734448019293E-005   2.0884437332172885     
   7.0794578438413731E-005   1.4855042746680516     
   7.9432823472428221E-005   1.0537535520168539     
   8.9125093813374588E-005  0.74548138307432654     
   1.0000000000000005E-004  0.52600000000000002     
   1.1220184543019630E-004  0.37011789102826731     
   1.2589254117941674E-004  0.25966618117925533     
   1.4125375446227541E-004  0.18162362570567459     
   1.5848931924611142E-004  0.12664020064752213     
   1.7782794100389227E-004   8.8018466541555304E-002
   1.9952623149688788E-004   6.0973289521988869E-002
   2.2387211385683400E-004   4.2094924442069297E-002
   2.5118864315095795E-004   2.8960415187756706E-002
   2.8183829312644550E-004   1.9852967650542102E-002
   3.1622776601683794E-004   1.3559770787812226E-002
   3.5481338923357532E-004   9.2266954242058649E-003
   3.9810717055349735E-004   6.2541400821997314E-003
   4.4668359215096305E-004   4.2225739916589775E-003
   5.0118723362727253E-004   2.8394605358300407E-003
   5.6234132519034910E-004   1.9015334563982011E-003
   6.3095734448019298E-004   1.2680673800891606E-003
   7.0794578438413802E-004   8.4199900299360001E-004
   7.9432823472428131E-004   5.5663738453493462E-004
   8.9125093813374593E-004   3.6634086967755522E-004
   1.0000000000000002E-003   2.3999999999999995E-004
   1.1220184543019630E-003   1.5416789975996719E-004
   1.2589254117941675E-003   9.5953490653015336E-005
   1.4125375446227540E-003   5.8136288179321173E-005
   1.5848931924611141E-003   3.4449990935463834E-005
   1.7782794100389228E-003   2.0059578608655504E-005
   1.9952623149688789E-003   1.1531371715696164E-005
   2.2387211385683399E-003   6.5750975757672587E-006
   2.5118864315095794E-003   3.7361223298544573E-006
   2.8183829312644548E-003   2.1255592694243105E-006
   3.1622776601683794E-003   1.2164497924532301E-006
   3.5481338923357532E-003   7.0358988377383222E-007
   3.9810717055349734E-003   4.1322349279560349E-007
   4.4668359215096305E-003   2.4758597128687757E-007
   5.0118723362727246E-003   1.5204714298965577E-007
   5.6234132519034910E-003   9.6156199181199046E-008
   6.3095734448019303E-003   6.2915651383048201E-008
   7.0794578438413804E-003   4.2791556323811942E-008
   7.9432823472428138E-003   3.0395621903878987E-008
   8.9125093813374589E-003   2.2654430197871996E-008
   1.0000000000000002E-002   1.7799999999999984E-008
   1.1220184543019630E-002   1.4462847197561964E-008
   1.2589254117941675E-002   1.1878877456100712E-008
   1.4125375446227540E-002   9.8568564970313091E-009
   1.5848931924611141E-002   8.2584113583011461E-009
   1.7782794100389229E-002   6.9823763600013722E-009
   1.9952623149688788E-002   5.9540472962191982E-009
   2.2387211385683399E-002   5.1177280962043280E-009
   2.5118864315095794E-002   4.4315092173143298E-009
   2.8183829312644550E-002   3.8635740915429383E-009
   3.1622776601683791E-002   3.3895620710884236E-009
   3.5481338923357530E-002   2.9906687602360325E-009
   3.9810717055349734E-002   2.6522657220555694E-009
   4.4668359215096300E-002   2.3628892409281477E-009
   5.0118723362727248E-002   2.1134935647499271E-009
   5.6234132519034911E-002   1.8968952375285471E-009
   6.3095734448019303E-002   1.7073565796275264E-009
   7.0794578438413802E-002   1.5402712444078662E-009
   7.9432823472428138E-002   1.3919251756076430E-009
   8.9125093813374592E-002   1.2593136137803116E-009
  0.10000000000000001        1.1400000000000004E-009
  0.11220184543019630        1.0328043324677561E-009
  0.12589254117941662        9.3704998695914587E-010
  0.14125375446227553        8.5151545099647860E-010
  0.15848931924611143        7.7510569934259211E-010
  0.17782794100389229        7.0684063635141858E-010
  0.19952623149688789        6.4584429453443123E-010
  0.22387211385683378        5.9133480607623432E-010
  0.25118864315095824        5.4261514620018398E-010
  0.28183829312644548        4.9906463355191477E-010
  0.31622776601683794        4.6013116251532947E-010
  0.35481338923357530        4.2532413503844141E-010
  0.39810717055349693        3.9420805462244674E-010
  0.44668359215096348        3.6639674217356487E-010
  0.50118723362727247        3.4154813205064879E-010
  0.56234132519034907        3.1935960653511287E-010
  0.63095734448019303        2.9956382782914084E-010
  0.70794578438413736        2.8192502832715730E-010
  0.79432823472428216        2.6623572212160925E-010
  0.89125093813374590        2.5231380335418146E-010
   1.0000000000000000        2.4000000000000021E-010
