   1.0000000000000006E-005   96.799999999999983     
   1.1220184543019630E-005   67.014597009297788     
   1.2589254117941661E-005   46.373358400408208     
   1.4125375446227555E-005   32.075476381156754     
   1.5848931924611141E-005   22.176012130438782     
   1.7782794100389229E-005   15.324979303844888     
   1.9952623149688786E-005   10.585778330129308     
   2.2387211385683379E-005   7.3089078872398687     
   2.5118864315095822E-005   5.0441653877364940     
   2.8183829312644549E-005   3.4796344722187396     
   3.1622776601683795E-005   2.3993066134784446     
   3.5481338923357534E-005   1.6536593042155190     
   3.9810717055349695E-005   1.1392389617260890     
   4.4668359215096348E-005  0.78449912686603707     
   5.0118723362727251E-005  0.53998200383134720     
   5.6234132519034907E-005  0.37151438640613671     
   6.3095734448019293E-005  0.25549467642593499     
   7.0794578438413731E-005  0.17562983226626150     
   7.9432823472428221E-005  0.12067721277849609     
   8.9125093813374588E-005   8.2882558780669635E-002
   1.0000000000000005E-004   5.6899999999999992E-002
   1.1220184543019630E-004   3.9138603915349242E-002
   1.2589254117941674E-004   2.7024443068170173E-002
   1.4125375446227541E-004   1.8717137255048633E-002
   1.5848931924611142E-004   1.2993502648338961E-002
   1.7782794100389227E-004   9.0342080272419883E-003
   1.9952623149688788E-004   6.2864267404224988E-003
   2.2387211385683400E-004   4.3746211394393121E-003
   2.5118864315095795E-004   3.0420947986438585E-003
   2.8183829312644550E-004   2.1123877446458657E-003
   3.1622776601683794E-004   1.4635785158571648E-003
   3.5481338923357532E-004   1.0110503754848521E-003
   3.9810717055349735E-004   6.9585193276498400E-004
   4.4668359215096305E-004   4.7678331230734464E-004
   5.0118723362727253E-004   3.2498125546934491E-004
   5.6234132519034910E-004   2.2019199505777322E-004
   6.3095734448019298E-004   1.4819159789456105E-004
   7.0794578438413802E-004   9.8991377369268458E-005
   7.9432823472428131E-004   6.5583679182150447E-005
   8.9125093813374593E-004   4.3061752527248096E-005
   1.0000000000000002E-003   2.8000000000000013E-005
   1.1220184543019630E-003   1.7700008419200497E-005
   1.2589254117941675E-003   1.0727826694047489E-005
   1.4125375446227540E-003   6.2724654675149222E-006
   1.5848931924611141E-003   3.5597416728359385E-006
   1.7782794100389228E-003   1.9729577258307414E-006
   1.9952623149688789E-003   1.0744880499206651E-006
   2.2387211385683399E-003   5.7854258575908514E-007
   2.5118864315095794E-003   3.0987349252238128E-007
   2.8183829312644548E-003   1.6611708192832779E-007
   3.1622776601683794E-003   8.9678916295044450E-008
   3.5481338923357532E-003   4.9054405919390211E-008
   3.9810717055349734E-003   2.7355377993774249E-008
   4.4668359215096305E-003   1.5647676905987878E-008
   5.0118723362727246E-003   9.2377220362400321E-009
   5.6234132519034910E-003   5.6630865577004273E-009
   6.3095734448019303E-003   3.6272727928614889E-009
   7.0794578438413804E-003   2.4423694887617550E-009
   7.9432823472428138E-003   1.7394504497782122E-009
   8.9125093813374589E-003   1.3184016137459222E-009
   1.0000000000000002E-002   1.0700000000000002E-009
   1.1220184543019630E-002   9.0430192164146335E-010
   1.2589254117941675E-002   7.7068397799808304E-010
   1.4125375446227540E-002   6.6215145390296464E-010
   1.5848931924611141E-002   5.7337849816716543E-010
   1.7782794100389229E-002   5.0028036384958970E-010
   1.9952623149688788E-002   4.3970198787790072E-010
   2.2387211385683399E-002   3.8918961941364334E-010
   2.5118864315095794E-002   3.4682216383666996E-010
   2.8183829312644550E-002   3.1108576916379788E-010
   3.1622776601683791E-002   2.8077994220264696E-010
   3.5481338923357530E-002   2.5494680884779287E-010
   3.9810717055349734E-002   2.3281747441694073E-010
   4.4668359215096300E-002   2.1377109896208690E-010
   5.0118723362727248E-002   1.9730348577053016E-010
   5.6234132519034911E-002   1.8300283068146562E-010
   6.3095734448019303E-002   1.7053089343723536E-010
   7.0794578438413802E-002   1.5960829826414929E-010
   7.9432823472428138E-002   1.5000299697513114E-010
   8.9125093813374592E-002   1.4152116772946543E-010
  0.10000000000000001        1.3400000000000016E-010
  0.11220184543019630        1.2710503360914034E-010
  0.12589254117941662        1.2060282614639886E-010
  0.14125375446227553        1.1449811338189954E-010
  0.15848931924611143        1.0879141214304211E-010
  0.17782794100389229        1.0347981933790457E-010
  0.19952623149688789        9.8557754685310222E-011
  0.22387211385683378        9.4017642793951615E-011
  0.25118864315095824        8.9850533676862220E-011
  0.28183829312644548        8.6046663638633305E-011
  0.31622776601683794        8.2595960796458761E-011
  0.35481338923357530        7.9488501375959633E-011
  0.39810717055349693        7.6714924454632473E-011
  0.44668359215096348        7.4266814113863804E-011
  0.50118723362727247        7.2137059115051205E-011
  0.56234132519034907        7.0320201353131833E-011
  0.63095734448019303        6.8812785586513633E-011
  0.70794578438413736        6.7613724433314057E-011
  0.79432823472428216        6.6724694516286937E-011
  0.89125093813374590        6.6150582117912346E-011
   1.0000000000000000        6.5900000000000103E-011
