   1.0000000000000006E-005   122.00000000000004     
   1.1220184543019630E-005   84.969173339207785     
   1.2589254117941661E-005   59.135736715888534     
   1.4125375446227555E-005   41.126955279364203     
   1.5848931924611141E-005   28.581953430049559     
   1.7782794100389229E-005   19.849379230111737     
   1.9952623149688786E-005   13.775028214416698     
   2.2387211385683379E-005   9.5527735611531170     
   2.5118864315095822E-005   6.6200117534216067     
   2.8183829312644549E-005   4.5843862464528717     
   3.1622776601683795E-005   3.1724711187954910     
   3.5481338923357534E-005   2.1938607656727864     
   3.9810717055349695E-005   1.5160594308422044     
   4.4668359215096348E-005   1.0469357844266647     
   5.0118723362727251E-005  0.72247261124539375     
   5.6234132519034907E-005  0.49821996753343634     
   6.3095734448019293E-005  0.34333663059543656     
   7.0794578438413731E-005  0.23643909876003666     
   7.9432823472428221E-005  0.16271195566503116     
   8.9125093813374588E-005  0.11189779337909213     
   1.0000000000000005E-004   7.6899999999999996E-002
   1.1220184543019630E-004   5.2918209601006856E-002
   1.2589254117941674E-004   3.6521068320735664E-002
   1.4125375446227541E-004   2.5261764584926471E-002
   1.5848931924611142E-004   1.7502017936679742E-002
   1.7782794100389227E-004   1.2137776796440689E-002
   1.9952623149688788E-004   8.4205236802454356E-003
   2.2387211385683400E-004   5.8399662774055996E-003
   2.5118864315095795E-004   4.0464596228458535E-003
   2.8183829312644550E-004   2.7993426957011909E-003
   3.1622776601683794E-004   1.9323031456633119E-003
   3.5481338923357532E-004   1.3300107171649036E-003
   3.9810717055349735E-004   9.1225879252045605E-004
   4.4668359215096305E-004   6.2314105304598429E-004
   5.0118723362727253E-004   4.2362580726217102E-004
   5.6234132519034910E-004   2.8643662338373270E-004
   6.3095734448019298E-004   1.9250726453486590E-004
   7.0794578438413802E-004   1.2851697437185004E-004
   7.9432823472428131E-004   8.5170854697109880E-005
   8.9125093813374593E-004   5.5996516722137589E-005
   1.0000000000000002E-003   3.6499999999999993E-005
   1.1220184543019630E-003   2.3208408760266167E-005
   1.2589254117941675E-003   1.4220754635586449E-005
   1.4125375446227540E-003   8.4423827758780053E-006
   1.5848931924611141E-003   4.8821699404441217E-006
   1.7782794100389228E-003   2.7650726278627170E-006
   1.9952623149688789E-003   1.5420069485669183E-006
   2.2387211385683399E-003   8.5131952748721082E-007
   2.5118864315095794E-003   4.6780588033807815E-007
   2.8183829312644548E-003   2.5724439118880045E-007
   3.1622776601683794E-003   1.4232252777131760E-007
   3.5481338923357532E-003   7.9650630677260530E-008
   3.9810717055349734E-003   4.5334931641492988E-008
   4.4668359215096305E-003   2.6384278789933370E-008
   5.0118723362727246E-003   1.5785790870946338E-008
   5.6234132519034910E-003   9.7619517808531159E-009
   6.3095734448019303E-003   6.2733064965633593E-009
   7.0794578438413804E-003   4.2119793170784829E-009
   7.9432823472428138E-003   2.9706136219824061E-009
   8.9125093813374589E-003   2.2126700692313189E-009
   1.0000000000000002E-002   1.7500000000000000E-009
   1.1220184543019630E-002   1.4365313769677951E-009
   1.2589254117941675E-002   1.1916328685076679E-009
   1.4125375446227540E-002   9.9837844578763871E-010
   1.5848931924611141E-002   8.4440026273302524E-010
   1.7782794100389229E-002   7.2057143125522330E-010
   1.9952623149688788E-002   6.2009226087459555E-010
   2.2387211385683399E-002   5.3785009561857101E-010
   2.5118864315095794E-002   4.6996653288440075E-010
   2.8183829312644550E-002   4.1347421631694100E-010
   3.1622776601683791E-002   3.6608406678516987E-010
   3.5481338923357530E-002   3.2601620788907525E-010
   3.9810717055349734E-002   2.9187614453863745E-010
   4.4668359215096300E-002   2.6256336581903306E-010
   5.0118723362727248E-002   2.3720337135112528E-010
   5.6234132519034911E-002   2.1509675345637045E-010
   6.3095734448019303E-002   1.9568079355821666E-010
   7.0794578438413802E-002   1.7850030777857427E-010
   7.9432823472428138E-002   1.6318537584668047E-010
   8.9125093813374592E-002   1.4943422544160932E-010
  0.10000000000000001        1.3700000000000025E-010
  0.11220184543019630        1.2572400985190159E-010
  0.12589254117941662        1.1552119864368693E-010
  0.14125375446227553        1.0629570417213263E-010
  0.15848931924611143        9.7959162456484285E-011
  0.17782794100389229        9.0430408996604399E-011
  0.19952623149688789        8.3635135988429377E-011
  0.22387211385683378        7.7505520824303457E-011
  0.25118864315095824        7.1979838617129421E-011
  0.28183829312644548        6.7002069180828816E-011
  0.31622776601683794        6.2521506876893971E-011
  0.35481338923357530        5.8492379990663807E-011
  0.39810717055349693        5.4873484817964685E-011
  0.44668359215096348        5.1627838405703765E-011
  0.50118723362727247        4.8722352879651485E-011
  0.56234132519034907        4.6127533489259978E-011
  0.63095734448019303        4.3817201883940877E-011
  0.70794578438413736        4.1768245690433540E-011
  0.79432823472428216        3.9960395171926271E-011
  0.89125093813374590        3.8376027604757602E-011
   1.0000000000000000        3.7000000000000001E-011
