   1.0000000000000006E-005   52.800000000000004     
   1.1220184543019630E-005   36.830609401087209     
   1.2589254117941661E-005   25.669237502535090     
   1.4125375446227555E-005   17.875052607575753     
   1.5848931924611141E-005   12.436930330370314     
   1.7782794100389229E-005   8.6459317401330189     
   1.9952623149688786E-005   6.0054332906261756     
   2.2387211385683379E-005   4.1678497188937742     
   2.5118864315095822E-005   2.8901216949409019     
   2.8183829312644549E-005   2.0024321044294124     
   3.1622776601683795E-005   1.3862395179824536     
   3.5481338923357534E-005  0.95886788395671285     
   3.9810717055349695E-005  0.66270539725410038     
   4.4668359215096348E-005  0.45764075721785014     
   5.0118723362727251E-005  0.31577122510351036     
   5.6234132519034907E-005  0.21770344066343639     
   6.3095734448019293E-005  0.14996991091458944     
   7.0794578438413731E-005  0.10322628304592241     
   7.9432823472428221E-005   7.0994544457620296E-002
   8.9125093813374588E-005   4.8787595092571225E-002
   1.0000000000000005E-004   3.3499999999999995E-002
   1.1220184543019630E-004   2.3059478822457756E-002
   1.2589254117941674E-004   1.5952913971707578E-002
   1.4125375446227541E-004   1.1080644063399425E-002
   1.5848931924611142E-004   7.7192129393992637E-003
   1.7782794100389227E-004   5.3878148604367309E-003
   1.9952623149688788E-004   3.7638518595378874E-003
   2.2387211385683400E-004   2.6289430937076670E-003
   2.5118864315095795E-004   1.8340334180684224E-003
   2.8183829312644550E-004   1.2766130795507148E-003
   3.1622776601683794E-004   8.8569850243646079E-004
   3.5481338923357532E-004   6.1183694361542325E-004
   3.9810717055349735E-004   4.2039470660099005E-004
   4.4668359215096305E-004   2.8701138668653332E-004
   5.0118723362727253E-004   1.9449567608918129E-004
   5.6234132519034910E-004   1.3068877901014497E-004
   6.3095734448019298E-004   8.6982676315735865E-005
   7.0794578438413802E-004   5.7285134561591685E-005
   7.9432823472428131E-004   3.7291890904140187E-005
   8.9125093813374593E-004   2.3971695833579129E-005
   1.0000000000000002E-003   1.5200000000000002E-005
   1.1220184543019630E-003   9.2737547542412469E-006
   1.2589254117941675E-003   5.3428353356776991E-006
   1.4125375446227540E-003   2.9301248028724813E-006
   1.5848931924611141E-003   1.5420291236524224E-006
   1.7782794100389228E-003   7.8502799442634579E-007
   1.9952623149688789E-003   3.8972458644520310E-007
   2.2387211385683399E-003   1.9019738451293145E-007
   2.5118864315095794E-003   9.1985491472661981E-008
   2.8183829312644548E-003   4.4442262982304353E-008
   3.1622776601683794E-003   2.1623650739705690E-008
   3.5481338923357532E-003   1.0680999010407085E-008
   3.9810717055349734E-003   5.3993156458420416E-009
   4.4668359215096305E-003   2.8158111703448512E-009
   5.0118723362727246E-003   1.5272153753042161E-009
   5.6234132519034910E-003   8.6840632925678979E-010
   6.3095734448019303E-003   5.2187391128455061E-010
   7.0794578438413804E-003   3.3413509271282722E-010
   7.9432823472428138E-003   2.2976637469895941E-010
   8.9125093813374589E-003   1.7106167277866801E-010
   1.0000000000000002E-002   1.3899999999999996E-010
   1.1220184543019630E-002   1.1880978699760186E-010
   1.2589254117941675E-002   1.0238642966556665E-010
   1.4125375446227540E-002   8.8935723937515893E-011
   1.5848931924611141E-002   7.7847497052692133E-011
   1.7782794100389229E-002   6.8649681360033832E-011
   1.9952623149688788E-002   6.0974571951078858E-011
   2.2387211385683399E-002   5.4533862199254863E-011
   2.5118864315095794E-002   4.9100047675856332E-011
   2.8183829312644550E-002   4.4492481845532458E-011
   3.1622776601683791E-002   4.0566852229788067E-011
   3.5481338923357530E-002   3.7207187925352752E-011
   3.9810717055349734E-002   3.4319752283447709E-011
   4.4668359215096300E-002   3.1828348128299058E-011
   5.0118723362727248E-002   2.9670687708432995E-011
   5.6234132519034911E-002   2.7795569888991957E-011
   6.3095734448019303E-002   2.6160672842746252E-011
   7.0794578438413802E-002   2.4730818648963178E-011
   7.9432823472428138E-002   2.3476601678912079E-011
   8.9125093813374592E-002   2.2373298924112597E-011
  0.10000000000000001        2.1400000000000008E-011
  0.11220184543019630        2.0507908113264371E-011
  0.12589254117941662        1.9661440876801524E-011
  0.14125375446227553        1.8861581327777089E-011
  0.15848931924611143        1.8108898328162766E-011
  0.17782794100389229        1.7403617194861680E-011
  0.19952623149688789        1.6745686889574311E-011
  0.22387211385683378        1.6134843396214012E-011
  0.25118864315095824        1.5570669157166691E-011
  0.28183829312644548        1.5052648652631033E-011
  0.31622776601683794        1.4580220392886412E-011
  0.35481338923357530        1.4152825756062829E-011
  0.39810717055349693        1.3769955249240877E-011
  0.44668359215096348        1.3431192904733752E-011
  0.50118723362727247        1.3136259653218251E-011
  0.56234132519034907        1.2885056648824429E-011
  0.63095734448019303        1.2677709667178772E-011
  0.70794578438413736        1.2514615865798060E-011
  0.79432823472428216        1.2396494398906368E-011
  0.89125093813374590        1.2324442629751068E-011
   1.0000000000000000        1.2300000000000004E-011
