   1.0000000000000006E-005   106.00000000000004     
   1.1220184543019630E-005   73.845500225536369     
   1.2589254117941661E-005   51.408765316790230     
   1.4125375446227555E-005   35.764001679345533     
   1.5848931924611141E-005   24.862893331737180     
   1.7782794100389229E-005   17.272479456922053     
   1.9952623149688786E-005   11.991016255495607     
   2.2387211385683379E-005   8.3187183084017526     
   2.5118864315095822E-005   5.7670908822870999     
   2.8183829312644549E-005   3.9953787362083317     
   3.1622776601683795E-005   2.7660544482142377     
   3.5481338923357534E-005   1.9136651087796670     
   3.9810717055349695E-005   1.3230444230722902     
   4.4668359215096348E-005  0.91408591960822960     
   5.0118723362727251E-005  0.63110925304323862     
   5.6234132519034907E-005  0.43543952009934039     
   6.3095734448019293E-005  0.30023252249276011     
   7.0794578438413731E-005  0.20686882889536259     
   7.9432823472428221E-005  0.14244284387320927     
   8.9125093813374588E-005   9.8015623231396162E-002
   1.0000000000000005E-004   6.7400000000000002E-002
   1.1220184543019630E-004   4.6410926550353400E-002
   1.2589254117941674E-004   3.2053356589878602E-002
   1.4125375446227541E-004   2.2188992543812486E-002
   1.5848931924611142E-004   1.5386162157536010E-002
   1.7782794100389227E-004   1.0679957808038097E-002
   1.9952623149688788E-004   7.4160583530464286E-003
   2.2387211385683400E-004   5.1482421782834895E-003
   2.5118864315095795E-004   3.5706302978143400E-003
   2.8183829312644550E-004   2.4725708767566273E-003
   3.1622776601683794E-004   1.7083954995673739E-003
   3.5481338923357532E-004   1.1770143344500073E-003
   3.9810717055349735E-004   8.0806558049845547E-004
   4.4668359215096305E-004   5.5246000988139557E-004
   5.0118723362727253E-004   3.7589134512234964E-004
   5.6234132519034910E-004   2.5436005219779342E-004
   6.3095734448019298E-004   1.7107180724434362E-004
   7.0794578438413802E-004   1.1427962300438180E-004
   7.9432823472428131E-004   7.5777073910496338E-005
   8.9125093813374593E-004   4.9842911022837059E-005
   1.0000000000000002E-003   3.2500000000000004E-005
   1.1220184543019630E-003   2.0666829694203487E-005
   1.2589254117941675E-003   1.2659986748881567E-005
   1.4125375446227540E-003   7.5114314138296850E-006
   1.5848931924611141E-003   4.3401366085820980E-006
   1.7782794100389228E-003   2.4554805865946833E-006
   1.9952623149688789E-003   1.3676759064070259E-006
   2.2387211385683399E-003   7.5405781856441182E-007
   2.5118864315095794E-003   4.1377288928438711E-007
   2.8183829312644548E-003   2.2720428818195201E-007
   3.1622776601683794E-003   1.2552473027379099E-007
   3.5481338923357532E-003   7.0155467773842639E-008
   3.9810717055349734E-003   3.9881766021947932E-008
   4.4668359215096305E-003   2.3186171307329138E-008
   5.0118723362727246E-003   1.3860748247697820E-008
   5.6234132519034910E-003   8.5665994468310334E-009
   6.3095734448019303E-003   5.5037103533293452E-009
   7.0794578438413804E-003   3.6956358957864952E-009
   7.9432823472428138E-003   2.6077770261106990E-009
   8.9125093813374589E-003   1.9442879223493815E-009
   1.0000000000000002E-002   1.5400000000000017E-009
   1.1220184543019630E-002   1.2664969303914681E-009
   1.2589254117941675E-002   1.0527560813274676E-009
   1.4125375446227540E-002   8.8399179742998294E-010
   1.5848931924611141E-002   7.4941474389242568E-010
   1.7782794100389229E-002   6.4107141880134204E-010
   1.9952623149688788E-002   5.5304114525580397E-010
   2.2387211385683399E-002   4.8087475756957960E-010
   2.5118864315095794E-002   4.2119837678041125E-010
   2.8183829312644550E-002   3.7143107140532732E-010
   3.1622776601683791E-002   3.2958183658375518E-010
   3.5481338923357530E-002   2.9410233097523052E-010
   3.9810717055349734E-002   2.6377916239225842E-010
   4.4668359215096300E-002   2.3765446966836526E-010
   5.0118723362727248E-002   2.1496692023512401E-010
   5.6234132519034911E-002   1.9510755690004268E-010
   6.3095734448019303E-002   1.7758652865948819E-010
   7.0794578438413802E-002   1.6200785748871903E-010
   7.9432823472428138E-002   1.4805017839895149E-010
   8.9125093813374592E-002   1.3545194629354777E-010
  0.10000000000000001        1.2400000000000014E-010
  0.11220184543019630        1.1359762108038648E-010
  0.12589254117941662        1.0420268529982483E-010
  0.14125375446227553        9.5721035332428718E-011
  0.15848931924611143        8.8066623489782786E-011
  0.17782794100389229        8.1161014163249688E-011
  0.19952623149688789        7.4932880141538760E-011
  0.22387211385683378        6.9317502425188676E-011
  0.25118864315095824        6.4256281118761033E-011
  0.28183829312644548        5.9696263227497538E-011
  0.31622776601683794        5.5589691698578941E-011
  0.35481338923357530        5.1893578805760278E-011
  0.39810717055349693        4.8569305956495599E-011
  0.44668359215096348        4.5582251179077061E-011
  0.50118723362727247        4.2901444900929013E-011
  0.56234132519034907        4.0499254136614906E-011
  0.63095734448019303        3.8351094845877609E-011
  0.70794578438413736        3.6435171980965932E-011
  0.79432823472428216        3.4732246603956415E-011
  0.89125093813374590        3.3225429406769332E-011
   1.0000000000000000        3.1899999999999988E-011
