   1.0000000000000006E-005   271.00000000000006     
   1.1220184543019630E-005   198.51356523351393     
   1.2589254117941661E-005   145.05856303857226     
   1.4125375446227555E-005   105.73986381600544     
   1.5848931924611141E-005   76.892897593456993     
   1.7782794100389229E-005   55.782210749313947     
   1.9952623149688786E-005   40.371709803003768     
   2.2387211385683379E-005   29.150123530026175     
   2.5118864315095822E-005   20.998844750408985     
   2.8183829312644549E-005   15.092183012272930     
   3.1622776601683795E-005   10.822317993307687     
   3.5481338923357534E-005   7.7430131443198906     
   3.9810717055349695E-005   5.5275297777008969     
   4.4668359215096348E-005   3.9372544661245943     
   5.0118723362727251E-005   2.7983825713500794     
   5.6234132519034907E-005   1.9846403207091798     
   6.3095734448019293E-005   1.4045188236961426     
   7.0794578438413731E-005  0.99186886735145585     
   7.9432823472428221E-005  0.69899135631852460     
   8.9125093813374588E-005  0.49157536898450016     
   1.0000000000000005E-004  0.34499999999999997     
   1.1220184543019630E-004  0.24177979198227720     
   1.2589254117941674E-004  0.16926740860322684     
   1.4125375446227541E-004  0.11834991328068167     
   1.5848931924611142E-004   8.2621410876469709E-002
   1.7782794100389227E-004   5.7575291499512488E-002
   1.9952623149688788E-004   4.0039382511859074E-002
   2.2387211385683400E-004   2.7780182565829453E-002
   2.5118864315095795E-004   1.9225078861021847E-002
   2.8183829312644550E-004   1.3267078106503932E-002
   3.1622776601683794E-004   9.1273640921393923E-003
   3.5481338923357532E-004   6.2584560746417189E-003
   3.9810717055349735E-004   4.2759202627504203E-003
   4.4668359215096305E-004   2.9101900716774340E-003
   5.0118723362727253E-004   1.9725648523099579E-003
   5.6234132519034910E-004   1.3312150428597027E-003
   6.3095734448019298E-004   8.9425410909556042E-004
   7.0794578438413802E-004   5.9780326892933003E-004
   7.9432823472428131E-004   3.9758413974980394E-004
   8.9125093813374593E-004   2.6300381817362134E-004
   1.0000000000000002E-003   1.7300000000000003E-004
   1.1220184543019630E-003   1.1147319341437137E-004
   1.2589254117941675E-003   6.9547288292942812E-005
   1.4125375446227540E-003   4.2213175186094334E-005
   1.5848931924611141E-003   2.5046470879858201E-005
   1.7782794100389228E-003   1.4596489055518475E-005
   1.9952623149688789E-003   8.3951073931410855E-006
   2.2387211385683399E-003   4.7879844726248496E-006
   2.5118864315095794E-003   2.7208241836645389E-006
   2.8183829312644548E-003   1.5478972730021699E-006
   3.1622776601683794E-003   8.8582991587362506E-007
   3.5481338923357532E-003   5.1238657743308516E-007
   3.9810717055349734E-003   3.0099340560301050E-007
   4.4668359215096305E-003   1.8042665350200015E-007
   5.0118723362727246E-003   1.1089233431386691E-007
   5.6234132519034910E-003   7.0215358425674831E-008
   6.3095734448019303E-003   4.6021959960155008E-008
   7.0794578438413804E-003   3.1374235101396646E-008
   7.9432823472428138E-003   2.2352642271517728E-008
   8.9125093813374589E-003   1.6722642885862855E-008
   1.0000000000000002E-002   1.3199999999999991E-008
   1.1220184543019630E-002   1.0781356039897088E-008
   1.2589254117941675E-002   8.9038138340617360E-009
   1.4125375446227540E-002   7.4303211915873176E-009
   1.5848931924611141E-002   6.2617185922752801E-009
   1.7782794100389229E-002   5.3254897737241549E-009
   1.9952623149688788E-002   4.5680539311375471E-009
   2.2387211385683399E-002   3.9494276012690912E-009
   2.5118864315095794E-002   3.4394893293054001E-009
   2.8183829312644550E-002   3.0153397938161491E-009
   3.1622776601683791E-002   2.6594182424085116E-009
   3.5481338923357530E-002   2.3581462037146293E-009
   3.9810717055349734E-002   2.1009422738300315E-009
   4.4668359215096300E-002   1.8795004247246089E-009
   5.0118723362727248E-002   1.6872570876514705E-009
   5.6234132519034911E-002   1.5189945892855620E-009
   6.3095734448019303E-002   1.3705438451700422E-009
   7.0794578438413802E-002   1.2385598275826337E-009
   7.9432823472428138E-002   1.1203507343719739E-009
   8.9125093813374592E-002   1.0137470009784842E-009
  0.10000000000000001        9.1699999999999869E-010
  0.11220184543019630        8.2975004313937700E-010
  0.12589254117941662        7.5187960464293166E-010
  0.14125375446227553        6.8236114921044325E-010
  0.15848931924611143        6.2027908911612095E-010
  0.17782794100389229        5.6481828004737347E-010
  0.19952623149688789        5.1525355472229910E-010
  0.22387211385683378        4.7094023105691661E-010
  0.25118864315095824        4.3130552926926087E-010
  0.28183829312644548        3.9584083167800941E-010
  0.31622776601683794        3.6409471969518985E-010
  0.35481338923357530        3.3566672429979144E-010
  0.39810717055349693        3.1020172883950430E-010
  0.44668359215096348        2.8738496611556450E-010
  0.50118723362727247        2.6693755517715652E-010
  0.56234132519034907        2.4861252693926328E-010
  0.63095734448019303        2.3219129152509296E-010
  0.70794578438413736        2.1748050403167617E-010
  0.79432823472428216        2.0430928915822617E-010
  0.89125093813374590        1.9252678877359444E-010
   1.0000000000000000        1.8200000000000015E-010
