   1.0000000000000006E-005   165.00000000000000     
   1.1220184543019630E-005   115.98135396590575     
   1.2589254117941661E-005   81.444416464463927     
   1.4125375446227555E-005   57.135367185449148     
   1.5848931924611141E-005   40.042478252815563     
   1.7782794100389229E-005   28.035657555006676     
   1.9952623149688786E-005   19.609931251944790     
   2.2387211385683379E-005   13.703092068987326     
   2.5118864315095822E-005   9.5662100798702614     
   2.8183829312644549E-005   6.6717803484257932     
   3.1622776601683795E-005   4.6486377731422364     
   3.5481338923357534E-005   3.2358879049962401     
   3.9810717055349695E-005   2.2503324317970947     
   4.4668359215096348E-005   1.5634607833284271     
   5.0118723362727251E-005   1.0852156826505126     
   5.6234132519034907E-005  0.75255031178440102     
   6.3095734448019293E-005  0.52137125381587823     
   7.0794578438413731E-005  0.36087129819501373     
   7.9432823472428221E-005  0.24954735582291770     
   8.9125093813374588E-005  0.17240530602228979     
   1.0000000000000005E-004  0.11899999999999998     
   1.1220184543019630E-004   8.2167135174920511E-002
   1.2589254117941674E-004   5.6811854778306720E-002
   1.4125375446227541E-004   3.9317781987748650E-002
   1.5848931924611142E-004   2.7224997649103144E-002
   1.7782794100389227E-004   1.8853633914928499E-002
   1.9952623149688788E-004   1.3052396174775003E-002
   2.2387211385683400E-004   9.0296925309672465E-003
   2.5118864315095795E-004   6.2396868621628302E-003
   2.8183829312644550E-004   4.3050611568335876E-003
   3.1622776601683794E-004   2.9644363675282600E-003
   3.5481338923357532E-004   2.0364361437773940E-003
   3.9810717055349735E-004   1.3950343361116445E-003
   4.4668359215096305E-004   9.5258560391481978E-004
   5.0118723362727253E-004   6.4810851403809778E-004
   5.6234132519034910E-004   4.3917298288185933E-004
   6.3095734448019298E-004   2.9626971470641779E-004
   7.0794578438413802E-004   1.9889425484366339E-004
   7.9432823472428131E-004   1.3281897753807340E-004
   8.9125093813374593E-004   8.8190239383417217E-005
   1.0000000000000002E-003   5.8199999999999958E-005
   1.1220184543019630E-003   3.7659296532334054E-005
   1.2589254117941675E-003   2.3647839265293183E-005
   1.4125375446227540E-003   1.4475322861190390E-005
   1.5848931924611141E-003   8.6762104123627835E-006
   1.7782794100389228E-003   5.1149854731795128E-006
   1.9952623149688789E-003   2.9793308611355355E-006
   2.2387211385683399E-003   1.7222673057130581E-006
   2.5118864315095794E-003   9.9251564352059610E-007
   2.8183829312644548E-003   5.7276521516025998E-007
   3.1622776601683794E-003   3.3248026309051571E-007
   3.5481338923357532E-003   1.9500805673467812E-007
   3.9810717055349734E-003   1.1608715812180071E-007
   4.4668359215096305E-003   7.0454418409644269E-008
   5.0118723362727246E-003   4.3789724034252763E-008
   5.6234132519034910E-003   2.7997779658773171E-008
   6.3095734448019303E-003   1.8497365289669737E-008
   7.0794578438413804E-003   1.2684651605808365E-008
   7.9432823472428138E-003   9.0693694130079051E-009
   8.9125093813374589E-003   6.7913014497931341E-009
   1.0000000000000002E-002   5.3499999999999999E-009
   1.1220184543019630E-002   4.3540783233738748E-009
   1.2589254117941675E-002   3.5827616259148823E-009
   1.4125375446227540E-002   2.9788413761866332E-009
   1.5848931924611141E-002   2.5009971276393322E-009
   1.7782794100389229E-002   2.1190632757403016E-009
   1.9952623149688788E-002   1.8107902141792271E-009
   2.2387211385683399E-002   1.5596042115318045E-009
   2.5118864315095794E-002   1.3530419799340878E-009
   2.8183829312644550E-002   1.1816458120097671E-009
   3.1622776601683791E-002   1.0381763000254225E-009
   3.5481338923357530E-002   9.1704618233611676E-010
   3.9810717055349734E-002   8.1390960872634571E-010
   4.4668359215096300E-002   7.2536163316857261E-010
   5.0118723362727248E-002   6.4871656372493284E-010
   5.6234132519034911E-002   5.8184319559460916E-010
   6.3095734448019303E-002   5.2304139806751710E-010
   7.0794578438413802E-002   4.7094898451617300E-010
   7.9432823472428138E-002   4.2447090462497956E-010
   8.9125093813374592E-002   3.8272498553076243E-010
  0.10000000000000001        3.4500000000000026E-010
  0.11220184543019630        3.1111002982349305E-010
  0.12589254117941662        2.8096325296150546E-010
  0.14125375446227553        2.5413662200422440E-010
  0.15848931924611143        2.3025487391483337E-010
  0.17782794100389229        2.0898537131289962E-010
  0.19952623149688789        1.9003344729016050E-010
  0.22387211385683378        1.7313821607970825E-010
  0.25118864315095824        1.5806881239592255E-010
  0.28183829312644548        1.4462102334473754E-010
  0.31622776601683794        1.3261427831510982E-010
  0.35481338923357530        1.2188896407327882E-010
  0.39810717055349693        1.1230403428604141E-010
  0.44668359215096348        1.0373488481321642E-010
  0.50118723362727247        9.6071468266134963E-011
  0.56234132519034907        8.9216623476975475E-011
  0.63095734448019303        8.3084597624681380E-011
  0.70794578438413736        7.7599740789188285E-011
  0.79432823472428216        7.2695354637911618E-011
  0.89125093813374590        6.8312678775107204E-011
   1.0000000000000000        6.4400000000000057E-011
