   1.0000000000000006E-005   16400.000000000004     
   1.1220184543019630E-005   13656.972710104623     
   1.2589254117941661E-005   11295.691759726551     
   1.4125375446227555E-005   9280.9761070120876     
   1.5848931924611141E-005   7576.5508183845568     
   1.7782794100389229E-005   6146.4042947230864     
   1.9952623149688786E-005   4955.8372667213544     
   2.2387211385683379E-005   3972.2256755509211     
   2.5118864315095822E-005   3165.5296680669571     
   2.8183829312644549E-005   2508.5865655232406     
   3.1622776601683795E-005   1977.2275779398394     
   3.5481338923357534E-005   1550.2570779033645     
   3.9810717055349695E-005   1209.3302490825768     
   4.4668359215096348E-005   938.76063937620972     
   5.0118723362727251E-005   725.28421252688702     
   5.6234132519034907E-005   557.80140706993006     
   6.3095734448019293E-005   427.11384478101263     
   7.0794578438413731E-005   325.66792614690280     
   7.9432823472428221E-005   247.31374666590335     
   8.9125093813374588E-005   187.08462041556658     
   1.0000000000000005E-004   140.99999999999991     
   1.1220184543019630E-004   105.55622817831888     
   1.2589254117941674E-004   78.271983801819687     
   1.4125375446227541E-004   57.515299832832220     
   1.5848931924611142E-004   41.899789982570681     
   1.7782794100389227E-004   30.275307083645785     
   1.9952623149688788E-004   21.707527622535856     
   2.2387211385683400E-004   15.451623031121331     
   2.5118864315095795E-004   10.923872548703434     
   2.8183829312644550E-004   7.6738757812784169     
   3.1622776601683794E-004   5.3590198701757608     
   3.5481338923357532E-004   3.7220763169571995     
   3.9810717055349735E-004   2.5722390409060885     
   4.4668359215096305E-004   1.7695399221081922     
   5.0118723362727253E-004   1.2123533977841281     
   5.6234132519034910E-004  0.82758912294590514     
   6.3095734448019298E-004  0.56313669443293379     
   7.0794578438413802E-004  0.38214064764029981     
   7.9432823472428131E-004  0.25872586053433094     
   8.9125093813374593E-004  0.17484792531714696     
   1.0000000000000002E-003  0.11799999999999999     
   1.1220184543019630E-003   7.8384640163293051E-002
   1.2589254117941675E-003   5.0637768114028391E-002
   1.4125375446227540E-003   3.1942621379709296E-002
   1.5848931924611141E-003   1.9754987063246111E-002
   1.7782794100389228E-003   1.2026823281793809E-002
   1.9952623149688789E-003   7.2368718160857040E-003
   2.2387211385683399E-003   4.3214987100766728E-003
   2.5118864315095794E-003   2.5713384175146898E-003
   2.8183829312644548E-003   1.5306758105212827E-003
   3.1622776601683794E-003   9.1530137683008177E-004
   3.5481338923357532E-003   5.5202623079682539E-004
   3.9810717055349734E-003   3.3715360107402191E-004
   4.4668359215096305E-003   2.0937564671858060E-004
   5.0118723362727246E-003   1.3274329407800652E-004
   5.6234132519034910E-003   8.6267033383279450E-005
   6.3095734448019303E-003   5.7700658652638405E-005
   7.0794578438413804E-003   3.9882107395916327E-005
   7.9432823472428138E-003   2.8601883528600646E-005
   8.9125093813374589E-003   2.1369195017799488E-005
   1.0000000000000002E-002   1.6699999999999999E-005
   1.1220184543019630E-002   1.3417900899325459E-005
   1.2589254117941675E-002   1.0864476715279622E-005
   1.4125375446227540E-002   8.8646973792883960E-006
   1.5848931924611141E-002   7.2882728911201357E-006
   1.7782794100389229E-002   6.0376187977313493E-006
   1.9952623149688788E-002   5.0392029369726416E-006
   2.2387211385683399E-002   4.2372866623751731E-006
   2.5118864315095794E-002   3.5893716192644386E-006
   2.8183829312644550E-002   3.0628683266455259E-006
   3.1622776601683791E-002   2.6326449694751435E-006
   3.5481338923357530E-002   2.2792138387362785E-006
   3.9810717055349734E-002   1.9873822319295609E-006
   4.4668359215096300E-002   1.7452434905197560E-006
   5.0118723362727248E-002   1.5434184525467326E-006
   5.6234132519034911E-002   1.3744822304222746E-006
   6.3095734448019303E-002   1.2325288498862048E-006
   7.0794578438413802E-002   1.1128389635681799E-006
   7.9432823472428138E-002   1.0116250170103257E-006
   8.9125093813374592E-002   9.2583490290138141E-007
  0.10000000000000001        8.5299999999999960E-007
  0.11220184543019630        7.8866111855305052E-007
  0.12589254117941662        7.2961969556187787E-007
  0.14125375446227553        6.7563742383743548E-007
  0.15848931924611143        6.2645255659017011E-007
  0.17782794100389229        5.8179009800664821E-007
  0.19952623149688789        5.4137029945867063E-007
  0.22387211385683378        5.0491561068267860E-007
  0.25118864315095824        4.7215626050384606E-007
  0.28183829312644548        4.4283465429183578E-007
  0.31622776601683794        4.1670877852392894E-007
  0.35481338923357530        3.9355479950415689E-007
  0.39810717055349693        3.7316903600708331E-007
  0.44668359215096348        3.5536947659975744E-007
  0.50118723362727247        3.3999700355778629E-007
  0.56234132519034907        3.2691647831047702E-007
  0.63095734448019303        3.1601783976829175E-007
  0.70794578438413736        3.0721736823064898E-007
  0.79432823472428216        3.0045927550366024E-007
  0.89125093813374590        2.9571779835247482E-007
   1.0000000000000000        2.9299999999999978E-007
