   1.0000000000000006E-005   16.899999999999995     
   1.1220184543019630E-005   13.031673425287165     
   1.2589254117941661E-005   10.002220670397961     
   1.4125375446227555E-005   7.6420372090810051     
   1.5848931924611141E-005   5.8126215591079085     
   1.7782794100389229E-005   4.4016838377806851     
   1.9952623149688786E-005   3.3188165705007342     
   2.2387211385683379E-005   2.4917184884980745     
   2.5118864315095822E-005   1.8629437052665605     
   2.8183829312644549E-005   1.3871366045244429     
   3.1622776601683795E-005   1.0287058010540135     
   3.5481338923357534E-005  0.75988752238395740     
   3.9810717055349695E-005  0.55914869728285610     
   4.4668359215096348E-005  0.40988206274702421     
   5.0118723362727251E-005  0.29934900051937618     
   5.6234132519034907E-005  0.21783001793154227     
   6.3095734448019293E-005  0.15794735931373111     
   7.0794578438413731E-005  0.11412885257116524     
   7.9432823472428221E-005   8.2186537441469046E-002
   8.9125093813374588E-005   5.8987743052237834E-002
   1.0000000000000005E-004   4.2200000000000001E-002
   1.1220184543019630E-004   3.0128023979511292E-002
   1.2589254117941674E-004   2.1481160893568389E-002
   1.4125375446227541E-004   1.5286659751890069E-002
   1.5848931924611142E-004   1.0851107135912343E-002
   1.7782794100389227E-004   7.6785807160517465E-003
   1.9952623149688788E-004   5.4134253949349098E-003
   2.2387211385683400E-004   3.8000254649012311E-003
   2.5118864315095795E-004   2.6543785320377335E-003
   2.8183829312644550E-004   1.8439114160158435E-003
   3.1622776601683794E-004   1.2730836686766069E-003
   3.5481338923357532E-004   8.7307667758969375E-004
   3.9810717055349735E-004   5.9438141682004197E-004
   4.4668359215096305E-004   4.0145262644266294E-004
   5.0118723362727253E-004   2.6884284248274555E-004
   5.6234132519034910E-004   1.7840071769305576E-004
   6.3095734448019298E-004   1.1723775912145449E-004
   7.0794578438413802E-004   7.6251793421442315E-005
   7.9432823472428131E-004   4.9054980580893022E-005
   8.9125093813374593E-004   3.1196472864457115E-005
   1.0000000000000002E-003   1.9600000000000012E-005
   1.1220184543019630E-003   1.1799262737102350E-005
   1.2589254117941675E-003   6.6449866282769579E-006
   1.4125375446227540E-003   3.5336286918333461E-006
   1.5848931924611141E-003   1.7909456151175776E-006
   1.7782794100389228E-003   8.7322405359238940E-007
   1.9952623149688789E-003   4.1342611994091381E-007
   2.2387211385683399E-003   1.9184310048762191E-007
   2.5118864315095794E-003   8.8067898281180004E-008
   2.8183829312644548E-003   4.0370058280849221E-008
   3.1622776601683794E-003   1.8651705087893293E-008
   3.5481338923357532E-003   8.7668231428623270E-009
   3.9810717055349734E-003   4.2313369966494609E-009
   4.4668359215096305E-003   2.1167607401143214E-009
   5.0118723362727246E-003   1.1078267259919716E-009
   5.6234132519034910E-003   6.1224456187387427E-010
   6.3095734448019303E-003   3.6064356621397271E-010
   7.0794578438413804E-003   2.2854868061785172E-010
   7.9432823472428138E-003   1.5728005329262398E-010
   8.9125093813374589E-003   1.1863425268149413E-010
   1.0000000000000002E-002   9.9000000000000149E-011
   1.1220184543019630E-002   8.7462061226366616E-011
   1.2589254117941675E-002   7.7783008584710290E-011
   1.4125375446227540E-002   6.9623025389983757E-011
   1.5848931924611141E-002   6.2711440807217100E-011
   1.7782794100389229E-002   5.6831485719766386E-011
   1.9952623149688788E-002   5.1808640110607822E-011
   2.2387211385683399E-002   4.7501676496578586E-011
   2.5118864315095794E-002   4.3795738405102963E-011
   2.8183829312644550E-002   4.0596963232742916E-011
   3.1622776601683791E-002   3.7828283291075789E-011
   3.5481338923357530E-002   3.5426130283382290E-011
   3.9810717055349734E-002   3.3337835988706680E-011
   4.4668359215096300E-002   3.1519572068367450E-011
   5.0118723362727248E-002   2.9934709324812731E-011
   5.6234132519034911E-002   2.8552504802649520E-011
   6.3095734448019303E-002   2.7347046269114303E-011
   7.0794578438413802E-002   2.6296399625884955E-011
   7.9432823472428138E-002   2.5381916989241911E-011
   8.9125093813374592E-002   2.4587672490249657E-011
  0.10000000000000001        2.3899999999999967E-011
  0.11220184543019630        2.3275106447455279E-011
  0.12589254117941662        2.2677908807547019E-011
  0.14125375446227553        2.2109156180862685E-011
  0.15848931924611143        2.1569468590826389E-011
  0.17782794100389229        2.1059357579117819E-011
  0.19952623149688789        2.0579246446469610E-011
  0.22387211385683378        2.0129490100155389E-011
  0.25118864315095824        1.9710394506882473E-011
  0.28183829312644548        1.9322235785329395E-011
  0.31622776601683794        1.8965279006571477E-011
  0.35481338923357530        1.8639796803634992E-011
  0.39810717055349693        1.8346087924009441E-011
  0.44668359215096348        1.8084495891864463E-011
  0.50118723362727247        1.7855427980824096E-011
  0.56234132519034907        1.7659374734441311E-011
  0.63095734448019303        1.7496930311141980E-011
  0.70794578438413736        1.7368813974725449E-011
  0.79432823472428216        1.7275893102085970E-011
  0.89125093813374590        1.7219208138518355E-011
   1.0000000000000000        1.7200000000000025E-011
