   1.0000000000000006E-005   98.799999999999997     
   1.1220184543019630E-005   68.503421840443565     
   1.2589254117941661E-005   47.473391340966600     
   1.4125375446227555E-005   32.882993321540447     
   1.5848931924611141E-005   22.765434873737835     
   1.7782794100389229E-005   15.753044556586950     
   1.9952623149688786E-005   10.895255535293670     
   2.2387211385683379E-005   7.5317367617342743     
   2.5118864315095822E-005   5.2040092821004329     
   2.8183829312644549E-005   3.5939053417490010     
   3.1622776601683795E-005   2.4807401316655593     
   3.5481338923357534E-005   1.7115216672714928     
   3.9810717055349695E-005   1.1802403169665741     
   4.4668359215096348E-005  0.81347803412577180     
   5.0118723362727251E-005  0.56041400397108732     
   5.6234132519034907E-005  0.38588714988750067     
   6.3095734448019293E-005  0.26558299708623606     
   7.0794578438413731E-005  0.18269609141666932     
   7.9432823472428221E-005  0.12561679455926014     
   8.9125093813374588E-005   8.6328867685570160E-002
   1.0000000000000005E-004   5.9299999999999999E-002
   1.1220184543019630E-004   4.0807270497031922E-002
   1.2589254117941674E-004   2.8183060670203063E-002
   1.4125375446227541E-004   1.9520522125760387E-002
   1.5848931924611142E-004   1.3549781116280775E-002
   1.7782794100389227E-004   9.4188008714091009E-003
   1.9952623149688788E-004   6.5518862207297000E-003
   2.2387211385683400E-004   4.5575284104629500E-003
   2.5118864315095795E-004   3.1678866854060539E-003
   2.8183829312644550E-004   2.1987305917761288E-003
   3.1622776601683794E-004   1.5227248523852445E-003
   3.5481338923357532E-004   1.0514843171766162E-003
   3.9810717055349735E-004   7.2343750521536873E-004
   4.4668359215096305E-004   4.9556543551776129E-004
   5.0118723362727253E-004   3.3774402336265075E-004
   5.6234132519034910E-004   2.2884736949636413E-004
   6.3095734448019298E-004   1.5404963528118474E-004
   7.0794578438413802E-004   1.0294774349797120E-004
   7.9432823472428131E-004   6.8249473743676317E-005
   8.9125093813374593E-004   4.4853156356389478E-005
   1.0000000000000002E-003   2.9200000000000008E-005
   1.1220184543019630E-003   1.8513504392021911E-005
   1.2589254117941675E-003   1.1287043743041914E-005
   1.4125375446227540E-003   6.6545326449512373E-006
   1.5848931924611141E-003   3.8155809606018041E-006
   1.7782794100389228E-003   2.1397820097485841E-006
   1.9952623149688789E-003   1.1803318349806274E-006
   2.2387211385683399E-003   6.4405717678629093E-007
   2.5118864315095794E-003   3.4961529660843066E-007
   2.8183829312644548E-003   1.8987251847279573E-007
   3.1622776601683794E-003   1.0375271336269761E-007
   3.5481338923357532E-003   5.7367043362083381E-008
   3.9810717055349734E-003   3.2278333728971751E-008
   4.4668359215096305E-003   1.8586831763518700E-008
   5.0118723362727246E-003   1.1015525830486347E-008
   5.6234132519034910E-003   6.7572608993077451E-009
   6.3095734448019303E-003   4.3148103825055073E-009
   7.0794578438413804E-003   2.8842858570307826E-009
   7.9432823472428138E-003   2.0298335563710411E-009
   8.9125093813374589E-003   1.5124745706923433E-009
   1.0000000000000002E-002   1.2000000000000008E-009
   1.1220184543019630E-002   9.8981334024587975E-010
   1.2589254117941675E-002   8.2529506006295708E-010
   1.4125375446227540E-002   6.9517873288561223E-010
   1.5848931924611141E-002   5.9123808510742136E-010
   1.7782794100389229E-002   5.0740462448322920E-010
   1.9952623149688788E-002   4.3915713035524419E-010
   2.2387211385683399E-002   3.8309488833948469E-010
   2.5118864315095794E-002   3.3663640482071320E-010
   2.8183829312644550E-002   2.9780467424557927E-010
   3.1622776601683791E-002   2.6507272953995214E-010
   3.5481338923357530E-002   2.3725157463690118E-010
   3.9810717055349734E-002   2.1340818539905154E-010
   4.4668359215096300E-002   1.9280503084698382E-010
   5.0118723362727248E-002   1.7485512766066439E-010
   5.6234132519034911E-002   1.5908839803294276E-010
   6.3095734448019303E-002   1.4512631665884867E-010
   7.0794578438413802E-002   1.3266268055959276E-010
   7.9432823472428138E-002   1.2144893141254719E-010
   8.9125093813374592E-002   1.1128288207357372E-010
  0.10000000000000001        1.0200000000000010E-010
  0.11220184543019630        9.3544081165426860E-011
  0.12589254117941662        8.5898964426290506E-011
  0.14125375446227553        7.8989312541307181E-011
  0.15848931924611143        7.2746290044168690E-011
  0.17782794100389229        6.7107149812315508E-011
  0.19952623149688789        6.2014819552455201E-011
  0.22387211385683378        5.7417494835151346E-011
  0.25118864315095824        5.3268243849563565E-011
  0.28183829312644548        4.9524627799034651E-011
  0.31622776601683794        4.6148339802779684E-011
  0.35481338923357530        4.3104864291075476E-011
  0.39810717055349693        4.0363158163126942E-011
  0.44668359215096348        3.7895354400539671E-011
  0.50118723362727247        3.5676488378148016E-011
  0.56234132519034907        3.3684246772130440E-011
  0.63095734448019303        3.1898738718715006E-011
  0.70794578438413736        3.0302288712809074E-011
  0.79432823472428216        2.8879250643895734E-011
  0.89125093813374590        2.7615842337738372E-011
   1.0000000000000000        2.6499999999999950E-011
