   1.0000000000000006E-005   555.00000000000011     
   1.1220184543019630E-005   439.01868543879260     
   1.2589254117941661E-005   345.01888129474975     
   1.4125375446227555E-005   269.42266252524496     
   1.5848931924611141E-005   209.08282316944451     
   1.7782794100389229E-005   161.27131455812793     
   1.9952623149688786E-005   123.65509130436618     
   2.2387211385683379E-005   94.263715203360988     
   2.5118864315095822E-005   71.452321528431682     
   2.8183829312644549E-005   53.862802220555231     
   3.1622776601683795E-005   40.385356439202106     
   3.5481338923357534E-005   30.121933167238829     
   3.9810717055349695E-005   22.352560158076546     
   4.4668359215096348E-005   16.505123686829645     
   5.0118723362727251E-005   12.128830885918047     
   5.6234132519034907E-005   8.8713417998749780     
   6.3095734448019293E-005   6.4593893882869580     
   7.0794578438413731E-005   4.6825990041180585     
   7.9432823472428221E-005   3.3801610113530116     
   8.9125093813374588E-005   2.4299889132488088     
   1.0000000000000005E-004   1.7400000000000000     
   1.1220184543019630E-004   1.2370806201247528     
   1.2589254117941674E-004  0.87077461743594198     
   1.4125375446227541E-004  0.60719512249397622     
   1.5848931924611142E-004  0.41968292063798363     
   1.7782794100389227E-004  0.28770047423581591     
   1.9952623149688788E-004  0.19572300436158030     
   2.2387211385683400E-004  0.13221506285101867     
   2.5118864315095795E-004   8.8738792966977315E-002
   2.8183829312644550E-004   5.9210042156612901E-002
   3.1622776601683794E-004   3.9299067740476999E-002
   3.5481338923357532E-004   2.5961507279309216E-002
   3.9810717055349735E-004   1.7080244706259042E-002
   4.4668359215096305E-004   1.1197744567590737E-002
   5.0118723362727253E-004   7.3197299749905333E-003
   5.6234132519034910E-004   4.7735706236347146E-003
   6.3095734448019298E-004   3.1076434521676985E-003
   7.0794578438413802E-004   2.0207580248912485E-003
   7.9432823472428131E-004   1.3132532540492770E-003
   8.9125093813374593E-004   8.5347235495958850E-004
   1.0000000000000002E-003   5.5500000000000015E-004
   1.1220184543019630E-003   3.5564625565999615E-004
   1.2589254117941675E-003   2.2171709275188573E-004
   1.4125375446227540E-003   1.3505282871680414E-004
   1.5848931924611141E-003   8.0723441300201032E-005
   1.7782794100389228E-003   4.7550492780982141E-005
   1.9952623149688789E-003   2.7722835336204416E-005
   2.2387211385683399E-003   1.6066283871197414E-005
   2.5118864315095794E-003   9.2951476387943242E-006
   2.8183829312644548E-003   5.3917296990933945E-006
   3.1622776601683794E-003   3.1491894863000839E-006
   3.5481338923357532E-003   1.8600997461179924E-006
   3.9810717055349734E-003   1.1158564592061305E-006
   4.4668359215096305E-003   6.8278344987136042E-007
   5.0118723362727246E-003   4.2798455171268483E-007
   5.6234132519034910E-003   2.7600157010431546E-007
   6.3095734448019303E-003   1.8390827121141406E-007
   7.0794578438413804E-003   1.2716427485536833E-007
   7.9432823472428138E-003   9.1637033614611622E-008
   8.9125093813374589E-003   6.9117316677159713E-008
   1.0000000000000002E-002   5.4800000000000001E-008
   1.1220184543019630E-002   4.4897752004009434E-008
   1.2589254117941675E-002   3.7238685806117142E-008
   1.4125375446227540E-002   3.1240069105687086E-008
   1.5848931924611141E-002   2.6484982909842028E-008
   1.7782794100389229E-002   2.2671468904774484E-008
   1.9952623149688788E-002   1.9578258258945527E-008
   2.2387211385683399E-002   1.7041391670612183E-008
   2.5118864315095794E-002   1.4938082543071860E-008
   2.8183829312644550E-002   1.3175455038924878E-008
   3.1622776601683791E-002   1.1682600979931963E-008
   3.5481338923357530E-002   1.0404921207912908E-008
   3.9810717055349734E-002   9.3000559254216907E-009
   4.4668359215096300E-002   8.3349311501265043E-009
   5.0118723362727248E-002   7.4835961974691513E-009
   5.6234132519034911E-002   6.7256262125050734E-009
   6.3095734448019303E-002   6.0449309035194169E-009
   7.0794578438413802E-002   5.4288565697153941E-009
   7.9432823472428138E-002   4.8675003042726299E-009
   8.9125093813374592E-002   4.3531775412564409E-009
  0.10000000000000001        3.8800000000000040E-009
  0.11220184543019630        3.4532229516703509E-009
  0.12589254117941662        3.0767091700629088E-009
  0.14125375446227553        2.7442746599258161E-009
  0.15848931924611143        2.4505207011271520E-009
  0.17782794100389229        2.1907318123211994E-009
  0.19952623149688789        1.9607871917854994E-009
  0.22387211385683378        1.7570838361658831E-009
  0.25118864315095824        1.5764697794080798E-009
  0.28183829312644548        1.4161861032583282E-009
  0.31622776601683794        1.2738165517147495E-009
  0.35481338923357530        1.1472437384686101E-009
  0.39810717055349693        1.0346110719526610E-009
  0.44668359215096348        9.3428963994279316E-010
  0.50118723362727247        8.4484939719171773E-010
  0.56234132519034907        7.6503408743544688E-010
  0.63095734448019303        6.9373940714575651E-010
  0.70794578438413736        6.2999398419931386E-010
  0.79432823472428216        5.7294280157728924E-010
  0.89125093813374590        5.2183274549261953E-010
   1.0000000000000000        4.7600000000000042E-010
