   1.0000000000000006E-005   141.99999999999994     
   1.1220184543019630E-005   99.091364125223180     
   1.2589254117941661E-005   69.098516182154157     
   1.4125375446227555E-005   48.149077748219653     
   1.5848931924611141E-005   33.526980925035829     
   1.7782794100389229E-005   23.328618982757714     
   1.9952623149688786E-005   16.220812587003341     
   2.2387211385683379E-005   11.270574718717786     
   2.5118864315095822E-005   7.8254673448555137     
   2.8183829312644549E-005   5.4295789821306153     
   3.1622776601683795E-005   3.7645629412884452     
   3.5481338923357534E-005   2.6082930971455194     
   3.9810717055349695E-005   1.8058951372696106     
   4.4668359215096348E-005   1.2494643174322349     
   5.0118723362727251E-005  0.86387571541678032     
   5.6234132519034907E-005  0.59686434654016896     
   6.3095734448019293E-005  0.41209548690416015     
   7.0794578438413731E-005  0.28432746596209629     
   7.9432823472428221E-005  0.19603760638942816     
   8.9125093813374588E-005  0.13507048957413809     
   1.0000000000000005E-004   9.2999999999999985E-002
   1.1220184543019630E-004   6.4060849050781438E-002
   1.2589254117941674E-004   4.4184605959358858E-002
   1.4125375446227541E-004   3.0504354423563449E-002
   1.5848931924611142E-004   2.1072169379143191E-002
   1.7782794100389227E-004   1.4559860673890222E-002
   1.9952623149688788E-004   1.0058882898988783E-002
   2.2387211385683400E-004   6.9459371635780583E-003
   2.5118864315095795E-004   4.7923057107696950E-003
   2.8183829312644550E-004   3.3024385735887138E-003
   3.1622776601683794E-004   2.2721947548812720E-003
   3.5481338923357532E-004   1.5603460677743501E-003
   3.9810717055349735E-004   1.0690669017226343E-003
   4.4668359215096305E-004   7.3053565066811600E-004
   5.0118723362727253E-004   4.9770788933355137E-004
   5.6234132519034910E-004   3.3794670543667651E-004
   6.3095734448019298E-004   2.2861593212358106E-004
   7.0794578438413802E-004   1.5402575801495922E-004
   7.9432823472428131E-004   1.0331248428613957E-004
   8.9125093813374593E-004   6.8965016622261918E-005
   1.0000000000000002E-003   4.5800000000000049E-005
   1.1220184543019630E-003   2.9890615821076919E-005
   1.2589254117941675E-003   1.8992906818873156E-005
   1.4125375446227540E-003   1.1797843286240431E-005
   1.5848931924611141E-003   7.1934269804814134E-006
   1.7782794100389228E-003   4.3227339539688811E-006
   1.9952623149688789E-003   2.5706209760346952E-006
   2.2387211385683399E-003   1.5189444062849261E-006
   2.5118864315095794E-003   8.9544192279151498E-007
   2.8183829312644548E-003   5.2880079664755452E-007
   3.1622776601683794E-003   3.1410390203844540E-007
   3.5481338923357532E-003   1.8842934400265352E-007
   3.9810717055349734E-003   1.1462652720682953E-007
   4.4668359215096305E-003   7.0998724777342627E-008
   5.0118723362727246E-003   4.4958539724382022E-008
   5.6234132519034910E-003   2.9223854734420235E-008
   6.3095734448019303E-003   1.9579152087978313E-008
   7.0794578438413804E-003   1.3575278738108517E-008
   7.9432823472428138E-003   9.7806912109369068E-009
   8.9125093813374589E-003   7.3523077471963126E-009
   1.0000000000000002E-002   5.7899999999999918E-009
   1.1220184543019630E-002   4.6999305535875990E-009
   1.2589254117941675E-002   3.8570722491192339E-009
   1.4125375446227540E-002   3.1981757962258124E-009
   1.5848931924611141E-002   2.6776258039550904E-009
   1.7782794100389229E-002   2.2621697998137770E-009
   1.9952623149688788E-002   1.9273165381948953E-009
   2.2387211385683399E-002   1.6548483346793243E-009
   2.5118864315095794E-002   1.4310849575634886E-009
   2.8183829312644550E-002   1.2456598763940818E-009
   3.1622776601683791E-002   1.0906493456910739E-009
   3.5481338923357530E-002   9.5994685056820629E-010
   3.9810717055349734E-002   8.4880978927508195E-010
   4.4668359215096300E-002   7.5352815973344845E-010
   5.0118723362727248E-002   6.7118042004725172E-010
   5.6234132519034911E-002   5.9945215271447869E-010
   6.3095734448019303E-002   5.3650032883439486E-010
   7.0794578438413802E-002   4.8085092151533906E-010
   7.9432823472428138E-002   4.3132106983836480E-010
   8.9125093813374592E-002   3.8695942119477092E-010
  0.10000000000000001        3.4699999999999953E-010
  0.11220184543019630        3.1125496489484769E-010
  0.12589254117941662        2.7961311271105409E-010
  0.14125375446227553        2.5158821487733389E-010
  0.15848931924611143        2.2675227100549782E-010
  0.17782794100389229        2.0472867171440138E-010
  0.19952623149688789        1.8518612450102479E-010
  0.22387211385683378        1.6783326666827073E-010
  0.25118864315095824        1.5241389504237907E-010
  0.28183829312644548        1.3870274789872001E-010
  0.31622776601683794        1.2650178005938303E-010
  0.35481338923357530        1.1563687745369267E-010
  0.39810717055349693        1.0595496249057204E-010
  0.44668359215096348        9.7321446345241523E-011
  0.50118723362727247        8.9617988692657637E-011
  0.56234132519034907        8.2740529518516375E-011
  0.63095734448019303        7.6597561406866162E-011
  0.70794578438413736        7.1108614149366370E-011
  0.79432823472428216        6.6202926657992435E-011
  0.89125093813374590        6.1818284007000162E-011
   1.0000000000000000        5.7899999999999918E-011
