   1.0000000000000006E-005   164.00000000000003     
   1.1220184543019630E-005   115.25418180433751     
   1.2589254117941661E-005   80.917577395002795     
   1.4125375446227555E-005   56.754984352319575     
   1.5848931924611141E-005   39.768729961638954     
   1.7782794100389229E-005   27.839256528621938     
   1.9952623149688786E-005   19.469435614161892     
   2.2387211385683379E-005   13.602869460995686     
   2.5118864315095822E-005   9.4949079320311309     
   2.8183829312644549E-005   6.6211841293571077     
   3.1622776601683795E-005   4.6128238805027939     
   3.5481338923357534E-005   3.2105985295708428     
   3.9810717055349695E-005   2.2325164786270899     
   4.4668359215096348E-005   1.5509382473102824     
   5.0118723362727251E-005   1.0764332937613257     
   5.6234132519034907E-005  0.74640431432491805     
   6.3095734448019293E-005  0.51707933798191597     
   7.0794578438413731E-005  0.35788036507952209     
   7.9432823472428221E-005  0.24746730251866764     
   8.9125093813374588E-005  0.17096163506180767     
   1.0000000000000005E-004  0.11799999999999999     
   1.1220184543019630E-004   8.1475113912606270E-002
   1.2589254117941674E-004   5.6333040482828181E-002
   1.4125375446227541E-004   3.8986660094512529E-002
   1.5848931924611142E-004   2.6996214587390020E-002
   1.7782794100389227E-004   1.8695758468643880E-002
   1.9952623149688788E-004   1.2943629106070699E-002
   2.2387211385683400E-004   8.9549086917270222E-003
   2.5118864315095795E-004   6.1883913669186124E-003
   2.8183829312644550E-004   4.2699743448826894E-003
   3.1622776601683794E-004   2.9405124396620626E-003
   3.5481338923357532E-004   2.0201816147022611E-003
   3.9810717055349735E-004   1.3840342022962623E-003
   4.4668359215096305E-004   9.4517368640155029E-004
   5.0118723362727253E-004   6.4313802947433174E-004
   5.6234132519034910E-004   4.3585687846078148E-004
   6.3095734448019298E-004   2.9406960604212956E-004
   7.0794578438413802E-004   1.9744324229742580E-004
   7.9432823472428131E-004   1.3186808039011066E-004
   8.9125093813374593E-004   8.7571289878502447E-005
   1.0000000000000002E-003   5.7800000000000056E-005
   1.1220184543019630E-003   3.7407529283345250E-005
   1.2589254117941675E-003   2.3495890652416349E-005
   1.4125375446227540E-003   1.4386965148408271E-005
   1.5848931924611141E-003   8.6264786537302651E-006
   1.7782794100389228E-003   5.0877724989358848E-006
   1.9952623149688789E-003   2.9647923122840115E-006
   2.2387211385683399E-003   1.7146521126213023E-006
   2.5118864315095794E-003   9.8858861003192353E-007
   2.8183829312644548E-003   5.7076287426622574E-007
   3.1622776601683794E-003   3.3146604800351280E-007
   3.5481338923357532E-003   1.9449493423154826E-007
   3.9810717055349734E-003   1.1582602121853281E-007
   4.4668359215096305E-003   7.0319418591382075E-008
   5.0118723362727246E-003   4.3717808560396640E-008
   5.6234132519034910E-003   2.7957489204346984E-008
   6.3095734448019303E-003   1.8472994749249900E-008
   7.0794578438413804E-003   1.2668304583585947E-008
   7.9432823472428138E-003   9.0570011934093144E-009
   8.9125093813374589E-003   6.7807507684885443E-009
   1.0000000000000002E-002   5.3400000000000084E-009
   1.1220184543019630E-002   4.3442228320308270E-009
   1.2589254117941675E-002   3.5731624394991543E-009
   1.4125375446227540E-002   2.9695714741795441E-009
   1.5848931924611141E-002   2.4921012806303443E-009
   1.7782794100389229E-002   2.1105663216458824E-009
   1.9952623149688788E-002   1.8027033086321545E-009
   2.2387211385683399E-002   1.5519294378936661E-009
   2.5118864315095794E-002   1.3457756825161168E-009
   2.8183829312644550E-002   1.1747809589398306E-009
   3.1622776601683791E-002   1.0317041193896168E-009
   3.5481338923357530E-002   9.1095725871060329E-010
   3.9810717055349734E-002   8.0819458072166743E-010
   4.4668359215096300E-002   7.2001159626437850E-010
   5.0118723362727248E-002   6.4372325522849980E-010
   5.6234132519034911E-002   5.7719901840650211E-010
   6.3095734448019303E-002   5.1873932554426871E-010
   7.0794578438413802E-002   4.6698237876212435E-010
   7.9432823472428138E-002   4.2083327393803347E-010
   8.9125093813374592E-002   3.7940970259026929E-010
  0.10000000000000001        3.4200000000000021E-010
  0.11220184543019630        3.0840442229675634E-010
  0.12589254117941662        2.7852057047137698E-010
  0.14125375446227553        2.5192917619317978E-010
  0.15848931924611143        2.2825825426174743E-010
  0.17782794100389229        2.0717801788148956E-010
  0.19952623149688789        1.8839628583879796E-010
  0.22387211385683378        1.7165434578292903E-010
  0.25118864315095824        1.5672323801392943E-010
  0.28183829312644548        1.4340042501131180E-010
  0.31622776601683794        1.3150681323405428E-010
  0.35481338923357530        1.2088409535153084E-010
  0.39810717055349693        1.1139238291646958E-010
  0.44668359215096348        1.0290810147639277E-010
  0.50118723362727247        9.5322122169210997E-011
  0.56234132519034907        8.8538105907242736E-011
  0.63095734448019303        8.2471038280818453E-011
  0.70794578438413736        7.7045935277697748E-011
  0.79432823472428216        7.2196701796884537E-011
  0.89125093813374590        6.7865126721708646E-011
   1.0000000000000000        6.4000000000000050E-011
