   1.0000000000000006E-005   230.00000000000009     
   1.1220184543019630E-005   165.12721697784357     
   1.2589254117941661E-005   118.34405669799480     
   1.4125375446227555E-005   84.667418389757074     
   1.5848931924611141E-005   60.469080841614982     
   1.7782794100389229E-005   43.112450584943716     
   1.9952623149688786E-005   30.685235044919821     
   2.2387211385683379E-005   21.803123281296759     
   2.5118864315095822E-005   15.465913870098838     
   2.8183829312644549E-005   10.952296537635336     
   3.1622776601683795E-005   7.7430602713157786     
   3.5481338923357534E-005   5.4651619236827536     
   3.9810717055349695E-005   3.8510706451937757     
   4.4668359215096348E-005   2.7092750893648896     
   5.0118723362727251E-005   1.9029308116126276     
   5.6234132519034907E-005   1.3344314764547547     
   6.3095734448019293E-005  0.93428214949390886     
   7.0794578438413731E-005  0.65309059332089636     
   7.9432823472428221E-005  0.45581385143955000     
   8.9125093813374588E-005  0.31763286401133478     
   1.0000000000000005E-004  0.22100000000000000     
   1.1220184543019630E-004  0.15366526742924336     
   1.2589254117941674E-004  0.10684852851383091     
   1.4125375446227541E-004   7.4273442027229852E-002
   1.5848931924611142E-004   5.1598077476838665E-002
   1.7782794100389227E-004   3.5812219931096741E-002
   1.9952623149688788E-004   2.4825014299518434E-002
   2.2387211385683400E-004   1.7181896640438361E-002
   2.5118864315095795E-004   1.1869674679922275E-002
   2.8183829312644550E-004   8.1819239389993650E-003
   3.1622776601683794E-004   5.6257931009440886E-003
   3.5481338923357532E-004   3.8573279091438121E-003
   3.9810717055349735E-004   2.6364930863324145E-003
   4.4668359215096305E-004   1.7958364270798726E-003
   5.0118723362727253E-004   1.2186241139919899E-003
   5.6234132519034910E-004   8.2356598028591283E-004
   6.3095734448019298E-004   5.5413484221280554E-004
   7.0794578438413802E-004   3.7109383103641559E-004
   7.9432823472428131E-004   2.4726691902955607E-004
   8.9125093813374593E-004   1.6387967531796319E-004
   1.0000000000000002E-003   1.0800000000000004E-004
   1.1220184543019630E-003   6.9769849092921776E-005
   1.2589254117941675E-003   4.3700922880735562E-005
   1.4125375446227540E-003   2.6662230980816549E-005
   1.5848931924611141E-003   1.5918043007569212E-005
   1.7782794100389228E-003   9.3427435193130493E-006
   1.9952623149688789E-003   5.4157050187269879E-006
   2.2387211385683399E-003   3.1148393611732930E-006
   2.5118864315095794E-003   1.7857499280619619E-006
   2.8183829312644548E-003   1.0252132706488014E-006
   3.1622776601683794E-003   5.9213487976366777E-007
   3.5481338923357532E-003   3.4565605740463773E-007
   3.9810717055349734E-003   2.0487504385026952E-007
   4.4668359215096305E-003   1.2386812474250327E-007
   5.0118723362727246E-003   7.6746740218422985E-008
   5.6234132519034910E-003   4.8954705429955763E-008
   6.3095734448019303E-003   3.2297382716975390E-008
   7.0794578438413804E-003   2.2140267249636611E-008
   7.9432823472428138E-003   1.5843286834191928E-008
   8.9125093813374589E-003   1.1889370597743697E-008
   1.0000000000000002E-002   9.4000000000000114E-009
   1.1220184543019630E-002   7.6841663911216881E-009
   1.2589254117941675E-002   6.3516358132282576E-009
   1.4125375446227540E-002   5.3053231106947569E-009
   1.5848931924611141E-002   4.4749997050084945E-009
   1.7782794100389229E-002   3.8093125301100186E-009
   1.9952623149688788E-002   3.2703190319836597E-009
   2.2387211385683399E-002   2.8297043396839994E-009
   2.5118864315095794E-002   2.4661354299744985E-009
   2.8183829312644550E-002   2.1633919391208611E-009
   3.1622776601683791E-002   1.9090329079466626E-009
   3.5481338923357530E-002   1.6934370049450478E-009
   3.9810717055349734E-002   1.5091054935332759E-009
   4.4668359215096300E-002   1.3501517323198113E-009
   5.0118723362727248E-002   1.2119242615115705E-009
   5.6234132519034911E-002   1.0907263509006780E-009
   6.3095734448019303E-002   9.8360574177655351E-010
   7.0794578438413802E-002   8.8819582916952703E-010
   7.9432823472428138E-002   8.0259477519433646E-010
   8.9125093813374592E-002   7.2527273533771014E-010
  0.10000000000000001        6.5499999999999888E-010
  0.11220184543019630        5.9163356229903321E-010
  0.12589254117941662        5.3516275607244784E-010
  0.14125375446227553        4.8481731853654673E-010
  0.15848931924611143        4.3991332991419426E-010
  0.17782794100389229        3.9984388637576522E-010
  0.19952623149688789        3.6407069955012080E-010
  0.22387211385683378        3.3211654784383950E-010
  0.25118864315095824        3.0355850745197421E-010
  0.28183829312644548        2.7802189428086329E-010
  0.31622776601683794        2.5517485181185161E-010
  0.35481338923357530        2.3472352403436210E-010
  0.39810717055349693        2.1640775682363790E-010
  0.44668359215096348        1.9999727541915410E-010
  0.50118723362727247        1.8528828988709165E-010
  0.56234132519034907        1.7210048455902983E-010
  0.63095734448019303        1.6027435138207306E-010
  0.70794578438413736        1.4966883086107353E-010
  0.79432823472428216        1.4015922780156281E-010
  0.89125093813374590        1.3163537236261635E-010
   1.0000000000000000        1.2400000000000014E-010
