   1.0000000000000006E-005   96.099999999999980     
   1.1220184543019630E-005   66.484945823859420     
   1.2589254117941661E-005   45.976898658844270     
   1.4125375446227555E-005   31.781380070359479     
   1.5848931924611141E-005   21.959520864059833     
   1.7782794100389229E-005   15.166672189927610     
   1.9952623149688786E-005   10.470691779810140     
   2.2387211385683379E-005   7.2256744398059816     
   2.5118864315095822E-005   4.9842480386940968     
   2.8183829312644549E-005   3.4366827948031005     
   3.1622776601683795E-005   2.3686347667268159     
   3.5481338923357534E-005   1.6318337180272389     
   3.9810717055349695E-005   1.1237589434021591     
   4.4668359215096348E-005  0.77355318463454958     
   5.0118723362727251E-005  0.53226420162126109     
   5.6234132519034907E-005  0.36608733366735452     
   6.3095734448019293E-005  0.25168817791713372     
   7.0794578438413731E-005  0.17296646224579615     
   7.9432823472428221E-005  0.11881800720517757     
   8.9125093813374588E-005   8.1587608736431450E-002
   1.0000000000000005E-004   5.6000000000000008E-002
   1.1220184543019630E-004   3.8512996267209658E-002
   1.2589254117941674E-004   2.6588708301504647E-002
   1.4125375446227541E-004   1.8413254354983640E-002
   1.5848931924611142E-004   1.2781445596096053E-002
   1.7782794100389227E-004   8.8862441069063412E-003
   1.9952623149688788E-004   6.1832680254026726E-003
   2.2387211385683400E-004   4.3028103472044638E-003
   2.5118864315095795E-004   2.9922189227729154E-003
   2.8183829312644550E-004   2.0778504373352171E-003
   3.1622776601683794E-004   1.4397520007848723E-003
   3.5481338923357532E-004   9.9468670844123433E-004
   3.9810717055349735E-004   6.8467250122968991E-004
   4.4668359215096305E-004   4.6919149665082007E-004
   5.0118723362727253E-004   3.1986062805469619E-004
   5.6234132519034910E-004   2.1676420842111325E-004
   6.3095734448019298E-004   1.4591610475268074E-004
   7.0794578438413802E-004   9.7494580644494602E-005
   7.9432823472428131E-004   6.4608855460460582E-005
   8.9125093813374593E-004   4.2433677685010551E-005
   1.0000000000000002E-003   2.7599999999999973E-005
   1.1220184543019630E-003   1.7430252657849816E-005
   1.2589254117941675E-003   1.0529924057778150E-005
   1.4125375446227540E-003   6.1251681558816148E-006
   1.5848931924611141E-003   3.4532361393211455E-006
   1.7782794100389228E-003   1.8993031432957278E-006
   1.9952623149688789E-003   1.0258085370923418E-006
   2.2387211385683399E-003   5.4762921338529786E-007
   2.5118864315095794E-003   2.9087034537545846E-007
   2.8183829312644548E-003   1.5472093814776343E-007
   3.1622776601683794E-003   8.2962112490426592E-008
   3.5481338923357532E-003   4.5137328015719841E-008
   3.9810717055349734E-003   2.5081960976818482E-008
   4.4668359215096305E-003   1.4328508629952370E-008
   5.0118723362727246E-003   8.4702965599751465E-009
   5.6234132519034910E-003   5.2155322009055526E-009
   6.3095734448019303E-003   3.3670169205583045E-009
   7.0794578438413804E-003   2.2939443790541058E-009
   7.9432823472428138E-003   1.6601818006626183E-009
   8.9125093813374589E-003   1.2847181472607593E-009
   1.0000000000000002E-002   1.0700000000000002E-009
   1.1220184543019630E-002   9.2976066207048430E-010
   1.2589254117941675E-002   8.1343003075561210E-010
   1.4125375446227540E-002   7.1642175263367879E-010
   1.5848931924611141E-002   6.3511845918395462E-010
   1.7782794100389229E-002   5.6665144272429092E-010
   1.9952623149688788E-002   5.0873361706749703E-010
   2.2387211385683399E-002   4.5953218196958699E-010
   2.5118864315095794E-002   4.1757103400990880E-010
   2.8183829312644550E-002   3.8165558326444814E-010
   3.1622776601683791E-002   3.5081453513528388E-010
   3.5481338923357530E-002   3.2425458370510184E-010
   3.9810717055349734E-002   3.0132498083463941E-010
   4.4668359215096300E-002   2.8148969601844774E-010
   5.0118723362727248E-002   2.6430543862389333E-010
   5.6234132519034911E-002   2.4940422882647319E-010
   6.3095734448019303E-002   2.3647951400367466E-010
   7.0794578438413802E-002   2.2527506086335706E-010
   7.9432823472428138E-002   2.1557603004135998E-010
   8.9125093813374592E-002   2.0720177385142073E-010
  0.10000000000000001        2.0000000000000003E-010
  0.11220184543019630        1.9349482712431291E-010
  0.12589254117941662        1.8730445736122775E-010
  0.14125375446227553        1.8143455502290731E-010
  0.15848931924611143        1.7588904100428488E-010
  0.17782794100389229        1.7067039424890963E-010
  0.19952623149688789        1.6577994219527648E-010
  0.22387211385683378        1.6121813964301041E-010
  0.25118864315095824        1.5698483615061355E-010
  0.28183829312644548        1.5307953269090216E-010
  0.31622776601683794        1.4950162885583545E-010
  0.35481338923357530        1.4625066243091580E-010
  0.39810717055349693        1.4332654366460347E-010
  0.44668359215096348        1.4072978705630841E-010
  0.50118723362727247        1.3846174399594922E-010
  0.56234132519034907        1.3652484012966249E-010
  0.63095734448019303        1.3492282192401782E-010
  0.70794578438413736        1.3366101758270763E-010
  0.79432823472428216        1.3274661826757445E-010
  0.89125093813374590        1.3218898652846187E-010
   1.0000000000000000        1.3200000000000019E-010
