   1.0000000000000006E-005   109.00000000000004     
   1.1220184543019630E-005   75.957420495338425     
   1.2589254117941661E-005   52.892606127120388     
   1.4125375446227555E-005   36.804564190658901     
   1.5848931924611141E-005   25.591235559594004     
   1.7782794100389229E-005   17.781344536461091     
   1.9952623149688786E-005   12.345895993094604     
   2.2387211385683379E-005   8.5657661063299209     
   2.5118864315095822E-005   5.9387671304801639     
   2.8183829312644549E-005   4.1144688078451264     
   3.1622776601683795E-005   2.8485218308794407     
   3.5481338923357534E-005   1.9706728641000264     
   3.9810717055349695E-005   1.3623843099547901     
   4.4668359215096348E-005  0.94118663048535400     
   5.0118723362727251E-005  0.64974626390147461     
   5.6234132519034907E-005  0.44823386407849974     
   6.3095734448019293E-005  0.30900056688047756     
   7.0794578438413731E-005  0.21286709465056647     
   7.9432823472428221E-005  0.14653903939834351     
   8.9125093813374588E-005  0.10080790875891567     
   1.0000000000000005E-004   6.9300000000000014E-002
   1.1220184543019630E-004   4.7703087644825289E-002
   1.2589254117941674E-004   3.2932491964805209E-002
   1.4125375446227541E-004   2.2787038885064743E-002
   1.5848931924611142E-004   1.5792712629819485E-002
   1.7782794100389227E-004   1.0955985749829828E-002
   1.9952623149688788E-004   7.6031300120288506E-003
   2.2387211385683400E-004   5.2747265900686688E-003
   2.5118864315095795E-004   3.6559008925785750E-003
   2.8183829312644550E-004   2.5298579978028962E-003
   3.1622776601683794E-004   1.7467288421143491E-003
   3.5481338923357532E-004   1.2025490513187047E-003
   3.9810717055349735E-004   8.2498949121478807E-004
   4.4668359215096305E-004   5.6361518668321408E-004
   5.0118723362727253E-004   3.8320040250961162E-004
   5.6234132519034910E-004   2.5911859014598755E-004
   6.3095734448019298E-004   1.7414895748326149E-004
   7.0794578438413802E-004   1.1625542369773590E-004
   7.9432823472428131E-004   7.7036394935302342E-005
   8.9125093813374593E-004   5.0639499873208528E-005
   1.0000000000000002E-003   3.2999999999999969E-005
   1.1220184543019630E-003   2.0974183450122056E-005
   1.2589254117941675E-003   1.2843215336564281E-005
   1.4125375446227540E-003   7.6178708066754670E-006
   1.5848931924611141E-003   4.4006632440722936E-006
   1.7782794100389228E-003   2.4893210979714344E-006
   1.9952623149688789E-003   1.3863583812940247E-006
   2.2387211385683399E-003   7.6428523594106138E-007
   2.5118864315095794E-003   4.1934778244952817E-007
   2.8183829312644548E-003   2.3024261608715560E-007
   3.1622776601683794E-003   1.2718711277375213E-007
   3.5481338923357532E-003   7.1072255864840493E-008
   3.9810717055349734E-003   4.0393384486313491E-008
   4.4668359215096305E-003   2.3476161852786623E-008
   5.0118723362727246E-003   1.4028273109659360E-008
   5.6234132519034910E-003   8.6655304482333454E-009
   6.3095734448019303E-003   5.5635689269363427E-009
   7.0794578438413804E-003   3.7327828869266533E-009
   7.9432823472428138E-003   2.6313976491375690E-009
   8.9125093813374589E-003   1.9596038583556236E-009
   1.0000000000000002E-002   1.5500000000000013E-009
   1.1220184543019630E-002   1.2727582379960446E-009
   1.2589254117941675E-002   1.0562236059552200E-009
   1.4125375446227540E-002   8.8537796526363655E-010
   1.5848931924611141E-002   7.4925834575458324E-010
   1.7782794100389229E-002   6.3978147626281165E-010
   1.9952623149688788E-002   5.5092956632042966E-010
   2.2387211385683399E-002   4.7818064855860335E-010
   2.5118864315095794E-002   4.1810615880642689E-010
   2.8183829312644550E-002   3.6808399783379809E-010
   3.1622776601683791E-002   3.2609209183397968E-010
   3.5481338923357530E-002   2.9055858117476952E-010
   3.9810717055349734E-002   2.6025219937095524E-010
   4.4668359215096300E-002   2.3420142127308953E-010
   5.0118723362727248E-002   2.1163437635659564E-010
   5.6234132519034911E-002   1.9193387018803573E-010
   6.3095734448019303E-002   1.7460348295142619E-010
   7.0794578438413802E-002   1.5924184907577955E-010
   7.9432823472428138E-002   1.4552302069451027E-010
   8.9125093813374592E-002   1.3318138378650926E-010
  0.10000000000000001        1.2200000000000004E-010
  0.11220184543019630        1.1185555947510888E-010
  0.12589254117941662        1.0268569911058551E-010
  0.14125375446227553        9.4401423394701630E-011
  0.15848931924611143        8.6921027634730801E-011
  0.17782794100389229        8.0169732625183747E-011
  0.19952623149688789        7.4079293901035928E-011
  0.22387211385683378        6.8587597651220757E-011
  0.25118864315095824        6.3638253135285162E-011
  0.28183829312644548        5.9180189488105782E-011
  0.31622776601683794        5.5167263105352487E-011
  0.35481338923357530        5.1557880361602934E-011
  0.39810717055349693        4.8314639205818203E-011
  0.44668359215096348        4.5403992185400479E-011
  0.50118723362727247        4.2795932649940688E-011
  0.56234132519034907        4.0463705259033058E-011
  0.63095734448019303        3.8383541446610784E-011
  0.70794578438413736        3.6534420160379019E-011
  0.79432823472428216        3.4897853984791075E-011
  0.89125093813374590        3.3457700658103606E-011
   1.0000000000000000        3.2200000000000022E-011
