   1.0000000000000006E-005   207.99999999999997     
   1.1220184543019630E-005   148.21846158450671     
   1.2589254117941661E-005   105.46696996055694     
   1.4125375446227555E-005   74.939241802564254     
   1.5848931924611141E-005   53.172151702731171     
   1.7782794100389229E-005   37.674261381582916     
   1.9952623149688786E-005   26.655957395120993     
   2.2387211385683379E-005   18.833728640753744     
   2.5118864315095822E-005   13.288448345972940     
   2.8183829312644549E-005   9.3629269199010778     
   3.1622776601683795E-005   6.5879735731477824     
   3.5481338923357534E-005   4.6291193000129249     
   3.9810717055349695E-005   3.2482890284076387     
   4.4668359215096348E-005   2.2762721264505883     
   5.0118723362727251E-005   1.5929801912429202     
   5.6234132519034907E-005   1.1133115297233445     
   6.3095734448019293E-005  0.77704582443921377     
   7.0794578438413731E-005  0.54163111443109146     
   7.9432823472428221E-005  0.37704317555108452     
   8.9125093813374588E-005  0.26212746452010133     
   1.0000000000000005E-004  0.18200000000000000     
   1.1220184543019630E-004  0.12633409061609596     
   1.2589254117941674E-004   8.7742217984815157E-002
   1.4125375446227541E-004   6.0951235608424942E-002
   1.5848931924611142E-004   4.2333994754028291E-002
   1.7782794100389227E-004   2.9388390195065433E-002
   1.9952623149688788E-004   2.0383986718466418E-002
   2.2387211385683400E-004   1.4121350048766091E-002
   2.5118864315095795E-004   9.7675140994965392E-003
   2.8183829312644550E-004   6.7430998123664560E-003
   3.1622776601683794E-004   4.6446160567483932E-003
   3.5481338923357532E-004   3.1908156694653257E-003
   3.9810717055349735E-004   2.1855575921040774E-003
   4.4668359215096305E-004   1.4920329447001201E-003
   5.0118723362727253E-004   1.0148390377033283E-003
   5.6234132519034910E-004   6.8748857934424650E-004
   6.3095734448019298E-004   4.6369280641156874E-004
   7.0794578438413802E-004   3.1127106557890603E-004
   7.9432823472428131E-004   2.0789193722298792E-004
   8.9125093813374593E-004   1.3809374772214513E-004
   1.0000000000000002E-003   9.1200000000000062E-005
   1.1220184543019630E-003   5.8964368951073130E-005
   1.2589254117941675E-003   3.6881177098827941E-005
   1.4125375446227540E-003   2.2429640787563617E-005
   1.5848931924611141E-003   1.3329823959494112E-005
   1.7782794100389228E-003   7.7802434141689769E-006
   1.9952623149688789E-003   4.4824015006180778E-006
   2.2387211385683399E-003   2.5618827475758826E-006
   2.5118864315095794E-003   1.4598922114691726E-006
   2.8183829312644548E-003   8.3363800762733988E-007
   3.1622776601683794E-003   4.7941489111646378E-007
   3.5481338923357532E-003   2.7906473173953517E-007
   3.9810717055349734E-003   1.6524941623362958E-007
   4.4668359215096305E-003   1.0004573625841333E-007
   5.0118723362727246E-003   6.2239060764128643E-008
   5.6234132519034910E-003   3.9986684405282440E-008
   6.3095734448019303E-003   2.6664767641465564E-008
   7.0794578438413804E-003   1.8548653150088999E-008
   7.9432823472428138E-003   1.3527615460769736E-008
   8.9125093813374589E-003   1.0395527593832392E-008
   1.0000000000000002E-002   8.4599999999999828E-009
   1.1220184543019630E-002   7.1239126948302189E-009
   1.2589254117941675E-002   6.0439837594126950E-009
   1.4125375446227540E-002   5.1656612005008886E-009
   1.5848931924611141E-002   4.4470082346327455E-009
   1.7782794100389229E-002   3.8555894951231811E-009
   1.9952623149688788E-002   3.3661691679797681E-009
   2.2387211385683399E-002   2.9589991272152769E-009
   2.5118864315095794E-002   2.6185383639183687E-009
   2.8183829312644550E-002   2.3324895401406125E-009
   3.1622776601683791E-002   2.0910700578886390E-009
   3.5481338923357530E-002   1.8864575270157351E-009
   3.9810717055349734E-002   1.7123656393911754E-009
   4.4668359215096300E-002   1.5637180790165482E-009
   5.0118723362727248E-002   1.4363965214059032E-009
   5.6234132519034911E-002   1.3270449137345225E-009
   6.3095734448019303E-002   1.2329167236660359E-009
   7.0794578438413802E-002   1.1517551555472596E-009
   7.9432823472428138E-002   1.0816987827915522E-009
   8.9125093813374592E-002   1.0212068674796704E-009
  0.10000000000000001        9.6900000000000048E-010
  0.11220184543019630        9.2190555417879434E-010
  0.12589254117941662        8.7751742960030738E-010
  0.14125375446227553        8.3585197816452168E-010
  0.15848931924611143        7.9690204106943751E-010
  0.17782794100389229        7.6064161632087067E-010
  0.19952623149688789        7.2703018727712454E-010
  0.22387211385683378        6.9601669919185077E-010
  0.25118864315095824        6.6754318771080505E-010
  0.28183829312644548        6.4154807740104189E-010
  0.31622776601683794        6.1796918002742988E-010
  0.35481338923357530        5.9674643190027608E-010
  0.39810717055349693        5.7782441771023225E-010
  0.44668359215096348        5.6115473539347056E-010
  0.50118723362727247        5.4669826331667650E-010
  0.56234132519034907        5.3442739806312969E-010
  0.63095734448019303        5.2432833901844540E-010
  0.70794578438413736        5.1640350555785908E-010
  0.79432823472428216        5.1067418480596120E-010
  0.89125093813374590        5.0718352372629477E-010
   1.0000000000000000        5.0600000000000063E-010
