   1.0000000000000006E-005   46.000000000000000     
   1.1220184543019630E-005   32.321823216850206     
   1.2589254117941661E-005   22.685174034240283     
   1.4125375446227555E-005   15.903721028453420     
   1.5848931924611141E-005   11.136991146013255     
   1.7782794100389229E-005   7.7902539344004449     
   1.9952623149688786E-005   5.4431724248510367     
   2.2387211385683379E-005   3.7990186854561725     
   2.5118864315095822E-005   2.6485718003116347     
   2.8183829312644549E-005   1.8444852135930452     
   3.1622776601683795E-005   1.2831098365809956     
   3.5481338923357534E-005  0.89162008430956075     
   3.9810717055349695E-005  0.61890690183569208     
   4.4668359215096348E-005  0.42914336937846048     
   5.0118723362727251E-005  0.29724407614698006     
   5.6234132519034907E-005  0.20566474586160194     
   6.3095734448019293E-005  0.14214921466698205     
   7.0794578438413731E-005   9.8145222840351001E-002
   7.9432823472428221E-005   6.7691802454343225E-002
   8.9125093813374588E-005   4.6638795569920635E-002
   1.0000000000000005E-004   3.2100000000000004E-002
   1.1220184543019630E-004   2.2140280996031155E-002
   1.2589254117941674E-004   1.5341251361678956E-002
   1.4125375446227541E-004   1.0668367944526176E-002
   1.5848931924611142E-004   7.4379749265704592E-003
   1.7782794100389227E-004   5.1938683819767956E-003
   1.9952623149688788E-004   3.6288302828342239E-003
   2.2387211385683400E-004   2.5342055806978903E-003
   2.5118864315095795E-004   1.7671624673896923E-003
   2.8183829312644550E-004   1.2292226292875156E-003
   3.1622776601683794E-004   8.5204793397507662E-004
   3.5481338923357532E-004   5.8794527341738485E-004
   3.9810717055349735E-004   4.0346805544289364E-004
   4.4668359215096305E-004   2.7506844016173015E-004
   5.0118723362727253E-004   1.8611942981324185E-004
   5.6234132519034910E-004   1.2485961249238996E-004
   6.3095734448019298E-004   8.2964357508938469E-005
   7.0794578438413802E-004   5.4545686177397834E-005
   7.9432823472428131E-004   3.5447738226066629E-005
   8.9125093813374593E-004   2.2747616447070691E-005
   1.0000000000000002E-003   1.4399999999999989E-005
   1.1220184543019630E-003   8.7666814651670487E-006
   1.2589254117941675E-003   5.0348084411174531E-006
   1.4125375446227540E-003   2.7501637691431961E-006
   1.5848931924611141E-003   1.4405055336236380E-006
   1.7782794100389228E-003   7.2946585033123548E-007
   1.9952623149688789E-003   3.6006553196459986E-007
   2.2387211385683399E-003   1.7466165604388428E-007
   2.5118864315095794E-003   8.3947144355497065E-008
   2.8183829312644548E-003   4.0305053372090281E-008
   3.1622776601683794E-003   1.9489970578373236E-008
   3.5481338923357532E-003   9.5700424900826861E-009
   3.9810717055349734E-003   4.8108347352512939E-009
   4.4668359215096305E-003   2.4962253510923019E-009
   5.0118723362727246E-003   1.3478973216622274E-009
   5.6234132519034910E-003   7.6364654393646220E-010
   6.3095734448019303E-003   4.5766048886053907E-010
   7.0794578438413804E-003   2.9252486594755075E-010
   7.9432823472428138E-003   2.0104968040088064E-010
   8.9125093813374589E-003   1.4980216993229492E-010
   1.0000000000000002E-002   1.2200000000000004E-010
   1.1220184543019630E-002   1.0459209086015358E-010
   1.2589254117941675E-002   9.0398824999388707E-011
   1.4125375446227540E-002   7.8748190359583660E-011
   1.5848931924611141E-002   6.9122775050911411E-011
   1.7782794100389229E-002   6.1121424010938933E-011
   1.9952623149688788E-002   5.4431011882882440E-011
   2.2387211385683399E-002   4.8805518094309816E-011
   2.5118864315095794E-002   4.4050409676780523E-011
   2.8183829312644550E-002   4.0010908340594668E-011
   3.1622776601683791E-002   3.6563118900173626E-011
   3.5481338923357530E-002   3.3607279109996817E-011
   3.9810717055349734E-002   3.1062592189878894E-011
   4.4668359215096300E-002   2.8863247341689597E-011
   5.0118723362727248E-002   2.6955337302359865E-011
   5.6234132519034911E-002   2.5294457171405195E-011
   6.3095734448019303E-002   2.3843823583613913E-011
   7.0794578438413802E-002   2.2572793520444166E-011
   7.9432823472428138E-002   2.1455691731542782E-011
   8.9125093813374592E-002   2.0470877760228679E-011
  0.10000000000000001        1.9600000000000015E-011
  0.11220184543019630        1.8800320856468063E-011
  0.12589254117941662        1.8040800667638420E-011
  0.14125375446227553        1.7322414235619236E-011
  0.15848931924611143        1.6645766742349829E-011
  0.17782794100389229        1.6011155314480339E-011
  0.19952623149688789        1.5418627814743538E-011
  0.22387211385683378        1.4868038510059245E-011
  0.25118864315095824        1.4359100478191912E-011
  0.28183829312644548        1.3891434801041255E-011
  0.31622776601683794        1.3464616756122871E-011
  0.35481338923357530        1.3078219362094965E-011
  0.39810717055349693        1.2731854763795712E-011
  0.44668359215096348        1.2425214062392491E-011
  0.50118723362727247        1.2158106312845062E-011
  0.56234132519034907        1.1930497530610915E-011
  0.63095734448019303        1.1742550679902135E-011
  0.70794578438413736        1.1594667765476511E-011
  0.79432823472428216        1.1487535328994887E-011
  0.89125093813374590        1.1422174871471030E-011
   1.0000000000000000        1.1400000000000004E-011
