   1.0000000000000006E-005   88.700000000000017     
   1.1220184543019630E-005   60.992135356313298     
   1.2589254117941661E-005   41.927423681837595     
   1.4125375446227555E-005   28.813550579339086     
   1.5848931924611141E-005   19.795650755665978     
   1.7782794100389229E-005   13.596193439666068     
   1.9952623149688786E-005   9.3355428177760835     
   2.2387211385683379E-005   6.4082086858253700     
   2.5118864315095822E-005   4.3975287783994848     
   2.8183829312644549E-005   3.0168648101371507     
   3.1622776601683795E-005   2.0690846817872663     
   3.5481338923357534E-005   1.4186526739928900     
   3.9810717055349695E-005  0.97241004835338773     
   4.4668359215096348E-005  0.66634398003353912     
   5.0118723362727251E-005  0.45648167174988663     
   5.6234132519034907E-005  0.31262534137729059     
   6.3095734448019293E-005  0.21404304622303960     
   7.0794578438413731E-005  0.14650563173731465     
   7.9432823472428221E-005  0.10024989122829678     
   8.9125093813374588E-005   6.8578824571617347E-002
   1.0000000000000005E-004   4.6899999999999990E-002
   1.1220184543019630E-004   3.2141228676017292E-002
   1.2589254117941674E-004   2.2114230836201180E-002
   1.4125375446227541E-004   1.5264240959197461E-002
   1.5848931924611142E-004   1.0562017360382873E-002
   1.7782794100389227E-004   7.3208432637558640E-003
   1.9952623149688788E-004   5.0791634344521655E-003
   2.2387211385683400E-004   3.5246369651742012E-003
   2.5118864315095795E-004   2.4445673103151637E-003
   2.8183829312644550E-004   1.6932819973158521E-003
   3.1622776601683794E-004   1.1704976437377083E-003
   3.5481338923357532E-004   8.0686343871904536E-004
   3.9810717055349735E-004   5.5423257622713240E-004
   4.4668359215096305E-004   3.7907125973056678E-004
   5.0118723362727253E-004   2.5796497540295400E-004
   5.6234132519034910E-004   1.7453638872657988E-004
   6.3095734448019298E-004   1.1731967762910388E-004
   7.0794578438413802E-004   7.8286999563718649E-005
   7.9432823472428131E-004   5.1822293233305048E-005
   8.9125093813374593E-004   3.4003692193242340E-005
   1.0000000000000002E-003   2.2100000000000019E-005
   1.1220184543019630E-003   1.3883448251095417E-005
   1.2589254117941675E-003   8.2750347664076004E-006
   1.4125375446227540E-003   4.7174098412630244E-006
   1.5848931924611141E-003   2.5929406843402158E-006
   1.7782794100389228E-003   1.3852579087845726E-006
   1.9952623149688789E-003   7.2512298042128452E-007
   2.2387211385683399E-003   3.7491219311077976E-007
   2.5118864315095794E-003   1.9300929216043210E-007
   2.8183829312644548E-003   9.9735901861938291E-008
   3.1622776601683794E-003   5.2148684774541324E-008
   3.5481338923357532E-003   2.7812986883996470E-008
   3.9810717055349734E-003   1.5253103750525012E-008
   4.4668359215096305E-003   8.6709968997557247E-009
   5.0118723362727246E-003   5.1507911661508277E-009
   5.6234132519034910E-003   3.2230485635598579E-009
   6.3095734448019303E-003   2.1416162015160259E-009
   7.0794578438413804E-003   1.5233237616001049E-009
   7.9432823472428138E-003   1.1692636783244319E-009
   8.9125093813374589E-003   9.7632916493180369E-010
   1.0000000000000002E-002   8.9399999999999857E-010
   1.1220184543019630E-002   8.6056765963018562E-010
   1.2589254117941675E-002   8.3030282173368636E-010
   1.4125375446227540E-002   8.0289603519307316E-010
   1.5848931924611141E-002   7.7807370031234425E-010
   1.7782794100389229E-002   7.5559329985881505E-010
   1.9952623149688788E-002   7.3523930602497608E-010
   2.2387211385683399E-002   7.1681965843379549E-010
   2.5118864315095794E-002   7.0016272565916940E-010
   2.8183829312644550E-002   6.8511467705693169E-010
   3.1622776601683791E-002   6.7153720355890785E-010
   3.5481338923357530E-002   6.5930553592316255E-010
   3.9810717055349734E-002   6.4830671712237314E-010
   4.4668359215096300E-002   6.3843809238458809E-010
   5.0118723362727248E-002   6.2960598611718431E-010
   5.6234132519034911E-002   6.2172453974090259E-010
   6.3095734448019303E-002   6.1471468849678468E-010
   7.0794578438413802E-002   6.0850325869471774E-010
   7.9432823472428138E-002   6.0302216975561807E-010
   8.9125093813374592E-002   5.9820772784741814E-010
  0.10000000000000001        5.9400000000000115E-010
  0.11220184543019630        5.9013239822247277E-010
  0.12589254117941662        5.8638287229533031E-010
  0.14125375446227553        5.8276061385049493E-010
  0.15848931924611143        5.7927461420255187E-010
  0.17782794100389229        5.7593368733822915E-010
  0.19952623149688789        5.7274649428825783E-010
  0.22387211385683378        5.6972156885641116E-010
  0.25118864315095824        5.6686734469257366E-010
  0.28183829312644548        5.6419218370971147E-010
  0.31622776601683794        5.6170440585790832E-010
  0.35481338923357530        5.5941232028296859E-010
  0.39810717055349693        5.5732425791183533E-010
  0.44668359215096348        5.5544860552281927E-010
  0.50118723362727247        5.5379384137514047E-010
  0.56234132519034907        5.5236857248974330E-010
  0.63095734448019303        5.5118157369191337E-010
  0.70794578438413736        5.5024182854589066E-010
  0.79432823472428216        5.4955857233281451E-010
  0.89125093813374590        5.4914133724575791E-010
   1.0000000000000000        5.4900000000000059E-010
