   1.0000000000000006E-005   24000.000000000018     
   1.1220184543019630E-005   20607.284449131799     
   1.2589254117941661E-005   17558.339565929025     
   1.4125375446227555E-005   14848.980073046314     
   1.5848931924611141E-005   12466.876495335120     
   1.7782794100389229E-005   10393.549549870337     
   1.9952623149688786E-005   8606.2245778979068     
   2.2387211385683379E-005   7079.4799791166752     
   2.5118864315095822E-005   5786.6509884546131     
   2.8183829312644549E-005   4700.9736675360155     
   3.1622776601683795E-005   3796.4728125486727     
   3.5481338923357534E-005   3048.6113731993028     
   3.9810717055349695E-005   2434.7281758406461     
   4.4668359215096348E-005   1934.2958129090405     
   5.0118723362727251E-005   1529.0322474371212     
   5.6234132519034907E-005   1202.8987956326782     
   6.3095734448019293E-005   942.01447570750850     
   7.0794578438413731E-005   734.51294365856040     
   7.9432823472428221E-005   570.36395216069263     
   8.9125093813374588E-005   441.17690994459451     
   1.0000000000000005E-004   339.99999999999983     
   1.1220184543019630E-004   260.05717444062424     
   1.2589254117941674E-004   196.69899976728513     
   1.4125375446227541E-004   147.20687813958665     
   1.5848931924611142E-004   109.06764667444703     
   1.7782794100389227E-004   80.048817574034643     
   1.9952623149688788E-004   58.231005352566356     
   2.2387211385683400E-004   42.009091878042838     
   2.5118864315095795E-004   30.072614451102890     
   2.8183829312644550E-004   21.374069492715613     
   3.1622776601683794E-004   15.091785887465345     
   3.5481338923357532E-004   10.592066292341981     
   3.9810717055349735E-004   7.3936115940722580     
   4.4668359215096305E-004   5.1359136198429844     
   5.0118723362727253E-004   3.5523289545238872     
   5.6234132519034910E-004   2.4478921338271138     
   6.3095734448019298E-004   1.6815286203659805     
   7.0794578438413802E-004   1.1521217781927682     
   7.9432823472428131E-004  0.78781436195901089     
   8.9125093813374593E-004  0.53793529063703982     
   1.0000000000000002E-003  0.36699999999999999     
   1.1220184543019630E-003  0.24680966370655269     
   1.2589254117941675E-003  0.16174678444382884     
   1.4125375446227540E-003  0.10367320408214206     
   1.5848931924611141E-003   6.5228099784347543E-002
   1.7782794100389228E-003   4.0431536356323336E-002
   1.9952623149688789E-003   2.4780099395846033E-002
   2.2387211385683399E-003   1.5071729694434917E-002
   2.5118864315095794E-003   9.1302017200253216E-003
   2.8183829312644548E-003   5.5288504565629611E-003
   3.1622776601683794E-003   3.3589727377063786E-003
   3.5481338923357532E-003   2.0548269376645923E-003
   3.9810717055349734E-003   1.2703433791077863E-003
   4.4668359215096305E-003   7.9657025212121705E-004
   5.0118723362727246E-003   5.0846853941188905E-004
   5.6234132519034910E-003   3.3160502941399918E-004
   6.3095734448019303E-003   2.2175586771100607E-004
   7.0794578438413804E-003   1.5261811727469997E-004
   7.9432823472428138E-003   1.0849107041267931E-004
   8.9125093813374589E-003   7.9950060763580913E-005
   1.0000000000000002E-002   6.1299999999999999E-005
   1.1220184543019630E-002   4.8230527301631921E-005
   1.2589254117941675E-002   3.8304915932897803E-005
   1.4125375446227540E-002   3.0698004012011612E-005
   1.5848931924611141E-002   2.4816529022223656E-005
   1.7782794100389229E-002   2.0230162313389279E-005
   1.9952623149688788E-002   1.6624066910282411E-005
   2.2387211385683399E-002   1.3765973365707869E-005
   2.5118864315095794E-002   1.1483134748403189E-005
   2.8183829312644550E-002   9.6460618027342039E-006
   3.1622776601683791E-002   8.1569502918193657E-006
   3.5481338923357530E-002   6.9413819388523731E-006
   3.9810717055349734E-002   5.9423273275242037E-006
   4.4668359215096300E-002   5.1157799734685069E-006
   5.0118723362727248E-002   4.4275548995962144E-006
   5.6234132519034911E-002   3.8509246130803606E-006
   6.3095734448019303E-002   3.3648615279517657E-006
   7.0794578438413802E-002   2.9527225997152198E-006
   7.9432823472428138E-002   2.6012585736370699E-006
   8.9125093813374592E-002   2.2998630714329297E-006
  0.10000000000000001        2.0399999999999978E-006
  0.11220184543019630        1.8136961586834674E-006
  0.12589254117941662        1.6152974434705818E-006
  0.14125375446227553        1.4413608195684092E-006
  0.15848931924611143        1.2888541698296748E-006
  0.17782794100389229        1.1551126463405366E-006
  0.19952623149688789        1.0377984384608011E-006
  0.22387211385683378        9.3486398951128472E-007
  0.25118864315095824        8.4451860429900545E-007
  0.28183829312644548        7.6519832436533214E-007
  0.31622776601683794        6.9553890278473995E-007
  0.35481338923357530        6.3435168159250619E-007
  0.39810717055349693        5.8060215906388258E-007
  0.44668359215096348        5.3339102820213976E-007
  0.50118723362727247        4.9193746949614984E-007
  0.56234132519034907        4.5556448829726813E-007
  0.63095734448019303        4.2368609845038228E-007
  0.70794578438413736        3.9579616785135287E-007
  0.79432823472428216        3.7145875744947968E-007
  0.89125093813374590        3.5029980218601408E-007
   1.0000000000000000        3.3199999999999996E-007
