   1.0000000000000006E-005   189.00000000000006     
   1.1220184543019630E-005   133.61878991810511     
   1.2589254117941661E-005   94.351029238286785     
   1.4125375446227555E-005   66.542878371582788     
   1.5848931924611141E-005   46.874301787467878     
   1.7782794100389229E-005   32.979858248501209     
   1.9952623149688786E-005   23.176398883727945     
   2.2387211385683379E-005   16.267798471622626     
   2.5118864315095822E-005   11.405116363579268     
   2.8183829312644549E-005   7.9865869318041645     
   3.1622776601683795E-005   5.5861905626559931     
   3.5481338923357534E-005   3.9027051977074714     
   3.9810717055349695E-005   2.7234140819439703     
   4.4668359215096348E-005   1.8982875438041247     
   5.0118723362727251E-005   1.3216399565669825     
   5.6234132519034907E-005  0.91911450555632523     
   6.3095734448019293E-005  0.63846020659210356     
   7.0794578438413731E-005  0.44300462167318494     
   7.9432823472428221E-005  0.30704027369131237     
   8.9125093813374588E-005  0.21256783629955145     
   1.0000000000000005E-004  0.14700000000000002     
   1.1220184543019630E-004  0.10166090961671558     
   1.2589254117941674E-004   7.0371260268958957E-002
   1.4125375446227541E-004   4.8738994624404584E-002
   1.5848931924611142E-004   3.3762369853693019E-002
   1.7782794100389227E-004   2.3382967057789649E-002
   1.9952623149688788E-004   1.6184968914588739E-002
   2.2387211385683400E-004   1.1191927739792279E-002
   2.5118864315095795E-004   7.7288329468580483E-003
   2.8183829312644550E-004   5.3281219630876573E-003
   3.1622776601683794E-004   3.6653953755835123E-003
   3.5481338923357532E-004   2.5152962874950033E-003
   3.9810717055349735E-004   1.7211326493950573E-003
   4.4668359215096305E-004   1.1739014161644074E-003
   5.0118723362727253E-004   7.9776727832782455E-004
   5.6234132519034910E-004   5.3998704383757606E-004
   6.3095734448019298E-004   3.6390515477586745E-004
   7.0794578438413802E-004   2.4407654179941650E-004
   7.9432823472428131E-004   1.6286661134337760E-004
   8.9125093813374593E-004   1.0807904126761195E-004
   1.0000000000000002E-003   7.1299999999999944E-005
   1.1220184543019630E-003   4.6123433368648983E-005
   1.2589254117941675E-003   2.8953166018464471E-005
   1.4125375446227540E-003   1.7716067496442955E-005
   1.5848931924611141E-003   1.0614264946638813E-005
   1.7782794100389228E-003   6.2548709377861710E-006
   1.9952623149688789E-003   3.6417247021857033E-006
   2.2387211385683399E-003   2.1043147542205922E-006
   2.5118864315095794E-003   1.2122260612808353E-006
   2.8183829312644548E-003   6.9932710295844179E-007
   3.1622776601683794E-003   4.0584054220929675E-007
   3.5481338923357532E-003   2.3799252909695054E-007
   3.9810717055349734E-003   1.4166368771440180E-007
   4.4668359215096305E-003   8.5979632554247163E-008
   5.0118723362727246E-003   5.3447691090714569E-008
   5.6234132519034910E-003   3.4183232874168710E-008
   6.3095734448019303E-003   2.2594494982632919E-008
   7.0794578438413804E-003   1.5504292847704232E-008
   7.9432823472428138E-003   1.1094701060970522E-008
   8.9125093813374589E-003   8.3166430915837893E-009
   1.0000000000000002E-002   6.5600000000000030E-009
   1.1220184543019630E-002   5.3465436118896269E-009
   1.2589254117941675E-002   4.4061247732220410E-009
   1.4125375446227540E-002   3.6692343709816938E-009
   1.5848931924611141E-002   3.0856714291095121E-009
   1.7782794100389229E-002   2.6187862430612503E-009
   1.9952623149688788E-002   2.2415433810587476E-009
   2.2387211385683399E-002   1.9337999839054104E-009
   2.5118864315095794E-002   1.6804045294909645E-009
   2.8183829312644550E-002   1.4698553672460095E-009
   3.1622776601683791E-002   1.2933450646019587E-009
   3.5481338923357530E-002   1.1440732910141302E-009
   3.9810717055349734E-002   1.0167483901097903E-009
   4.4668359215096300E-002   9.0722274609516689E-010
   5.0118723362727248E-002   8.1222385114467218E-010
   5.6234132519034911E-002   7.2915439579124835E-010
   6.3095734448019303E-002   6.5594252993676826E-010
   7.0794578438413802E-002   5.9092885332427530E-010
   7.9432823472428138E-002   5.3278046773096771E-010
   8.9125093813374592E-002   4.8042507661799097E-010
  0.10000000000000001        4.3300000000000011E-010
  0.11220184543019630        3.9034958795538141E-010
  0.12589254117941662        3.5241463011081932E-010
  0.14125375446227553        3.1865969247759973E-010
  0.15848931924611143        2.8861038835403091E-010
  0.17782794100389229        2.6184665657866538E-010
  0.19952623149688789        2.3799672334089846E-010
  0.22387211385683378        2.1673169028148728E-010
  0.25118864315095824        1.9776069398835366E-010
  0.28183829312644548        1.8082658482681865E-010
  0.31622776601683794        1.6570207617649167E-010
  0.35481338923357530        1.5218631844956005E-010
  0.39810717055349693        1.4010185563385460E-010
  0.44668359215096348        1.2929192545910519E-010
  0.50118723362727247        1.1961806756547119E-010
  0.56234132519034907        1.1095800721552782E-010
  0.63095734448019303        1.0320378510338776E-010
  0.70794578438413736        9.6260106657454094E-011
  0.79432823472428216        9.0042886895154430E-011
  0.89125093813374590        8.4477969364534010E-011
   1.0000000000000000        7.9499999999999881E-011
