   1.0000000000000006E-005   93.399999999999991     
   1.1220184543019630E-005   64.521473970222900     
   1.2589254117941661E-005   44.555190645098008     
   1.4125375446227555E-005   30.755953461147588     
   1.5848931924611141E-005   21.222531499580775     
   1.7782794100389229E-005   14.638700384488041     
   1.9952623149688786E-005   10.093584913429261     
   2.2387211385683379E-005   6.9570669697230691     
   2.5118864315095822E-005   4.7934145685701655     
   2.8183829312644549E-005   3.3014300798612508     
   3.1622776601683795E-005   2.2729912377460004     
   3.5481338923357534E-005   1.5643437983909110     
   3.9810717055349695E-005   1.0762314378427462     
   4.4668359215096348E-005  0.74014772695791875     
   5.0118723362727251E-005  0.50882759025994684     
   5.6234132519034907E-005  0.34967343644300009     
   6.3095734448019293E-005  0.24021195544579144     
   7.0794578438413731E-005  0.16495550872467213     
   7.9432823472428221E-005  0.11323469029136284     
   8.9125093813374588E-005   7.7702121824314921E-002
   1.0000000000000005E-004   5.3299999999999986E-002
   1.1220184543019630E-004   3.6637666914588786E-002
   1.2589254117941674E-004   2.5285706945597446E-002
   1.4125375446227541E-004   1.7507815718948695E-002
   1.5848931924611142E-004   1.2152378742056855E-002
   1.7782794100389227E-004   8.4494020544359037E-003
   1.9952623149688788E-004   5.8801566037855555E-003
   2.2387211385683400E-004   4.0927284759256968E-003
   2.5118864315095795E-004   2.8468264000437180E-003
   2.8183829312644550E-004   1.9774063925648098E-003
   3.1622776601683794E-004   1.3705051370366721E-003
   3.5481338923357532E-004   9.4706126296717930E-004
   3.9810717055349735E-004   6.5200516704176225E-004
   4.4668359215096305E-004   4.4685070465735329E-004
   5.0118723362727253E-004   3.0463176675198003E-004
   5.6234132519034910E-004   2.0642017918876722E-004
   6.3095734448019298E-004   1.3891726313185386E-004
   7.0794578438413802E-004   9.2779126528344714E-005
   7.9432823472428131E-004   6.1446509939760551E-005
   8.9125093813374593E-004   4.0323658587684937E-005
   1.0000000000000002E-003   2.6200000000000013E-005
   1.1220184543019630E-003   1.6486337161262191E-005
   1.2589254117941675E-003   9.8802394731429082E-006
   1.4125375446227540E-003   5.6806506339713931E-006
   1.5848931924611141E-003   3.1563337149354741E-006
   1.7782794100389228E-003   1.7072176054690824E-006
   1.9952623149688789E-003   9.0548839357782003E-007
   2.2387211385683399E-003   4.7438597889834003E-007
   2.5118864315095794E-003   2.4728778148054740E-007
   2.8183829312644548E-003   1.2919991802761813E-007
   3.1622776601683794E-003   6.8151825307848540E-008
   3.5481338923357532E-003   3.6560769546713983E-008
   3.9810717055349734E-003   2.0092901511841855E-008
   4.4668359215096305E-003   1.1395316228891371E-008
   5.0118723362727246E-003   6.7178981510467515E-009
   5.6234132519034910E-003   4.1469678132324963E-009
   6.3095734448019303E-003   2.7001322617886705E-009
   7.0794578438413804E-003   1.8679422426798056E-009
   7.9432823472428138E-003   1.3830337870642991E-009
   8.9125093813374589E-003   1.1039768975703977E-009
   1.0000000000000002E-002   9.5700000000000011E-010
   1.1220184543019630E-002   8.6871539784794349E-010
   1.2589254117941675E-002   7.9234907967209485E-010
   1.4125375446227540E-002   7.2610996247688979E-010
   1.5848931924611141E-002   6.6851071824533062E-010
   1.7782794100389229E-002   6.1831223162647336E-010
   1.9952623149688788E-002   5.7447895998613695E-010
   2.2387211385683399E-002   5.3614293294439364E-010
   2.5118864315095794E-002   5.0257462263611621E-010
   2.8183829312644550E-002   4.7315929733097502E-010
   3.1622776601683791E-002   4.4737776648897477E-010
   3.5481338923357530E-002   4.2479065497921803E-010
   3.9810717055349734E-002   4.0502552331722845E-010
   4.4668359215096300E-002   3.8776629097083326E-010
   5.0118723362727248E-002   3.7274452987775244E-010
   5.6234132519034911E-002   3.5973228206152561E-010
   6.3095734448019303E-002   3.4853612380566170E-010
   7.0794578438413802E-002   3.3899225323489780E-010
   7.9432823472428138E-002   3.3096242143483730E-010
   8.9125093813374592E-002   3.2433056180120891E-010
  0.10000000000000001        3.1899999999999988E-010
  0.11220184543019630        3.1439059156454149E-010
  0.12589254117941662        3.0998065722691969E-010
  0.14125375446227553        3.0577414690186062E-010
  0.15848931924611143        3.0177479587387159E-010
  0.17782794100389229        2.9798617686891920E-010
  0.19952623149688789        2.9441175228222136E-010
  0.22387211385683378        2.9105492665057761E-010
  0.25118864315095824        2.8791909949500670E-010
  0.28183829312644548        2.8500771869718093E-010
  0.31622776601683794        2.8232433461162173E-010
  0.35481338923357530        2.7987265515522569E-010
  0.39810717055349693        2.7765660215702632E-010
  0.44668359215096348        2.7568036929456757E-010
  0.50118723362727247        2.7394848198961755E-010
  0.56234132519034907        2.7246585968584860E-010
  0.63095734448019303        2.7123788098536324E-010
  0.70794578438413736        2.7027045218047206E-010
  0.79432823472428216        2.6957007978296887E-010
  0.89125093813374590        2.6914394772652586E-010
   1.0000000000000000        2.6899999999999979E-010
