   1.0000000000000006E-005   404.00000000000017     
   1.1220184543019630E-005   307.40013014249013     
   1.2589254117941661E-005   232.87617940364910     
   1.4125375446227555E-005   175.66046167893742     
   1.5848931924611141E-005   131.94122076891401     
   1.7782794100389229E-005   98.690215096986563     
   1.9952623149688786E-005   73.516429443349381     
   2.2387211385683379E-005   54.543251377804907     
   2.5118864315095822E-005   40.306356373262538     
   2.8183829312644549E-005   29.669590460209278     
   3.1622776601683795E-005   21.756280543925527     
   3.5481338923357534E-005   15.893605540778999     
   3.9810717055349695E-005   11.567898910870797     
   4.4668359215096348E-005   8.3890041214302506     
   5.0118723362727251E-005   6.0620538895668385     
   5.6234132519034907E-005   4.3652812843470894     
   6.3095734448019293E-005   3.1326892978425800     
   7.0794578438413731E-005   2.2406016749337505     
   7.9432823472428221E-005   1.5972901949035867     
   8.9125093813374588E-005   1.1350223811400635     
   1.0000000000000005E-004  0.80400000000000005     
   1.1220184543019630E-004  0.56714798249526155     
   1.2589254117941674E-004  0.39801498774765282     
   1.4125375446227541E-004  0.27791959124982496     
   1.5848931924611142E-004  0.19311215446099755     
   1.7782794100389227E-004  0.13354412158804119     
   1.9952623149688788E-004   9.1921832109661400E-002
   2.2387211385683400E-004   6.2986185277345244E-002
   2.5118864315095795E-004   4.2969340573245765E-002
   2.8183829312644550E-004   2.9188570669845707E-002
   3.1622776601683794E-004   1.9745208995776972E-002
   3.5481338923357532E-004   1.3303300988947758E-002
   3.9810717055349735E-004   8.9281172400851438E-003
   4.4668359215096305E-004   5.9692139678666021E-003
   5.0118723362727253E-004   3.9763555684737282E-003
   5.6234132519034910E-004   2.6394782726009997E-003
   6.3095734448019298E-004   1.7461027360615564E-003
   7.0794578438413802E-004   1.1513154327141529E-003
   7.9432823472428131E-004   7.5673827490639720E-004
   8.9125093813374593E-004   4.9588152201438624E-004
   1.0000000000000002E-003   3.2399999999999991E-004
   1.1220184543019630E-003   2.0794743850959397E-004
   1.2589254117941675E-003   1.2953260308501980E-004
   1.4125375446227540E-003   7.8664511952544611E-005
   1.5848931924611141E-003   4.6785377859997733E-005
   1.7782794100389228E-003   2.7373494800959551E-005
   1.9952623149688789E-003   1.5826921918696952E-005
   2.2387211385683399E-003   9.0837686663376974E-006
   2.5118864315095794E-003   5.1987191164428951E-006
   2.8183829312644548E-003   2.9801945160737845E-006
   3.1622776601683794E-003   1.7189693267460362E-006
   3.5481338923357532E-003   1.0021302908214061E-006
   3.9810717055349734E-003   5.9315758212902817E-007
   4.4668359215096305E-003   3.5806601709668805E-007
   5.0118723362727246E-003   2.2144227542746648E-007
   5.6234132519034910E-003   1.4093526100302235E-007
   6.3095734448019303E-003   9.2725200214113044E-008
   7.0794578438413804E-003   6.3350809751288278E-008
   7.9432823472428138E-003   4.5148167151416634E-008
   8.9125093813374589E-003   3.3714671260852894E-008
   1.0000000000000002E-002   2.6500000000000002E-008
   1.1220184543019630E-002   2.1524801553609487E-008
   1.2589254117941675E-002   1.7677990144451194E-008
   1.4125375446227540E-002   1.4670949603996255E-008
   1.5848931924611141E-002   1.2295503767678338E-008
   1.7782794100389229E-002   1.0399880544616462E-008
   1.9952623149688788E-002   8.8722843861103120E-009
   2.2387211385683399E-002   7.6295477225187920E-009
   2.5118864315095794E-002   6.6092096495347999E-009
   2.8183829312644550E-002   5.7639315508027184E-009
   3.1622776601683791E-002   5.0575223522661453E-009
   3.5481338923357530E-002   4.4620833061973668E-009
   3.9810717055349734E-002   3.9559387829085844E-009
   4.4668359215096300E-002   3.5221239292352113E-009
   5.0118723362727248E-002   3.1472703005402806E-009
   5.6234132519034911E-002   2.8207782847844384E-009
   6.3095734448019303E-002   2.5341978312062488E-009
   7.0794578438413802E-002   2.2807615923255804E-009
   7.9432823472428138E-002   2.0550303359570923E-009
   8.9125093813374592E-002   1.8526215496495985E-009
  0.10000000000000001        1.6700000000000000E-009
  0.11220184543019630        1.5060706914134256E-009
  0.12589254117941662        1.3602535878289088E-009
  0.14125375446227553        1.2305073230870846E-009
  0.15848931924611143        1.1150195636236409E-009
  0.17782794100389229        1.0121826689404813E-009
  0.19952623149688789        9.2057164451548190E-010
  0.22387211385683378        8.3892423438677273E-010
  0.25118864315095824        7.6612299770120383E-010
  0.28183829312644548        7.0117921425400744E-010
  0.31622776601683794        6.4321846760110362E-010
  0.35481338923357530        5.9146775997032942E-010
  0.39810717055349693        5.4524402033179444E-010
  0.44668359215096348        5.0394387511941491E-010
  0.50118723362727247        4.6703455983125922E-010
  0.56234132519034907        4.3404585876407360E-010
  0.63095734448019303        4.0456296921694378E-010
  0.70794578438413736        3.7822019544998770E-010
  0.79432823472428216        3.5469538637552959E-010
  0.89125093813374590        3.3370503930303055E-010
   1.0000000000000000        3.1500000000000026E-010
