   1.0000000000000006E-005   93.099999999999966     
   1.1220184543019630E-005   64.293968654025534     
   1.2589254117941661E-005   44.384571366293613     
   1.4125375446227555E-005   30.629174771308641     
   1.5848931924611141E-005   21.129064000835992     
   1.7782794100389229E-005   14.570254748867804     
   1.9952623149688786E-005   10.043756669162674     
   2.2387211385683379E-005   6.9209800555952787     
   2.5118864315095822E-005   4.7674002821377224     
   2.8183829312644549E-005   3.2827549877117130     
   3.1622776601683795E-005   2.2596354566901620     
   3.5481338923357534E-005   1.5548252240509453     
   3.9810717055349695E-005   1.0694692139673398     
   4.4668359215096348E-005  0.73535785703605727     
   5.0118723362727251E-005  0.50544412591980137     
   5.6234132519034907E-005  0.34728958901393875     
   6.3095734448019293E-005  0.23853647430831221     
   7.0794578438413731E-005  0.16378060664652624     
   7.9432823472428221E-005  0.11241260962626869     
   8.9125093813374588E-005   7.7128109510563037E-002
   1.0000000000000005E-004   5.2899999999999989E-002
   1.1220184543019630E-004   3.6366932224517416E-002
   1.2589254117941674E-004   2.5112097460667584E-002
   1.4125375446227541E-004   1.7402707297427843E-002
   1.5848931924611142E-004   1.2093174794726482E-002
   1.7782794100389227E-004   8.4194885825271404E-003
   1.9952623149688788E-004   5.8679329489561170E-003
   2.2387211385683400E-004   4.0904472999837155E-003
   2.5118864315095795E-004   2.8495407376663475E-003
   2.8183829312644550E-004   1.9821181048569909E-003
   3.1622776601683794E-004   1.3755201514884651E-003
   3.5481338923357532E-004   9.5152310221090339E-004
   3.9810717055349735E-004   6.5556966375411531E-004
   4.4668359215096305E-004   4.4946685615982948E-004
   5.0118723362727253E-004   3.0639945515092927E-004
   5.6234132519034910E-004   2.0750185260117143E-004
   6.3095734448019298E-004   1.3948638603311666E-004
   7.0794578438413802E-004   9.2992880516666924E-005
   7.9432823472428131E-004   6.1433858602592784E-005
   8.9125093813374593E-004   4.0182623000631114E-005
   1.0000000000000002E-003   2.6000000000000015E-005
   1.1220184543019630E-003   1.6299640983320750E-005
   1.2589254117941675E-003   9.7466477507585550E-006
   1.4125375446227540E-003   5.5974989921682825E-006
   1.5848931924611141E-003   3.1087319658924053E-006
   1.7782794100389228E-003   1.6811714857041530E-006
   1.9952623149688789E-003   8.9139298813547554E-007
   2.2387211385683399E-003   4.6659905357540776E-007
   2.5118864315095794E-003   2.4278671309904103E-007
   2.8183829312644548E-003   1.2644491816714124E-007
   3.1622776601683794E-003   6.6368534203294479E-008
   3.5481338923357532E-003   3.5350571130964498E-008
   3.9810717055349734E-003   1.9239464762999580E-008
   4.4668359215096305E-003   1.0773104180383040E-008
   5.0118723362727246E-003   6.2492663648280719E-009
   5.6234132519034910E-003   3.7813466754372544E-009
   6.3095734448019303E-003   2.4031574054636622E-009
   7.0794578438413804E-003   1.6151958242668544E-009
   7.9432823472428138E-003   1.1560174020408542E-009
   8.9125093813374589E-003   8.8713305934332654E-010
   1.0000000000000002E-002   7.3500000000000046E-010
   1.1220184543019630E-002   6.3640882289535506E-010
   1.2589254117941675E-002   5.5485734983653739E-010
   1.4125375446227540E-002   4.8704228018698938E-010
   1.5848931924611141E-002   4.3036408887935119E-010
   1.7782794100389229E-002   3.8276595036693253E-010
   1.9952623149688788E-002   3.4261182777456729E-010
   2.2387211385683399E-002   3.0859370250697537E-010
   2.5118864315095794E-002   2.7966060341966715E-010
   2.8183829312644550E-002   2.5496403079578154E-010
   3.1622776601683791E-002   2.3381577468924047E-010
   3.5481338923357530E-002   2.1565515119119960E-010
   3.9810717055349734E-002   2.0002343074742637E-010
   4.4668359215096300E-002   1.8654378562219899E-010
   5.0118723362727248E-002   1.7490549303433564E-010
   5.6234132519034911E-002   1.6485143513115976E-010
   6.3095734448019303E-002   1.5616816472717444E-010
   7.0794578438413802E-002   1.4867797681941392E-010
   7.9432823472428138E-002   1.4223255499660421E-010
   8.9125093813374592E-002   1.3670785972438765E-010
  0.10000000000000001        1.3200000000000019E-010
  0.11220184543019630        1.2777353452186701E-010
  0.12589254117941662        1.2375593335005184E-010
  0.14125375446227553        1.1994986207326700E-010
  0.15848931924611143        1.1635700535075137E-010
  0.17782794100389229        1.1297824784881901E-010
  0.19952623149688789        1.0981384794418511E-010
  0.22387211385683378        1.0686360409265981E-010
  0.25118864315095824        1.0412701412621682E-010
  0.28183829312644548        1.0160342807449126E-010
  0.31622776601683794        9.9292195414207326E-011
  0.35481338923357530        9.7192807938881946E-011
  0.39810717055349693        9.5305039719543687E-011
  0.44668359215096348        9.3629085904378845E-011
  0.50118723362727247        9.2165702391677701E-011
  0.56234132519034907        9.0916348718000688E-011
  0.63095734448019303        8.9883336845677202E-011
  0.70794578438413736        8.9069988926121898E-011
  0.79432823472428216        8.8480807576218004E-011
  0.89125093813374590        8.8121662755707611E-011
   1.0000000000000000        8.8000000000000097E-011
