   1.0000000000000006E-005   545.00000000000011     
   1.1220184543019630E-005   428.74660857717174     
   1.2589254117941661E-005   335.21562574634987     
   1.4125375446227555E-005   260.50917347480402     
   1.5848931924611141E-005   201.25785741018041     
   1.7782794100389229E-005   154.58579165260454     
   1.9952623149688786E-005   118.06714389245982     
   2.2387211385683379E-005   89.678253656525897     
   2.5118864315095822E-005   67.748498927731035     
   2.8183829312644549E-005   50.912275703812576     
   3.1622776601683795E-005   38.063742643184312     
   3.5481338923357534E-005   28.315384340105425     
   3.9810717055349695E-005   20.960965133628193     
   4.4668359215096348E-005   15.443074991306283     
   5.0118723362727251E-005   11.325198516927465     
   5.6234132519034907E-005   8.2680530159094907     
   6.3095734448019293E-005   6.0098262512760643     
   7.0794578438413731E-005   4.3498838685973711     
   7.9432823472428221E-005   3.1354966354314686     
   8.9125093813374588E-005   2.2511466831314602     
   1.0000000000000005E-004   1.6100000000000001     
   1.1220184543019630E-004   1.1439068208794110     
   1.2589254117941674E-004  0.80541553018156620     
   1.4125375446227541E-004  0.56224487165053305     
   1.5848931924611142E-004  0.38933077720377302     
   1.7782794100389227E-004  0.26755389534873525     
   1.9952623149688788E-004  0.18256381589805301     
   2.2387211385683400E-004  0.12374868508765928     
   2.5118864315095795E-004   8.3368218338356490E-002
   2.8183829312644550E-004   5.5847799236141374E-002
   3.1622776601683794E-004   3.7219351390611520E-002
   3.5481338923357532E-004   2.4688818542704716E-002
   3.9810717055349735E-004   1.6308430321549491E-002
   4.4668359215096305E-004   1.0732871796142926E-002
   5.0118723362727253E-004   7.0408196955477429E-003
   5.6234132519034910E-004   4.6062296108575380E-003
   6.3095734448019298E-004   3.0067311629799424E-003
   7.0794578438413802E-004   1.9592138757078734E-003
   7.9432823472428131E-004   1.2750256077503756E-003
   8.9125093813374593E-004   8.2911992875670394E-004
   1.0000000000000002E-003   5.3900000000000009E-004
   1.1220184543019630E-003   3.4494064705848168E-004
   1.2589254117941675E-003   2.1454979515188213E-004
   1.4125375446227540E-003   1.3027184728736321E-004
   1.5848931924611141E-003   7.7557248056705916E-005
   1.7782794100389228E-003   4.5473059633073039E-005
   1.9952623149688789E-003   2.6372818367752065E-005
   2.2387211385683399E-003   1.5196378685951859E-005
   2.5118864315095794E-003   8.7380692525771887E-006
   2.8183829312644548E-003   5.0360876880628297E-006
   3.1622776601683794E-003   2.9220263335219576E-006
   3.5481338923357532E-003   1.7143465726170461E-006
   3.9810717055349734E-003   1.0215212192192332E-006
   4.4668359215096305E-003   6.2092771760192609E-007
   5.0118723362727246E-003   3.8671427324500305E-007
   5.6234132519034910E-003   2.4785944458342935E-007
   6.3095734448019303E-003   1.6420919531264603E-007
   7.0794578438413804E-003   1.1294755102098970E-007
   7.9432823472428138E-003   8.1012889920287367E-008
   8.9125093813374589E-003   6.0861129169422256E-008
   1.0000000000000002E-002   4.8100000000000020E-008
   1.1220184543019630E-002   3.9294992375823403E-008
   1.2589254117941675E-002   3.2491733247845793E-008
   1.4125375446227540E-002   2.7170373472981366E-008
   1.5848931924611141E-002   2.2958785835561926E-008
   1.7782794100389229E-002   1.9587378989962382E-008
   1.9952623149688788E-002   1.6858594230879518E-008
   2.2387211385683399E-002   1.4626066101832874E-008
   2.5118864315095794E-002   1.2780221173429444E-008
   2.8183829312644550E-002   1.1238216449719404E-008
   3.1622776601683791E-002   9.9368359699479714E-009
   3.5481338923357530E-002   8.8274258072543296E-009
   3.9810717055349734E-002   7.8722482149522431E-009
   4.4668359215096300E-002   7.0418334787863379E-009
   5.0118723362727248E-002   6.3130395847846084E-009
   5.6234132519034911E-002   5.6676181822453529E-009
   6.3095734448019303E-002   5.0911452670446751E-009
   7.0794578438413802E-002   4.5722160730401967E-009
   7.9432823472428138E-002   4.1018320748633315E-009
   8.9125093813374592E-002   3.6729278930069872E-009
  0.10000000000000001        3.2800000000000011E-009
  0.11220184543019630        2.9261390656645166E-009
  0.12589254117941662        2.6137070751657434E-009
  0.14125375446227553        2.3376302011341965E-009
  0.15848931924611143        2.0934749206929187E-009
  0.17782794100389229        1.8773657246953779E-009
  0.19952623149688789        1.6859134988599455E-009
  0.22387211385683378        1.5161531926521258E-009
  0.25118864315095824        1.3654895696366987E-009
  0.28183829312644548        1.2316499885041480E-009
  0.31622776601683794        1.1126432997873679E-009
  0.35481338923357530        1.0067240618318619E-009
  0.39810717055349693        9.1236138299416519E-010
  0.44668359215096348        8.2821178719894279E-010
  0.50118723362727247        7.5309557854166866E-010
  0.56234132519034907        6.8597624903999578E-010
  0.63095734448019303        6.2594253319516535E-010
  0.70794578438413736        5.7219276485113859E-010
  0.79432823472428216        5.2402123692126308E-010
  0.89125093813374590        4.8080630375517331E-010
   1.0000000000000000        4.4200000000000044E-010
