   1.0000000000000006E-005   8.0700000000000003     
   1.1220184543019630E-005   6.2580540988602289     
   1.2589254117941661E-005   4.8303329526936576     
   1.4125375446227555E-005   3.7112592002558036     
   1.5848931924611141E-005   2.8386147935807151     
   1.7782794100389229E-005   2.1615589328169156     
   1.9952623149688786E-005   1.6388440672856963     
   2.2387211385683379E-005   1.2372361736063133     
   2.5118864315095822E-005  0.93013609449112900     
   2.8183829312644549E-005  0.69639202426441471     
   3.1622776601683795E-005  0.51928881803442917     
   3.5481338923357534E-005  0.38569724295581120     
   3.9810717055349695E-005  0.28536517260805844     
   4.4668359215096348E-005  0.21033268346571263     
   5.0118723362727251E-005  0.15445373196172563     
   5.6234132519034907E-005  0.11300831226599876     
   6.3095734448019293E-005   8.2390511681880774E-002
   7.0794578438413731E-005   5.9859533645968008E-002
   7.9432823472428221E-005   4.3342430890582900E-002
   8.9125093813374588E-005   3.1278901942602994E-002
   1.0000000000000005E-004   2.2499999999999999E-002
   1.1220184543019630E-004   1.6153655253997767E-002
   1.2589254117941674E-004   1.1584371321864902E-002
   1.4125375446227541E-004   8.2929567539828369E-003
   1.5848931924611142E-004   5.9224786774317081E-003
   1.7782794100389227E-004   4.2167386890739371E-003
   1.9952623149688788E-004   2.9912371947823911E-003
   2.2387211385683400E-004   2.1127489789198347E-003
   2.5118864315095795E-004   1.4848744554033667E-003
   2.8183829312644550E-004   1.0377631911381209E-003
   3.1622776601683794E-004   7.2076781078558448E-004
   3.5481338923357532E-004   4.9716780907347561E-004
   3.9810717055349735E-004   3.4036353028615407E-004
   4.4668359215096305E-004   2.3111990067540159E-004
   5.0118723362727253E-004   1.5556355961013259E-004
   5.6234132519034910E-004   1.0372334467778133E-004
   6.3095734448019298E-004   6.8464456838292808E-005
   7.0794578438413802E-004   4.4709080548087197E-005
   7.9432823472428131E-004   2.8866234184585814E-005
   8.9125093813374593E-004   1.8414937381142549E-005
   1.0000000000000002E-003   1.1599999999999991E-005
   1.1220184543019630E-003   6.9900640431209795E-006
   1.2589254117941675E-003   3.9304369303030273E-006
   1.4125375446227540E-003   2.0821828402045328E-006
   1.5848931924611141E-003   1.0492937629060208E-006
   1.7782794100389228E-003   5.0787561318666879E-007
   1.9952623149688789E-003   2.3838641952848213E-007
   2.2387211385683399E-003   1.0955983951507837E-007
   2.5118864315095794E-003   4.9779305420858967E-008
   2.8183829312644548E-003   2.2576451868116651E-008
   3.1622776601683794E-003   1.0319384614957930E-008
   3.5481338923357532E-003   4.7998206165920468E-009
   3.9810717055349734E-003   2.2937767903994140E-009
   4.4668359215096305E-003   1.1371403856411554E-009
   5.0118723362727246E-003   5.9046701123196522E-010
   5.6234132519034910E-003   3.2424826622734424E-010
   6.3095734448019303E-003   1.9012621270665699E-010
   7.0794578438413804E-003   1.2019059516725619E-010
   7.9432823472428138E-003   8.2707514755118076E-011
   8.9125093813374589E-003   6.2552878006737619E-011
   1.0000000000000002E-002   5.2500000000000019E-011
   1.1220184543019630E-002   4.6709152226358906E-011
   1.2589254117941675E-002   4.1809270234040021E-011
   1.4125375446227540E-002   3.7645869774463488E-011
   1.5848931924611141E-002   3.4094353169556355E-011
   1.7782794100389229E-002   3.1053758578696116E-011
   1.9952623149688788E-002   2.8441906960560894E-011
   2.2387211385683399E-002   2.6191616197193798E-011
   2.5118864315095794E-002   2.4247733925216912E-011
   2.8183829312644550E-002   2.2564801416376347E-011
   3.1622776601683791E-002   2.1105206100913686E-011
   3.5481338923357530E-002   1.9837714166863857E-011
   3.9810717055349734E-002   1.8736300091324748E-011
   4.4668359215096300E-002   1.7779209146091264E-011
   5.0118723362727248E-002   1.6948203464055759E-011
   5.6234132519034911E-002   1.6227953325663226E-011
   6.3095734448019303E-002   1.5605543790771166E-011
   7.0794578438413802E-002   1.5070073301121414E-011
   7.9432823472428138E-002   1.4612325889174830E-011
   8.9125093813374592E-002   1.4224502506812244E-011
  0.10000000000000001        1.3899999999999997E-011
  0.11220184543019630        1.3611564321103110E-011
  0.12589254117941662        1.3336003206061031E-011
  0.14125375446227553        1.3073563718804598E-011
  0.15848931924611143        1.2824462236911513E-011
  0.17782794100389229        1.2588890323120113E-011
  0.19952623149688789        1.2367020527670588E-011
  0.22387211385683378        1.2159012126150279E-011
  0.25118864315095824        1.1965016804378618E-011
  0.28183829312644548        1.1785184308571140E-011
  0.31622776601683794        1.1619668085651163E-011
  0.35481338923357530        1.1468630945227457E-011
  0.39810717055349693        1.1332250781540182E-011
  0.44668359215096348        1.1210726400727367E-011
  0.50118723362727247        1.1104283506226211E-011
  0.56234132519034907        1.1013180903173424E-011
  0.63095734448019303        1.0937716991502290E-011
  0.70794578438413736        1.0878236627274825E-011
  0.79432823472428216        1.0835138442902016E-011
  0.89125093813374590        1.0808882729594009E-011
   1.0000000000000000        1.0800000000000015E-011
