   1.0000000000000006E-005   22.399999999999999     
   1.1220184543019630E-005   17.060203655100484     
   1.2589254117941661E-005   12.938753645628617     
   1.4125375446227555E-005   9.7723831503236749     
   1.5848931924611141E-005   7.3508254060654838     
   1.7782794100389229E-005   5.5071521856537915     
   1.9952623149688786E-005   4.1096152747770702     
   2.2387211385683379E-005   3.0548236491127847     
   2.5118864315095822E-005   2.2620894752455141     
   2.8183829312644549E-005   1.6687829033852144     
   3.1622776601683795E-005   1.2265467377260297     
   3.5481338923357534E-005  0.89823573448052285     
   3.9810717055349695E-005  0.65546014860844470     
   4.4668359215096348E-005  0.47662823059171716     
   5.0118723362727251E-005  0.34539695757394184     
   5.6234132519034907E-005  0.24945390063783199     
   6.3095734448019293E-005  0.17956550287634537     
   7.0794578438413731E-005  0.12883803663670571     
   7.9432823472428221E-005   9.2147094198625268E-002
   8.9125093813374588E-005   6.5699689267797165E-002
   1.0000000000000005E-004   4.6699999999999985E-002
   1.1220184543019630E-004   3.3139833380932342E-002
   1.2589254117941674E-004   2.3500197745083093E-002
   1.4125375446227541E-004   1.6642098537310253E-002
   1.5848931924611142E-004   1.1762175576848275E-002
   1.7782794100389227E-004   8.2915904612902002E-003
   1.9952623149688788E-004   5.8262117562689793E-003
   2.2387211385683400E-004   4.0781250991094144E-003
   2.5118864315095795E-004   2.8417659057856691E-003
   2.8183829312644550E-004   1.9701402876956876E-003
   3.1622776601683794E-004   1.3580467537027063E-003
   3.5481338923357532E-004   9.3018349379477938E-004
   3.9810717055349735E-004   6.3268347732361443E-004
   4.4668359215096305E-004   4.2706692171977026E-004
   5.0118723362727253E-004   2.8590685874935103E-004
   5.6234132519034910E-004   1.8971428396423806E-004
   6.3095734448019298E-004   1.2469525448347829E-004
   7.0794578438413802E-004   8.1133811498408615E-005
   7.9432823472428131E-004   5.2225608596638535E-005
   8.9125093813374593E-004   3.3237047572837942E-005
   1.0000000000000002E-003   2.0900000000000010E-005
   1.1220184543019630E-003   1.2614651934355580E-005
   1.2589254117941675E-003   7.1447307272626189E-006
   1.4125375446227540E-003   3.8312462049541286E-006
   1.5848931924611141E-003   1.9624556664509199E-006
   1.7782794100389228E-003   9.6878462624744190E-007
   1.9952623149688789E-003   4.6503346578069264E-007
   2.2387211385683399E-003   2.1899427266509812E-007
   2.5118864315095794E-003   1.0207864121029231E-007
   2.8183829312644548E-003   4.7517389404946106E-008
   3.1622776601683794E-003   2.2286805747953542E-008
   3.5481338923357532E-003   1.0626313890364082E-008
   3.9810717055349734E-003   5.1965965994019804E-009
   4.4668359215096305E-003   2.6297769556198798E-009
   5.0118723362727246E-003   1.3894546181268043E-009
   5.6234132519034910E-003   7.7331663540696322E-010
   6.3095734448019303E-003   4.5742496994895807E-010
   7.0794578438413804E-003   2.9013084805167587E-010
   7.9432823472428138E-003   1.9908634100947939E-010
   8.9125093813374589E-003   1.4911609935029416E-010
   1.0000000000000002E-002   1.2300000000000004E-010
   1.1220184543019630E-002   1.0719497441733282E-010
   1.2589254117941675E-002   9.4119850305755537E-011
   1.4125375446227540E-002   8.3238414293588504E-011
   1.5848931924611141E-002   7.4131094916777862E-011
   1.7782794100389229E-002   6.6467501730782706E-011
   1.9952623149688788E-002   5.9985861318095833E-011
   2.2387211385683399E-002   5.4477519374272717E-011
   2.5118864315095794E-002   4.9775187879867942E-011
   2.8183829312644550E-002   4.5743978086339876E-011
   3.1622776601683791E-002   4.2274518343838434E-011
   3.5481338923357530E-002   3.9277641411851922E-011
   3.9810717055349734E-002   3.6680260097086723E-011
   4.4668359215096300E-002   3.4422147680627441E-011
   5.0118723362727248E-002   3.2453411020566172E-011
   5.6234132519034911E-002   3.0732496776665617E-011
   6.3095734448019303E-002   2.9224610100678752E-011
   7.0794578438413802E-002   2.7900454080925444E-011
   7.9432823472428138E-002   2.6735219886065047E-011
   8.9125093813374592E-002   2.5707773842796782E-011
  0.10000000000000001        2.4800000000000033E-011
  0.11220184543019630        2.3965434924702796E-011
  0.12589254117941662        2.3169358471244226E-011
  0.14125375446227553        2.2412954449370446E-011
  0.15848931924611143        2.1697113435909075E-011
  0.17782794100389229        2.1022478060855217E-011
  0.19952623149688789        2.0389487018297149E-011
  0.22387211385683378        1.9798417579728763E-011
  0.25118864315095824        1.9249426511610481E-011
  0.28183829312644548        1.8742589412822191E-011
  0.31622776601683794        1.8277938592045382E-011
  0.35481338923357530        1.7855499701794856E-011
  0.39810717055349693        1.7475327436962289E-011
  0.44668359215096348        1.7137540693971259E-011
  0.50118723362727247        1.6842357675062651E-011
  0.56234132519034907        1.6590131514398755E-011
  0.63095734448019303        1.6381387102731730E-011
  0.70794578438413736        1.6216859900128375E-011
  0.79432823472428216        1.6097537657340953E-011
  0.89125093813374590        1.6024706122596338E-011
   1.0000000000000000        1.6000000000000009E-011
