   1.0000000000000006E-005   238.99999999999991     
   1.1220184543019630E-005   172.56935816756842     
   1.2589254117941661E-005   124.35805328447104     
   1.4125375446227555E-005   89.440659224348607     
   1.5848931924611141E-005   64.202702748304262     
   1.7782794100389229E-005   45.997610423566663     
   1.9952623149688786E-005   32.891771752191602     
   2.2387211385683379E-005   23.475545890735837     
   2.5118864315095822E-005   16.723491904088515     
   2.8183829312644549E-005   11.891248586805496     
   3.1622776601683795E-005   8.4396333362460858     
   3.5481338923357534E-005   5.9789059779634437     
   3.9810717055349695E-005   4.2279348893966411     
   4.4668359215096348E-005   2.9843494560209818     
   5.0118723362727251E-005   2.1027724471813758     
   5.6234132519034907E-005   1.4789806538615224     
   6.3095734448019293E-005   1.0384048776436239     
   7.0794578438413731E-005  0.72779883158164260     
   7.9432823472428221E-005  0.50921688305127843     
   8.9125093813374588E-005  0.35567016580074418     
   1.0000000000000005E-004  0.24800000000000003     
   1.1220184543019630E-004  0.17276486125978632     
   1.2589254117941674E-004  0.12031239345218826     
   1.4125375446227541E-004   8.3731848832793776E-002
   1.5848931924611142E-004   5.8219772687865941E-002
   1.7782794100389227E-004   4.0431884891245488E-002
   1.9952623149688788E-004   2.8036595517003177E-002
   2.2387211385683400E-004   1.9406558096660271E-002
   2.5118864315095795E-004   1.3405032068869558E-002
   2.8183829312644550E-004   9.2375636771197360E-003
   3.1622776601683794E-004   6.3487968052010372E-003
   3.5481338923357532E-004   4.3505478737149664E-003
   3.9810717055349735E-004   2.9715918991263675E-003
   4.4668359215096305E-004   2.0225590784194712E-003
   5.0118723362727253E-004   1.3713687551662019E-003
   5.6234132519034910E-004   9.2602436990288394E-004
   6.3095734448019298E-004   6.2255806022086296E-004
   7.0794578438413802E-004   4.1658222044152786E-004
   7.9432823472428131E-004   2.7736980041763291E-004
   8.9125093813374593E-004   1.8370853682641929E-004
   1.0000000000000002E-003   1.2100000000000005E-004
   1.1220184543019630E-003   7.8125828697465319E-005
   1.2589254117941675E-003   4.8904157435848434E-005
   1.4125375446227540E-003   2.9815689922806780E-005
   1.5848931924611141E-003   1.7786805055878493E-005
   1.7782794100389228E-003   1.0430643162173452E-005
   1.9952623149688789E-003   6.0407429191852130E-006
   2.2387211385683399E-003   3.4708976098969852E-006
   2.5118864315095794E-003   1.9877945522259651E-006
   2.8183829312644548E-003   1.1399491940011863E-006
   3.1622776601683794E-003   6.5764248704636820E-007
   3.5481338923357532E-003   3.8343403426425894E-007
   3.9810717055349734E-003   2.2698332045613146E-007
   4.4668359215096305E-003   1.3705843925032350E-007
   5.0118723362727246E-003   8.4807103711281031E-008
   5.6234132519034910E-003   5.4023081778892392E-008
   6.3095734448019303E-003   3.5592067283202538E-008
   7.0794578438413804E-003   2.4364632698647385E-008
   7.9432823472428138E-003   1.7410264992132311E-008
   8.9125093813374589E-003   1.3046553902019614E-008
   1.0000000000000002E-002   1.0299999999999995E-008
   1.1220184543019630E-002   8.4071971449802524E-009
   1.2589254117941675E-002   6.9381025809432388E-009
   1.4125375446227540E-002   5.7854033668181888E-009
   1.5848931924611141E-002   4.8714469500359075E-009
   1.7782794100389229E-002   4.1394408480620074E-009
   1.9952623149688788E-002   3.5474208844882067E-009
   2.2387211385683399E-002   3.0640726189170020E-009
   2.5118864315095794E-002   2.6658066757557090E-009
   2.8183829312644550E-002   2.3346913499052522E-009
   3.1622776601683791E-002   2.0569772430395436E-009
   3.5481338923357530E-002   1.8220347405645168E-009
   3.9810717055349734E-002   1.6215820835501377E-009
   4.4668359215096300E-002   1.4491198409081353E-009
   5.0118723362727248E-002   1.2995132546939902E-009
   5.6234132519034911E-002   1.1686814042572444E-009
   6.3095734448019303E-002   1.0533641344285370E-009
   7.0794578438413802E-002   9.5094600395026851E-010
   7.9432823472428138E-002   8.5932231457183814E-010
   8.9125093813374592E-002   7.7679636806273991E-010
  0.10000000000000001        7.0200000000000119E-010
  0.11220184543019630        6.3462280502016285E-010
  0.12589254117941662        5.7454209476378895E-010
  0.14125375446227553        5.2095159650988267E-010
  0.15848931924611143        4.7313378140114737E-010
  0.17782794100389229        4.3045061198727120E-010
  0.19952623149688789        3.9233514488378195E-010
  0.22387211385683378        3.5828393267734372E-010
  0.25118864315095824        3.2785016813559316E-010
  0.28183829312644548        3.0063751400883533E-010
  0.31622776601683794        2.7629456294227066E-010
  0.35481338923357530        2.5450987399795790E-010
  0.39810717055349693        2.3500753480527070E-010
  0.44668359215096348        2.1754320124491134E-010
  0.50118723362727247        2.0190056968517209E-010
  0.56234132519034907        1.8788824001958679E-010
  0.63095734448019303        1.7533693101614879E-010
  0.70794578438413736        1.6409701271463226E-010
  0.79432823472428216        1.5403632375245740E-010
  0.89125093813374590        1.4503824452777229E-010
   1.0000000000000000        1.3700000000000025E-010
