   1.0000000000000006E-005   179.00000000000006     
   1.1220184543019630E-005   126.20663131368808     
   1.2589254117941661E-005   88.883924709125566     
   1.4125375446227555E-005   62.528539753037521     
   1.5848931924611141E-005   43.938930080040421     
   1.7782794100389229E-005   30.841742524557773     
   1.9952623149688786E-005   21.624630083729514     
   2.2387211385683379E-005   15.145406301029288     
   2.5118864315095822E-005   10.595897368240426     
   2.8183829312644549E-005   7.4049348561531376     
   3.1622776601683795E-005   5.1693214286148725     
   3.5481338923357534E-005   3.6047631951108476     
   3.9810717055349695E-005   2.5110361324213022     
   4.4668359215096348E-005   1.7472872759074629     
   5.0118723362727251E-005   1.2145430371377688     
   5.6234132519034907E-005  0.84333642054621039     
   6.3095734448019293E-005  0.58496552134327706     
   7.0794578438413731E-005  0.40532487551233465     
   7.9432823472428221E-005  0.28055753356676100     
   8.9125093813374588E-005  0.19399405060629474     
   1.0000000000000005E-004  0.13400000000000004     
   1.1220184543019630E-004   9.2575035015963064E-002
   1.2589254117941674E-004   6.4026965092481417E-002
   1.4125375446227541E-004   4.4313973100192063E-002
   1.5848931924611142E-004   3.0680045630275515E-002
   1.7782794100389227E-004   2.1239175212234916E-002
   1.9952623149688788E-004   1.4696517147821104E-002
   2.2387211385683400E-004   1.0160501215239499E-002
   2.5118864315095795E-004   7.0156604826608704E-003
   2.8183829312644550E-004   4.8361918029007842E-003
   3.1622776601683794E-004   3.3269692590557134E-003
   3.5481338923357532E-004   2.2831433207382806E-003
   3.9810717055349735E-004   1.5623756892822339E-003
   4.4668359215096305E-004   1.0656988060515418E-003
   5.0118723362727253E-004   7.2428416581896214E-004
   5.6234132519034910E-004   4.9027280522125093E-004
   6.3095734448019298E-004   3.3040736231566256E-004
   7.0794578438413802E-004   2.2160192199704171E-004
   7.9432823472428131E-004   1.4785568287537667E-004
   8.9125093813374593E-004   9.8100677901887578E-005
   1.0000000000000002E-003   6.4700000000000028E-005
   1.1220184543019630E-003   4.1840686878947376E-005
   1.2589254117941675E-003   2.6256449364976291E-005
   1.4125375446227540E-003   1.6060879327275814E-005
   1.5848931924611141E-003   9.6194942358735124E-006
   1.7782794100389228E-003   5.6668043816281150E-006
   1.9952623149688789E-003   3.2982284342376178E-006
   2.2387211385683399E-003   1.9051678121214879E-006
   2.5118864315095794E-003   1.0971075370523233E-006
   2.8183829312644548E-003   6.3267705796885385E-007
   3.1622776601683794E-003   3.6701630988670889E-007
   3.5481338923357532E-003   2.1513570690736241E-007
   3.9810717055349734E-003   1.2800205811006471E-007
   4.4668359215096305E-003   7.7651919196023088E-008
   5.0118723362727246E-003   4.8247152570611822E-008
   5.6234132519034910E-003   3.0841031760292344E-008
   6.3095734448019303E-003   2.0374046492636452E-008
   7.0794578438413804E-003   1.3972378307448603E-008
   7.9432823472428138E-003   9.9922086233685584E-009
   8.9125093813374589E-003   7.4852141464033096E-009
   1.0000000000000002E-002   5.9000000000000065E-009
   1.1220184543019630E-002   4.8046712012415808E-009
   1.2589254117941675E-002   3.9556570459456857E-009
   1.4125375446227540E-002   3.2904191825883610E-009
   1.5848931924611141E-002   2.7637312238418796E-009
   1.7782794100389229E-002   2.3425383138302646E-009
   1.9952623149688788E-002   2.0024342399055678E-009
   2.2387211385683399E-002   1.7252213583793491E-009
   2.5118864315095794E-002   1.4972031569779502E-009
   2.8183829312644550E-002   1.3079776654955619E-009
   3.1622776601683791E-002   1.1495766910686816E-009
   3.5481338923357530E-002   1.0158461501394331E-009
   3.9810717055349734E-002   9.0199605549114841E-010
   4.4668359215096300E-002   8.0427096133750027E-010
   5.0118723362727248E-002   7.1970667543097771E-010
   5.6234132519034911E-002   6.4594926233147870E-010
   6.3095734448019303E-002   5.8111937707684658E-010
   7.0794578438413802E-002   5.2370982703334590E-010
   7.9432823472428138E-002   4.7250765251691232E-010
   8.9125093813374592E-002   4.2653440536198587E-010
  0.10000000000000001        3.8500000000000032E-010
  0.11220184543019630        3.4766722225885036E-010
  0.12589254117941662        3.1441571627606167E-010
  0.14125375446227553        2.8479074781364484E-010
  0.15848931924611143        2.5838796819563156E-010
  0.17782794100389229        2.3484814258610202E-010
  0.19952623149688789        2.1385236365503749E-010
  0.22387211385683378        1.9511772004098018E-010
  0.25118864315095824        1.7839338801760148E-010
  0.28183829312644548        1.6345711460120195E-010
  0.31622776601683794        1.5011206081062070E-010
  0.35481338923357530        1.3818397475231422E-010
  0.39810717055349693        1.2751866551968554E-010
  0.44668359215096348        1.1797975045895911E-010
  0.50118723362727247        1.0944665007623468E-010
  0.56234132519034907        1.0181280667192081E-010
  0.63095734448019303        9.4984104634954962E-011
  0.70794578438413736        8.8877472168442080E-011
  0.79432823472428216        8.3419646019952640E-011
  0.89125093813374590        7.8546082532270823E-011
   1.0000000000000000        7.4199999999999896E-011
