   1.0000000000000006E-005   14600.000000000002     
   1.1220184543019630E-005   13080.007576209773     
   1.2589254117941661E-005   11589.857671393849     
   1.4125375446227555E-005   10161.094306660025     
   1.5848931924611141E-005   8818.0476018967893     
   1.7782794100389229E-005   7577.9420181679125     
   1.9952623149688786E-005   6451.4049682268123     
   2.2387211385683379E-005   5443.2567887596661     
   2.5118864315095822E-005   4553.4664251178765     
   2.8183829312644549E-005   3778.1705338448623     
   3.1622776601683795E-005   3110.6731581971967     
   3.5481338923357534E-005   2542.3651044300141     
   3.9810717055349695E-005   2063.5237572686465     
   4.4668359215096348E-005   1663.9732858037551     
   5.0118723362727251E-005   1333.6008176004748     
   5.6234132519034907E-005   1062.7357456071441     
   6.3095734448019293E-005   842.40698831790860     
   7.0794578438413731E-005   664.49723067447633     
   7.9432823472428221E-005   521.81461258604475     
   8.9125093813374588E-005   408.10174322274895     
   1.0000000000000005E-004   317.99999999999994     
   1.1220184543019630E-004   245.37781883662575     
   1.2589254117941674E-004   186.39533370575739     
   1.4125375446227541E-004   139.49290108947255     
   1.5848931924611142E-004   102.92296715115189     
   1.7782794100389227E-004   74.927526175967287     
   1.9952623149688788E-004   53.859854902024402     
   2.2387211385683400E-004   38.256870169372029     
   2.5118864315095795E-004   26.871997610544252     
   2.8183829312644550E-004   18.679382209458790     
   3.1622776601683794E-004   12.859464687094620     
   3.5481338923357532E-004   8.7741869026803219     
   3.9810717055349735E-004   5.9380009928297435     
   4.4668359215096305E-004   3.9888603152178068     
   5.0118723362727253E-004   2.6616953884894894     
   5.6234132519034910E-004   1.7656093583007861     
   6.3095734448019298E-004   1.1651542454409827     
   7.0794578438413802E-004  0.76550941402688366     
   7.9432823472428131E-004  0.50109693697898627     
   8.9125093813374593E-004  0.32705654346480861     
   1.0000000000000002E-003  0.21299999999999999     
   1.1220184543019630E-003  0.13516628712751436     
   1.2589254117941675E-003   8.1926604250023238E-002
   1.4125375446227540E-003   4.7738000037750535E-002
   1.5848931924611141E-003   2.6915415598768821E-002
   1.7782794100389228E-003   1.4779184486469936E-002
   1.9952623149688789E-003   7.9547634312190120E-003
   2.2387211385683399E-003   4.2242186713354257E-003
   2.5118864315095794E-003   2.2275258231473564E-003
   2.8183829312644548E-003   1.1740085032545644E-003
   3.1622776601683794E-003   6.2245331512724008E-004
   3.5481338923357532E-003   3.3415216557168250E-004
   3.9810717055349734E-003   1.8280944785687718E-004
   4.4668359215096305E-003   1.0258521245428840E-004
   5.0118723362727246E-003   5.9431619254325960E-005
   5.6234132519034910E-003   3.5777661162892264E-005
   6.3095734448019303E-003   2.2525934676155689E-005
   7.0794578438413804E-003   1.4929494090367409E-005
   7.9432823472428138E-003   1.0483677834177779E-005
   8.9125093813374589E-003   7.8506109090959370E-006
   1.0000000000000002E-002   6.3099999999999997E-006
   1.1220184543019630E-002   5.2886906223829673E-006
   1.2589254117941675E-002   4.4706387596455701E-006
   1.4125375446227540E-002   3.8105522646236467E-006
   1.5848931924611141E-002   3.2741419694604325E-006
   1.7782794100389229E-002   2.8352583953414633E-006
   1.9952623149688788E-002   2.4738174629720122E-006
   2.2387211385683399E-002   2.1742868433058944E-006
   2.5118864315095794E-002   1.9245735799731775E-006
   2.8183829312644550E-002   1.7152009538843605E-006
   3.1622776601683791E-002   1.5386952787598360E-006
   3.5481338923357530E-002   1.3891260902661532E-006
   3.9810717055349734E-002   1.2617591535607495E-006
   4.4668359215096300E-002   1.1527929776574363E-006
   5.0118723362727248E-002   1.0591575257714803E-006
   5.6234132519034911E-002   9.7835953061979325E-007
   6.3095734448019303E-002   9.0836293862741909E-007
   7.0794578438413802E-002   8.4749598566351191E-007
   7.9432823472428138E-002   7.9437857606889064E-007
   8.9125093813374592E-002   7.4786522565936849E-007
  0.10000000000000001        7.0699999999999954E-007
  0.11220184543019630        6.6974148469986833E-007
  0.12589254117941662        6.3463801669903043E-007
  0.14125375446227553        6.0171698451856245E-007
  0.15848931924611143        5.7098140586234784E-007
  0.17782794100389229        5.4241460614658702E-007
  0.19952623149688789        5.1598456066587263E-007
  0.22387211385683378        4.9164787342928286E-007
  0.25118864315095824        4.6935338710417744E-007
  0.28183829312644548        4.4904543613779270E-007
  0.31622776601683794        4.3066676941062845E-007
  0.35481338923357530        4.1416118025366407E-007
  0.39810717055349693        3.9947589095480470E-007
  0.44668359215096348        3.8656374666217777E-007
  0.50118723362727247        3.7538528057563264E-007
  0.56234132519034907        3.6591071925545247E-007
  0.63095734448019303        3.5812200457577657E-007
  0.70794578438413736        3.5201491820011253E-007
  0.79432823472428216        3.4760140647887890E-007
  0.89125093813374590        3.4491221958266728E-007
   1.0000000000000000        3.4399999999999990E-007
