   1.0000000000000006E-005   85.800000000000011     
   1.1220184543019630E-005   58.957397235031316     
   1.2589254117941661E-005   40.501046247695967     
   1.4125375446227555E-005   27.814499047295165     
   1.5848931924611141E-005   19.096485125030657     
   1.7782794100389229E-005   13.107291778958023     
   1.9952623149688786E-005   8.9939395307319732     
   2.2387211385683379E-005   6.1697073258634001     
   2.5118864315095822E-005   4.2311351852805412     
   2.8183829312644549E-005   2.9008623050203846     
   3.1622776601683795E-005   1.9882699031804025     
   3.5481338923357534E-005   1.3623908202601489     
   3.9810717055349695E-005  0.93326796961399872     
   4.4668359215096348E-005  0.63913033449149415     
   5.0118723362727251E-005  0.43757354135707138     
   5.6234132519034907E-005  0.29949623419217070     
   6.3095734448019293E-005  0.20493234192876897     
   7.0794578438413731E-005  0.14018727721530452     
   7.9432823472428221E-005   9.5870677096101489E-002
   8.9125093813374588E-005   6.5545400350646807E-002
   1.0000000000000005E-004   4.4800000000000000E-002
   1.1220184543019630E-004   3.0708359454135966E-002
   1.2589254117941674E-004   2.1161871507401189E-002
   1.4125375446227541E-004   1.4646688105244169E-002
   1.5848931924611142E-004   1.0171423662560197E-002
   1.7782794100389227E-004   7.0802737835601775E-003
   1.9952623149688788E-004   4.9352982500081620E-003
   2.2387211385683400E-004   3.4414450992884438E-003
   2.5118864315095795E-004   2.3982885082916025E-003
   2.8183829312644550E-004   1.6686459256283028E-003
   3.1622776601683794E-004   1.1579723525659480E-003
   3.5481338923357532E-004   8.0070486577287880E-004
   3.9810717055349735E-004   5.5113256246841047E-004
   4.4668359215096305E-004   3.7724027071652086E-004
   5.0118723362727253E-004   2.5652367013740150E-004
   5.6234132519034910E-004   1.7312241794659113E-004
   6.3095734448019298E-004   1.1584163744795724E-004
   7.0794578438413802E-004   7.6776909720684022E-005
   7.9432823472428131E-004   5.0352400055417567E-005
   8.9125093813374593E-004   3.2643925638844225E-005
   1.0000000000000002E-003   2.0900000000000010E-005
   1.1220184543019630E-003   1.2903870413409563E-005
   1.2589254117941675E-003   7.5464463869742706E-006
   1.4125375446227540E-003   4.2131717670023661E-006
   1.5848931924611141E-003   2.2631607423552535E-006
   1.7782794100389228E-003   1.1788446685207477E-006
   1.9952623149688789E-003   6.0010617872583783E-007
   2.2387211385683399E-003   3.0090217725796347E-007
   2.5118864315095794E-003   1.4977649548222441E-007
   2.8183829312644548E-003   7.4589635824671735E-008
   3.1622776601683794E-003   3.7456326489126514E-008
   3.5481338923357532E-003   1.9115212717380325E-008
   3.9810717055349734E-003   9.9916159390324340E-009
   4.4668359215096305E-003   5.3912610054022750E-009
   5.0118723362727246E-003   3.0264841040406922E-009
   5.6234132519034910E-003   1.7814565566559984E-009
   6.3095734448019303E-003   1.1081441524599209E-009
   7.0794578438413804E-003   7.3417036805882460E-010
   7.9432823472428138E-003   5.2212248899225525E-010
   8.9125093813374589E-003   4.0171522108372426E-010
   1.0000000000000002E-002   3.3700000000000065E-010
   1.1220184543019630E-002   2.9691742348959198E-010
   1.2589254117941675E-002   2.6324929408347877E-010
   1.4125375446227540E-002   2.3484136021245203E-010
   1.5848931924611141E-002   2.1076956020040810E-010
   1.7782794100389229E-002   1.9029054592126341E-010
   1.9952623149688788E-002   1.7280354425529499E-010
   2.2387211385683399E-002   1.5782081461886272E-010
   2.5118864315095794E-002   1.4494465582769031E-010
   2.8183829312644550E-002   1.3384942688491280E-010
   3.1622776601683791E-002   1.2426742433822548E-010
   3.5481338923357530E-002   1.1597773970916473E-010
   3.9810717055349734E-002   1.0879743013465879E-010
   4.4668359215096300E-002   1.0257449256146329E-010
   5.0118723362727248E-002   9.7182250249011234E-011
   5.6234132519034911E-002   9.2514849931838683E-011
   6.3095734448019303E-002   8.8483636078481972E-011
   7.0794578438413802E-002   8.5014220644431825E-011
   7.9432823472428138E-002   8.2044106536923815E-011
   8.9125093813374592E-002   7.9520753650075933E-011
  0.10000000000000001        7.7399999999999857E-011
  0.11220184543019630        7.5510765970405296E-011
  0.12589254117941662        7.3708866579573403E-011
  0.14125375446227553        7.1995735912096606E-011
  0.15848931924611143        7.0372542909136484E-011
  0.17782794100389229        6.8840241195930751E-011
  0.19952623149688789        6.7399617822196720E-011
  0.22387211385683378        6.6051340940103308E-011
  0.25118864315095824        6.4796006514855715E-011
  0.28183829312644548        6.3634184230269818E-011
  0.31622776601683794        6.2566462816960495E-011
  0.35481338923357530        6.1593495095028420E-011
  0.39810717055349693        6.0716043087748878E-011
  0.44668359215096348        5.9935023629222855E-011
  0.50118723362727247        5.9251554959004194E-011
  0.56234132519034907        5.8667004872333396E-011
  0.63095734448019303        5.8183041078068496E-011
  0.70794578438413736        5.7801684510324813E-011
  0.79432823472428216        5.7525366447262032E-011
  0.89125093813374590        5.7356990414948502E-011
   1.0000000000000000        5.7300000000000096E-011
