   1.0000000000000006E-005   14.200000000000001     
   1.1220184543019630E-005   10.974942323820041     
   1.2589254117941661E-005   8.4426834784103253     
   1.4125375446227555E-005   6.4648364333386636     
   1.5848931924611141E-005   4.9279666660608017     
   1.7782794100389229E-005   3.7397759302801004     
   1.9952623149688786E-005   2.8256958707553066     
   2.2387211385683379E-005   2.1258943610663281     
   2.5118864315095822E-005   1.5926809479402331     
   2.8183829312644549E-005   1.1882864524042931     
   3.1622776601683795E-005  0.88298469586303796     
   3.5481338923357534E-005  0.65352061305693199     
   3.9810717055349695E-005  0.48180788376059425     
   4.4668359215096348E-005  0.35385996066718567     
   5.0118723362727251E-005  0.25892040218711510     
   5.6234132519034907E-005  0.18876125669082724     
   6.3095734448019293E-005  0.13712151406951445     
   7.0794578438413731E-005   9.9261059557071499E-002
   7.9432823472428221E-005   7.1608931595078112E-002
   8.9125093813374588E-005   5.1487864080556146E-002
   1.0000000000000005E-004   3.6900000000000002E-002
   1.1220184543019630E-004   2.6391406517845193E-002
   1.2589254117941674E-004   1.8851379677833648E-002
   1.4125375446227541E-004   1.3440050968733753E-002
   1.5848931924611142E-004   9.5580346217301083E-003
   1.7782794100389227E-004   6.7760863007200207E-003
   1.9952623149688788E-004   4.7859112487822529E-003
   2.2387211385683400E-004   3.3655687995465030E-003
   2.5118864315095795E-004   2.3550122064206667E-003
   2.8183829312644550E-004   1.6387075199602141E-003
   3.1622776601683794E-004   1.1332247803062837E-003
   3.5481338923357532E-004   7.7834071289592001E-004
   3.9810717055349735E-004   5.3063420233643167E-004
   4.4668359215096305E-004   3.5886018300124102E-004
   5.0118723362727253E-004   2.4059831976737660E-004
   5.6234132519034910E-004   1.5981955753676779E-004
   6.3095734448019298E-004   1.0511628728405740E-004
   7.0794578438413802E-004   6.8414096344305146E-005
   7.9432823472428131E-004   4.4034128600224794E-005
   8.9125093813374593E-004   2.8011359348518911E-005
   1.0000000000000002E-003   1.7599999999999987E-005
   1.1220184543019630E-003   1.0589547901053377E-005
   1.2589254117941675E-003   5.9550582783540196E-006
   1.4125375446227540E-003   3.1595753314309379E-006
   1.5848931924611141E-003   1.5965986969826105E-006
   1.7782794100389228E-003   7.7567079585175069E-007
   1.9952623149688789E-003   3.6573285860936638E-007
   2.2387211385683399E-003   1.6894511806910305E-007
   2.5118864315095794E-003   7.7181407673203246E-008
   2.8183829312644548E-003   3.5201030877560976E-008
   3.1622776601683794E-003   1.6179457806145031E-008
   3.5481338923357532E-003   7.5653442742600013E-009
   3.9810717055349734E-003   3.6327861691106447E-009
   4.4668359215096305E-003   1.8083714328518836E-009
   5.0118723362727246E-003   9.4202485005132668E-010
   5.6234132519034910E-003   5.1838718437428685E-010
   6.3095734448019303E-003   3.0419606005996824E-010
   7.0794578438413804E-003   1.9215451831683464E-010
   7.9432823472428138E-003   1.3189719535262450E-010
   8.9125093813374589E-003   9.9311312315032446E-011
   1.0000000000000002E-002   8.2800000000000117E-011
   1.1220184543019630E-002   7.3116156861802224E-011
   1.2589254117941675E-002   6.4991394175239509E-011
   1.4125375446227540E-002   5.8141439219425784E-011
   1.5848931924611141E-002   5.2339681830795463E-011
   1.7782794100389229E-002   4.7404514483527045E-011
   1.9952623149688788E-002   4.3189641636367785E-011
   2.2387211385683399E-002   3.9576621715625531E-011
   2.5118864315095794E-002   3.6469096948198493E-011
   2.8183829312644550E-002   3.3788305943131557E-011
   3.1622776601683791E-002   3.1469576182289821E-011
   3.5481338923357530E-002   2.9459568846375265E-011
   3.9810717055349734E-002   2.7714104088418629E-011
   4.4668359215096300E-002   2.6196436277519566E-011
   5.0118723362727248E-002   2.4875879684821709E-011
   5.6234132519034911E-002   2.3726708327784019E-011
   6.3095734448019303E-002   2.2727271229854315E-011
   7.0794578438413802E-002   2.1859277652223643E-011
   7.9432823472428138E-002   2.1107216984579012E-011
   8.9125093813374592E-002   2.0457885732937909E-011
  0.10000000000000001        1.9899999999999988E-011
  0.11220184543019630        1.9395581851777346E-011
  0.12589254117941662        1.8913757939111568E-011
  0.14125375446227553        1.8455065449131105E-011
  0.15848931924611143        1.8019949662525735E-011
  0.17782794100389229        1.7608779260118282E-011
  0.19952623149688789        1.7221861351830173E-011
  0.22387211385683378        1.6859456211621590E-011
  0.25118864315095824        1.6521791727457732E-011
  0.28183829312644548        1.6209077599621916E-011
  0.31622776601683794        1.5921519344044114E-011
  0.35481338923357530        1.5659332180092987E-011
  0.39810717055349693        1.5422754904924769E-011
  0.44668359215096348        1.5212063879498649E-011
  0.50118723362727247        1.5027587275355568E-011
  0.56234132519034907        1.4869719756893330E-011
  0.63095734448019303        1.4738937801952718E-011
  0.70794578438413736        1.4635815894973697E-011
  0.79432823472428216        1.4561043862864467E-011
  0.89125093813374590        1.4515445665306845E-011
   1.0000000000000000        1.4499999999999982E-011
