   1.0000000000000006E-005   578.00000000000000     
   1.1220184543019630E-005   457.67350925009993     
   1.2589254117941661E-005   360.85367238333333     
   1.4125375446227555E-005   283.32526802391521     
   1.5848931924611141E-005   221.53875997987939     
   1.7782794100389229E-005   172.52648510349752     
   1.9952623149688786E-005   133.82426864142892     
   2.2387211385683379E-005   103.39950061149348     
   2.5118864315095822E-005   79.586218660301981     
   2.8183829312644549E-005   61.027358942902630     
   3.1622776601683795E-005   46.624046583329985     
   3.5481338923357534E-005   35.491589065492562     
   3.9810717055349695E-005   26.921696583548869     
   4.4668359215096348E-005   20.350370241900656     
   5.0118723362727251E-005   15.330860139460084     
   5.6234132519034907E-005   11.511090118483448     
   6.3095734448019293E-005   8.6149650545354515     
   7.0794578438413731E-005   6.4270122632337490     
   7.9432823472428221E-005   4.7798546199461880     
   8.9125093813374588E-005   3.5440644069133427     
   1.0000000000000005E-004   2.6200000000000001     
   1.1220184543019630E-004   1.9316095804199414     
   1.2589254117941674E-004   1.4202264810238858     
   1.4125375446227541E-004   1.0410984236624885     
   1.5848931924611142E-004  0.76067235109991160     
   1.7782794100389227E-004  0.55379733743929505     
   1.9952623149688788E-004  0.40163099231361638     
   2.2387211385683400E-004  0.29006974086877207     
   2.5118864315095795E-004  0.20857018250191339     
   2.8183829312644550E-004  0.14926305713162313     
   3.1622776601683794E-004  0.10628659451985807     
   3.5481338923357532E-004   7.5284649418904628E-002
   3.9810717055349735E-004   5.3028810352665406E-002
   4.4668359215096305E-004   3.7133901374912723E-002
   5.0118723362727253E-004   2.5843911786351564E-002
   5.6234132519034910E-004   1.7871072922458171E-002
   6.3095734448019298E-004   1.2275054870047286E-002
   7.0794578438413802E-004   8.3724473867349079E-003
   7.9432823472428131E-004   5.6690895000215489E-003
   8.9125093813374593E-004   3.8096215322576369E-003
   1.0000000000000002E-003   2.5400000000000002E-003
   1.1220184543019630E-003   1.6502899916717977E-003
   1.2589254117941675E-003   1.0301953823507013E-003
   1.4125375446227540E-003   6.2128043011726525E-004
   1.5848931924611141E-003   3.6394893162164897E-004
   1.7782794100389228E-003   2.0823507417004885E-004
   1.9952623149688789E-003   1.1700486806462595E-004
   2.2387211385683399E-003   6.4918212751244808E-005
   2.5118864315095794E-003   3.5761663379718710E-005
   2.8183829312644548E-003   1.9666784430880713E-005
   3.1622776601683794E-003   1.0856490400133615E-005
   3.5481338923357532E-003   6.0486987389345752E-006
   3.9810717055349734E-003   3.4200056329760729E-006
   4.4668359215096305E-003   1.9731495876586285E-006
   5.0118723362727246E-003   1.1679855821819726E-006
   5.6234132519034910E-003   7.1323917941707017E-007
   6.3095734448019303E-003   4.5178218217798805E-007
   7.0794578438413804E-003   2.9846620341768131E-007
   7.9432823472428138E-003   2.0678038384628360E-007
   8.9125093813374589E-003   1.5105934061300282E-007
   1.0000000000000002E-002   1.1699999999999990E-007
   1.1220184543019630E-002   9.4055906768161761E-008
   1.2589254117941675E-002   7.6511785336055972E-008
   1.4125375446227540E-002   6.2938431136345682E-008
   1.5848931924611141E-002   5.2318113240483346E-008
   1.7782794100389229E-002   4.3917750275613738E-008
   1.9952623149688788E-002   3.7203449945323226E-008
   2.2387211385683399E-002   3.1782256652955400E-008
   2.5118864315095794E-002   2.7362003846679524E-008
   2.8183829312644550E-002   2.3723348557804487E-008
   3.1622776601683791E-002   2.0700091661236435E-008
   3.5481338923357530E-002   1.8165192449757517E-008
   3.9810717055349734E-002   1.6020735918406537E-008
   4.4668359215096300E-002   1.4190670339078644E-008
   5.0118723362727248E-002   1.2615504395681380E-008
   5.6234132519034911E-002   1.1248402636269301E-008
   6.3095734448019303E-002   1.0052287045040429E-008
   7.0794578438413802E-002   8.9976681303852116E-009
   7.9432823472428138E-002   8.0610086750518304E-009
   8.9125093813374592E-002   7.2234788029323354E-009
  0.10000000000000001        6.4699999999999894E-009
  0.11220184543019630        5.7967911945451378E-009
  0.12589254117941662        5.2017236081836754E-009
  0.14125375446227553        4.6754730028105619E-009
  0.15848931924611143        4.2098335754787329E-009
  0.17782794100389229        3.7975877760913284E-009
  0.19952623149688789        3.4323902545967569E-009
  0.22387211385683378        3.1086646355209972E-009
  0.25118864315095824        2.8215118901559679E-009
  0.28183829312644548        2.5666291561355460E-009
  0.31622776601683794        2.3402379371456798E-009
  0.35481338923357530        2.1390206995275737E-009
  0.39810717055349693        1.9600649655561537E-009
  0.44668359215096348        1.8008140837351137E-009
  0.50118723362727247        1.6590239334917670E-009
  0.56234132519034907        1.5327248944726968E-009
  0.63095734448019303        1.4201884788001891E-009
  0.70794578438413736        1.3198980879372735E-009
  0.79432823472428216        1.2305234141793823E-009
  0.89125093813374590        1.1508980603293350E-009
   1.0000000000000000        1.0800000000000014E-009
