   1.0000000000000006E-005   377.00000000000017     
   1.1220184543019630E-005   284.97858330729468     
   1.2589254117941661E-005   214.54222065953286     
   1.4125375446227555E-005   160.86769180506136     
   1.5848931924611141E-005   120.14514747045929     
   1.7782794100389229E-005   89.382154692281148     
   1.9952623149688786E-005   66.241234925513780     
   2.2387211385683379E-005   48.906307205081376     
   2.5118864315095822E-005   35.973774539755176     
   2.8183829312644549E-005   26.364386278513742     
   3.1622776601683795E-005   19.252435607495482     
   3.5481338923357534E-005   14.009282200919651     
   3.9810717055349695E-005   10.158605935195974     
   4.4668359215096348E-005   7.3411856132238560     
   5.0118723362727251E-005   5.2873491719294785     
   5.6234132519034907E-005   3.7955551809769954     
   6.3095734448019293E-005   2.7158388317926772     
   7.0794578438413731E-005   1.9370903550116156     
   7.9432823472428221E-005   1.3773325143560682     
   8.9125093813374588E-005  0.97632990556584442     
   1.0000000000000005E-004  0.68999999999999995     
   1.1220184543019630E-004  0.48581401221253556     
   1.2589254117941674E-004  0.34051384737666696     
   1.4125375446227541E-004  0.23761374348340170     
   1.5848931924611142E-004  0.16508538108289400     
   1.7782794100389227E-004  0.11420212931523044     
   1.9952623149688788E-004   7.8667718389815081E-002
   2.2387211385683400E-004   5.3963973321871792E-002
   2.5118864315095795E-004   3.6865874322708568E-002
   2.8183829312644550E-004   2.5083414551498477E-002
   3.1622776601683794E-004   1.6998809811647243E-002
   3.5481338923357532E-004   1.1474885454456941E-002
   3.9810717055349735E-004   7.7162169783415021E-003
   4.4668359215096305E-004   5.1691004945981084E-003
   5.0118723362727253E-004   3.4499137276538644E-003
   5.6234132519034910E-004   2.2941005679621234E-003
   6.3095734448019298E-004   1.5200429936460709E-003
   7.0794578438413802E-004   1.0036140593608219E-003
   7.9432823472428131E-004   6.6034864320459294E-004
   8.9125093813374593E-004   4.3301583163929354E-004
   1.0000000000000002E-003   2.8299999999999999E-004
   1.1220184543019630E-003   1.8152538836183228E-004
   1.2589254117941675E-003   1.1287834382108877E-004
   1.4125375446227540E-003   6.8366184269661273E-005
   1.5848931924611141E-003   4.0519553909467531E-005
   1.7782794100389228E-003   2.3611072493704590E-005
   1.9952623149688789E-003   1.3590319350801841E-005
   2.2387211385683399E-003   7.7632154843943950E-006
   2.5118864315095794E-003   4.4216747643957023E-006
   2.8183829312644548E-003   2.5229013373261023E-006
   3.1622776601683794E-003   1.4488292339423011E-006
   3.5481338923357532E-003   8.4134232755508198E-007
   3.9810717055349734E-003   4.9636599913699364E-007
   4.4668359215096305E-003   2.9890983334115162E-007
   5.0118723362727246E-003   1.8459605461784789E-007
   5.6234132519034910E-003   1.1745832535999819E-007
   6.3095734448019303E-003   7.7367669663364042E-008
   7.0794578438413804E-003   5.3001076643495394E-008
   7.9432823472428138E-003   3.7939750922246946E-008
   8.9125093813374589E-003   2.8511758910705231E-008
   1.0000000000000002E-002   2.2600000000000014E-008
   1.1220184543019630E-002   1.8539681848411007E-008
   1.2589254117941675E-002   1.5388008544480952E-008
   1.4125375446227540E-002   1.2912715358974593E-008
   1.5848931924611141E-002   1.0946529902633074E-008
   1.7782794100389229E-002   9.3675884490714801E-009
   1.9952623149688788E-002   8.0861221093738270E-009
   2.2387211385683399E-002   7.0353006305605861E-009
   2.5118864315095794E-002   6.1648655704153381E-009
   2.8183829312644550E-002   5.4366560822609783E-009
   3.1622776601683791E-002   4.8214328625189911E-009
   3.5481338923357530E-002   4.2966018704361902E-009
   3.9810717055349734E-002   3.8445679659678303E-009
   4.4668359215096300E-002   3.4515337683271509E-009
   5.0118723362727248E-002   3.1066160242340681E-009
   5.6234132519034911E-002   2.8011902798954559E-009
   6.3095734448019303E-002   2.5284009116683879E-009
   7.0794578438413802E-002   2.2827916452832663E-009
   7.9432823472428138E-002   2.0600242503061877E-009
   8.9125093813374592E-002   1.8566619073905218E-009
  0.10000000000000001        1.6700000000000000E-009
  0.11220184543019630        1.5011694860248236E-009
  0.12589254117941662        1.3511854276044131E-009
  0.14125375446227553        1.2178525127134960E-009
  0.15848931924611143        1.0992374357623136E-009
  0.17782794100389229        9.9363743575530580E-010
  0.19952623149688789        8.9955257840823389E-010
  0.22387211385683378        8.1566134934049104E-010
  0.25118864315095824        7.4079917275332308E-010
  0.28183829312644548        6.7393951267358933E-010
  0.31622776601683794        6.1417725223682965E-010
  0.35481338923357530        5.6071408094626629E-010
  0.39810717055349693        5.1284565070871305E-010
  0.44668359215096348        4.6995028903278419E-010
  0.50118723362727247        4.3147908238037825E-010
  0.56234132519034907        3.9694716457256113E-010
  0.63095734448019303        3.6592606462908993E-010
  0.70794578438413736        3.3803698571121502E-010
  0.79432823472428216        3.1294490216488559E-010
  0.89125093813374590        2.9035337523213818E-010
   1.0000000000000000        2.7000000000000031E-010
