   1.0000000000000006E-005   18.300000000000001     
   1.1220184543019630E-005   14.086467404823944     
   1.2589254117941661E-005   10.793452763162755     
   1.4125375446227555E-005   8.2330146534961077     
   1.5848931924611141E-005   6.2521655816060848     
   1.7782794100389229E-005   4.7272442364223979     
   1.9952623149688786E-005   3.5589713719918303     
   2.2387211385683379E-005   2.6681652836179870     
   2.5118864315095822E-005   1.9920748001343829     
   2.8183829312644549E-005   1.4812764874962663     
   3.1622776601683795E-005   1.0970769464299601     
   3.5481338923357534E-005  0.80935940562497599     
   3.9810717055349695E-005  0.59481513881611703     
   4.4668359215096348E-005  0.43550362271380438     
   5.0118723362727251E-005  0.31769003398869761     
   5.6234132519034907E-005  0.23091405494674655     
   6.3095734448019293E-005  0.16724956579092218     
   7.0794578438413731E-005  0.12072032105974140     
   7.9432823472428221E-005   8.6841919320542249E-002
   8.9125093813374588E-005   6.2265143127805171E-002
   1.0000000000000005E-004   4.4499999999999998E-002
   1.1220184543019630E-004   3.1739474116812244E-002
   1.2589254117941674E-004   2.2609626824299640E-002
   1.4125375446227541E-004   1.6076071013780318E-002
   1.5848931924611142E-004   1.1402450461633100E-002
   1.7782794100389227E-004   8.0628230949182002E-003
   1.9952623149688788E-004   5.6804877727927618E-003
   2.2387211385683400E-004   3.9850391393237072E-003
   2.5118864315095795E-004   2.7820627349465963E-003
   2.8183829312644550E-004   1.9316458936125065E-003
   3.1622776601683794E-004   1.3330710039095599E-003
   3.5481338923357532E-004   9.1386726696223342E-004
   3.9810717055349735E-004   6.2195066623289179E-004
   4.4668359215096305E-004   4.1996261430869090E-004
   5.0118723362727253E-004   2.8118108601235498E-004
   5.6234132519034910E-004   1.8656117138339865E-004
   6.3095734448019298E-004   1.2258998751954987E-004
   7.0794578438413802E-004   7.9730819697414231E-005
   7.9432823472428131E-004   5.1294859768798752E-005
   8.9125093813374593E-004   3.2623966070355802E-005
   1.0000000000000002E-003   2.0499999999999997E-005
   1.1220184543019630E-003   1.2348120354104362E-005
   1.2589254117941675E-003   6.9630054424127195E-006
   1.4125375446227540E-003   3.7097561576894066E-006
   1.5848931924611141E-003   1.8847363377191466E-006
   1.7782794100389228E-003   9.2154450495578548E-007
   1.9952623149688789E-003   4.3766957285190874E-007
   2.2387211385683399E-003   2.0377203781882234E-007
   2.5118864315095794E-003   9.3867418674251577E-008
   2.8183829312644548E-003   4.3177856164795605E-008
   3.1622776601683794E-003   2.0016449722797718E-008
   3.5481338923357532E-003   9.4383626497578583E-009
   3.9810717055349734E-003   4.5687118365873526E-009
   4.4668359215096305E-003   2.2913014499481633E-009
   5.0118723362727246E-003   1.2016165771813977E-009
   5.6234132519034910E-003   6.6504138342785534E-010
   6.3095734448019303E-003   3.9204360148636558E-010
   7.0794578438413804E-003   2.4844305998155517E-010
   7.9432823472428138E-003   1.7081658306533864E-010
   8.9125093813374589E-003   1.2860199700212708E-010
   1.0000000000000002E-002   1.0700000000000002E-010
   1.1220184543019630E-002   9.4204347609129900E-011
   1.2589254117941675E-002   8.3506134837949324E-011
   1.4125375446227540E-002   7.4515155385233786E-011
   1.5848931924611141E-002   6.6921883989204752E-011
   1.7782794100389229E-002   6.0479410560650614E-011
   1.9952623149688788E-002   5.4989694899241040E-011
   2.2387211385683399E-002   5.0293048947160191E-011
   2.5118864315095794E-002   4.6260043816475450E-011
   2.8183829312644550E-002   4.2785248632177990E-011
   3.1622776601683791E-002   3.9782360746216338E-011
   3.5481338923357530E-002   3.7180398368614368E-011
   3.9810717055349734E-002   3.4920708613259346E-011
   4.4668359215096300E-002   3.2954604519307208E-011
   5.0118723362727248E-002   3.1241489602491669E-011
   5.6234132519034911E-002   2.9747362089459838E-011
   6.3095734448019303E-002   2.8443616205221207E-011
   7.0794578438413802E-002   2.7306076903917903E-011
   7.9432823472428138E-002   2.6314218849281876E-011
   8.9125093813374592E-002   2.5450531430397055E-011
  0.10000000000000001        2.4700000000000003E-011
  0.11220184543019630        2.4016571196981970E-011
  0.12589254117941662        2.3363768660936323E-011
  0.14125375446227553        2.2742418750976034E-011
  0.15848931924611143        2.2153190700083141E-011
  0.17782794100389229        2.1596621579080599E-011
  0.19952623149688789        2.1073140755099181E-011
  0.22387211385683378        2.0583093786882147E-011
  0.25118864315095824        2.0126765748436113E-011
  0.28183829312644548        1.9704404018846108E-011
  0.31622776601683794        1.9316240620026016E-011
  0.35481338923357530        1.8962514226431683E-011
  0.39810717055349693        1.8643492012154717E-011
  0.44668359215096348        1.8359491542332279E-011
  0.50118723362727247        1.8110902958600435E-011
  0.56234132519034907        1.7898211753743953E-011
  0.63095734448019303        1.7722022480303443E-011
  0.70794578438413736        1.7583083793512473E-011
  0.79432823472428216        1.7482315292680204E-011
  0.89125093813374590        1.7420836699524437E-011
   1.0000000000000000        1.7399999999999990E-011
