   1.0000000000000006E-005   38.899999999999999     
   1.1220184543019630E-005   27.648068065955322     
   1.2589254117941661E-005   19.620405719436054     
   1.4125375446227555E-005   13.902186698932482     
   1.5848931924611141E-005   9.8354474602538335     
   1.7782794100389229E-005   6.9477620559786315     
   1.9952623149688786E-005   4.9004898255912028     
   2.2387211385683379E-005   3.4512921448370713     
   2.5118864315095822E-005   2.4270323442360757     
   2.8183829312644549E-005   1.7042172198948000     
   3.1622776601683795E-005   1.1949061946837591     
   3.5481338923357534E-005  0.83657732370331661     
   3.9810717055349695E-005  0.58485163817988495     
   4.4668359215096348E-005  0.40827859700218316     
   5.0118723362727251E-005  0.28460513495366169     
   5.6234132519034907E-005  0.19811073002369387     
   6.3095734448019293E-005  0.13770710499592720     
   7.0794578438413731E-005   9.5585433796045227E-002
   7.9432823472428221E-005   6.6254904769207548E-002
   8.9125093813374588E-005   4.5860547827224291E-002
   1.0000000000000005E-004   3.1699999999999992E-002
   1.1220184543019630E-004   2.1947273902292511E-002
   1.2589254117941674E-004   1.5255317811216609E-002
   1.4125375446227541E-004   1.0635516679295071E-002
   1.5848931924611142E-004   7.4296761985904640E-003
   1.7782794100389227E-004   5.1955609446058468E-003
   1.9952623149688788E-004   3.6334866296575071E-003
   2.2387211385683400E-004   2.5387536354561590E-003
   2.5118864315095795E-004   1.7705195315486318E-003
   2.8183829312644550E-004   1.2312361565980428E-003
   3.1622776601683794E-004   8.5294254303355690E-004
   3.5481338923357532E-004   5.8804867172771217E-004
   3.9810717055349735E-004   4.0308733553958933E-004
   4.4668359215096305E-004   2.7444461885895279E-004
   5.0118723362727253E-004   1.8542029830330878E-004
   5.6234132519034910E-004   1.2418928397955965E-004
   6.3095734448019298E-004   8.2378250767163141E-005
   7.0794578438413802E-004   5.4065460499755771E-005
   7.9432823472428131E-004   3.5073850603767910E-005
   8.9125093813374593E-004   2.2468831781618215E-005
   1.0000000000000002E-003   1.4200000000000008E-005
   1.1220184543019630E-003   8.6242801344890606E-006
   1.2589254117941675E-003   4.9340875111133711E-006
   1.4125375446227540E-003   2.6815017413885704E-006
   1.5848931924611141E-003   1.3959643295288793E-006
   1.7782794100389228E-003   7.0199387203452455E-007
   1.9952623149688789E-003   3.4386885537981259E-007
   2.2387211385683399E-003   1.6545909590918039E-007
   2.5118864315095794E-003   7.8861401816814060E-008
   2.8183829312644548E-003   3.7545002719746127E-008
   3.1622776601683794E-003   1.8004926346191972E-008
   3.5481338923357532E-003   8.7704096621165292E-009
   3.9810717055349734E-003   4.3759816411297177E-009
   4.4668359215096305E-003   2.2552565054508014E-009
   5.0118723362727246E-003   1.2106510924696474E-009
   5.6234132519034910E-003   6.8262535158786719E-010
   6.3095734448019303E-003   4.0768426433298622E-010
   7.0794578438413804E-003   2.6006467512899382E-010
   7.9432823472428138E-003   1.7868677992171615E-010
   8.9125093813374589E-003   1.3335057113345299E-010
   1.0000000000000002E-002   1.0900000000000004E-010
   1.1220184543019630E-002   9.3885099876410958E-011
   1.2589254117941675E-002   8.1511114102177946E-011
   1.4125375446227540E-002   7.1314488278627766E-011
   1.5848931924611141E-002   6.2859409734943167E-011
   1.7782794100389229E-002   5.5806555378186356E-011
   1.9952623149688788E-002   4.9889979749277637E-011
   2.2387211385683399E-002   4.4899906206772728E-011
   2.5118864315095794E-002   4.0669828205731784E-011
   2.8183829312644550E-002   3.7066778485823597E-011
   3.1622776601683791E-002   3.3983941758356816E-011
   3.5481338923357530E-002   3.1335011968221887E-011
   3.9810717055349734E-002   2.9049856256211443E-011
   4.4668359215096300E-002   2.7071163510601492E-011
   5.0118723362727248E-002   2.5351839128919941E-011
   5.6234132519034911E-002   2.3852968544714781E-011
   6.3095734448019303E-002   2.2542216682248818E-011
   7.0794578438413802E-002   2.1392563349510453E-011
   7.9432823472428138E-002   2.0381298905938360E-011
   8.9125093813374592E-002   1.9489222657726175E-011
  0.10000000000000001        1.8700000000000020E-011
  0.11220184543019630        1.7974717872933771E-011
  0.12589254117941662        1.7284939057215361E-011
  0.14125375446227553        1.6631604384567069E-011
  0.15848931924611143        1.6015341039234067E-011
  0.17782794100389229        1.5436513515688118E-011
  0.19952623149688789        1.4895272534712330E-011
  0.22387211385683378        1.4391601632524482E-011
  0.25118864315095824        1.3925361303403879E-011
  0.28183829312644548        1.3496330723913656E-011
  0.31622776601683794        1.3104247218063915E-011
  0.35481338923357530        1.2748843740268127E-011
  0.39810717055349693        1.2429884760021055E-011
  0.44668359215096348        1.2147201032773776E-011
  0.50118723362727247        1.1900723839999994E-011
  0.56234132519034907        1.1690519383017197E-011
  0.63095734448019303        1.1516824125552560E-011
  0.70794578438413736        1.1380082006004818E-011
  0.79432823472428216        1.1280984589671350E-011
  0.89125093813374590        1.1220515413242845E-011
   1.0000000000000000        1.1200000000000009E-011
