   1.0000000000000006E-005   35.700000000000003     
   1.1220184543019630E-005   25.572755478815566     
   1.2589254117941661E-005   18.284664760110214     
   1.4125375446227555E-005   13.049749808299532     
   1.5848931924611141E-005   9.2966957136509869     
   1.7782794100389229E-005   6.6110712269532446     
   1.9952623149688786E-005   4.6928577001681546     
   2.2387211385683379E-005   3.3252997904971440     
   2.5118864315095822E-005   2.3521100393494425     
   2.8183829312644549E-005   1.6608232582826989     
   3.1622776601683795E-005   1.1706678548991603     
   3.5481338923357534E-005  0.82374729611590281     
   3.9810717055349695E-005  0.57864190934875492     
   4.4668359215096348E-005  0.40577649205110244     
   5.0118723362727251E-005  0.28407337921303416     
   5.6234132519034907E-005  0.19853925521692004     
   6.3095734448019293E-005  0.13852876958280352     
   7.0794578438413731E-005   9.6497673663671804E-002
   7.9432823472428221E-005   6.7109272307769030E-002
   8.9125093813374588E-005   4.6595349710756379E-002
   1.0000000000000005E-004   3.2300000000000009E-002
   1.1220184543019630E-004   2.2417893306876883E-002
   1.2589254117941674E-004   1.5612698934782223E-002
   1.4125375446227541E-004   1.0900510988520998E-002
   1.5848931924611142E-004   7.6224781243930282E-003
   1.7782794100389227E-004   5.3336037443107581E-003
   1.9952623149688788E-004   3.7309146244994410E-003
   2.2387211385683400E-004   2.6066015664747873E-003
   2.5118864315095795E-004   1.8171615654662191E-003
   2.8183829312644550E-004   1.2628935813533495E-003
   3.1622776601683794E-004   8.7415624634188316E-004
   3.5481338923357532E-004   6.0208144498601914E-004
   3.9810717055349735E-004   4.1224942941275243E-004
   4.4668359215096305E-004   2.8034853955973048E-004
   5.0118723362727253E-004   1.8917542606094133E-004
   5.6234132519034910E-004   1.2654765574425224E-004
   6.3095734448019298E-004   8.3841921308631679E-005
   7.0794578438413802E-004   5.4964318370569970E-005
   7.9432823472428131E-004   3.5621134812981535E-005
   8.9125093813374593E-004   2.2800097729972463E-005
   1.0000000000000002E-003   1.4399999999999989E-005
   1.1220184543019630E-003   8.7389351946338609E-006
   1.2589254117941675E-003   4.9935895141537151E-006
   1.4125375446227540E-003   2.7095188547600563E-006
   1.5848931924611141E-003   1.4078722756124906E-006
   1.7782794100389228E-003   7.0646849726160433E-007
   1.9952623149688789E-003   3.4526100692853446E-007
   2.2387211385683399E-003   1.6572734649135822E-007
   2.5118864315095794E-003   7.8795144487333542E-008
   2.8183829312644548E-003   3.7422267139257879E-008
   3.1622776601683794E-003   1.7904113225823962E-008
   3.5481338923357532E-003   8.7023058495305881E-009
   3.9810717055349734E-003   4.3335259322892239E-009
   4.4668359215096305E-003   2.2296706135960720E-009
   5.0118723362727246E-003   1.1953607654350396E-009
   5.6234132519034910E-003   6.7341530845273367E-010
   6.3095734448019303E-003   4.0203086513975261E-010
   7.0794578438413804E-003   2.5650448064753533E-010
   7.9432823472428138E-003   1.7638286247128778E-010
   8.9125093813374589E-003   1.3182883427106880E-010
   1.0000000000000002E-002   1.0800000000000016E-010
   1.1220184543019630E-002   9.3268551191876798E-011
   1.2589254117941675E-002   8.1183080321478529E-011
   1.4125375446227540E-002   7.1203964948967562E-011
   1.5848931924611141E-002   6.2913047626528284E-011
   1.7782794100389229E-002   5.5984099976346724E-011
   1.9952623149688788E-002   5.0160937595824305E-011
   2.2387211385683399E-002   4.5241093708599995E-011
   2.5118864315095794E-002   4.1063559012499039E-011
   2.8183829312644550E-002   3.7499515629261034E-011
   3.1622776601683791E-002   3.4445289947295557E-011
   3.5481338923357530E-002   3.1816960185723531E-011
   3.9810717055349734E-002   2.9546205500157501E-011
   4.4668359215096300E-002   2.7577092171232227E-011
   5.0118723362727248E-002   2.5863571187853869E-011
   5.6234132519034911E-002   2.4367518956275027E-011
   6.3095734448019303E-002   2.3057194970305190E-011
   7.0794578438413802E-002   2.1906021331975768E-011
   7.9432823472428138E-002   2.0891612046677409E-011
   8.9125093813374592E-002   1.9994997198726406E-011
  0.10000000000000001        1.9200000000000022E-011
  0.11220184543019630        1.8468207001531018E-011
  0.12589254117941662        1.7771662987868140E-011
  0.14125375446227553        1.7111393308419409E-011
  0.15848931924611143        1.6488106636854107E-011
  0.17782794100389229        1.5902245353269167E-011
  0.19952623149688789        1.5354034068583496E-011
  0.22387211385683378        1.4843525989701356E-011
  0.25118864315095824        1.4370646988071723E-011
  0.28183829312644548        1.3935237381113303E-011
  0.31622776601683794        1.3537091567206886E-011
  0.35481338923357530        1.3175995773018025E-011
  0.39810717055349693        1.2851764279935108E-011
  0.44668359215096348        1.2564274598140611E-011
  0.50118723362727247        1.2313502156596116E-011
  0.56234132519034907        1.2099555179965171E-011
  0.63095734448019303        1.1922710534860882E-011
  0.70794578438413736        1.1783451454312770E-011
  0.79432823472428216        1.1682508198653601E-011
  0.89125093813374590        1.1620902892272662E-011
   1.0000000000000000        1.1599999999999991E-011
