   1.0000000000000006E-005   54.199999999999996     
   1.1220184543019630E-005   37.766278719244134     
   1.2589254117941661E-005   26.293938459491343     
   1.4125375446227555E-005   18.291728049981817     
   1.5848931924611141E-005   12.714596437546568     
   1.7782794100389229E-005   8.8308046919271455     
   1.9952623149688786E-005   6.1284259008417248     
   2.2387211385683379E-005   4.2496157605047689     
   2.5118864315095822E-005   2.9444457594668116     
   2.8183829312644549E-005   2.0385047490089701     
   3.1622776601683795E-005   1.4101823546123076     
   3.5481338923357534E-005  0.97475463513650484     
   3.9810717055349695E-005  0.67324468122079739     
   4.4668359215096348E-005  0.46463213912849088     
   5.0118723362727251E-005  0.32040948362721017     
   5.6234132519034907E-005  0.22078134800117663     
   6.3095734448019293E-005  0.15201323724201693     
   7.0794578438413731E-005  0.10458359063084684     
   7.9432823472428221E-005   7.1896857241562848E-002
   8.9125093813374588E-005   4.9388016960082375E-002
   1.0000000000000005E-004   3.3899999999999993E-002
   1.1220184543019630E-004   2.3327696924237078E-002
   1.2589254117941674E-004   1.6134751958999338E-002
   1.4125375446227541E-004   1.1205131485728284E-002
   1.5848931924611142E-004   7.8051603059686621E-003
   1.7782794100389227E-004   5.4475707012452482E-003
   1.9952623149688788E-004   3.8056257187953002E-003
   2.2387211385683400E-004   2.6582596117753587E-003
   2.5118864315095795E-004   1.8546535941902100E-003
   2.8183829312644550E-004   1.2911249778296899E-003
   3.1622776601683794E-004   8.9590053720852597E-004
   3.5481338923357532E-004   6.1898955302080116E-004
   3.9810717055349735E-004   4.2538759549420380E-004
   4.4668359215096305E-004   2.9047601330459036E-004
   5.0118723362727253E-004   1.9688183686657399E-004
   5.6234132519034910E-004   1.3231738973297393E-004
   6.3095734448019298E-004   8.8082587475034671E-005
   7.0794578438413802E-004   5.8019107146735801E-005
   7.9432823472428131E-004   3.7775117917105757E-005
   8.9125093813374593E-004   2.4285128064279042E-005
   1.0000000000000002E-003   1.5400000000000015E-005
   1.1220184543019630E-003   9.3964038181381126E-006
   1.2589254117941675E-003   5.4138943213306656E-006
   1.4125375446227540E-003   2.9693299899645608E-006
   1.5848931924611141E-003   1.5627920151616755E-006
   1.7782794100389228E-003   7.9566704431246574E-007
   1.9952623149688789E-003   3.9504126610040364E-007
   2.2387211385683399E-003   1.9280926774018290E-007
   2.5118864315095794E-003   9.3256933783455178E-008
   2.8183829312644548E-003   4.5060456212492906E-008
   3.1622776601683794E-003   2.1926267168402183E-008
   3.5481338923357532E-003   1.0831333376341069E-008
   3.9810717055349734E-003   5.4757131399654638E-009
   4.4668359215096305E-003   2.8558437121419736E-009
   5.0118723362727246E-003   1.5490185106831330E-009
   5.6234132519034910E-003   8.8084732621307649E-010
   6.3095734448019303E-003   5.2937079087355247E-010
   7.0794578438413804E-003   3.3894407726983176E-010
   7.9432823472428138E-003   2.3307640157165379E-010
   8.9125093813374589E-003   1.7352584945934109E-010
   1.0000000000000002E-002   1.4100000000000021E-010
   1.1220184543019630E-002   1.2052100494016935E-010
   1.2589254117941675E-002   1.0386984489001049E-010
   1.4125375446227540E-002   9.0237057143656461E-011
   1.5848931924611141E-002   7.9001376750646597E-011
   1.7782794100389229E-002   6.9682590337004827E-011
   1.9952623149688788E-002   6.1906948584380994E-011
   2.2387211385683399E-002   5.5381611500099065E-011
   2.5118864315095794E-002   4.9875636730938324E-011
   2.8183829312644550E-002   4.5205740272577358E-011
   3.1622776601683791E-002   4.1225561574990937E-011
   3.5481338923357530E-002   3.7817518847652532E-011
   3.9810717055349734E-002   3.4886591100463811E-011
   4.4668359215096300E-002   3.2355542326025410E-011
   5.0118723362727248E-002   3.0161231661232558E-011
   5.6234132519034911E-002   2.8251746168135891E-011
   6.3095734448019303E-002   2.6584160345690683E-011
   7.0794578438413802E-002   2.5122775836338254E-011
   7.9432823472428138E-002   2.3837731104012848E-011
   8.9125093813374592E-002   2.2703897733323117E-011
  0.10000000000000001        2.1700000000000026E-011
  0.11220184543019630        2.0777806266804210E-011
  0.12589254117941662        1.9902644882864384E-011
  0.14125375446227553        1.9075639946845116E-011
  0.15848931924611143        1.8297457117979362E-011
  0.17782794100389229        1.7568380814896902E-011
  0.19952623149688789        1.6888387714837109E-011
  0.22387211385683378        1.6257216082901336E-011
  0.25118864315095824        1.5674430742851938E-011
  0.28183829312644548        1.5139483747058672E-011
  0.31622776601683794        1.4651771017020951E-011
  0.35481338923357530        1.4210685412412829E-011
  0.39810717055349693        1.3815666851960552E-011
  0.44668359215096348        1.3466250260790830E-011
  0.50118723362727247        1.3162112264227137E-011
  0.56234132519034907        1.2903117696321699E-011
  0.63095734448019303        1.2689367152789815E-011
  0.70794578438413736        1.2521247003955035E-011
  0.79432823472428216        1.2399483507264083E-011
  0.89125093813374590        1.2325202936932854E-011
   1.0000000000000000        1.2300000000000004E-011
