   1.0000000000000006E-005   463.99999999999977     
   1.1220184543019630E-005   357.93138314270033     
   1.2589254117941661E-005   274.69415368206501     
   1.4125375446227555E-005   209.75228522790965     
   1.5848931924611141E-005   159.37178614817401     
   1.7782794100389229E-005   120.50454862334824     
   1.9952623149688786E-005   90.682296369204039     
   2.2387211385683379E-005   67.921685466882764     
   2.5118864315095822E-005   50.640861181674175     
   2.8183829312644549E-005   37.587219595618627     
   3.1622776601683795E-005   27.775738686802352     
   3.5481338923357534E-005   20.436999727485048     
   3.9810717055349695E-005   14.973887739532197     
   4.4668359215096348E-005   10.925912700235397     
   5.0118723362727251E-005   7.9401079356461679     
   5.6234132519034907E-005   5.7475190609843754     
   6.3095734448019293E-005   4.1443800611849682     
   7.0794578438413731E-005   2.9771703118539867     
   7.9432823472428221E-005   2.1308483342781042     
   8.9125093813374588E-005   1.5196583553903997     
   1.0000000000000005E-004   1.0800000000000001     
   1.1220184543019630E-004  0.76357861089832713     
   1.2589254117941674E-004  0.53623428241275750     
   1.4125375446227541E-004  0.37414693968972756     
   1.5848931924611142E-004  0.25943740846035129     
   1.7782794100389227E-004  0.17883056745756368     
   1.9952623149688788E-004  0.12257041231725062     
   2.2387211385683400E-004   8.3556502487995524E-002
   2.5118864315095795E-004   5.6668478288257398E-002
   2.8183829312644550E-004   3.8245955786456537E-002
   3.1622776601683794E-004   2.5693787913220301E-002
   3.5481338923357532E-004   1.7186418304892186E-002
   3.9810717055349735E-004   1.1449149492850431E-002
   4.4668359215096305E-004   7.5981464028434271E-003
   5.0118723362727253E-004   5.0246365173483541E-003
   5.6234132519034910E-004   3.3119226338378942E-003
   6.3095734448019298E-004   2.1764577161282380E-003
   7.0794578438413802E-004   1.4263653548311503E-003
   7.9432823472428131E-004   9.3247630303616247E-004
   8.9125093813374593E-004   6.0825722916734663E-004
   1.0000000000000002E-003   3.9599999999999987E-004
   1.1220184543019630E-003   2.5345720995169417E-004
   1.2589254117941675E-003   1.5753268342375004E-004
   1.4125375446227540E-003   9.5505204346067250E-005
   1.5848931924611141E-003   5.6729315174032819E-005
   1.7782794100389228E-003   3.3162401132284343E-005
   1.9952623149688789E-003   1.9163556407658120E-005
   2.2387211385683399E-003   1.0995924608854126E-005
   2.5118864315095794E-003   6.2928400033556578E-006
   2.8183829312644548E-003   3.6079017931296404E-006
   3.1622776601683794E-003   2.0815631732207506E-006
   3.5481338923357532E-003   1.2139062396437616E-006
   3.9810717055349734E-003   7.1874550331481133E-007
   4.4668359215096305E-003   4.3400364362604510E-007
   5.0118723362727246E-003   2.6845632324736148E-007
   5.6234132519034910E-003   1.7086366455012938E-007
   6.3095734448019303E-003   1.1239717631977304E-007
   7.0794578438413804E-003   7.6758146655465334E-008
   7.9432823472428138E-003   5.4662657691875911E-008
   8.9125093813374589E-003   4.0774437602960300E-008
   1.0000000000000002E-002   3.2000000000000022E-008
   1.1220184543019630E-002   2.5945922201417306E-008
   1.2589254117941675E-002   2.1270265352365530E-008
   1.4125375446227540E-002   1.7619674917936438E-008
   1.5848931924611141E-002   1.4739426516697646E-008
   1.7782794100389229E-002   1.2443928767958827E-008
   1.9952623149688788E-002   1.0596567428661269E-008
   2.2387211385683399E-002   9.0957848487087157E-009
   2.5118864315095794E-002   7.8653664175110734E-009
   2.8183829312644550E-002   6.8475950872995122E-009
   3.1622776601683791E-002   5.9983808896174936E-009
   3.5481338923357530E-002   5.2837637003473806E-009
   3.9810717055349734E-002   4.6773798260850039E-009
   4.4668359215096300E-002   4.1586111844416677E-009
   5.0118723362727248E-002   3.7112221215561094E-009
   5.6234132519034911E-002   3.3223474981440803E-009
   6.3095734448019303E-002   2.9817358166817485E-009
   7.0794578438413802E-002   2.6811789009968690E-009
   7.9432823472428138E-002   2.4140789675940279E-009
   8.9125093813374592E-002   2.1751175058107654E-009
  0.10000000000000001        1.9600000000000015E-009
  0.11220184543019630        1.7671475450806321E-009
  0.12589254117941662        1.5956619962234853E-009
  0.14125375446227553        1.4431346541227269E-009
  0.15848931924611143        1.3074262135450541E-009
  0.17782794100389229        1.1866384436140609E-009
  0.19952623149688789        1.0790884592739747E-009
  0.22387211385683378        9.8328543002811353E-010
  0.25118864315095824        8.9790956341720301E-010
  0.28183829312644548        8.2179319728425624E-010
  0.31622776601683794        7.5390383552928110E-010
  0.35481338923357530        6.9332896582609190E-010
  0.39810717055349693        6.3926250384868754E-010
  0.44668359215096348        5.9099271627131884E-010
  0.50118723362727247        5.4789148362384831E-010
  0.56234132519034907        5.0940477356966957E-010
  0.63095734448019303        4.7504420498794267E-010
  0.70794578438413736        4.4437959312534582E-010
  0.79432823472428216        4.1703237584210537E-010
  0.89125093813374590        3.9266983047631088E-010
   1.0000000000000000        3.7099999999999939E-010
