   1.0000000000000006E-005   39.899999999999991     
   1.1220184543019630E-005   28.305848009409576     
   1.2589254117941661E-005   20.051039585153053     
   1.4125375446227555E-005   14.182691917502328     
   1.5848931924611141E-005   10.017171188783346     
   1.7782794100389229E-005   7.0647984370117429     
   1.9952623149688786E-005   4.9753806205717011     
   2.2387211385683379E-005   3.4988739803213207     
   2.5118864315095822E-005   2.4570237155805232     
   2.8183829312644549E-005   1.7229515083509142     
   3.1622776601683795E-005   1.2064880389336705     
   3.5481338923357534E-005  0.84365104333495122     
   3.9810717055349695E-005  0.58910965114286229     
   4.4668359215096348E-005  0.41079626962029320     
   5.0118723362727251E-005  0.28606024733080304     
   5.6234132519034907E-005  0.19892657022053201     
   6.3095734448019293E-005  0.13814524711099355     
   7.0794578438413731E-005   9.5805528159309455E-002
   7.9432823472428221E-005   6.6352953904090808E-002
   8.9125093813374588E-005   4.5893230070095346E-002
   1.0000000000000005E-004   3.1699999999999992E-002
   1.1220184543019630E-004   2.1933548243914990E-002
   1.2589254117941674E-004   1.5237990141521803E-002
   1.4125375446227541E-004   1.0619141612144634E-002
   1.5848931924611142E-004   7.4159677886071361E-003
   1.7782794100389227E-004   5.1848562909542891E-003
   1.9952623149688788E-004   3.6255161726198217E-003
   2.2387211385683400E-004   2.5330337282605461E-003
   2.5118864315095795E-004   1.7665416008136095E-003
   2.8183829312644550E-004   1.2285484962934259E-003
   3.1622776601683794E-004   8.5117732790587330E-004
   3.5481338923357532E-004   5.8692264326639482E-004
   3.9810717055349735E-004   4.0239124739789941E-004
   4.4668359215096305E-004   2.7402917160064473E-004
   5.0118723362727253E-004   1.8518228964885600E-004
   5.6234132519034910E-004   1.2405956352978212E-004
   6.3095734448019298E-004   8.2311963944315243E-005
   7.0794578438413802E-004   5.4034528094320726E-005
   7.9432823472428131E-004   3.5061396807971723E-005
   8.9125093813374593E-004   2.2465199777784213E-005
   1.0000000000000002E-003   1.4200000000000008E-005
   1.1220184543019630E-003   8.6262411443266412E-006
   1.2589254117941675E-003   4.9370927967888962E-006
   1.4125375446227540E-003   2.6845146452231194E-006
   1.5848931924611141E-003   1.3984063998236295E-006
   1.7782794100389228E-003   7.0372424255497153E-007
   1.9952623149688789E-003   3.4498598482317601E-007
   2.2387211385683399E-003   1.6613401789479161E-007
   2.5118864315095794E-003   7.9250535907740388E-008
   2.8183829312644548E-003   3.7762498059138051E-008
   3.1622776601683794E-003   1.8124349968678789E-008
   3.5481338923357532E-003   8.8355934500164253E-009
   3.9810717055349734E-003   4.4117299168535221E-009
   4.4668359215096305E-003   2.2751517249205812E-009
   5.0118723362727246E-003   1.2219921359594984E-009
   5.6234132519034910E-003   6.8930496134721651E-010
   6.3095734448019303E-003   4.1178231454712221E-010
   7.0794578438413804E-003   2.6270335256993236E-010
   7.9432823472428138E-003   1.8048184631851631E-010
   8.9125093813374589E-003   1.3464795640608318E-010
   1.0000000000000002E-002   1.1000000000000009E-010
   1.1220184543019630E-002   9.4682682594681261E-011
   1.2589254117941675E-002   8.2148716983634656E-011
   1.4125375446227540E-002   7.1824966611028238E-011
   1.5848931924611141E-002   6.3268356443598299E-011
   1.7782794100389229E-002   5.6134027073505100E-011
   1.9952623149688788E-002   5.0151788927475952E-011
   2.2387211385683399E-002   4.5108594506623157E-011
   2.5118864315095794E-002   4.0835403797222005E-011
   2.8183829312644550E-002   3.7197278015890964E-011
   3.1622776601683791E-002   3.4085861060989232E-011
   3.5481338923357530E-002   3.1413638065157661E-011
   3.9810717055349734E-002   2.9109524711901730E-011
   4.4668359215096300E-002   2.7115459038949907E-011
   5.0118723362727248E-002   2.5383752830888603E-011
   5.6234132519034911E-002   2.3875021826206143E-011
   6.3095734448019303E-002   2.2556559434204143E-011
   7.0794578438413802E-002   2.1401052133306781E-011
   7.9432823472428138E-002   2.0385559508956048E-011
   8.9125093813374592E-002   1.9490700344998221E-011
  0.10000000000000001        1.8700000000000020E-011
  0.11220184543019630        1.7973969023028900E-011
  0.12589254117941662        1.7283646466116991E-011
  0.14125375446227553        1.6629940335770230E-011
  0.15848931924611143        1.6013448499407724E-011
  0.17782794100389229        1.5434509467830045E-011
  0.19952623149688789        1.4893251094754782E-011
  0.22387211385683378        1.4389636921107918E-011
  0.25118864315095824        1.3923510055315137E-011
  0.28183829312644548        1.3494634626302400E-011
  0.31622776601683794        1.3102734975147818E-011
  0.35481338923357530        1.2747532866977257E-011
  0.39810717055349693        1.2428783110075578E-011
  0.44668359215096348        1.2146308068200815E-011
  0.50118723362727247        1.1900031649196828E-011
  0.56234132519034907        1.1690013453267318E-011
  0.63095734448019303        1.1516483873443436E-011
  0.70794578438413736        1.1379881065481260E-011
  0.79432823472428216        1.1280890852414683E-011
  0.89125093813374590        1.1220490809540018E-011
   1.0000000000000000        1.1200000000000009E-011
