   1.0000000000000006E-005   115.00000000000003     
   1.1220184543019630E-005   80.106604556400740     
   1.2589254117941661E-005   55.759486055551378     
   1.4125375446227555E-005   38.783773928263429     
   1.5848931924611141E-005   26.956478003467087     
   1.7782794100389229E-005   18.722287943175420     
   1.9952623149688786E-005   12.993863265965595     
   2.2387211385683379E-005   9.0116056091563426     
   2.5118864315095822E-005   6.2452738218255366     
   2.8183829312644549E-005   4.3250101171265127     
   3.1622776601683795E-005   2.9930227466120627     
   3.5481338923357534E-005   2.0697651267335986     
   3.9810717055349695E-005   1.4302803850586159     
   4.4668359215096348E-005  0.98766867825733717     
   5.0118723362727251E-005  0.68154144767042735     
   5.6234132519034907E-005  0.46996451515934679     
   6.3095734448019293E-005  0.32384006527010556     
   7.0794578438413731E-005  0.22299222255346399     
   7.9432823472428221E-005  0.15344169681548739     
   8.9125093813374588E-005  0.10550973172081292     
   1.0000000000000005E-004   7.2499999999999981E-002
   1.1220184543019630E-004   4.9883795377561213E-002
   1.2589254117941674E-004   3.4423026161640412E-002
   1.4125375446227541E-004   2.3808183580317149E-002
   1.5848931924611142E-004   1.6493420020261655E-002
   1.7782794100389227E-004   1.1437260109385557E-002
   1.9952623149688788E-004   7.9337714031807501E-003
   2.2387211385683400E-004   5.5017817198847133E-003
   2.5118864315095795E-004   3.8116463542869927E-003
   2.8183829312644550E-004   2.6364952733856639E-003
   3.1622776601683794E-004   1.8195589493174751E-003
   3.5481338923357532E-004   1.2521304639498169E-003
   3.9810717055349735E-004   8.5861196205255926E-004
   4.4668359215096305E-004   5.8631063407642628E-004
   5.0118723362727253E-004   3.9843884628972020E-004
   5.6234132519034910E-004   2.6928875933852615E-004
   6.3095734448019298E-004   1.8089102032410893E-004
   7.0794578438413802E-004   1.2069175580764355E-004
   7.9432823472428131E-004   7.9931801084753157E-005
   8.9125093813374593E-004   5.2512485137794637E-005
   1.0000000000000002E-003   3.4200000000000025E-005
   1.1220184543019630E-003   2.1721451081749543E-005
   1.2589254117941675E-003   1.3289027899679797E-005
   1.4125375446227540E-003   7.8741658949835900E-006
   1.5848931924611141E-003   4.5434755402167672E-006
   1.7782794100389228E-003   2.5669028578266805E-006
   1.9952623149688789E-003   1.4276889429669889E-006
   2.2387211385683399E-003   7.8600625175240771E-007
   2.5118864315095794E-003   4.3067728314769484E-007
   2.8183829312644548E-003   2.3614394130530304E-007
   3.1622776601683794E-003   1.3027642937157741E-007
   3.5481338923357532E-003   7.2708368775462915E-008
   3.9810717055349734E-003   4.1276017603177814E-008
   4.4668359215096305E-003   2.3964663119492892E-008
   5.0118723362727246E-003   1.4307716873534253E-008
   5.6234132519034910E-003   8.8320218552938488E-009
   6.3095734448019303E-003   5.6676893612735611E-009
   7.0794578438413804E-003   3.8016608289604528E-009
   7.9432823472428138E-003   2.6799546196392656E-009
   8.9125093813374589E-003   1.9963357018099585E-009
   1.0000000000000002E-002   1.5800000000000016E-009
   1.1220184543019630E-002   1.2983186111980929E-009
   1.2589254117941675E-002   1.0781060133705219E-009
   1.4125375446227540E-002   9.0421346497269058E-010
   1.5848931924611141E-002   7.6556683858597637E-010
   1.7782794100389229E-002   6.5399017502981282E-010
   1.9952623149688788E-002   5.6338934334904834E-010
   2.2387211385683399E-002   4.8917995313252320E-010
   2.5118864315095794E-002   4.2788259322526306E-010
   2.8183829312644550E-002   3.7683380725181473E-010
   3.1622776601683791E-002   3.3397787237364031E-010
   3.5481338923357530E-002   2.9771550391238350E-010
   3.9810717055349734E-002   2.6679301681382785E-010
   4.4668359215096300E-002   2.4022048435159050E-010
   5.0118723362727248E-002   2.1721085174035508E-010
   5.6234132519034911E-002   1.9713431341257980E-010
   6.3095734448019303E-002   1.7948389360239426E-010
   7.0794578438413802E-002   1.6384931017446553E-010
   7.9432823472428138E-002   1.4989700499893474E-010
   8.9125093813374592E-002   1.3735479431348769E-010
  0.10000000000000001        1.2600000000000013E-010
  0.11220184543019630        1.1569364811794554E-010
  0.12589254117941662        1.0636309739766975E-010
  0.14125375446227553        9.7921717739611924E-011
  0.15848931924611143        9.0289605435756010E-011
  0.17782794100389229        8.3393320987155688E-011
  0.19952623149688789        7.7165586736497863E-011
  0.22387211385683378        7.1544958049186639E-011
  0.25118864315095824        6.6475479480154209E-011
  0.28183829312644548        6.1906335314459153E-011
  0.31622776601683794        5.7791502069873035E-011
  0.35481338923357530        5.4089408993332671E-011
  0.39810717055349693        5.0762611259085507E-011
  0.44668359215096348        4.7777479469850137E-011
  0.50118723362727247        4.5103908156738679E-011
  0.56234132519034907        4.2715045251933615E-011
  0.63095734448019303        4.0587043953638800E-011
  0.70794578438413736        3.8698838000527884E-011
  0.79432823472428216        3.7031941109823377E-011
  0.89125093813374590        3.5570271199098226E-011
   1.0000000000000000        3.4300000000000020E-011
