   1.0000000000000006E-005   78.200000000000003     
   1.1220184543019630E-005   53.796820382823192     
   1.2589254117941661E-005   36.997107119109501     
   1.4125375446227555E-005   25.435507245946127     
   1.5848931924611141E-005   17.481338723337664     
   1.7782794100389229E-005   12.010768441075758     
   1.9952623149688786E-005   8.2495240696453820     
   2.2387211385683379E-005   5.6643379901430668     
   2.5118864315095822E-005   3.8880493046264908     
   2.8183829312644549E-005   2.6679450344494064     
   3.1622776601683795E-005   1.8301415244759502     
   3.5481338923357534E-005   1.2550335247676037     
   3.9810717055349695E-005  0.86037742424775576     
   4.4668359215096348E-005  0.58963857116399077     
   5.0118723362727251E-005  0.40396722949323360     
   5.6234132519034907E-005  0.27667500768169645     
   6.3095734448019293E-005  0.18943378723153359     
   7.0794578438413731E-005  0.12966084329929986     
   7.9432823472428221E-005   8.8720565803014392E-002
   8.9125093813374588E-005   6.0688163722616359E-002
   1.0000000000000005E-004   4.1500000000000002E-002
   1.1220184543019630E-004   2.8464221727353092E-002
   1.2589254117941674E-004   1.9633430247318277E-002
   1.4125375446227541E-004   1.3604500939244250E-002
   1.5848931924611142E-004   9.4602478631700109E-003
   1.7782794100389227E-004   6.5947721141185571E-003
   1.9952623149688788E-004   4.6038202177768623E-003
   2.2387211385683400E-004   3.2151564616844236E-003
   2.5118864315095795E-004   2.2438559358588100E-003
   2.8183829312644550E-004   1.5632946357472899E-003
   3.1622776601683794E-004   1.0861345351997661E-003
   3.5481338923357532E-004   7.5173926328140251E-004
   3.9810717055349735E-004   5.1776844478095007E-004
   4.4668359215096305E-004   3.5451332695976188E-004
   5.0118723362727253E-004   2.4104720659910060E-004
   5.6234132519034910E-004   1.6258785375828239E-004
   6.3095734448019298E-004   1.0867620382874753E-004
   7.0794578438413802E-004   7.1909305685333863E-005
   7.9432823472428131E-004   4.7052631133857053E-005
   8.9125093813374593E-004   3.0414089703695735E-005
   1.0000000000000002E-003   1.9400000000000018E-005
   1.1220184543019630E-003   1.1934435962425494E-005
   1.2589254117941675E-003   6.9597900925031773E-006
   1.4125375446227540E-003   3.8766241160767989E-006
   1.5848931924611141E-003   2.0779916002626978E-006
   1.7782794100389228E-003   1.0800296030056092E-006
   1.9952623149688789E-003   5.4840138446533127E-007
   2.2387211385683399E-003   2.7409535214126564E-007
   2.5118864315095794E-003   1.3586709188266126E-007
   2.8183829312644548E-003   6.7298533784978029E-008
   3.1622776601683794E-003   3.3561771285206478E-008
   3.5481338923357532E-003   1.6978578503714053E-008
   3.9810717055349734E-003   8.7789827846868717E-009
   4.4668359215096305E-003   4.6745813149376223E-009
   5.0118723362727246E-003   2.5826533942635858E-009
   5.6234132519034910E-003   1.4917074257500800E-009
   6.3095734448019303E-003   9.0753740013740881E-010
   7.0794578438413804E-003   5.8597353177826988E-010
   7.9432823472428138E-003   4.0456964061051288E-010
   8.9125093813374589E-003   3.0093980573798801E-010
   1.0000000000000002E-002   2.4300000000000045E-010
   1.1220184543019630E-002   2.0587575318975998E-010
   1.2589254117941675E-002   1.7596889330551550E-010
   1.4125375446227540E-002   1.5169065962268114E-010
   1.5848931924611141E-002   1.3183613842588362E-010
   1.7782794100389229E-002   1.1548438492575505E-010
   1.9952623149688788E-002   1.0192616327857964E-010
   2.2387211385683399E-002   9.0611259746188872E-011
   2.5118864315095794E-002   8.1109775936684098E-011
   2.8183829312644550E-002   7.3083483219085618E-011
   3.1622776601683791E-002   6.6264471503756898E-011
   3.5481338923357530E-002   6.0439124494929895E-011
   3.9810717055349734E-002   5.5436011659983231E-011
   4.4668359215096300E-002   5.1116679924208998E-011
   5.0118723362727248E-002   4.7368606448689884E-011
   5.6234132519034911E-002   4.4099772475072042E-011
   6.3095734448019303E-002   4.1234460911674552E-011
   7.0794578438413802E-002   3.8709983514000751E-011
   7.9432823472428138E-002   3.6474118595615371E-011
   8.9125093813374592E-002   3.4483095180455535E-011
  0.10000000000000001        3.2700000000000027E-011
  0.11220184543019630        3.1055736895497538E-011
  0.12589254117941662        2.9504137779737027E-011
  0.14125375446227553        2.8046222588080528E-011
  0.15848931924611143        2.6682071481404206E-011
  0.17782794100389229        2.5411001716058173E-011
  0.19952623149688789        2.4231732198794845E-011
  0.22387211385683378        2.3142534845535617E-011
  0.25118864315095824        2.2141372580655988E-011
  0.28183829312644548        2.1226024410020734E-011
  0.31622776601683794        2.0394198489741442E-011
  0.35481338923357530        1.9643634510586371E-011
  0.39810717055349693        1.8972197044649227E-011
  0.44668359215096348        1.8377961777471702E-011
  0.50118723362727247        1.7859296797782818E-011
  0.56234132519034907        1.7414941362160258E-011
  0.63095734448019303        1.7044084818694911E-011
  0.70794578438413736        1.6746448690118544E-011
  0.79432823472428216        1.6522375314607014E-011
  0.89125093813374590        1.6372926958987352E-011
   1.0000000000000000        1.6300000000000011E-011
