   1.0000000000000006E-005   33.700000000000010     
   1.1220184543019630E-005   24.288710212263332     
   1.2589254117941661E-005   17.469381713720423     
   1.4125375446227555E-005   12.538805045121499     
   1.5848931924611141E-005   8.9814675614626953     
   1.7782794100389229E-005   6.4203397031573246     
   1.9952623149688786E-005   4.5803140965271689     
   2.2387211385683379E-005   3.2611146843892369     
   2.5118864315095822E-005   2.3172743076374558     
   2.8183829312644549E-005   1.6433739186123850     
   3.1622776601683795E-005   1.1631879883618585     
   3.5481338923357534E-005  0.82172217729126906     
   3.9810717055349695E-005  0.57938693023028520     
   4.4668359215096348E-005  0.40774436941142583     
   5.0118723362727251E-005  0.28641110248718121     
   5.6234132519034907E-005  0.20080814739291719     
   6.3095734448019293E-005  0.14053012082521604     
   7.0794578438413731E-005   9.8166006863353666E-002
   7.9432823472428221E-005   6.8448423896356803E-002
   8.9125093813374588E-005   4.7641278387129726E-002
   1.0000000000000005E-004   3.3099999999999991E-002
   1.1220184543019630E-004   2.3018277272489104E-002
   1.2589254117941674E-004   1.6055646373619240E-002
   1.4125375446227541E-004   1.1222804609966977E-002
   1.5848931924611142E-004   7.8542029122998479E-003
   1.7782794100389227E-004   5.4984264056500256E-003
   1.9952623149688788E-004   3.8469698039746512E-003
   2.2387211385683400E-004   2.6875198242889823E-003
   2.5118864315095795E-004   1.8730336969955963E-003
   2.8183829312644550E-004   1.3010949669405259E-003
   3.1622776601683794E-004   9.0001629400819790E-004
   3.5481338923357532E-004   6.1940997223269248E-004
   3.9810717055349735E-004   4.2374143869514189E-004
   4.4668359215096305E-004   2.8789033176475744E-004
   5.0118723362727253E-004   1.9407299145873715E-004
   5.6234132519034910E-004   1.2969507170969134E-004
   6.3095734448019298E-004   8.5844144604371324E-005
   7.0794578438413802E-004   5.6225741110321533E-005
   7.9432823472428131E-004   3.6408726113568186E-005
   8.9125093813374593E-004   2.3287884598164355E-005
   1.0000000000000002E-003   1.4700000000000012E-005
   1.1220184543019630E-003   8.9156184325725678E-006
   1.2589254117941675E-003   5.0901700182271601E-006
   1.4125375446227540E-003   2.7589373973688879E-006
   1.5848931924611141E-003   1.4317335825836678E-006
   1.7782794100389228E-003   7.1742325779663786E-007
   1.9952623149688789E-003   3.5007704278004533E-007
   2.2387211385683399E-003   1.6776788037962501E-007
   2.5118864315095794E-003   7.9632999662364060E-008
   2.8183829312644548E-003   3.7757086138670245E-008
   3.1622776601683794E-003   1.8034623066956252E-008
   3.5481338923357532E-003   8.7518716177615430E-009
   3.9810717055349734E-003   4.3517320064272559E-009
   4.4668359215096305E-003   2.2360048824114581E-009
   5.0118723362727246E-003   1.1973326349185571E-009
   5.6234132519034910E-003   6.7386116035081721E-010
   6.3095734448019303E-003   4.0199590578997492E-010
   7.0794578438413804E-003   2.5636013953627473E-010
   7.9432823472428138E-003   1.7625404769816246E-010
   8.9125093813374589E-003   1.3175572532787077E-010
   1.0000000000000002E-002   1.0800000000000016E-010
   1.1220184543019630E-002   9.3337191967976005E-011
   1.2589254117941675E-002   8.1299465407424361E-011
   1.4125375446227540E-002   7.1353177435457443E-011
   1.5848931924611141E-002   6.3084446893865417E-011
   1.7782794100389229E-002   5.6170116157103196E-011
   1.9952623149688788E-002   5.0356213959042540E-011
   2.2387211385683399E-002   4.5441873652913609E-011
   2.5118864315095794E-002   4.1267245982480415E-011
   2.8183829312644550E-002   3.7704355918771889E-011
   3.1622776601683791E-002   3.4650143264334628E-011
   3.5481338923357530E-002   3.2021133183753705E-011
   3.9810717055349734E-002   2.9749330679110929E-011
   4.4668359215096300E-002   2.7779039594683301E-011
   5.0118723362727248E-002   2.6064384014983306E-011
   5.6234132519034911E-002   2.4567366301713654E-011
   6.3095734448019303E-002   2.3256337393341333E-011
   7.0794578438413802E-002   2.2104785534297115E-011
   7.9432823472428138E-002   2.1090372274441166E-011
   8.9125093813374592E-002   2.0194161504892966E-011
  0.10000000000000001        1.9400000000000018E-011
  0.11220184543019630        1.8669187597306507E-011
  0.12589254117941662        1.7973461134557223E-011
  0.14125375446227553        1.7313838031071045E-011
  0.15848931924611143        1.6691026603670363E-011
  0.17782794100389229        1.6105475173608901E-011
  0.19952623149688789        1.5557419393832728E-011
  0.22387211385683378        1.5046927510665204E-011
  0.25118864315095824        1.4573943430938768E-011
  0.28183829312644548        1.4138327606322747E-011
  0.31622776601683794        1.3739895872672682E-011
  0.35481338923357530        1.3378456495984821E-011
  0.39810717055349693        1.3053845780951534E-011
  0.44668359215096348        1.2765962696749612E-011
  0.50118723362727247        1.2514803071676671E-011
  0.56234132519034907        1.2300494008291813E-011
  0.63095734448019303        1.2123329279209428E-011
  0.70794578438413736        1.1983806586875732E-011
  0.79432823472428216        1.1882667715833756E-011
  0.89125093813374590        1.1820942781904415E-011
   1.0000000000000000        1.1800000000000015E-011
