   1.0000000000000006E-005   13.299999999999999     
   1.1220184543019630E-005   10.287342119678160     
   1.2589254117941661E-005   7.9197332830851943     
   1.4125375446227555E-005   6.0688789695054215     
   1.5848931924611141E-005   4.6294741389897220     
   1.7782794100389229E-005   3.5157244625432376     
   1.9952623149688786E-005   2.6582308820916825     
   2.2387211385683379E-005   2.0012437317117655     
   2.5118864315095822E-005   1.5002768386734113     
   2.8183829312644549E-005   1.1200610025374358     
   3.1622776601683795E-005  0.83280920661653124     
   3.5481338923357534E-005  0.61676205267997719     
   3.9810717055349695E-005  0.45498049257941570     
   4.4668359215096348E-005  0.33435331165183602     
   5.0118723362727251E-005  0.24478844871657388     
   5.6234132519034907E-005  0.17855966682866697     
   6.3095734448019293E-005  0.12978296353506996     
   7.0794578438413731E-005   9.4000160956036014E-002
   7.9432823472428221E-005   6.7850150513637159E-002
   8.9125093813374588E-005   4.8811152115950010E-002
   1.0000000000000005E-004   3.5000000000000003E-002
   1.1220184543019630E-004   2.5045336080410388E-002
   1.2589254117941674E-004   1.7898765472392299E-002
   1.4125375446227541E-004   1.2767007292896881E-002
   1.5848931924611142E-004   9.0835868236020089E-003
   1.7782794100389227E-004   6.4425870322901329E-003
   1.9952623149688788E-004   4.5522939218356935E-003
   2.2387211385683400E-004   3.2025785810431803E-003
   2.5118864315095795E-004   2.2418224551364516E-003
   2.8183829312644550E-004   1.5605115104468719E-003
   3.1622776601683794E-004   1.0795170353296215E-003
   3.5481338923357532E-004   7.4168792246517205E-004
   3.9810717055349735E-004   5.0579498424354957E-004
   4.4668359215096305E-004   3.4215418377345615E-004
   5.0118723362727253E-004   2.2945400240139690E-004
   5.6234132519034910E-004   1.5245030149281316E-004
   6.3095734448019298E-004   1.0028875174950981E-004
   7.0794578438413802E-004   6.5282965389590103E-005
   7.9432823472428131E-004   4.2024606080755010E-005
   8.9125093813374593E-004   2.6735972161973814E-005
   1.0000000000000002E-003   1.6799999999999981E-005
   1.1220184543019630E-003   1.0107261336131592E-005
   1.2589254117941675E-003   5.6816602863803317E-006
   1.4125375446227540E-003   3.0126040904995059E-006
   1.5848931924611141E-003   1.5210425577012387E-006
   1.7782794100389228E-003   7.3821123541019060E-007
   1.9952623149688789E-003   3.4767014030942476E-007
   2.2387211385683399E-003   1.6040173709365596E-007
   2.5118864315095794E-003   7.3183495558671694E-008
   2.8183829312644548E-003   3.3333975734970192E-008
   3.1622776601683794E-003   1.5301656178138841E-008
   3.5481338923357532E-003   7.1461906450529855E-009
   3.9810717055349734E-003   3.4277020695479478E-009
   4.4668359215096305E-003   1.7046346840209300E-009
   5.0118723362727246E-003   8.8729255132384584E-010
   5.6234132519034910E-003   4.8799692691272408E-010
   6.3095734448019303E-003   2.8627903886428053E-010
   7.0794578438413804E-003   1.8083883531323732E-010
   7.9432823472428138E-003   1.2417409833787223E-010
   8.9125093813374589E-003   9.3565332980271374E-011
   1.0000000000000002E-002   7.8099999999999929E-011
   1.1220184543019630E-002   6.9059397965956975E-011
   1.2589254117941675E-002   6.1465000674255834E-011
   1.4125375446227540E-002   5.5054769432035923E-011
   1.5848931924611141E-002   4.9619520883957902E-011
   1.7782794100389229E-002   4.4991383894861572E-011
   1.9952623149688788E-002   4.1034950179059167E-011
   2.2387211385683399E-002   3.7640453602970808E-011
   2.5118864315095794E-002   3.4718485495637823E-011
   2.8183829312644550E-002   3.2195879043684967E-011
   3.1622776601683791E-002   3.0012488051237774E-011
   3.5481338923357530E-002   2.8118653314828017E-011
   3.9810717055349734E-002   2.6473200228026029E-011
   4.4668359215096300E-002   2.5041848739700840E-011
   5.0118723362727248E-002   2.3795944863614441E-011
   5.6234132519034911E-002   2.2711444051131260E-011
   6.3095734448019303E-002   2.1768092694187813E-011
   7.0794578438413802E-002   2.0948766138981230E-011
   7.9432823472428138E-002   2.0238930829387755E-011
   8.9125093813374592E-002   1.9626205276865582E-011
  0.10000000000000001        1.9100000000000023E-011
  0.11220184543019630        1.8624314547081872E-011
  0.12589254117941662        1.8169825000857731E-011
  0.14125375446227553        1.7737045317229699E-011
  0.15848931924611143        1.7326404918127316E-011
  0.17782794100389229        1.6938262731987647E-011
  0.19952623149688789        1.6572920997345112E-011
  0.22387211385683378        1.6230638814948914E-011
  0.25118864315095824        1.5911645456752286E-011
  0.28183829312644548        1.5616153462016622E-011
  0.31622776601683794        1.5344371571895284E-011
  0.35481338923357530        1.5096517574516482E-011
  0.39810717055349693        1.4872831153160108E-011
  0.44668359215096348        1.4673586851068269E-011
  0.50118723362727247        1.4499107288269774E-011
  0.56234132519034907        1.4349776789148230E-011
  0.63095734448019303        1.4226055605040706E-011
  0.70794578438413736        1.4128494944742163E-011
  0.79432823472428216        1.4057753058360532E-011
  0.89125093813374590        1.4014612657642797E-011
   1.0000000000000000        1.4000000000000005E-011
