   1.0000000000000006E-005   117.00000000000001     
   1.1220184543019630E-005   81.460859004984428     
   1.2589254117941661E-005   56.676082585827864     
   1.4125375446227555E-005   39.403903522698009     
   1.5848931924611141E-005   27.375882073365013     
   1.7782794100389229E-005   19.005850799820458     
   1.9952623149688786E-005   13.185533240850360     
   2.2387211385683379E-005   9.1411352877528902     
   2.5118864315095822E-005   6.3327960183918588     
   2.8183829312644549E-005   4.3841424317646291     
   3.1622776601683795E-005   3.0329724915824618     
   3.5481338923357534E-005   2.0967556243072472     
   3.9810717055349695E-005   1.4485168749283679     
   4.4668359215096348E-005  0.99999209449499038     
   5.0118723362727251E-005  0.68987071219759732     
   5.6234132519034907E-005  0.47559562458841309     
   6.3095734448019293E-005  0.32764825781887486     
   7.0794578438413731E-005  0.22556858414516948     
   7.9432823472428221E-005  0.15518543939060669     
   8.9125093813374588E-005  0.10669051246727305     
   1.0000000000000005E-004   7.3300000000000004E-002
   1.1220184543019630E-004   5.0427693048055167E-002
   1.2589254117941674E-004   3.4794973640891264E-002
   1.4125375446227541E-004   2.4063824986746068E-002
   1.5848931924611142E-004   1.6669861759940997E-002
   1.7782794100389227E-004   1.1559444864488551E-002
   1.9952623149688788E-004   8.0185907940585905E-003
   2.2387211385683400E-004   5.5607538354635238E-003
   2.5118864315095795E-004   3.8526742211732615E-003
   2.8183829312644550E-004   2.6650315448937980E-003
   3.1622776601683794E-004   1.8393836554592069E-003
   3.5481338923357532E-004   1.2658744854842884E-003
   3.9810717055349735E-004   8.6811203336298467E-004
   4.4668359215096305E-004   5.9285182968196986E-004
   5.0118723362727253E-004   4.0292133428583522E-004
   5.6234132519034910E-004   2.7234319314024650E-004
   6.3095734448019298E-004   1.8295884150514163E-004
   7.0794578438413802E-004   1.2208135618898194E-004
   7.9432823472428131E-004   8.0857965147855261E-005
   8.9125093813374593E-004   5.3124180253927820E-005
   1.0000000000000002E-003   3.4599999999999974E-005
   1.1220184543019630E-003   2.1976210614805433E-005
   1.2589254117941675E-003   1.3445161618405578E-005
   1.4125375446227540E-003   7.9667657254311904E-006
   1.5848931924611141E-003   4.5969222505610984E-006
   1.7782794100389228E-003   2.5970939207883578E-006
   1.9952623149688789E-003   1.4444743358782591E-006
   2.2387211385683399E-003   7.9524321774732001E-007
   2.5118864315095794E-003   4.3573694001460012E-007
   2.8183829312644548E-003   2.3891825725605706E-007
   3.1622776601683794E-003   1.3180780962165141E-007
   3.5481338923357532E-003   7.3564127044486429E-008
   3.9810717055349734E-003   4.1762881758180177E-008
   4.4668359215096305E-003   2.4248258526618346E-008
   5.0118723362727246E-003   1.4477803010060694E-008
   5.6234132519034910E-003   8.9376445587261983E-009
   6.3095734448019303E-003   5.7359861487686082E-009
   7.0794578438413804E-003   3.8479019714477826E-009
   7.9432823472428138E-003   2.7129206295624457E-009
   8.9125093813374589E-003   2.0212203014284312E-009
   1.0000000000000002E-002   1.6000000000000009E-009
   1.1220184543019630E-002   1.3150207222276606E-009
   1.2589254117941675E-002   1.0921928826919407E-009
   1.4125375446227540E-002   9.1620680101662358E-010
   1.5848931924611141E-002   7.7586899250651295E-010
   1.7782794100389229E-002   6.6291414719798080E-010
   1.9952623149688788E-002   5.7118063909246762E-010
   2.2387211385683399E-002   4.9603264531018682E-010
   2.5118864315095794E-002   4.3395123011488694E-010
   2.8183829312644550E-002   3.8224231487587146E-010
   3.1622776601683791E-002   3.3882626434197019E-010
   3.5481338923357530E-002   3.0208497903965738E-010
   3.9810717055349734E-002   2.7074986207941927E-010
   4.4668359215096300E-002   2.4381908613197738E-010
   5.0118723362727248E-002   2.2049603680776376E-010
   5.6234132519034911E-002   2.0014318288071766E-010
   6.3095734448019303E-002   1.8224727091617915E-010
   7.0794578438413802E-002   1.6639289363087570E-010
   7.9432823472428138E-002   1.5224229284560801E-010
   8.9125093813374592E-002   1.3951983388642810E-010
  0.10000000000000001        1.2800000000000013E-010
  0.11220184543019630        1.1754243593034514E-010
  0.12589254117941662        1.0807400077968714E-010
  0.14125375446227553        9.9506994414603768E-011
  0.15848931924611143        9.1760514236333567E-011
  0.17782794100389229        8.4760191966541081E-011
  0.19952623149688789        7.8437889540560855E-011
  0.22387211385683378        7.2731368009980198E-011
  0.25118864315095824        6.7583941037919376E-011
  0.28183829312644548        6.2944122500552198E-011
  0.31622776601683794        5.8765275889636743E-011
  0.35481338923357530        5.5005271637499060E-011
  0.39810717055349693        5.1626157146845825E-011
  0.44668359215096348        4.8593843188224333E-011
  0.50118723362727247        4.5877809411275444E-011
  0.56234132519034907        4.3450830984928689E-011
  0.63095734448019303        4.1288727819784799E-011
  0.70794578438413736        3.9370137417890622E-011
  0.79432823472428216        3.7676312127941476E-011
  0.89125093813374590        3.6190941447376789E-011
   1.0000000000000000        3.4899999999999984E-011
