   1.0000000000000006E-005   9.8599999999999994     
   1.1220184543019630E-005   7.6360308437733533     
   1.2589254117941661E-005   5.8861871606971903     
   1.4125375446227555E-005   4.5165868752976133     
   1.5848931924611141E-005   3.4500933906933291     
   1.7782794100389229E-005   2.6237943340111229     
   1.9952623149688786E-005   1.9867419327586477     
   2.2387211385683379E-005   1.4979597016076223     
   2.5118864315095822E-005   1.1247087638892033     
   2.8183829312644549E-005  0.84099919416906044     
   3.1622776601683795E-005  0.62632667021319222     
   3.5481338923357534E-005  0.46461190067676461     
   3.9810717055349695E-005  0.34331922786219760     
   4.4668359215096348E-005  0.25273103226922922     
   5.0118723362727251E-005  0.18535569577232330     
   5.6234132519034907E-005  0.13544859209249724     
   6.3095734448019293E-005   9.8627613075471701E-002
   7.0794578438413731E-005   7.1566914311412475E-002
   7.9432823472428221E-005   5.1754733714324763E-002
   8.9125093813374588E-005   3.7303205632809075E-002
   1.0000000000000005E-004   2.6799999999999994E-002
   1.1220184543019630E-004   1.9216738230758982E-002
   1.2589254117941674E-004   1.3763751120838993E-002
   1.4125375446227541E-004   9.8407678654531781E-003
   1.5848931924611142E-004   7.0190605066927075E-003
   1.7782794100389227E-004   4.9912530734370899E-003
   1.9952623149688788E-004   3.5362550740868294E-003
   2.2387211385683400E-004   2.4946162567363829E-003
   2.5118864315095795E-004   1.7511077388142136E-003
   2.8183829312644550E-004   1.2223447852531336E-003
   3.1622776601683794E-004   8.4794776811791318E-004
   3.5481338923357532E-004   5.8420030898368889E-004
   3.9810717055349735E-004   3.9947954804703142E-004
   4.4668359215096305E-004   2.7095064363308802E-004
   5.0118723362727253E-004   1.8216774264751952E-004
   5.6234132519034910E-004   1.2132804567108276E-004
   6.3095734448019298E-004   7.9998555671135504E-005
   7.0794578438413802E-004   5.2186370320928346E-005
   7.9432823472428131E-004   3.3659590030397097E-005
   8.9125093813374593E-004   2.1451621224335809E-005
   1.0000000000000002E-003   1.3499999999999986E-005
   1.1220184543019630E-003   8.1285665984531759E-006
   1.2589254117941675E-003   4.5682282569460890E-006
   1.4125375446227540E-003   2.4193703153177895E-006
   1.5848931924611141E-003   1.2191151288766574E-006
   1.7782794100389228E-003   5.9012227998916783E-007
   1.9952623149688789E-003   2.7705201757747701E-007
   2.2387211385683399E-003   1.2737075818142761E-007
   2.5118864315095794E-003   5.7894106916887559E-008
   2.8183829312644548E-003   2.6267714565600797E-008
   3.1622776601683794E-003   1.2011593314704080E-008
   3.5481338923357532E-003   5.5890301044009674E-009
   3.9810717055349734E-003   2.6717564908602990E-009
   4.4668359215096305E-003   1.3247959418580825E-009
   5.0118723362727246E-003   6.8795478145250835E-010
   5.6234132519034910E-003   3.7774322423422372E-010
   6.3095734448019303E-003   2.2142489849206464E-010
   7.0794578438413804E-003   1.3989954568959175E-010
   7.9432823472428138E-003   9.6190754082800548E-011
   8.9125093813374589E-003   7.2668237451609714E-011
   1.0000000000000002E-002   6.0899999999999978E-011
   1.1220184543019630E-002   5.4096569839894123E-011
   1.2589254117941675E-002   4.8350771948904859E-011
   1.4125375446227540E-002   4.3477048997585315E-011
   1.5848931924611141E-002   3.9326145480503808E-011
   1.7782794100389229E-002   3.5777426197174544E-011
   1.9952623149688788E-002   3.2732932259146967E-011
   2.2387211385683399E-002   3.0112758905017554E-011
   2.5118864315095794E-002   2.7851443845679197E-011
   2.8183829312644550E-002   2.5895131905979378E-011
   3.1622776601683791E-002   2.4199338845532962E-011
   3.5481338923357530E-002   2.2727179791305345E-011
   3.9810717055349734E-002   2.1447959564148153E-011
   4.4668359215096300E-002   2.0336046133098113E-011
   5.0118723362727248E-002   1.9369966525934106E-011
   5.6234132519034911E-002   1.8531678255681420E-011
   6.3095734448019303E-002   1.7805979788381900E-011
   7.0794578438413802E-002   1.7180031588308346E-011
   7.9432823472428138E-002   1.6642965434331682E-011
   8.9125093813374592E-002   1.6185564453464941E-011
  0.10000000000000001        1.5800000000000016E-011
  0.11220184543019630        1.5455608351445259E-011
  0.12589254117941662        1.5126573754913370E-011
  0.14125375446227553        1.4813209941499638E-011
  0.15848931924611143        1.4515788293584323E-011
  0.17782794100389229        1.4234545586526371E-011
  0.19952623149688789        1.3969691628302877E-011
  0.22387211385683378        1.3721416799983908E-011
  0.25118864315095824        1.3489899509817639E-011
  0.28183829312644548        1.3275313583310236E-011
  0.31622776601683794        1.3077835621121355E-011
  0.35481338923357530        1.2897652366008114E-011
  0.39810717055349693        1.2734968129593118E-011
  0.44668359215096348        1.2590012339601523E-011
  0.50118723362727247        1.2463047278627465E-011
  0.56234132519034907        1.2354376096698590E-011
  0.63095734448019303        1.2264351192206410E-011
  0.70794578438413736        1.2193383069487063E-011
  0.79432823472428216        1.2141949796864233E-011
  0.89125093813374590        1.2110607206753257E-011
   1.0000000000000000        1.2100000000000018E-011
