   1.0000000000000006E-005   3.2499999999999996     
   1.1220184543019630E-005   2.5299652417470480     
   1.2589254117941661E-005   1.9606613625019624     
   1.4125375446227555E-005   1.5127945015664741     
   1.5848931924611141E-005   1.1621951626683127     
   1.7782794100389229E-005  0.88906279690111223     
   1.9952623149688786E-005  0.67728666943299976     
   2.2387211385683379E-005  0.51384460719470759     
   2.5118864315095822E-005  0.38827795314578617     
   2.8183829312644549E-005  0.29223873679112045     
   3.1622776601683795E-005  0.21910355431745837     
   3.5481338923357534E-005  0.16364778163133611     
   3.9810717055349695E-005  0.12177337689332758     
   4.4668359215096348E-005   9.0283538604665647E-002
   5.0118723362727251E-005   6.6697761749914583E-002
   5.6234132519034907E-005   4.9101287542747653E-002
   6.3095734448019293E-005   3.6023499679912113E-002
   7.0794578438413731E-005   2.6340425967259079E-002
   7.9432823472428221E-005   1.9197117544364862E-002
   8.9125093813374588E-005   1.3946269753043146E-002
   1.0000000000000005E-004   1.0100000000000001E-002
   1.1220184543019630E-004   7.3027997680716545E-003
   1.2589254117941674E-004   5.2771759737141296E-003
   1.4125375446227541E-004   3.8085041358705174E-003
   1.5848931924611142E-004   2.7431178481861895E-003
   1.7782794100389227E-004   1.9704625587233164E-003
   1.9952623149688788E-004   1.4106591911413808E-003
   2.2387211385683400E-004   1.0057793637135055E-003
   2.5118864315095795E-004   7.1368496572109198E-004
   2.8183829312644550E-004   5.0365145497565668E-004
   3.1622776601683794E-004   3.5323998899127991E-004
   3.5481338923357532E-004   2.4604943080609276E-004
   3.9810717055349735E-004   1.7009208584180320E-004
   4.4668359215096305E-004   1.1661424285380899E-004
   5.0118723362727253E-004   7.9235780837075414E-005
   5.6234132519034910E-004   5.3319964328062765E-005
   6.3095734448019298E-004   3.5510241737985380E-005
   7.0794578438413802E-004   2.3388867064904962E-005
   7.9432823472428131E-004   1.5224850188283571E-005
   8.9125093813374593E-004   9.7877228556477277E-006
   1.0000000000000002E-003   6.2099999999999973E-006
   1.1220184543019630E-003   3.7645101107115866E-006
   1.2589254117941675E-003   2.1257087810551073E-006
   1.4125375446227540E-003   1.1291270405247273E-006
   1.5848931924611141E-003   5.6975861995698551E-007
   1.7782794100389228E-003   2.7581213334239876E-007
   1.9952623149688789E-003   1.2935270325149386E-007
   2.2387211385683399E-003   5.9352995379755295E-008
   2.5118864315095794E-003   2.6907916809203762E-008
   2.8183829312644548E-003   1.2171752857825411E-008
   3.1622776601683794E-003   5.5478805435624820E-009
   3.5481338923357532E-003   2.5731631029453858E-009
   3.9810717055349734E-003   1.2264195917261682E-009
   4.4668359215096305E-003   6.0660740303145620E-010
   5.0118723362727246E-003   3.1444052068517344E-010
   5.6234132519034910E-003   1.7250305606675115E-010
   6.3095734448019303E-003   1.0114580567981610E-010
   7.0794578438413804E-003   6.4011362702437645E-011
   7.9432823472428138E-003   4.4155996396721607E-011
   8.9125093813374589E-003   3.3528261842829678E-011
   1.0000000000000002E-002   2.8300000000000028E-011
   1.1220184543019630E-002   2.5339495017608616E-011
   1.2589254117941675E-002   2.2816888945588449E-011
   1.4125375446227540E-002   2.0659523054162238E-011
   1.5848931924611141E-002   1.8808232313754134E-011
   1.7782794100389229E-002   1.7214639539515175E-011
   1.9952623149688788E-002   1.5839030204195385E-011
   2.2387211385683399E-002   1.4648676165970340E-011
   2.5118864315095794E-002   1.3616507959936262E-011
   2.8183829312644550E-002   1.2720058889258027E-011
   3.1622776601683791E-002   1.1940621946079813E-011
   3.5481338923357530E-002   1.1262574073306500E-011
   3.9810717055349734E-002   1.0672832534442278E-011
   4.4668359215096300E-002   1.0160415993347060E-011
   5.0118723362727248E-002   9.7160889148722040E-012
   5.6234132519034911E-002   9.3320725244895489E-012
   6.3095734448019303E-002   9.0018091418908887E-012
   7.0794578438413802E-002   8.7197694790407807E-012
   7.9432823472428138E-002   8.4812946548852887E-012
   8.9125093813374592E-002   8.2824663687377378E-012
  0.10000000000000001        8.1199999999999953E-012
  0.11220184543019630        7.9778884563693250E-012
  0.12589254117941662        7.8421100968328244E-012
  0.14125375446227553        7.7127710459433789E-012
  0.15848931924611143        7.5899682189642796E-012
  0.17782794100389229        7.4737914204461734E-012
  0.19952623149688789        7.3643254301098494E-012
  0.22387211385683378        7.2616520796728384E-012
  0.25118864315095824        7.1658523261087342E-012
  0.28183829312644548        7.0770083286730210E-012
  0.31622776601683794        6.9952055388876022E-012
  0.35481338923357530        6.9205348145735562E-012
  0.39810717055349693        6.8530945709869935E-012
  0.44668359215096348        6.7929929841780712E-012
  0.50118723362727247        6.7403502638963598E-012
  0.56234132519034907        6.6953010157486894E-012
  0.63095734448019303        6.6579967149262260E-012
  0.70794578438413736        6.6286083167115131E-012
  0.79432823472428216        6.6073290322151715E-012
  0.89125093813374590        6.5943773014489047E-012
   1.0000000000000000        6.5900000000000105E-012
