   1.0000000000000006E-005   24.799999999999994     
   1.1220184543019630E-005   18.684326658707477     
   1.2589254117941661E-005   14.023199671332542     
   1.4125375446227555E-005   10.485365447414514     
   1.5848931924611141E-005   7.8110551520153795     
   1.7782794100389229E-005   5.7976021257453905     
   1.9952623149688786E-005   4.2876820495011891     
   2.2387211385683379E-005   3.1597672418443765     
   2.5118864315095822E-005   2.3204320591833265     
   2.8183829312644549E-005   1.6981918757278474     
   3.1622776601683795E-005   1.2386017500757067     
   3.5481338923357534E-005  0.90038145233365219     
   3.9810717055349695E-005  0.65237033257364041     
   4.4668359215096348E-005  0.47114823535336792     
   5.0118723362727251E-005  0.33918725883320799     
   5.6234132519034907E-005  0.24342376660664131     
   6.3095734448019293E-005  0.17416095785540958     
   7.0794578438413731E-005  0.12422983287683385     
   7.9432823472428221E-005   8.8350936841662536E-002
   8.9125093813374588E-005   6.2651211027176038E-002
   1.0000000000000005E-004   4.4299999999999999E-002
   1.1220184543019630E-004   3.1284630759373308E-002
   1.2589254117941674E-004   2.2090334969756775E-002
   1.4125375446227541E-004   1.5585872736345532E-002
   1.5848931924611142E-004   1.0980727206567399E-002
   1.7782794100389227E-004   7.7199738212514720E-003
   1.9952623149688788E-004   5.4125123083787682E-003
   2.2387211385683400E-004   3.7817594995487496E-003
   2.5118864315095795E-004   2.6315671237360453E-003
   2.8183829312644550E-004   1.8225276663713813E-003
   3.1622776601683794E-004   1.2554127507017011E-003
   3.5481338923357532E-004   8.5953836254330329E-004
   3.9810717055349735E-004   5.8455302716384184E-004
   4.4668359215096305E-004   3.9461726183732829E-004
   5.0118723362727253E-004   2.6426238807668279E-004
   5.6234132519034910E-004   1.7543463568945336E-004
   6.3095734448019298E-004   1.1537975882978537E-004
   7.0794578438413802E-004   7.5126267747003116E-005
   7.9432823472428131E-004   4.8396671727344025E-005
   8.9125093813374593E-004   3.0825793825710214E-005
   1.0000000000000002E-003   1.9400000000000018E-005
   1.1220184543019630E-003   1.1729837278611776E-005
   1.2589254117941675E-003   6.6665476248080944E-006
   1.4125375446227540E-003   3.5924859060979748E-006
   1.5848931924611141E-003   1.8515719626393893E-006
   1.7782794100389228E-003   9.2066980940879779E-007
   1.9952623149688789E-003   4.4550372412377996E-007
   2.2387211385683399E-003   2.1161636674574621E-007
   2.5118864315095794E-003   9.9532289491295769E-008
   2.8183829312644548E-003   4.6758643907649117E-008
   3.1622776601683794E-003   2.2131423093682751E-008
   3.5481338923357532E-003   1.0645661235959053E-008
   3.9810717055349734E-003   5.2495026385250190E-009
   4.4668359215096305E-003   2.6767772784076924E-009
   5.0118723362727246E-003   1.4237089850600458E-009
   5.6234132519034910E-003   7.9673055323740787E-010
   6.3095734448019303E-003   4.7320499764477704E-010
   7.0794578438413804E-003   3.0088540746463089E-010
   7.9432823472428138E-003   2.0660138470048889E-010
   8.9125093813374589E-003   1.5452970562756139E-010
   1.0000000000000002E-002   1.2700000000000010E-010
   1.1220184543019630E-002   1.1015820848159007E-010
   1.2589254117941675E-002   9.6288977204033916E-011
   1.4125375446227540E-002   8.4795799147741364E-011
   1.5848931924611141E-002   7.5214512455254746E-011
   1.7782794100389229E-002   6.7181544498141975E-011
   1.9952623149688788E-002   6.0410279357275256E-011
   2.2387211385683399E-002   5.4673353566991352E-011
   2.5118864315095794E-002   4.9789306968696543E-011
   2.8183829312644550E-002   4.5612453730607527E-011
   3.1622776601683791E-002   4.2025149395687152E-011
   3.5481338923357530E-002   3.8931851707676075E-011
   3.9810717055349734E-002   3.6254532388408579E-011
   4.4668359215096300E-002   3.3929112299677717E-011
   5.0118723362727248E-002   3.1902676263243872E-011
   5.6234132519034911E-002   3.0131285162677846E-011
   6.3095734448019303E-002   2.8578248106174696E-011
   7.0794578438413802E-002   2.7212750855576527E-011
   7.9432823472428138E-002   2.6008761609372249E-011
   8.9125093813374592E-002   2.4944153852232262E-011
  0.10000000000000001        2.4000000000000017E-011
  0.11220184543019630        2.3130378876596661E-011
  0.12589254117941662        2.2301668897100787E-011
  0.14125375446227553        2.1515139945118705E-011
  0.15848931924611143        2.0771710605949227E-011
  0.17782794100389229        2.0072002848195498E-011
  0.19952623149688789        1.9416394941450633E-011
  0.22387211385683378        1.8805072292292428E-011
  0.25118864315095824        1.8238076049084155E-011
  0.28183829312644548        1.7715349478222776E-011
  0.31622776601683794        1.7236782252029832E-011
  0.35481338923357530        1.6802252913783664E-011
  0.39810717055349693        1.6411669901497497E-011
  0.44668359215096348        1.6065011622624975E-011
  0.50118723362727247        1.5762366181220223E-011
  0.56234132519034907        1.5503971472133668E-011
  0.63095734448019303        1.5290256479267793E-011
  0.70794578438413736        1.5121884753340917E-011
  0.79432823472428216        1.4999801206761899E-011
  0.89125093813374590        1.4925283558351726E-011
   1.0000000000000000        1.4900000000000031E-011
