   1.0000000000000006E-005   7730.0000000000009     
   1.1220184543019630E-005   6061.9896268297452     
   1.2589254117941661E-005   4735.3469196824735     
   1.4125375446227555E-005   3684.8163839386102     
   1.5848931924611141E-005   2856.4975647940846     
   1.7782794100389229E-005   2206.1362996715111     
   1.9952623149688786E-005   1697.6095830511765     
   2.2387211385683379E-005   1301.5978134794027     
   2.5118864315095822E-005   994.43370679731993     
   2.8183829312644549E-005   757.11424230173941     
   3.1622776601683795E-005   574.46036249443716     
   3.5481338923357534E-005   434.40849750622164     
   3.9810717055349695E-005   327.41808740560504     
   4.4668359215096348E-005   245.97991849235444     
   5.0118723362727251E-005   184.21109718893811     
   5.6234132519034907E-005   137.52371468696640     
   6.3095734448019293E-005   102.35559536820995     
   7.0794578438413731E-005   75.952887826767949     
   7.9432823472428221E-005   56.195588095709326     
   8.9125093813374588E-005   41.458338855845376     
   1.0000000000000005E-004   30.500000000000004     
   1.1220184543019630E-004   22.379119949702751     
   1.2589254117941674E-004   16.376960013188906     
   1.4125375446227541E-004   11.950047307849713     
   1.5848931924611142E-004   8.6926249770673536     
   1.7782794100389227E-004   6.3019677544898585     
   1.9952623149688788E-004   4.5524402648590767     
   2.2387211385683400E-004   3.2760770891265385     
   2.5118864315095795E-004   2.3480356054310247     
   2.8183829312644550E-004   1.6756946551652008     
   3.1622776601683794E-004   1.1904842734684411     
   3.5481338923357532E-004  0.84176321748609551     
   3.9810717055349735E-004  0.59223307933529479     
   4.4668359215096305E-004  0.41450592699071637     
   5.0118723362727253E-004  0.28853807266510806     
   5.6234132519034910E-004  0.19971410473778020     
   6.3095734448019298E-004  0.13741891346104781     
   7.0794578438413802E-004   9.3975658071222781E-002
   7.9432823472428131E-004   6.3857845976987557E-002
   8.9125093813374593E-004   4.3106435302882627E-002
   1.0000000000000002E-003   2.8899999999999995E-002
   1.1220184543019630E-003   1.8931808212697236E-002
   1.2589254117941675E-003   1.1963362798959258E-002
   1.4125375446227540E-003   7.3292065121745289E-003
   1.5848931924611141E-003   4.3750068540518161E-003
   1.7782794100389228E-003   2.5573737023281895E-003
   1.9952623149688789E-003   1.4712243879759373E-003
   2.2387211385683399E-003   8.3716002836129399E-004
   2.5118864315095794E-003   4.7354197994174994E-004
   2.8183829312644548E-003   2.6761133542833155E-004
   3.1622776601683794E-003   1.5185256344231611E-004
   3.5481338923357532E-003   8.6953474026159422E-005
   3.9810717055349734E-003   5.0498039864145388E-005
   4.4668359215096305E-003   2.9892377719168495E-005
   5.0118723362727246E-003   1.8126766665063156E-005
   5.6234132519034910E-003   1.1316959321188886E-005
   6.3095734448019303E-003   7.3107894693489998E-006
   7.0794578438413804E-003   4.9113343151508167E-006
   7.9432823472428138E-003   3.4483473040412562E-006
   8.9125093813374589E-003   2.5431640104596159E-006
   1.0000000000000002E-002   1.9799999999999993E-006
   1.1220184543019630E-002   1.5966328014487460E-006
   1.2589254117941675E-002   1.3032817104395015E-006
   1.4125375446227540E-002   1.0760307954125321E-006
   1.5848931924611141E-002   8.9789178457901252E-007
   1.7782794100389229E-002   7.5665157839951759E-007
   1.9952623149688788E-002   6.4342848632300103E-007
   2.2387211385683399E-002   5.5169211167103657E-007
   2.5118864315095794E-002   4.7659025980625461E-007
   2.8183829312644550E-002   4.1448154563182388E-007
   3.1622776601683791E-002   3.6260737593864416E-007
   3.5481338923357530E-002   3.1885939535424772E-007
   3.9810717055349734E-002   2.8161300169795078E-007
   4.4668359215096300E-002   2.4960704267655427E-007
   5.0118723362727248E-002   2.2185609668688864E-007
   5.6234132519034911E-002   1.9758594613024717E-007
   6.3095734448019303E-002   1.7618569115078079E-007
   7.0794578438413802E-002   1.5717188751235838E-007
   7.9432823472428138E-002   1.4016142492789800E-007
   8.9125093813374592E-002   1.2485078882114252E-007
  0.10000000000000001        1.1100000000000004E-007
  0.11220184543019630        9.8635402481518747E-008
  0.12589254117941662        8.7775490951468967E-008
  0.14125375446227553        7.8229195440976070E-008
  0.15848931924611143        6.9830340008507837E-008
  0.17782794100389229        6.2434364049208364E-008
  0.19952623149688789        5.5915474824078937E-008
  0.22387211385683378        5.0164175361251265E-008
  0.25118864315095824        4.5085118880223345E-008
  0.28183829312644548        4.0595247063158380E-008
  0.31622776601683794        3.6622174932008733E-008
  0.35481338923357530        3.3102789866165216E-008
  0.39810717055349693        2.9982036485452881E-008
  0.44668359215096348        2.7211862793882922E-008
  0.50118723362727247        2.4750306190523854E-008
  0.56234132519034907        2.2560700759113035E-008
  0.63095734448019303        2.0610989695951474E-008
  0.70794578438413736        1.8873128869407505E-008
  0.79432823472428216        1.7322569362491651E-008
  0.89125093813374590        1.5937808466607325E-008
   1.0000000000000000        1.4700000000000013E-008
