   1.0000000000000006E-005   601.99999999999977     
   1.1220184543019630E-005   478.43087119140392     
   1.2589254117941661E-005   378.06363891413349     
   1.4125375446227555E-005   297.08737898786495     
   1.5848931924611141E-005   232.18151327430388     
   1.7782794100389229E-005   180.48693986043929     
   1.9952623149688786E-005   139.56907513982148     
   2.2387211385683379E-005   107.37630635567383     
   2.5118864315095822E-005   82.196651790902763     
   2.8183829312644549E-005   62.614766702455043     
   3.1622776601683795E-005   47.470843092379845     
   3.5481338923357534E-005   35.822445264522898     
   3.9810717055349695E-005   26.909906027081014     
   4.4668359215096348E-005   20.125578419479485     
   5.0118723362727251E-005   14.986988133631721     
   5.6234132519034907E-005   11.113752584009379     
   6.3095734448019293E-005   8.2080126929517885     
   7.0794578438413731E-005   6.0380515262697925     
   7.9432823472428221E-005   4.4247391853836664     
   8.9125093813374588E-005   3.2304362149542176     
   1.0000000000000005E-004   2.3500000000000001     
   1.1220184543019630E-004   1.7005241163794655     
   1.2589254117941674E-004   1.2220876099936175     
   1.4125375446227541E-004  0.87238674457786558     
   1.5848931924611142E-004  0.61870767742371668     
   1.7782794100389227E-004  0.43602786146272693     
   1.9952623149688788E-004  0.30540618215607357     
   2.2387211385683400E-004  0.21264678115963709     
   2.5118864315095795E-004  0.14721083196808060     
   2.8183829312644550E-004  0.10134521411607895     
   3.1622776601683794E-004   6.9395579083248435E-002
   3.5481338923357532E-004   4.7272438399703659E-002
   3.9810717055349735E-004   3.2041615499239701E-002
   4.4668359215096305E-004   2.1613921149176013E-002
   5.0118723362727253E-004   1.4512693987324968E-002
   5.6234132519034910E-004   9.7015335213275385E-003
   6.3095734448019298E-004   6.4579276272697678E-003
   7.0794578438413802E-004   4.2814310237604446E-003
   7.9432823472428131E-004   2.8275499221754883E-003
   8.9125093813374593E-004   1.8605430420768228E-003
   1.0000000000000002E-003   1.2200000000000004E-003
   1.1220184543019630E-003   7.8396191299151020E-004
   1.2589254117941675E-003   4.8701880637352192E-004
   1.4125375446227540E-003   2.9394026163085963E-004
   1.5848931924611141E-003   1.7321358053372000E-004
   1.7782794100389228E-003   1.0015237720998100E-004
   1.9952623149688789E-003   5.7101035903096449E-005
   2.2387211385683399E-003   3.2260942858514231E-005
   2.5118864315095794E-003   1.8151286446085967E-005
   2.8183829312644548E-003   1.0220731807171329E-005
   3.1622776601683794E-003   5.7882561776729828E-006
   3.5481338923357532E-003   3.3132301643644673E-006
   3.9810717055349734E-003   1.9263736200136490E-006
   4.4668359215096305E-003   1.1433032366494253E-006
   5.0118723362727246E-003   6.9608340542390308E-007
   5.6234132519034910E-003   4.3690499137905773E-007
   6.3095734448019303E-003   2.8410936710530054E-007
   7.0794578438413804E-003   1.9235516904330144E-007
   7.9432823472428138E-003   1.3626642873420660E-007
   8.9125093813374589E-003   1.0150502273394915E-007
   1.0000000000000002E-002   7.9899999999999968E-008
   1.1220184543019630E-002   6.5161220590701005E-008
   1.2589254117941675E-002   5.3775775638093645E-008
   1.4125375446227540E-002   4.4875574953544595E-008
   1.5848931924611141E-002   3.7838165162250360E-008
   1.7782794100389229E-002   3.2211996319852124E-008
   1.9952623149688788E-002   2.7665821607135121E-008
   2.2387211385683399E-002   2.3954035696740283E-008
   2.5118864315095794E-002   2.0892664532000333E-008
   2.8183829312644550E-002   1.8342554472515455E-008
   3.1622776601683791E-002   1.6197481089049534E-008
   3.5481338923357530E-002   1.4375655369877545E-008
   3.9810717055349734E-002   1.2813599947876759E-008
   4.4668359215096300E-002   1.1461694673156693E-008
   5.0118723362727248E-002   1.0280908772314432E-008
   5.6234132519034911E-002   9.2403836139421443E-009
   6.3095734448019303E-002   8.3156299030258839E-009
   7.0794578438413802E-002   7.4871716191930978E-009
   7.9432823472428138E-002   6.7395164567035726E-009
   8.9125093813374592E-002   6.0603657083485975E-009
  0.10000000000000001        5.4400000000000060E-009
  0.11220184543019630        4.8808620871458249E-009
  0.12589254117941662        4.3852675532724863E-009
  0.14125375446227553        3.9456952855588673E-009
  0.15848931924611143        3.5555340673695154E-009
  0.17782794100389229        3.2089722774605706E-009
  0.19952623149688789        2.9009007597684546E-009
  0.22387211385683378        2.6268273516253864E-009
  0.25118864315095824        2.3828017190831943E-009
  0.28183829312644548        2.1653492942879195E-009
  0.31622776601683794        1.9714132423603606E-009
  0.35481338923357530        1.7983035048868873E-009
  0.39810717055349693        1.6436520748280786E-009
  0.44668359215096348        1.5053737543294628E-009
  0.50118723362727247        1.3816317334767189E-009
  0.56234132519034907        1.2708074053541140E-009
  0.63095734448019303        1.1714739016790008E-009
  0.70794578438413736        1.0823728945907446E-009
  0.79432823472428216        1.0023942646127487E-009
  0.89125093813374590        9.3055828307290787E-010
   1.0000000000000000        8.6600000000000032E-010
