   1.0000000000000006E-005   596.00000000000011     
   1.1220184543019630E-005   480.72758644797676     
   1.2589254117941661E-005   385.32137224958575     
   1.4125375446227555E-005   306.95833371914364     
   1.5848931924611141E-005   243.06870338795494     
   1.7782794100389229E-005   191.35197695529305     
   1.9952623149688786E-005   149.77942692157569     
   2.2387211385683379E-005   116.58634461603418     
   2.5118864315095822E-005   90.256923436969032     
   2.8183829312644549E-005   69.504303003002121     
   3.1622776601683795E-005   53.247864431720878     
   3.5481338923357534E-005   40.589438191364586     
   3.9810717055349695E-005   30.789684427349158     
   4.4668359215096348E-005   23.245548354924150     
   5.0118723362727251E-005   17.469389253410402     
   5.6234132519034907E-005   13.070133550659833     
   6.3095734448019293E-005   9.7366086356349584     
   7.0794578438413731E-005   7.2230695400204032     
   7.9432823472428221E-005   5.3368289094793413     
   8.9125093813374588E-005   3.9278344479668972     
   1.0000000000000005E-004   2.8799999999999999     
   1.1220184543019630E-004   2.0999726642412018     
   1.2589254117941674E-004   1.5199750392349396     
   1.4125375446227541E-004   1.0922776250923500     
   1.5848931924611142E-004  0.77942708085098711     
   1.7782794100389227E-004  0.55237742729078221     
   1.9952623149688788E-004  0.38885388186537934     
   2.2387211385683400E-004  0.27195631278423765     
   2.5118864315095795E-004  0.18899318556057512     
   2.8183829312644550E-004  0.13052675687861803     
   3.1622776601683794E-004   8.9604837515153773E-002
   3.5481338923357532E-004   6.1152466518574658E-002
   3.9810717055349735E-004   4.1497240605486298E-002
   4.4668359215096305E-004   2.8003949350823943E-002
   5.0118723362727253E-004   1.8796902039970302E-002
   5.6234132519034910E-004   1.2551403992906121E-002
   6.3095734448019298E-004   8.3389137198013642E-003
   7.0794578438413802E-004   5.5132780980505875E-003
   7.9432823472428131E-004   3.6279865779603633E-003
   8.9125093813374593E-004   2.3765606535813000E-003
   1.0000000000000002E-003   1.5499999999999997E-003
   1.1220184543019630E-003   9.8783633076157651E-004
   1.2589254117941675E-003   6.0593372003982704E-004
   1.4125375446227540E-003   3.5970152087515982E-004
   1.5848931924611141E-003   2.0779095906961495E-004
   1.7782794100389228E-003   1.1745416921225805E-004
   1.9952623149688789E-003   6.5321754118611856E-005
   2.2387211385683399E-003   3.5940577119977226E-005
   2.5118864315095794E-003   1.9671625895362189E-005
   2.8183829312644548E-003   1.0769949428303086E-005
   3.1622776601683794E-003   5.9305567220115848E-006
   3.5481338923357532E-003   3.3027511457331630E-006
   3.9810717055349734E-003   1.8704453468405723E-006
   4.4668359215096305E-003   1.0831613937138953E-006
   5.0118723362727246E-003   6.4492690559195410E-007
   5.6234132519034910E-003   3.9699696599767026E-007
   6.3095734448019303E-003   2.5404663345571113E-007
   7.0794578438413804E-003   1.6993367911255897E-007
   7.9432823472428138E-003   1.1947455755269753E-007
   8.9125093813374589E-003   8.8775177995840575E-008
   1.0000000000000002E-002   7.0100000000000052E-008
   1.1220184543019630E-002   5.7502468104326379E-008
   1.2589254117941675E-002   4.7703164089771900E-008
   1.4125375446227540E-002   3.9996148934943119E-008
   1.5848931924611141E-002   3.3870180846068113E-008
   1.7782794100389229E-002   2.8950979354942806E-008
   1.9952623149688788E-002   2.4961660200503561E-008
   2.2387211385683399E-002   2.1695326728289997E-008
   2.5118864315095794E-002   1.8995883669963243E-008
   2.8183829312644550E-002   1.6744471465326158E-008
   3.1622776601683791E-002   1.4849782054919991E-008
   3.5481338923357530E-002   1.3241081751900240E-008
   3.9810717055349734E-002   1.1863140202087045E-008
   4.4668359215096300E-002   1.0672513814526836E-008
   5.0118723362727248E-002   9.6348001849750425E-009
   5.6234132519034911E-002   8.7225944483503193E-009
   6.3095734448019303E-002   7.9139570399923166E-009
   7.0794578438413802E-002   7.1912567239026482E-009
   7.9432823472428138E-002   6.5402907042306642E-009
   8.9125093813374592E-002   5.9496103478706429E-009
  0.10000000000000001        5.4100000000000084E-009
  0.11220184543019630        4.9204509974269342E-009
  0.12589254117941662        4.4813591500791852E-009
  0.14125375446227553        4.0874723180969008E-009
  0.15848931924611143        3.7340761538640212E-009
  0.17782794100389229        3.4169437505887631E-009
  0.19952623149688789        3.1322891060501250E-009
  0.22387211385683378        2.8767242989176430E-009
  0.25118864315095824        2.6472202364021065E-009
  0.28183829312644548        2.4410708044355695E-009
  0.31622776601683794        2.2558602332291395E-009
  0.35481338923357530        2.0894334802554678E-009
  0.39810717055349693        1.9398694279984686E-009
  0.44668359215096348        1.8054566939564849E-009
  0.50118723362727247        1.6846718543115486E-009
  0.56234132519034907        1.5761598894930923E-009
  0.63095734448019303        1.4787166688274118E-009
  0.70794578438413736        1.3912733019708808E-009
  0.79432823472428216        1.3128821963915913E-009
  0.89125093813374590        1.2427046724148744E-009
   1.0000000000000000        1.1800000000000015E-009
