   1.0000000000000006E-005   24.599999999999998     
   1.1220184543019630E-005   18.554583191018867     
   1.2589254117941661E-005   13.940878751992127     
   1.4125375446227555E-005   10.434590290786888     
   1.5848931924611141E-005   7.7809103151197450     
   1.7782794100389229E-005   5.7806759849924152     
   1.9952623149688786E-005   4.2790120267830511     
   2.2387211385683379E-005   3.1560836246754116     
   2.5118864315095822E-005   2.3196211730058569     
   2.8183829312644549E-005   1.6989188962644144     
   3.1622776601683795E-005   1.2400485884752015     
   3.5481338923357534E-005  0.90206676734167135     
   3.9810717055349695E-005  0.65402755017002245     
   4.4668359215096348E-005  0.47264409160442578     
   5.0118723362727251E-005  0.34046831965139424     
   5.6234132519034907E-005  0.24448201577964809     
   6.3095734448019293E-005  0.17501219716804847     
   7.0794578438413731E-005  0.12490055214673373     
   7.9432823472428221E-005   8.8870678068804748E-002
   8.9125093813374588E-005   6.3048415468613631E-002
   1.0000000000000005E-004   4.4600000000000008E-002
   1.1220184543019630E-004   3.1508189151083936E-002
   1.2589254117941674E-004   2.2254516924479571E-002
   1.4125375446227541E-004   1.5704911682787721E-002
   1.5848931924611142E-004   1.1066030980803811E-002
   1.7782794100389227E-004   7.7804332006544165E-003
   1.9952623149688788E-004   5.4549107018032521E-003
   2.2387211385683400E-004   3.8111842055297035E-003
   2.5118864315095795E-004   2.6517777295602973E-003
   2.8183829312644550E-004   1.8362661963353224E-003
   3.1622776601683794E-004   1.2646546882887797E-003
   3.5481338923357532E-004   8.6569026322711753E-004
   3.9810717055349735E-004   5.8860482780054833E-004
   4.4668359215096305E-004   3.9725765673583968E-004
   5.0118723362727253E-004   2.6596492095297007E-004
   5.6234132519034910E-004   1.7652105998317480E-004
   6.3095734448019298E-004   1.1606605789875613E-004
   7.0794578438413802E-004   7.5555648828079132E-005
   7.9432823472428131E-004   4.8662912634132779E-005
   8.9125093813374593E-004   3.0989542941231488E-005
   1.0000000000000002E-003   1.9500000000000013E-005
   1.1220184543019630E-003   1.1788210386064332E-005
   1.2589254117941675E-003   6.6980647909112201E-006
   1.4125375446227540E-003   3.6083598281568747E-006
   1.5848931924611141E-003   1.8590890500110747E-006
   1.7782794100389228E-003   9.2404098650338955E-007
   1.9952623149688789E-003   4.4694470399013664E-007
   2.2387211385683399E-003   2.1220651051742441E-007
   2.5118864315095794E-003   9.9764674553313595E-008
   2.8183829312644548E-003   4.6846687095250753E-008
   3.1622776601683794E-003   2.2163370924644194E-008
   3.5481338923357532E-003   1.0656593821005127E-008
   3.9810717055349734E-003   5.2528803386117627E-009
   4.4668359215096305E-003   2.6775890847834284E-009
   5.0118723362727246E-003   1.4237328528700922E-009
   5.6234132519034910E-003   7.9656655917011942E-010
   6.3095734448019303E-003   4.7303736818672923E-010
   7.0794578438413804E-003   3.0075958354385065E-010
   7.9432823472428138E-003   2.0652135945119809E-010
   8.9125093813374589E-003   1.5449085640343465E-010
   1.0000000000000002E-002   1.2700000000000010E-010
   1.1220184543019630E-002   1.1019170389081936E-010
   1.2589254117941675E-002   9.6345956937434703E-011
   1.4125375446227540E-002   8.4869072637818905E-011
   1.5848931924611141E-002   7.5298917416651924E-011
   1.7782794100389229E-002   6.7273383225549611E-011
   1.9952623149688788E-002   6.0506915600549567E-011
   2.2387211385683399E-002   5.4772922878536963E-011
   2.5118864315095794E-002   4.9890507673693770E-011
   2.8183829312644550E-002   4.5714395477770998E-011
   3.1622776601683791E-002   4.2127243033885899E-011
   3.5481338923357530E-002   3.9033728959073721E-011
   3.9810717055349734E-002   3.6355987096968917E-011
   4.4668359215096300E-002   3.4030057362513181E-011
   5.0118723362727248E-002   3.2003111999953781E-011
   5.6234132519034911E-002   3.0231276049448465E-011
   6.3095734448019303E-002   2.8677905638454855E-011
   7.0794578438413802E-002   2.7312220903796394E-011
   7.9432823472428138E-002   2.6108215064967519E-011
   8.9125093813374592E-002   2.5043779674280954E-011
  0.10000000000000001        2.4100000000000048E-011
  0.11220184543019630        2.3230821948056805E-011
  0.12589254117941662        2.2402480597917627E-011
  0.14125375446227553        2.1616242714636093E-011
  0.15848931924611143        2.0873027026111404E-011
  0.17782794100389229        2.0173458364606314E-011
  0.19952623149688789        1.9517920075871958E-011
  0.22387211385683378        1.8906604384457283E-011
  0.25118864315095824        1.8339560569177292E-011
  0.28183829312644548        1.7816740952380898E-011
  0.31622776601683794        1.7338044842100195E-011
  0.35481338923357530        1.6903360689682837E-011
  0.39810717055349693        1.6512606840087071E-011
  0.44668359215096348        1.6165771361264844E-011
  0.50118723362727247        1.5862951547188588E-011
  0.56234132519034907        1.5604393800933046E-011
  0.63095734448019303        1.5390534725394315E-011
  0.70794578438413736        1.5222044386182792E-011
  0.79432823472428216        1.5099872871578102E-011
  0.89125093813374590        1.5025301467274593E-011
   1.0000000000000000        1.5000000000000003E-011
