   1.0000000000000006E-005   594.00000000000000     
   1.1220184543019630E-005   468.18060327197571     
   1.2589254117941661E-005   367.47580844951864     
   1.4125375446227555E-005   287.25153269811199     
   1.5848931924611141E-005   223.63723653705705     
   1.7782794100389229E-005   173.42189985591159     
   1.9952623149688786E-005   133.95894564706850     
   2.2387211385683379E-005   103.08069984612041     
   2.5118864315095822E-005   79.022497478962094     
   2.8183829312644549E-005   60.356187290317621     
   3.1622776601683795E-005   45.932532970804616     
   3.5481338923357534E-005   34.831842134851897     
   3.9810717055349695E-005   26.322057873151667     
   4.4668359215096348E-005   19.823506728982032     
   5.0118723362727251E-005   14.879497693444238     
   5.6234132519034907E-005   11.131997536040442     
   6.3095734448019293E-005   8.3016586934303618     
   7.0794578438413731E-005   6.1715391284767378     
   7.9432823472428221E-005   4.5739228783906025     
   8.9125093813374588E-005   3.3797208032316566     
   1.0000000000000005E-004   2.4900000000000002     
   1.1220184543019630E-004   1.8298158017057580     
   1.2589254117941674E-004   1.3413926868893717     
   1.4125375446227541E-004  0.98063415856624814     
   1.5848931924611142E-004  0.71469807118037221     
   1.7782794100389227E-004  0.51911634276624485     
   1.9952623149688788E-004  0.37566028148982405     
   2.2387211385683400E-004  0.27075490462544616     
   2.5118864315095795E-004  0.19429867914260784     
   2.8183829312644550E-004  0.13878349338396712     
   3.1622776601683794E-004   9.8637537442334777E-002
   3.5481338923357532E-004   6.9734076650220952E-002
   3.9810717055349735E-004   4.9023950361147435E-002
   4.4668359215096305E-004   3.4260520502688477E-002
   5.0118723362727253E-004   2.3793810662525769E-002
   5.6234132519034910E-004   1.6416494523851421E-002
   6.3095734448019298E-004   1.1248774716477568E-002
   7.0794578438413802E-004   7.6524476691982157E-003
   7.9432823472428131E-004   5.1668738962745656E-003
   8.9125093813374593E-004   3.4613832575067253E-003
   1.0000000000000002E-003   2.3000000000000008E-003
   1.1220184543019630E-003   1.4867372237006900E-003
   1.2589254117941675E-003   9.2076827419074864E-004
   1.4125375446227540E-003   5.4960748031215704E-004
   1.5848931924611141E-003   3.1806617240155260E-004
   1.7782794100389228E-003   1.7952349447123618E-004
   1.9952623149688789E-003   9.9412379820217463E-005
   2.2387211385683399E-003   5.4331465233207080E-005
   2.5118864315095794E-003   2.9480207611117502E-005
   2.8183829312644548E-003   1.5975491724573293E-005
   3.1622776601683794E-003   8.6975896037448723E-006
   3.5481338923357532E-003   4.7856504290884347E-006
   3.9810717055349734E-003   2.6770520763476579E-006
   4.4668359215096305E-003   1.5315206513341629E-006
   5.0118723362727246E-003   9.0139571410996370E-007
   5.6234132519034910E-003   5.4904901585817999E-007
   6.3095734448019303E-003   3.4816583054400520E-007
   7.0794578438413804E-003   2.3121551878396258E-007
   7.9432823472428138E-003   1.6176330833048629E-007
   8.9125093813374589E-003   1.1993658304211691E-007
   1.0000000000000002E-002   9.4799999999999949E-008
   1.1220184543019630E-002   7.7971415797191187E-008
   1.2589254117941675E-002   6.4850876837946523E-008
   1.4125375446227540E-002   5.4509516707072632E-008
   1.5848931924611141E-002   4.6272989085479792E-008
   1.7782794100389229E-002   3.9646442006361990E-008
   1.9952623149688788E-002   3.4262971174054082E-008
   2.2387211385683399E-002   2.9847822875389632E-008
   2.5118864315095794E-002   2.6193276627046547E-008
   2.8183829312644550E-002   2.3140845898006062E-008
   3.1622776601683791E-002   2.0568544382346117E-008
   3.5481338923357530E-002   1.8381693082699893E-008
   3.9810717055349734E-002   1.6506225897471891E-008
   4.4668359215096300E-002   1.4883774350644137E-008
   5.0118723362727248E-002   1.3468030337502063E-008
   5.6234132519034911E-002   1.2222034578327361E-008
   6.3095734448019303E-002   1.1116140841611063E-008
   7.0794578438413802E-002   1.0126477006501567E-008
   7.9432823472428138E-002   9.2337736868170712E-009
   8.9125093813374592E-002   8.4224661340080492E-009
  0.10000000000000001        7.6800000000000115E-009
  0.11220184543019630        7.0048457360336701E-009
  0.12589254117941662        6.3976360641712601E-009
  0.14125375446227553        5.8515215283027768E-009
  0.15848931924611143        5.3603250188186384E-009
  0.17782794100389229        4.9184832920424596E-009
  0.19952623149688789        4.5209922011662895E-009
  0.22387211385683378        4.1633556915798918E-009
  0.25118864315095824        3.8415385412034089E-009
  0.28183829312644548        3.5519227702159339E-009
  0.31622776601683794        3.2912676020982255E-009
  0.35481338923357530        3.0566728270533014E-009
  0.39810717055349693        2.8455453977300073E-009
  0.44668359215096348        2.6555690740669215E-009
  0.50118723362727247        2.4846769275233111E-009
  0.56234132519034907        2.3310265137040072E-009
  0.63095734448019303        2.1929775253362469E-009
  0.70794578438413736        2.0690717438203197E-009
  0.79432823472428216        1.9580151164104216E-009
  0.89125093813374590        1.8586617968974261E-009
   1.0000000000000000        1.7700000000000026E-009
