   1.0000000000000006E-005   96.500000000000014     
   1.1220184543019630E-005   66.787632396893301     
   1.2589254117941661E-005   46.203419389710270     
   1.4125375446227555E-005   31.949336915647550     
   1.5848931924611141E-005   22.083076119743367     
   1.7782794100389229E-005   15.256945880518956     
   1.9952623149688786E-005   10.536255290648615     
   2.2387211385683379E-005   7.2730392974683156     
   2.5118864315095822E-005   5.0183030045027355     
   2.8183829312644549E-005   3.4610625709558760     
   3.1622776601683795E-005   2.3860194098614684     
   3.5481338923357534E-005   1.6441853411829155     
   3.9810717055349695E-005   1.1325051269278144     
   4.4668359215096348E-005  0.77972689381842608     
   5.0118723362727251E-005  0.53660919507958615     
   5.6234132519034907E-005  0.36913675743493385     
   6.3095734448019293E-005  0.25382265880692817     
   7.0794578438413731E-005  0.17445672907566126     
   7.9432823472428221E-005  0.11985595853233186     
   8.9125093813374588E-005   8.2308829912997858E-002
   1.0000000000000005E-004   5.6499999999999995E-002
   1.1220184543019630E-004   3.8859553598671298E-002
   1.2589254117941674E-004   2.6829247213485497E-002
   1.4125375446227541E-004   1.8580337946696609E-002
   1.5848931924611142E-004   1.2897522479717856E-002
   1.7782794100389227E-004   8.9668449959608553E-003
   1.9952623149688788E-004   6.2391702573878589E-003
   2.2387211385683400E-004   4.3415113275906483E-003
   2.5118864315095795E-004   3.0189442156832403E-003
   2.8183829312644550E-004   2.0962467743619304E-003
   3.1622776601683794E-004   1.4523658120853856E-003
   3.5481338923357532E-004   1.0032959043102970E-003
   3.9810717055349735E-004   6.9051734941025483E-004
   4.4668359215096305E-004   4.7313579409821325E-004
   5.0118723362727253E-004   3.2250450905201976E-004
   5.6234132519034910E-004   2.1852326180874014E-004
   6.3095734448019298E-004   1.4707693688024461E-004
   7.0794578438413802E-004   9.8253859356374197E-005
   7.9432823472428131E-004   6.5100739401274986E-005
   8.9125093813374593E-004   4.2749063655018824E-005
   1.0000000000000002E-003   2.7799999999999995E-005
   1.1220184543019630E-003   1.7562189295063801E-005
   1.2589254117941675E-003   1.0622658681767423E-005
   1.4125375446227540E-003   6.1913015911658692E-006
   1.5848931924611141E-003   3.4994379354710477E-006
   1.7782794100389228E-003   1.9304371989808250E-006
   1.9952623149688789E-003   1.0459900430946943E-006
   2.2387211385683399E-003   5.6025708514016672E-007
   2.5118864315095794E-003   2.9854413409267942E-007
   2.8183829312644548E-003   1.5928121109339942E-007
   3.1622776601683794E-003   8.5630567353981102E-008
   3.5481338923357532E-003   4.6684724806646160E-008
   3.9810717055349734E-003   2.5976219042625812E-008
   4.4668359215096305E-003   1.4845870548347891E-008
   5.0118723362727246E-003   8.7707643247847355E-009
   5.6234132519034910E-003   5.3906942222335555E-009
   6.3095734448019303E-003   3.4689727039250344E-009
   7.0794578438413804E-003   2.3522281285535217E-009
   7.9432823472428138E-003   1.6914291512947818E-009
   8.9125093813374589E-003   1.2980679971963088E-009
   1.0000000000000002E-002   1.0700000000000002E-009
   1.1220184543019630E-002   9.1947413821265198E-010
   1.2589254117941675E-002   7.9596072135135195E-010
   1.4125375446227540E-002   6.9400720663380664E-010
   1.5848931924611141E-002   6.0936905420526199E-010
   1.7782794100389229E-002   5.3872202307464024E-010
   1.9952623149688788E-002   4.7944724861934828E-010
   2.2387211385683399E-002   4.2946971588194647E-010
   2.5118864315095794E-002   3.8713614372992400E-010
   2.8183829312644550E-002   3.5112212994381588E-010
   3.1622776601683791E-002   3.2036114694635407E-010
   3.5481338923357530E-002   2.9398994666022816E-010
   3.9810717055349734E-002   2.7130635601259657E-010
   4.4668359215096300E-002   2.5173647902004904E-010
   5.0118723362727248E-002   2.3480907749908841E-010
   5.6234132519034911E-002   2.2013545813944632E-010
   6.3095734448019303E-002   2.0739360425003737E-010
   7.0794578438413802E-002   1.9631559541918370E-010
   7.9432823472428138E-002   1.8667758595827759E-010
   8.9125093813374592E-002   1.7829178376723379E-010
  0.10000000000000001        1.7100000000000008E-010
  0.11220184543019630        1.6437426632936030E-010
  0.12589254117941662        1.5808484608399989E-010
  0.14125375446227553        1.5213770892542594E-010
  0.15848931924611143        1.4653630697279210E-010
  0.17782794100389229        1.4128201271632267E-010
  0.19952623149688789        1.3637453618513124E-010
  0.22387211385683378        1.3181231983482760E-010
  0.25118864315095824        1.2759291090240730E-010
  0.28183829312644548        1.2371331210946978E-010
  0.31622776601683794        1.2017031259844779E-010
  0.35481338923357530        1.1696080188443619E-010
  0.39810717055349693        1.1408207042622884E-010
  0.44668359215096348        1.1153210119749342E-010
  0.50118723362727247        1.0930985740979696E-010
  0.56234132519034907        1.0741557234528649E-010
  0.63095734448019303        1.0585104814545733E-010
  0.70794578438413736        1.0461997142782785E-010
  0.79432823472428216        1.0372825482787870E-010
  0.89125093813374590        1.0318441506496023E-010
   1.0000000000000000        1.0300000000000016E-010
