   1.0000000000000006E-005   127.99999999999999     
   1.1220184543019630E-005   89.165018047691831     
   1.2589254117941661E-005   62.068632697377680     
   1.4125375446227555E-005   43.176142650620228     
   1.5848931924611141E-005   30.013063461309688     
   1.7782794100389229E-005   20.848387887984593     
   1.9952623149688786E-005   14.472086057744638     
   2.2387211385683379E-005   10.038923395789089     
   2.5118864315095822E-005   6.9589117751030143     
   2.8183829312644549E-005   4.8205273092250200     
   3.1622776601683795E-005   3.3369341123964191     
   3.5481338923357534E-005   2.3083487472970923     
   3.9810717055349695E-005   1.5957202711094691     
   4.4668359215096348E-005   1.1023372649901533     
   5.0118723362727251E-005  0.76098385791741463     
   5.6234132519034907E-005  0.52497723187413348     
   6.3095734448019293E-005  0.36191818187617747     
   7.0794578438413731E-005  0.24933662911185223     
   7.9432823472428221E-005  0.17165970252421625     
   8.9125093813374588E-005  0.11810221892809299     
   1.0000000000000005E-004   8.1199999999999994E-002
   1.1220184543019630E-004   5.5894168988835945E-002
   1.2589254117941674E-004   3.8576446410380466E-002
   1.4125375446227541E-004   2.6678829655264556E-002
   1.5848931924611142E-004   1.8477523741811979E-002
   1.7782794100389227E-004   1.2808456654865619E-002
   1.9952623149688788E-004   8.8811555232120067E-003
   2.2387211385683400E-004   6.1560960265814677E-003
   2.5118864315095795E-004   4.2633219798604936E-003
   2.8183829312644550E-004   2.9480939366439566E-003
   3.1622776601683794E-004   2.0343634195948228E-003
   3.5481338923357532E-004   1.4000817486045825E-003
   3.9810717055349735E-004   9.6041621849206490E-004
   4.4668359215096305E-004   6.5628187614312332E-004
   5.0118723362727253E-004   4.4646741772015684E-004
   5.6234132519034910E-004   3.0220466444345163E-004
   6.3095734448019298E-004   2.0340807455123327E-004
   7.0794578438413802E-004   1.3606124687358728E-004
   7.9432823472428131E-004   9.0394818243968880E-005
   8.9125093813374593E-004   5.9612736199226274E-005
   1.0000000000000002E-003   3.9000000000000033E-005
   1.1220184543019630E-003   2.4924695227865082E-005
   1.2589254117941675E-003   1.5381549288974102E-005
   1.4125375446227540E-003   9.2130259321810645E-006
   1.5848931924611141E-003   5.3834849682878327E-006
   1.7782794100389228E-003   3.0846843270347015E-006
   1.9952623149688789E-003   1.7420915401939024E-006
   2.2387211385683399E-003   9.7470064026294693E-007
   2.5118864315095794E-003   5.4304844875438715E-007
   2.8183829312644548E-003   3.0283074289442747E-007
   3.1622776601683794E-003   1.6989571155763203E-007
   3.5481338923357532E-003   9.6385777196255931E-008
   3.9810717055349734E-003   5.5580005380823806E-008
   4.4668359215096305E-003   3.2743592080157554E-008
   5.0118723362727246E-003   1.9809028448196930E-008
   5.6234132519034910E-003   1.2369614349876013E-008
   6.3095734448019303E-003   8.0136853315420135E-009
   7.0794578438413804E-003   5.4140038975761773E-009
   7.9432823472428138E-003   3.8339108332151805E-009
   8.9125093813374589E-003   2.8604188355840745E-009
   1.0000000000000002E-002   2.2600000000000013E-009
   1.1220184543019630E-002   1.8508902548834389E-009
   1.2589254117941675E-002   1.5321510949903536E-009
   1.4125375446227540E-002   1.2812320753701240E-009
   1.5848931924611141E-002   1.0817225198118624E-009
   1.7782794100389229E-002   9.2155738511658863E-010
   1.9952623149688788E-002   7.9177889750605851E-010
   2.2387211385683399E-002   6.8567303447909795E-010
   2.5118864315095794E-002   5.9816143368190694E-010
   2.8183829312644550E-002   5.2536909280164408E-010
   3.1622776601683791E-002   4.6431422208157355E-010
   3.5481338923357530E-002   4.1268377111251838E-010
   3.9810717055349734E-002   3.6866958853132222E-010
   4.4668359215096300E-002   3.3084786766211588E-010
   5.0118723362727248E-002   2.9808975480295048E-010
   5.6234132519034911E-002   2.6949457434279759E-010
   6.3095734448019303E-002   2.4433959574214646E-010
   7.0794578438413802E-002   2.2204198788151664E-010
   7.9432823472428138E-002   2.0212981369044993E-010
   8.9125093813374592E-002   1.8421977177234894E-010
  0.10000000000000001        1.6800000000000017E-010
  0.11220184543019630        1.5332378856923019E-010
  0.12589254117941662        1.4011883787215773E-010
  0.14125375446227553        1.2824074014889797E-010
  0.15848931924611143        1.1755843332010279E-010
  0.17782794100389229        1.0795322673993040E-010
  0.19952623149688789        9.9317850315762795E-011
  0.22387211385683378        9.1555537878578857E-011
  0.25118864315095824        8.4579152776940902E-011
  0.28183829312644548        7.8310361235387627E-011
  0.31622776601683794        7.2678857017013432E-011
  0.35481338923357530        6.7621639312000873E-011
  0.39810717055349693        6.3082344491873076E-011
  0.44668359215096348        5.9010631378941243E-011
  0.50118723362727247        5.5361618940788842E-011
  0.56234132519034907        5.2095374793804474E-011
  0.63095734448019303        4.9176452555054598E-011
  0.70794578438413736        4.6573475890067746E-011
  0.79432823472428216        4.4258767041704530E-011
  0.89125093813374590        4.2208017673011389E-011
   1.0000000000000000        4.0400000000000056E-011
