   1.0000000000000006E-005   58.000000000000007     
   1.1220184543019630E-005   40.296268773608325     
   1.2589254117941661E-005   27.976596789853737     
   1.4125375446227555E-005   19.409706802151106     
   1.5848931924611141E-005   13.456680562952853     
   1.7782794100389229E-005   9.3229342669147908     
   1.9952623149688786E-005   6.4545184467365706     
   2.2387211385683379E-005   4.4655242278267870     
   2.5118864315095822E-005   3.0873030885436288     
   2.8183829312644549E-005   2.1329718940173743     
   3.1622776601683795E-005   1.4726206311741319     
   3.5481338923357534E-005   1.0160085084702910     
   3.9810717055349695E-005  0.70049551682046229     
   4.4668359215096348E-005  0.48263160761445789     
   5.0118723362727251E-005  0.33229926472380844     
   5.6234132519034907E-005  0.22863728472662678     
   6.3095734448019293E-005  0.15720618020920002     
   7.0794578438413731E-005  0.10801843955853906     
   7.9432823472428221E-005   7.4170761776182287E-002
   8.9125093813374588E-005   5.0894982651796733E-002
   1.0000000000000005E-004   3.4900000000000000E-002
   1.1220184543019630E-004   2.3995863672846087E-002
   1.2589254117941674E-004   1.6586403116292038E-002
   1.4125375446227541E-004   1.1513619928314785E-002
   1.5848931924611142E-004   8.0177844257180043E-003
   1.7782794100389227E-004   5.5952390473649107E-003
   1.9952623149688788E-004   3.9088019996219728E-003
   2.2387211385683400E-004   2.7306650027428621E-003
   2.5118864315095795E-004   1.9056005707462982E-003
   2.8183829312644550E-004   1.3270063242431605E-003
   3.1622776601683794E-004   9.2115083588584061E-004
   3.5481338923357532E-004   6.3671358912708123E-004
   3.9810717055349735E-004   4.3777612107229614E-004
   4.4668359215096305E-004   2.9908426924618841E-004
   5.0118723362727253E-004   2.0281851440760336E-004
   5.6234132519034910E-004   1.3637448320945021E-004
   6.3095734448019298E-004   9.0825773252801970E-005
   7.0794578438413802E-004   5.9851429365750900E-005
   7.9432823472428131E-004   3.8982380561545974E-005
   8.9125093813374593E-004   2.5068570279615724E-005
   1.0000000000000002E-003   1.5900000000000010E-005
   1.1220184543019630E-003   9.7023481021836643E-006
   1.2589254117941675E-003   5.5900593656932151E-006
   1.4125375446227540E-003   3.0656147344217223E-006
   1.5848931924611141E-003   1.6131771560488315E-006
   1.7782794100389228E-003   8.2112945845589779E-007
   1.9952623149688789E-003   4.0757546287902861E-007
   2.2387211385683399E-003   1.9887170764047769E-007
   2.5118864315095794E-003   9.6163065036598159E-008
   2.8183829312644548E-003   4.6453202595394306E-008
   3.1622776601683794E-003   2.2599396408448247E-008
   3.5481338923357532E-003   1.1162297221217497E-008
   3.9810717055349734E-003   5.6427087521177729E-009
   4.4668359215096305E-003   2.9430710327901448E-009
   5.0118723362727246E-003   1.5965946057366735E-009
   5.6234132519034910E-003   9.0817830305071172E-010
   6.3095734448019303E-003   5.4604933768733034E-010
   7.0794578438413804E-003   3.4984743354691714E-010
   7.9432823472428138E-003   2.4077605364762817E-010
   8.9125093813374589E-003   1.7944750767653290E-010
   1.0000000000000002E-002   1.4599999999999973E-010
   1.1220184543019630E-002   1.2496760015052417E-010
   1.2589254117941675E-002   1.0784473460843740E-010
   1.4125375446227540E-002   9.3808900697023713E-011
   1.5848931924611141E-002   8.2227933122661190E-011
   1.7782794100389229E-002   7.2612530205287806E-011
   1.9952623149688788E-002   6.4581373518164130E-011
   2.2387211385683399E-002   5.7835319337025451E-011
   2.5118864315095794E-002   5.2138171214420729E-011
   2.8183829312644550E-002   4.7302259645541107E-011
   3.1622776601683791E-002   4.3177556516671646E-011
   3.5481338923357530E-002   3.9643405718343250E-011
   3.9810717055349734E-002   3.6602202326599521E-011
   4.4668359215096300E-002   3.3974532086997020E-011
   5.0118723362727248E-002   3.1695411877234292E-011
   5.6234132519034911E-002   2.9711365118351573E-011
   6.3095734448019303E-002   2.7978134021566158E-011
   7.0794578438413802E-002   2.6458880298164077E-011
   7.9432823472428138E-002   2.5122762602475578E-011
   8.9125093813374592E-002   2.3943806127275492E-011
  0.10000000000000001        2.2899999999999974E-011
  0.11220184543019630        2.1941018467504394E-011
  0.12589254117941662        2.1030585145434368E-011
  0.14125375446227553        2.0169888178779799E-011
  0.15848931924611143        1.9359648719053271E-011
  0.17782794100389229        1.8600199011155950E-011
  0.19952623149688789        1.7891556848206913E-011
  0.22387211385683378        1.7233495921858716E-011
  0.25118864315095824        1.6625611875893455E-011
  0.28183829312644548        1.6067384116439625E-011
  0.31622776601683794        1.5558233646340743E-011
  0.35481338923357530        1.5097577378886782E-011
  0.39810717055349693        1.4684879553291528E-011
  0.44668359215096348        1.4319701027970422E-011
  0.50118723362727247        1.4001747375753518E-011
  0.56234132519034907        1.3730916856526558E-011
  0.63095734448019303        1.3507349507413098E-011
  0.70794578438413736        1.3331478779913602E-011
  0.79432823472428216        1.3204087380738656E-011
  0.89125093813374590        1.3126369254354759E-011
   1.0000000000000000        1.3099999999999979E-011
