ORDEM 3.1   :  ORDEM Telescope/Radar Mode
 Surface Area Debris Flux (#/m^2/yr)
  Year: 2018  Sensor lat. =  35.426  Pointing AZ =  90.000  Pointing EL =  75.000
 *
 *
 *
 *
 *
 *
 *
 Alt       Rng        >10um      >100um     >1mm       >1cm       >10cm      >1m
 --------  --------   --------   --------   --------   --------   --------   --------  
    200.0     214.2   2.15E+02   1.58E-01   2.93E-04   9.53E-08   9.13E-09   3.90E-09
    205.0     219.4   2.15E+02   1.58E-01   2.93E-04   9.53E-08   9.13E-09   3.90E-09
    205.0     219.4   2.27E+02   1.77E-01   3.30E-04   1.05E-07   1.09E-08   4.64E-09
    210.0     224.5   2.27E+02   1.77E-01   3.30E-04   1.05E-07   1.09E-08   4.64E-09
    210.0     224.5   2.31E+02   1.88E-01   3.54E-04   1.14E-07   1.24E-08   5.34E-09
    215.0     229.7   2.31E+02   1.88E-01   3.54E-04   1.14E-07   1.24E-08   5.34E-09
    215.0     229.7   2.36E+02   1.95E-01   3.73E-04   1.21E-07   1.37E-08   5.99E-09
    220.0     234.9   2.36E+02   1.95E-01   3.73E-04   1.21E-07   1.37E-08   5.99E-09
    220.0     234.9   2.42E+02   2.00E-01   3.91E-04   1.27E-07   1.49E-08   6.65E-09
    225.0     240.0   2.42E+02   2.00E-01   3.91E-04   1.27E-07   1.49E-08   6.65E-09
    225.0     240.0   2.43E+02   2.05E-01   4.07E-04   1.33E-07   1.59E-08   7.16E-09
    230.0     245.2   2.43E+02   2.05E-01   4.07E-04   1.33E-07   1.59E-08   7.16E-09
    230.0     245.2   2.47E+02   2.18E-01   4.45E-04   1.44E-07   1.72E-08   7.78E-09
    235.0     250.4   2.47E+02   2.18E-01   4.45E-04   1.44E-07   1.72E-08   7.78E-09
    235.0     250.4   2.72E+02   2.80E-01   5.95E-04   1.86E-07   2.04E-08   9.38E-09
    240.0     255.5   2.72E+02   2.80E-01   5.95E-04   1.86E-07   2.04E-08   9.38E-09
    240.0     255.5   2.82E+02   3.11E-01   6.85E-04   2.12E-07   2.25E-08   1.04E-08
    245.0     260.7   2.82E+02   3.11E-01   6.85E-04   2.12E-07   2.25E-08   1.04E-08
    245.0     260.7   2.87E+02   3.29E-01   7.48E-04   2.33E-07   2.42E-08   1.12E-08
    250.0     265.8   2.87E+02   3.29E-01   7.48E-04   2.33E-07   2.42E-08   1.12E-08
    250.0     265.8   2.93E+02   3.40E-01   8.00E-04   2.50E-07   2.55E-08   1.17E-08
    255.0     271.0   2.93E+02   3.40E-01   8.00E-04   2.50E-07   2.55E-08   1.17E-08
    255.0     271.0   3.01E+02   3.51E-01   8.46E-04   2.65E-07   2.64E-08   1.20E-08
    260.0     276.2   3.01E+02   3.51E-01   8.46E-04   2.65E-07   2.64E-08   1.20E-08
    260.0     276.2   3.04E+02   3.60E-01   8.87E-04   2.77E-07   2.69E-08   1.20E-08
    265.0     281.3   3.04E+02   3.60E-01   8.87E-04   2.77E-07   2.69E-08   1.20E-08
    265.0     281.3   3.30E+02   4.04E-01   1.09E-03   2.95E-07   2.85E-08   1.29E-08
    270.0     286.5   3.30E+02   4.04E-01   1.09E-03   2.95E-07   2.85E-08   1.29E-08
    270.0     286.5   3.67E+02   4.78E-01   1.44E-03   3.17E-07   3.04E-08   1.42E-08
    275.0     291.7   3.67E+02   4.78E-01   1.44E-03   3.17E-07   3.04E-08   1.42E-08
    275.0     291.7   3.85E+02   5.16E-01   1.65E-03   3.33E-07   3.16E-08   1.50E-08
    280.0     296.8   3.85E+02   5.16E-01   1.65E-03   3.33E-07   3.16E-08   1.50E-08
    280.0     296.8   4.03E+02   5.40E-01   1.81E-03   3.49E-07   3.28E-08   1.57E-08
    285.0     302.0   4.03E+02   5.40E-01   1.81E-03   3.49E-07   3.28E-08   1.57E-08
    285.0     302.0   4.15E+02   5.58E-01   1.95E-03   3.61E-07   3.35E-08   1.60E-08
    290.0     307.1   4.15E+02   5.58E-01   1.95E-03   3.61E-07   3.35E-08   1.60E-08
    290.0     307.1   4.29E+02   5.73E-01   2.06E-03   3.72E-07   3.40E-08   1.64E-08
    295.0     312.3   4.29E+02   5.73E-01   2.06E-03   3.72E-07   3.40E-08   1.64E-08
    295.0     312.3   4.39E+02   5.86E-01   2.17E-03   3.81E-07   3.44E-08   1.66E-08
    300.0     317.5   4.39E+02   5.86E-01   2.17E-03   3.81E-07   3.44E-08   1.66E-08
    300.0     317.5   5.09E+02   6.64E-01   2.37E-03   4.41E-07   3.60E-08   1.69E-08
    305.0     322.6   5.09E+02   6.64E-01   2.37E-03   4.41E-07   3.60E-08   1.69E-08
    305.0     322.6   5.67E+02   7.27E-01   2.55E-03   4.91E-07   3.75E-08   1.73E-08
    310.0     327.8   5.67E+02   7.27E-01   2.55E-03   4.91E-07   3.75E-08   1.73E-08
    310.0     327.8   6.04E+02   7.89E-01   2.71E-03   5.27E-07   3.85E-08   1.73E-08
    315.0     332.9   6.04E+02   7.89E-01   2.71E-03   5.27E-07   3.85E-08   1.73E-08
    315.0     332.9   6.39E+02   8.38E-01   2.84E-03   5.58E-07   3.96E-08   1.74E-08
    320.0     338.1   6.39E+02   8.38E-01   2.84E-03   5.58E-07   3.96E-08   1.74E-08
    320.0     338.1   6.75E+02   8.76E-01   2.96E-03   5.88E-07   4.10E-08   1.79E-08
    325.0     343.3   6.75E+02   8.76E-01   2.96E-03   5.88E-07   4.10E-08   1.79E-08
    325.0     343.3   7.05E+02   8.96E-01   3.05E-03   6.12E-07   4.19E-08   1.84E-08
    330.0     348.4   7.05E+02   8.96E-01   3.05E-03   6.12E-07   4.19E-08   1.84E-08
    330.0     348.4   7.41E+02   9.28E-01   3.13E-03   6.48E-07   4.38E-08   1.93E-08
    335.0     353.6   7.41E+02   9.28E-01   3.13E-03   6.48E-07   4.38E-08   1.93E-08
    335.0     353.6   8.28E+02   1.05E+00   3.20E-03   7.53E-07   5.21E-08   2.38E-08
    340.0     358.7   8.28E+02   1.05E+00   3.20E-03   7.53E-07   5.21E-08   2.38E-08
    340.0     358.7   8.83E+02   1.14E+00   3.28E-03   8.26E-07   5.72E-08   2.65E-08
    345.0     363.9   8.83E+02   1.14E+00   3.28E-03   8.26E-07   5.72E-08   2.65E-08
    345.0     363.9   9.35E+02   1.22E+00   3.37E-03   8.83E-07   6.05E-08   2.81E-08
    350.0     369.0   9.35E+02   1.22E+00   3.37E-03   8.83E-07   6.05E-08   2.81E-08
    350.0     369.0   9.83E+02   1.30E+00   3.44E-03   9.33E-07   6.35E-08   2.95E-08
    355.0     374.2   9.83E+02   1.30E+00   3.44E-03   9.33E-07   6.35E-08   2.95E-08
    355.0     374.2   1.03E+03   1.37E+00   3.51E-03   9.81E-07   6.66E-08   3.09E-08
    360.0     379.4   1.03E+03   1.37E+00   3.51E-03   9.81E-07   6.66E-08   3.09E-08
    360.0     379.4   1.08E+03   1.41E+00   3.53E-03   1.02E-06   6.90E-08   3.18E-08
    365.0     384.5   1.08E+03   1.41E+00   3.53E-03   1.02E-06   6.90E-08   3.18E-08
    365.0     384.5   1.17E+03   1.56E+00   3.82E-03   1.11E-06   7.60E-08   3.45E-08
    370.0     389.7   1.17E+03   1.56E+00   3.82E-03   1.11E-06   7.60E-08   3.45E-08
    370.0     389.7   1.28E+03   1.78E+00   4.32E-03   1.24E-06   8.62E-08   3.83E-08
    375.0     394.8   1.28E+03   1.78E+00   4.32E-03   1.24E-06   8.62E-08   3.83E-08
    375.0     394.8   1.36E+03   1.93E+00   4.64E-03   1.33E-06   9.31E-08   4.08E-08
    380.0     400.0   1.36E+03   1.93E+00   4.64E-03   1.33E-06   9.31E-08   4.08E-08
    380.0     400.0   1.43E+03   2.07E+00   4.95E-03   1.41E-06   9.96E-08   4.33E-08
    385.0     405.1   1.43E+03   2.07E+00   4.95E-03   1.41E-06   9.96E-08   4.33E-08
    385.0     405.1   1.50E+03   2.18E+00   5.12E-03   1.47E-06   1.04E-07   4.44E-08
    390.0     410.3   1.50E+03   2.18E+00   5.12E-03   1.47E-06   1.04E-07   4.44E-08
    390.0     410.3   1.56E+03   2.30E+00   5.28E-03   1.53E-06   1.08E-07   4.55E-08
    395.0     415.4   1.56E+03   2.30E+00   5.28E-03   1.53E-06   1.08E-07   4.55E-08
    395.0     415.4   1.62E+03   2.39E+00   5.37E-03   1.58E-06   1.11E-07   4.60E-08
    400.0     420.6   1.62E+03   2.39E+00   5.37E-03   1.58E-06   1.11E-07   4.60E-08
    400.0     420.6   1.76E+03   2.82E+00   6.17E-03   1.76E-06   1.27E-07   4.89E-08
    405.0     425.8   1.76E+03   2.82E+00   6.17E-03   1.76E-06   1.27E-07   4.89E-08
    405.0     425.8   1.89E+03   3.20E+00   6.89E-03   1.93E-06   1.41E-07   5.11E-08
    410.0     430.9   1.89E+03   3.20E+00   6.89E-03   1.93E-06   1.41E-07   5.11E-08
    410.0     430.9   1.99E+03   3.43E+00   7.41E-03   2.04E-06   1.49E-07   5.24E-08
    415.0     436.1   1.99E+03   3.43E+00   7.41E-03   2.04E-06   1.49E-07   5.24E-08
    415.0     436.1   2.07E+03   3.65E+00   7.86E-03   2.14E-06   1.57E-07   5.42E-08
    420.0     441.2   2.07E+03   3.65E+00   7.86E-03   2.14E-06   1.57E-07   5.42E-08
    420.0     441.2   2.15E+03   3.88E+00   8.27E-03   2.24E-06   1.65E-07   5.68E-08
    425.0     446.4   2.15E+03   3.88E+00   8.27E-03   2.24E-06   1.65E-07   5.68E-08
    425.0     446.4   2.23E+03   4.05E+00   8.47E-03   2.31E-06   1.70E-07   5.90E-08
    430.0     451.5   2.23E+03   4.05E+00   8.47E-03   2.31E-06   1.70E-07   5.90E-08
    430.0     451.5   2.32E+03   4.33E+00   8.94E-03   2.43E-06   1.82E-07   6.43E-08
    435.0     456.7   2.32E+03   4.33E+00   8.94E-03   2.43E-06   1.82E-07   6.43E-08
    435.0     456.7   2.51E+03   5.25E+00   1.11E-02   2.83E-06   2.24E-07   8.76E-08
    440.0     461.8   2.51E+03   5.25E+00   1.11E-02   2.83E-06   2.24E-07   8.76E-08
    440.0     461.8   2.65E+03   5.86E+00   1.24E-02   3.10E-06   2.53E-07   1.03E-07
    445.0     467.0   2.65E+03   5.86E+00   1.24E-02   3.10E-06   2.53E-07   1.03E-07
    445.0     467.0   2.76E+03   6.32E+00   1.34E-02   3.30E-06   2.71E-07   1.11E-07
    450.0     472.1   2.76E+03   6.32E+00   1.34E-02   3.30E-06   2.71E-07   1.11E-07
    450.0     472.1   2.86E+03   6.71E+00   1.43E-02   3.47E-06   2.84E-07   1.17E-07
    455.0     477.3   2.86E+03   6.71E+00   1.43E-02   3.47E-06   2.84E-07   1.17E-07
    455.0     477.3   2.96E+03   7.11E+00   1.52E-02   3.65E-06   2.97E-07   1.22E-07
    460.0     482.4   2.96E+03   7.11E+00   1.52E-02   3.65E-06   2.97E-07   1.22E-07
    460.0     482.4   3.05E+03   7.41E+00   1.58E-02   3.78E-06   3.04E-07   1.25E-07
    465.0     487.6   3.05E+03   7.41E+00   1.58E-02   3.78E-06   3.04E-07   1.25E-07
    465.0     487.6   3.19E+03   8.21E+00   1.75E-02   4.14E-06   3.47E-07   1.49E-07
    470.0     492.8   3.19E+03   8.21E+00   1.75E-02   4.14E-06   3.47E-07   1.49E-07
    470.0     492.8   3.36E+03   9.38E+00   2.01E-02   4.67E-06   4.20E-07   1.95E-07
    475.0     497.9   3.36E+03   9.38E+00   2.01E-02   4.67E-06   4.20E-07   1.95E-07
    475.0     497.9   3.48E+03   1.01E+01   2.17E-02   4.99E-06   4.66E-07   2.21E-07
    480.0     503.1   3.48E+03   1.01E+01   2.17E-02   4.99E-06   4.66E-07   2.21E-07
    480.0     503.1   3.60E+03   1.08E+01   2.30E-02   5.24E-06   5.02E-07   2.42E-07
    485.0     508.2   3.60E+03   1.08E+01   2.30E-02   5.24E-06   5.02E-07   2.42E-07
    485.0     508.2   3.71E+03   1.14E+01   2.39E-02   5.44E-06   5.27E-07   2.56E-07
    490.0     513.4   3.71E+03   1.14E+01   2.39E-02   5.44E-06   5.27E-07   2.56E-07
    490.0     513.4   3.81E+03   1.19E+01   2.48E-02   5.62E-06   5.50E-07   2.69E-07
    495.0     518.5   3.81E+03   1.19E+01   2.48E-02   5.62E-06   5.50E-07   2.69E-07
    495.0     518.5   3.90E+03   1.24E+01   2.53E-02   5.78E-06   5.66E-07   2.77E-07
    500.0     523.7   3.90E+03   1.24E+01   2.53E-02   5.78E-06   5.66E-07   2.77E-07
    500.0     523.7   4.08E+03   1.39E+01   2.81E-02   6.05E-06   5.48E-07   2.54E-07
    505.0     528.8   4.08E+03   1.39E+01   2.81E-02   6.05E-06   5.48E-07   2.54E-07
    505.0     528.8   4.24E+03   1.53E+01   3.06E-02   6.32E-06   5.31E-07   2.33E-07
    510.0     534.0   4.24E+03   1.53E+01   3.06E-02   6.32E-06   5.31E-07   2.33E-07
    510.0     534.0   4.37E+03   1.62E+01   3.21E-02   6.47E-06   5.17E-07   2.18E-07
    515.0     539.1   4.37E+03   1.62E+01   3.21E-02   6.47E-06   5.17E-07   2.18E-07
    515.0     539.1   4.48E+03   1.70E+01   3.33E-02   6.61E-06   5.12E-07   2.11E-07
    520.0     544.3   4.48E+03   1.70E+01   3.33E-02   6.61E-06   5.12E-07   2.11E-07
    520.0     544.3   4.60E+03   1.78E+01   3.45E-02   6.78E-06   5.15E-07   2.08E-07
    525.0     549.4   4.60E+03   1.78E+01   3.45E-02   6.78E-06   5.15E-07   2.08E-07
    525.0     549.4   4.70E+03   1.84E+01   3.50E-02   6.89E-06   5.15E-07   2.07E-07
    530.0     554.6   4.70E+03   1.84E+01   3.50E-02   6.89E-06   5.15E-07   2.07E-07
    530.0     554.6   4.82E+03   1.93E+01   3.59E-02   7.02E-06   5.25E-07   2.14E-07
    535.0     559.7   4.82E+03   1.93E+01   3.59E-02   7.02E-06   5.25E-07   2.14E-07
    535.0     559.7   5.00E+03   2.18E+01   4.03E-02   7.17E-06   5.81E-07   2.65E-07
    540.0     564.9   5.00E+03   2.18E+01   4.03E-02   7.17E-06   5.81E-07   2.65E-07
    540.0     564.9   5.15E+03   2.35E+01   4.32E-02   7.32E-06   6.19E-07   2.99E-07
    545.0     570.0   5.15E+03   2.35E+01   4.32E-02   7.32E-06   6.19E-07   2.99E-07
    545.0     570.0   5.28E+03   2.48E+01   4.46E-02   7.39E-06   6.36E-07   3.15E-07
    550.0     575.1   5.28E+03   2.48E+01   4.46E-02   7.39E-06   6.36E-07   3.15E-07
    550.0     575.1   5.39E+03   2.59E+01   4.60E-02   7.46E-06   6.50E-07   3.27E-07
    555.0     580.3   5.39E+03   2.59E+01   4.60E-02   7.46E-06   6.50E-07   3.27E-07
    555.0     580.3   5.51E+03   2.70E+01   4.78E-02   7.54E-06   6.62E-07   3.37E-07
    560.0     585.4   5.51E+03   2.70E+01   4.78E-02   7.54E-06   6.62E-07   3.37E-07
    560.0     585.4   5.61E+03   2.79E+01   4.85E-02   7.57E-06   6.65E-07   3.40E-07
    565.0     590.6   5.61E+03   2.79E+01   4.85E-02   7.57E-06   6.65E-07   3.40E-07
    565.0     590.6   5.74E+03   2.97E+01   5.13E-02   7.63E-06   6.63E-07   3.29E-07
    570.0     595.7   5.74E+03   2.97E+01   5.13E-02   7.63E-06   6.63E-07   3.29E-07
    570.0     595.7   5.90E+03   3.24E+01   5.52E-02   7.66E-06   6.42E-07   2.93E-07
    575.0     600.9   5.90E+03   3.24E+01   5.52E-02   7.66E-06   6.42E-07   2.93E-07
    575.0     600.9   6.03E+03   3.42E+01   5.72E-02   7.67E-06   6.29E-07   2.71E-07
    580.0     606.0   6.03E+03   3.42E+01   5.72E-02   7.67E-06   6.29E-07   2.71E-07
    580.0     606.0   6.15E+03   3.57E+01   5.91E-02   7.71E-06   6.30E-07   2.60E-07
    585.0     611.2   6.15E+03   3.57E+01   5.91E-02   7.71E-06   6.30E-07   2.60E-07
    585.0     611.2   6.26E+03   3.70E+01   6.03E-02   7.75E-06   6.34E-07   2.54E-07
    590.0     616.3   6.26E+03   3.70E+01   6.03E-02   7.75E-06   6.34E-07   2.54E-07
    590.0     616.3   6.37E+03   3.82E+01   6.21E-02   7.83E-06   6.49E-07   2.56E-07
    595.0     621.5   6.37E+03   3.82E+01   6.21E-02   7.83E-06   6.49E-07   2.56E-07
    595.0     621.5   6.48E+03   3.93E+01   6.30E-02   7.90E-06   6.62E-07   2.58E-07
    600.0     626.6   6.48E+03   3.93E+01   6.30E-02   7.90E-06   6.62E-07   2.58E-07
    600.0     626.6   6.65E+03   4.23E+01   6.85E-02   8.40E-06   7.20E-07   2.88E-07
    605.0     631.8   6.65E+03   4.23E+01   6.85E-02   8.40E-06   7.20E-07   2.88E-07
    605.0     631.8   6.81E+03   4.53E+01   7.38E-02   8.89E-06   7.79E-07   3.19E-07
    610.0     636.9   6.81E+03   4.53E+01   7.38E-02   8.89E-06   7.79E-07   3.19E-07
    610.0     636.9   6.94E+03   4.72E+01   7.61E-02   9.16E-06   8.07E-07   3.33E-07
    615.0     642.1   6.94E+03   4.72E+01   7.61E-02   9.16E-06   8.07E-07   3.33E-07
    615.0     642.1   7.05E+03   4.89E+01   7.82E-02   9.39E-06   8.31E-07   3.43E-07
    620.0     647.2   7.05E+03   4.89E+01   7.82E-02   9.39E-06   8.31E-07   3.43E-07
    620.0     647.2   7.17E+03   5.05E+01   8.01E-02   9.62E-06   8.51E-07   3.51E-07
    625.0     652.3   7.17E+03   5.05E+01   8.01E-02   9.62E-06   8.51E-07   3.51E-07
    625.0     652.3   7.26E+03   5.17E+01   8.11E-02   9.79E-06   8.62E-07   3.55E-07
    630.0     657.5   7.26E+03   5.17E+01   8.11E-02   9.79E-06   8.62E-07   3.55E-07
    630.0     657.5   7.37E+03   5.32E+01   8.22E-02   1.01E-05   8.70E-07   3.49E-07
    635.0     662.6   7.37E+03   5.32E+01   8.22E-02   1.01E-05   8.70E-07   3.49E-07
    635.0     662.6   7.47E+03   5.67E+01   8.76E-02   1.10E-05   8.79E-07   3.02E-07
    640.0     667.8   7.47E+03   5.67E+01   8.76E-02   1.10E-05   8.79E-07   3.02E-07
    640.0     667.8   7.56E+03   5.93E+01   9.12E-02   1.16E-05   8.91E-07   2.72E-07
    645.0     672.9   7.56E+03   5.93E+01   9.12E-02   1.16E-05   8.91E-07   2.72E-07
    645.0     672.9   7.65E+03   6.11E+01   9.24E-02   1.20E-05   8.94E-07   2.49E-07
    650.0     678.1   7.65E+03   6.11E+01   9.24E-02   1.20E-05   8.94E-07   2.49E-07
    650.0     678.1   7.75E+03   6.29E+01   9.42E-02   1.23E-05   9.03E-07   2.32E-07
    655.0     683.2   7.75E+03   6.29E+01   9.42E-02   1.23E-05   9.03E-07   2.32E-07
    655.0     683.2   7.84E+03   6.47E+01   9.66E-02   1.27E-05   9.12E-07   2.18E-07
    660.0     688.3   7.84E+03   6.47E+01   9.66E-02   1.27E-05   9.12E-07   2.18E-07
    660.0     688.3   7.92E+03   6.60E+01   9.73E-02   1.29E-05   9.11E-07   2.06E-07
    665.0     693.5   7.92E+03   6.60E+01   9.73E-02   1.29E-05   9.11E-07   2.06E-07
    665.0     693.5   8.03E+03   6.87E+01   1.04E-01   1.35E-05   9.13E-07   1.99E-07
    670.0     698.6   8.03E+03   6.87E+01   1.04E-01   1.35E-05   9.13E-07   1.99E-07
    670.0     698.6   8.15E+03   7.25E+01   1.15E-01   1.43E-05   9.07E-07   1.96E-07
    675.0     703.8   8.15E+03   7.25E+01   1.15E-01   1.43E-05   9.07E-07   1.96E-07
    675.0     703.8   8.25E+03   7.51E+01   1.22E-01   1.48E-05   9.00E-07   1.94E-07
    680.0     708.9   8.25E+03   7.51E+01   1.22E-01   1.48E-05   9.00E-07   1.94E-07
    680.0     708.9   8.35E+03   7.75E+01   1.27E-01   1.52E-05   8.96E-07   1.92E-07
    685.0     714.1   8.35E+03   7.75E+01   1.27E-01   1.52E-05   8.96E-07   1.92E-07
    685.0     714.1   8.44E+03   7.93E+01   1.30E-01   1.55E-05   8.91E-07   1.89E-07
    690.0     719.2   8.44E+03   7.93E+01   1.30E-01   1.55E-05   8.91E-07   1.89E-07
    690.0     719.2   8.54E+03   8.14E+01   1.35E-01   1.58E-05   8.98E-07   1.89E-07
    695.0     724.3   8.54E+03   8.14E+01   1.35E-01   1.58E-05   8.98E-07   1.89E-07
    695.0     724.3   8.63E+03   8.31E+01   1.37E-01   1.61E-05   9.02E-07   1.88E-07
    700.0     729.5   8.63E+03   8.31E+01   1.37E-01   1.61E-05   9.02E-07   1.88E-07
    700.0     729.5   8.74E+03   8.75E+01   1.50E-01   1.71E-05   9.19E-07   1.79E-07
    705.0     734.6   8.74E+03   8.75E+01   1.50E-01   1.71E-05   9.19E-07   1.79E-07
    705.0     734.6   8.86E+03   9.21E+01   1.62E-01   1.82E-05   9.43E-07   1.71E-07
    710.0     739.8   8.86E+03   9.21E+01   1.62E-01   1.82E-05   9.43E-07   1.71E-07
    710.0     739.8   8.96E+03   9.49E+01   1.67E-01   1.87E-05   9.54E-07   1.66E-07
    715.0     744.9   8.96E+03   9.49E+01   1.67E-01   1.87E-05   9.54E-07   1.66E-07
    715.0     744.9   9.06E+03   9.77E+01   1.72E-01   1.91E-05   9.70E-07   1.64E-07
    720.0     750.1   9.06E+03   9.77E+01   1.72E-01   1.91E-05   9.70E-07   1.64E-07
    720.0     750.1   9.16E+03   1.00E+02   1.76E-01   1.95E-05   9.83E-07   1.61E-07
    725.0     755.2   9.16E+03   1.00E+02   1.76E-01   1.95E-05   9.83E-07   1.61E-07
    725.0     755.2   9.25E+03   1.02E+02   1.80E-01   1.98E-05   9.95E-07   1.60E-07
    730.0     760.3   9.25E+03   1.02E+02   1.80E-01   1.98E-05   9.95E-07   1.60E-07
    730.0     760.3   9.37E+03   1.05E+02   1.84E-01   2.03E-05   1.01E-06   1.66E-07
    735.0     765.5   9.37E+03   1.05E+02   1.84E-01   2.03E-05   1.01E-06   1.66E-07
    735.0     765.5   9.55E+03   1.10E+02   1.99E-01   2.17E-05   1.09E-06   2.18E-07
    740.0     770.6   9.55E+03   1.10E+02   1.99E-01   2.17E-05   1.09E-06   2.18E-07
    740.0     770.6   9.71E+03   1.14E+02   2.10E-01   2.26E-05   1.14E-06   2.53E-07
    745.0     775.8   9.71E+03   1.14E+02   2.10E-01   2.26E-05   1.14E-06   2.53E-07
    745.0     775.8   9.84E+03   1.17E+02   2.14E-01   2.32E-05   1.17E-06   2.76E-07
    750.0     780.9   9.84E+03   1.17E+02   2.14E-01   2.32E-05   1.17E-06   2.76E-07
    750.0     780.9   9.96E+03   1.19E+02   2.20E-01   2.36E-05   1.20E-06   2.96E-07
    755.0     786.0   9.96E+03   1.19E+02   2.20E-01   2.36E-05   1.20E-06   2.96E-07
    755.0     786.0   1.01E+04   1.22E+02   2.26E-01   2.41E-05   1.24E-06   3.18E-07
    760.0     791.2   1.01E+04   1.22E+02   2.26E-01   2.41E-05   1.24E-06   3.18E-07
    760.0     791.2   1.02E+04   1.24E+02   2.28E-01   2.43E-05   1.26E-06   3.33E-07
    765.0     796.3   1.02E+04   1.24E+02   2.28E-01   2.43E-05   1.26E-06   3.33E-07
    765.0     796.3   1.03E+04   1.27E+02   2.32E-01   2.51E-05   1.29E-06   3.50E-07
    770.0     801.4   1.03E+04   1.27E+02   2.32E-01   2.51E-05   1.29E-06   3.50E-07
    770.0     801.4   1.04E+04   1.30E+02   2.34E-01   2.64E-05   1.30E-06   3.67E-07
    775.0     806.6   1.04E+04   1.30E+02   2.34E-01   2.64E-05   1.30E-06   3.67E-07
    775.0     806.6   1.04E+04   1.32E+02   2.36E-01   2.69E-05   1.32E-06   3.78E-07
    780.0     811.7   1.04E+04   1.32E+02   2.36E-01   2.69E-05   1.32E-06   3.78E-07
    780.0     811.7   1.05E+04   1.34E+02   2.37E-01   2.70E-05   1.33E-06   3.85E-07
    785.0     816.9   1.05E+04   1.34E+02   2.37E-01   2.70E-05   1.33E-06   3.85E-07
    785.0     816.9   1.06E+04   1.36E+02   2.37E-01   2.70E-05   1.34E-06   3.88E-07
    790.0     822.0   1.06E+04   1.36E+02   2.37E-01   2.70E-05   1.34E-06   3.88E-07
    790.0     822.0   1.07E+04   1.38E+02   2.41E-01   2.72E-05   1.34E-06   3.91E-07
    795.0     827.1   1.07E+04   1.38E+02   2.41E-01   2.72E-05   1.34E-06   3.91E-07
    795.0     827.1   1.07E+04   1.39E+02   2.41E-01   2.72E-05   1.34E-06   3.87E-07
    800.0     832.3   1.07E+04   1.39E+02   2.41E-01   2.72E-05   1.34E-06   3.87E-07
    800.0     832.3   1.08E+04   1.41E+02   2.45E-01   2.82E-05   1.35E-06   3.86E-07
    805.0     837.4   1.08E+04   1.41E+02   2.45E-01   2.82E-05   1.35E-06   3.86E-07
    805.0     837.4   1.09E+04   1.44E+02   2.52E-01   2.92E-05   1.36E-06   3.89E-07
    810.0     842.5   1.09E+04   1.44E+02   2.52E-01   2.92E-05   1.36E-06   3.89E-07
    810.0     842.5   1.09E+04   1.45E+02   2.52E-01   2.96E-05   1.34E-06   3.78E-07
    815.0     847.7   1.09E+04   1.45E+02   2.52E-01   2.96E-05   1.34E-06   3.78E-07
    815.0     847.7   1.10E+04   1.47E+02   2.55E-01   2.98E-05   1.34E-06   3.71E-07
    820.0     852.8   1.10E+04   1.47E+02   2.55E-01   2.98E-05   1.34E-06   3.71E-07
    820.0     852.8   1.10E+04   1.48E+02   2.56E-01   3.00E-05   1.33E-06   3.65E-07
    825.0     858.0   1.10E+04   1.48E+02   2.56E-01   3.00E-05   1.33E-06   3.65E-07
    825.0     858.0   1.11E+04   1.49E+02   2.59E-01   3.01E-05   1.33E-06   3.63E-07
    830.0     863.1   1.11E+04   1.49E+02   2.59E-01   3.01E-05   1.33E-06   3.63E-07
    830.0     863.1   1.11E+04   1.50E+02   2.58E-01   3.04E-05   1.33E-06   3.55E-07
    835.0     868.2   1.11E+04   1.50E+02   2.58E-01   3.04E-05   1.33E-06   3.55E-07
    835.0     868.2   1.11E+04   1.51E+02   2.41E-01   3.21E-05   1.29E-06   3.19E-07
    840.0     873.4   1.11E+04   1.51E+02   2.41E-01   3.21E-05   1.29E-06   3.19E-07
    840.0     873.4   1.11E+04   1.52E+02   2.31E-01   3.30E-05   1.27E-06   2.96E-07
    845.0     878.5   1.11E+04   1.52E+02   2.31E-01   3.30E-05   1.27E-06   2.96E-07
    845.0     878.5   1.11E+04   1.53E+02   2.21E-01   3.31E-05   1.26E-06   2.82E-07
    850.0     883.6   1.11E+04   1.53E+02   2.21E-01   3.31E-05   1.26E-06   2.82E-07
    850.0     883.6   1.11E+04   1.54E+02   2.16E-01   3.31E-05   1.25E-06   2.73E-07
    855.0     888.8   1.11E+04   1.54E+02   2.16E-01   3.31E-05   1.25E-06   2.73E-07
    855.0     888.8   1.11E+04   1.54E+02   2.13E-01   3.30E-05   1.25E-06   2.67E-07
    860.0     893.9   1.11E+04   1.54E+02   2.13E-01   3.30E-05   1.25E-06   2.67E-07
    860.0     893.9   1.11E+04   1.54E+02   2.08E-01   3.28E-05   1.24E-06   2.59E-07
    865.0     899.0   1.11E+04   1.54E+02   2.08E-01   3.28E-05   1.24E-06   2.59E-07
    865.0     899.0   1.11E+04   1.55E+02   2.12E-01   3.25E-05   1.21E-06   2.51E-07
    870.0     904.2   1.11E+04   1.55E+02   2.12E-01   3.25E-05   1.21E-06   2.51E-07
    870.0     904.2   1.10E+04   1.57E+02   2.21E-01   3.18E-05   1.15E-06   2.36E-07
    875.0     909.3   1.10E+04   1.57E+02   2.21E-01   3.18E-05   1.15E-06   2.36E-07
    875.0     909.3   1.10E+04   1.58E+02   2.27E-01   3.11E-05   1.12E-06   2.26E-07
    880.0     914.4   1.10E+04   1.58E+02   2.27E-01   3.11E-05   1.12E-06   2.26E-07
    880.0     914.4   1.10E+04   1.59E+02   2.32E-01   3.03E-05   1.10E-06   2.18E-07
    885.0     919.6   1.10E+04   1.59E+02   2.32E-01   3.03E-05   1.10E-06   2.18E-07
    885.0     919.6   1.10E+04   1.59E+02   2.37E-01   2.96E-05   1.08E-06   2.12E-07
    890.0     924.7   1.10E+04   1.59E+02   2.37E-01   2.96E-05   1.08E-06   2.12E-07
    890.0     924.7   1.10E+04   1.61E+02   2.44E-01   2.91E-05   1.06E-06   2.10E-07
    895.0     929.9   1.10E+04   1.61E+02   2.44E-01   2.91E-05   1.06E-06   2.10E-07
    895.0     929.9   1.10E+04   1.62E+02   2.48E-01   2.85E-05   1.05E-06   2.07E-07
    900.0     935.0   1.10E+04   1.62E+02   2.48E-01   2.85E-05   1.05E-06   2.07E-07
    900.0     935.0   1.10E+04   1.62E+02   2.76E-01   2.62E-05   1.04E-06   2.11E-07
    905.0     940.1   1.10E+04   1.62E+02   2.76E-01   2.62E-05   1.04E-06   2.11E-07
    905.0     940.1   1.10E+04   1.63E+02   3.03E-01   2.38E-05   1.04E-06   2.16E-07
    910.0     945.2   1.10E+04   1.63E+02   3.03E-01   2.38E-05   1.04E-06   2.16E-07
    910.0     945.2   1.10E+04   1.64E+02   3.21E-01   2.29E-05   1.03E-06   2.21E-07
    915.0     950.4   1.10E+04   1.64E+02   3.21E-01   2.29E-05   1.03E-06   2.21E-07
    915.0     950.4   1.10E+04   1.65E+02   3.39E-01   2.27E-05   1.03E-06   2.28E-07
    920.0     955.5   1.10E+04   1.65E+02   3.39E-01   2.27E-05   1.03E-06   2.28E-07
    920.0     955.5   1.10E+04   1.66E+02   3.53E-01   2.24E-05   1.03E-06   2.30E-07
    925.0     960.6   1.10E+04   1.66E+02   3.53E-01   2.24E-05   1.03E-06   2.30E-07
    925.0     960.6   1.10E+04   1.67E+02   3.70E-01   2.22E-05   1.03E-06   2.33E-07
    930.0     965.8   1.10E+04   1.67E+02   3.70E-01   2.22E-05   1.03E-06   2.33E-07
    930.0     965.8   1.10E+04   1.68E+02   3.85E-01   2.18E-05   1.04E-06   2.47E-07
    935.0     970.9   1.10E+04   1.68E+02   3.85E-01   2.18E-05   1.04E-06   2.47E-07
    935.0     970.9   1.10E+04   1.66E+02   4.12E-01   2.01E-05   1.11E-06   3.25E-07
    940.0     976.0   1.10E+04   1.66E+02   4.12E-01   2.01E-05   1.11E-06   3.25E-07
    940.0     976.0   1.11E+04   1.67E+02   4.36E-01   1.89E-05   1.16E-06   3.74E-07
    945.0     981.2   1.11E+04   1.67E+02   4.36E-01   1.89E-05   1.16E-06   3.74E-07
    945.0     981.2   1.11E+04   1.67E+02   4.49E-01   1.86E-05   1.19E-06   4.07E-07
    950.0     986.3   1.11E+04   1.67E+02   4.49E-01   1.86E-05   1.19E-06   4.07E-07
    950.0     986.3   1.11E+04   1.67E+02   4.64E-01   1.85E-05   1.22E-06   4.40E-07
    955.0     991.4   1.11E+04   1.67E+02   4.64E-01   1.85E-05   1.22E-06   4.40E-07
    955.0     991.4   1.11E+04   1.67E+02   4.78E-01   1.85E-05   1.25E-06   4.75E-07
    960.0     996.6   1.11E+04   1.67E+02   4.78E-01   1.85E-05   1.25E-06   4.75E-07
    960.0     996.6   1.12E+04   1.67E+02   4.88E-01   1.84E-05   1.28E-06   5.09E-07
    965.0    1001.7   1.12E+04   1.67E+02   4.88E-01   1.84E-05   1.28E-06   5.09E-07
    965.0    1001.7   1.11E+04   1.65E+02   4.64E-01   1.75E-05   1.28E-06   5.13E-07
    970.0    1006.8   1.11E+04   1.65E+02   4.64E-01   1.75E-05   1.28E-06   5.13E-07
    970.0    1006.8   1.11E+04   1.60E+02   4.06E-01   1.54E-05   1.26E-06   4.90E-07
    975.0    1012.0   1.11E+04   1.60E+02   4.06E-01   1.54E-05   1.26E-06   4.90E-07
    975.0    1012.0   1.10E+04   1.57E+02   3.73E-01   1.44E-05   1.27E-06   4.92E-07
    980.0    1017.1   1.10E+04   1.57E+02   3.73E-01   1.44E-05   1.27E-06   4.92E-07
    980.0    1017.1   1.10E+04   1.55E+02   3.41E-01   1.40E-05   1.26E-06   4.92E-07
    985.0    1022.2   1.10E+04   1.55E+02   3.41E-01   1.40E-05   1.26E-06   4.92E-07
    985.0    1022.2   1.09E+04   1.52E+02   3.13E-01   1.37E-05   1.25E-06   4.92E-07
    990.0    1027.4   1.09E+04   1.52E+02   3.13E-01   1.37E-05   1.25E-06   4.92E-07
    990.0    1027.4   1.09E+04   1.50E+02   2.87E-01   1.33E-05   1.24E-06   4.90E-07
    995.0    1032.5   1.09E+04   1.50E+02   2.87E-01   1.33E-05   1.24E-06   4.90E-07
    995.0    1032.5   1.08E+04   1.46E+02   2.58E-01   1.29E-05   1.22E-06   4.75E-07
   1000.0    1037.6   1.08E+04   1.46E+02   2.58E-01   1.29E-05   1.22E-06   4.75E-07
   1000.0    1037.6   1.07E+04   1.43E+02   2.23E-01   1.18E-05   1.10E-06   4.12E-07
   1005.0    1042.7   1.07E+04   1.43E+02   2.23E-01   1.18E-05   1.10E-06   4.12E-07
   1005.0    1042.7   1.05E+04   1.40E+02   1.89E-01   1.08E-05   9.94E-07   3.50E-07
   1010.0    1047.9   1.05E+04   1.40E+02   1.89E-01   1.08E-05   9.94E-07   3.50E-07
   1010.0    1047.9   1.04E+04   1.37E+02   1.63E-01   1.02E-05   9.02E-07   2.93E-07
   1015.0    1053.0   1.04E+04   1.37E+02   1.63E-01   1.02E-05   9.02E-07   2.93E-07
   1015.0    1053.0   1.03E+04   1.35E+02   1.42E-01   9.80E-06   8.34E-07   2.46E-07
   1020.0    1058.1   1.03E+04   1.35E+02   1.42E-01   9.80E-06   8.34E-07   2.46E-07
   1020.0    1058.1   1.02E+04   1.32E+02   1.24E-01   9.44E-06   7.72E-07   2.03E-07
   1025.0    1063.3   1.02E+04   1.32E+02   1.24E-01   9.44E-06   7.72E-07   2.03E-07
   1025.0    1063.3   1.01E+04   1.30E+02   1.11E-01   9.19E-06   7.27E-07   1.66E-07
   1030.0    1068.4   1.01E+04   1.30E+02   1.11E-01   9.19E-06   7.27E-07   1.66E-07
   1030.0    1068.4   9.98E+03   1.28E+02   1.03E-01   8.98E-06   6.92E-07   1.37E-07
   1035.0    1073.5   9.98E+03   1.28E+02   1.03E-01   8.98E-06   6.92E-07   1.37E-07
   1035.0    1073.5   9.89E+03   1.25E+02   1.08E-01   8.79E-06   6.84E-07   1.28E-07
   1040.0    1078.6   9.89E+03   1.25E+02   1.08E-01   8.79E-06   6.84E-07   1.28E-07
   1040.0    1078.6   9.81E+03   1.24E+02   1.10E-01   8.66E-06   6.75E-07   1.18E-07
   1045.0    1083.8   9.81E+03   1.24E+02   1.10E-01   8.66E-06   6.75E-07   1.18E-07
   1045.0    1083.8   9.75E+03   1.22E+02   1.12E-01   8.54E-06   6.68E-07   1.10E-07
   1050.0    1088.9   9.75E+03   1.22E+02   1.12E-01   8.54E-06   6.68E-07   1.10E-07
   1050.0    1088.9   9.70E+03   1.21E+02   1.14E-01   8.44E-06   6.62E-07   1.05E-07
   1055.0    1094.0   9.70E+03   1.21E+02   1.14E-01   8.44E-06   6.62E-07   1.05E-07
   1055.0    1094.0   9.64E+03   1.20E+02   1.17E-01   8.33E-06   6.58E-07   1.02E-07
   1060.0    1099.2   9.64E+03   1.20E+02   1.17E-01   8.33E-06   6.58E-07   1.02E-07
   1060.0    1099.2   9.60E+03   1.19E+02   1.20E-01   8.23E-06   6.54E-07   1.02E-07
   1065.0    1104.3   9.60E+03   1.19E+02   1.20E-01   8.23E-06   6.54E-07   1.02E-07
   1065.0    1104.3   9.55E+03   1.18E+02   1.19E-01   7.97E-06   6.38E-07   1.05E-07
   1070.0    1109.4   9.55E+03   1.18E+02   1.19E-01   7.97E-06   6.38E-07   1.05E-07
   1070.0    1109.4   9.49E+03   1.16E+02   1.13E-01   7.56E-06   6.07E-07   1.08E-07
   1075.0    1114.5   9.49E+03   1.16E+02   1.13E-01   7.56E-06   6.07E-07   1.08E-07
   1075.0    1114.5   9.43E+03   1.15E+02   1.12E-01   7.29E-06   5.91E-07   1.13E-07
   1080.0    1119.7   9.43E+03   1.15E+02   1.12E-01   7.29E-06   5.91E-07   1.13E-07
   1080.0    1119.7   9.38E+03   1.14E+02   1.11E-01   7.05E-06   5.77E-07   1.17E-07
   1085.0    1124.8   9.38E+03   1.14E+02   1.11E-01   7.05E-06   5.77E-07   1.17E-07
   1085.0    1124.8   9.32E+03   1.13E+02   1.11E-01   6.83E-06   5.63E-07   1.20E-07
   1090.0    1129.9   9.32E+03   1.13E+02   1.11E-01   6.83E-06   5.63E-07   1.20E-07
   1090.0    1129.9   9.27E+03   1.13E+02   1.11E-01   6.61E-06   5.50E-07   1.23E-07
   1095.0    1135.0   9.27E+03   1.13E+02   1.11E-01   6.61E-06   5.50E-07   1.23E-07
   1095.0    1135.0   9.21E+03   1.12E+02   1.11E-01   6.39E-06   5.35E-07   1.24E-07
   1100.0    1140.2   9.21E+03   1.12E+02   1.11E-01   6.39E-06   5.35E-07   1.24E-07
   1100.0    1140.2   9.11E+03   1.11E+02   1.06E-01   6.08E-06   4.88E-07   1.11E-07
   1105.0    1145.3   9.11E+03   1.11E+02   1.06E-01   6.08E-06   4.88E-07   1.11E-07
   1105.0    1145.3   9.02E+03   1.10E+02   1.02E-01   5.79E-06   4.47E-07   9.93E-08
   1110.0    1150.4   9.02E+03   1.10E+02   1.02E-01   5.79E-06   4.47E-07   9.93E-08
   1110.0    1150.4   8.94E+03   1.09E+02   9.80E-02   5.54E-06   4.13E-07   9.00E-08
   1115.0    1155.6   8.94E+03   1.09E+02   9.80E-02   5.54E-06   4.13E-07   9.00E-08
   1115.0    1155.6   8.88E+03   1.09E+02   9.53E-02   5.33E-06   3.87E-07   8.36E-08
   1120.0    1160.7   8.88E+03   1.09E+02   9.53E-02   5.33E-06   3.87E-07   8.36E-08
   1120.0    1160.7   8.82E+03   1.08E+02   9.26E-02   5.14E-06   3.64E-07   7.86E-08
   1125.0    1165.8   8.82E+03   1.08E+02   9.26E-02   5.14E-06   3.64E-07   7.86E-08
   1125.0    1165.8   8.75E+03   1.07E+02   9.05E-02   4.95E-06   3.46E-07   7.63E-08
   1130.0    1170.9   8.75E+03   1.07E+02   9.05E-02   4.95E-06   3.46E-07   7.63E-08
   1130.0    1170.9   8.70E+03   1.07E+02   8.94E-02   4.79E-06   3.31E-07   7.54E-08
   1135.0    1176.1   8.70E+03   1.07E+02   8.94E-02   4.79E-06   3.31E-07   7.54E-08
   1135.0    1176.1   8.63E+03   1.07E+02   9.39E-02   4.67E-06   3.23E-07   7.78E-08
   1140.0    1181.2   8.63E+03   1.07E+02   9.39E-02   4.67E-06   3.23E-07   7.78E-08
   1140.0    1181.2   8.57E+03   1.07E+02   9.60E-02   4.54E-06   3.12E-07   7.87E-08
   1145.0    1186.3   8.57E+03   1.07E+02   9.60E-02   4.54E-06   3.12E-07   7.87E-08
   1145.0    1186.3   8.51E+03   1.07E+02   9.75E-02   4.43E-06   3.02E-07   7.95E-08
   1150.0    1191.4   8.51E+03   1.07E+02   9.75E-02   4.43E-06   3.02E-07   7.95E-08
   1150.0    1191.4   8.46E+03   1.07E+02   9.83E-02   4.32E-06   2.92E-07   7.95E-08
   1155.0    1196.6   8.46E+03   1.07E+02   9.83E-02   4.32E-06   2.92E-07   7.95E-08
   1155.0    1196.6   8.42E+03   1.07E+02   9.81E-02   4.22E-06   2.81E-07   7.84E-08
   1160.0    1201.7   8.42E+03   1.07E+02   9.81E-02   4.22E-06   2.81E-07   7.84E-08
   1160.0    1201.7   8.36E+03   1.06E+02   9.58E-02   4.10E-06   2.67E-07   7.48E-08
   1165.0    1206.8   8.36E+03   1.06E+02   9.58E-02   4.10E-06   2.67E-07   7.48E-08
   1165.0    1206.8   8.31E+03   1.06E+02   9.30E-02   4.02E-06   2.62E-07   7.65E-08
   1170.0    1211.9   8.31E+03   1.06E+02   9.30E-02   4.02E-06   2.62E-07   7.65E-08
   1170.0    1211.9   8.26E+03   1.06E+02   9.04E-02   3.94E-06   2.65E-07   8.48E-08
   1175.0    1217.0   8.26E+03   1.06E+02   9.04E-02   3.94E-06   2.65E-07   8.48E-08
   1175.0    1217.0   8.22E+03   1.07E+02   8.80E-02   3.87E-06   2.64E-07   8.92E-08
   1180.0    1222.2   8.22E+03   1.07E+02   8.80E-02   3.87E-06   2.64E-07   8.92E-08
   1180.0    1222.2   8.16E+03   1.07E+02   8.41E-02   3.79E-06   2.60E-07   9.15E-08
   1185.0    1227.3   8.16E+03   1.07E+02   8.41E-02   3.79E-06   2.60E-07   9.15E-08
   1185.0    1227.3   8.12E+03   1.07E+02   8.08E-02   3.72E-06   2.57E-07   9.34E-08
   1190.0    1232.4   8.12E+03   1.07E+02   8.08E-02   3.72E-06   2.57E-07   9.34E-08
   1190.0    1232.4   8.08E+03   1.07E+02   7.78E-02   3.65E-06   2.55E-07   9.58E-08
   1195.0    1237.5   8.08E+03   1.07E+02   7.78E-02   3.65E-06   2.55E-07   9.58E-08
   1195.0    1237.5   8.04E+03   1.07E+02   7.48E-02   3.58E-06   2.51E-07   9.62E-08
   1200.0    1242.7   8.04E+03   1.07E+02   7.48E-02   3.58E-06   2.51E-07   9.62E-08
   1200.0    1242.7   7.98E+03   1.08E+02   6.65E-02   3.57E-06   2.33E-07   8.34E-08
   1205.0    1247.8   7.98E+03   1.08E+02   6.65E-02   3.57E-06   2.33E-07   8.34E-08
   1205.0    1247.8   7.92E+03   1.09E+02   5.90E-02   3.56E-06   2.16E-07   7.14E-08
   1210.0    1252.9   7.92E+03   1.09E+02   5.90E-02   3.56E-06   2.16E-07   7.14E-08
   1210.0    1252.9   7.87E+03   1.10E+02   5.27E-02   3.53E-06   2.00E-07   6.02E-08
   1215.0    1258.0   7.87E+03   1.10E+02   5.27E-02   3.53E-06   2.00E-07   6.02E-08
   1215.0    1258.0   7.81E+03   1.10E+02   4.80E-02   3.49E-06   1.86E-07   5.12E-08
   1220.0    1263.2   7.81E+03   1.10E+02   4.80E-02   3.49E-06   1.86E-07   5.12E-08
   1220.0    1263.2   7.76E+03   1.11E+02   4.40E-02   3.46E-06   1.74E-07   4.31E-08
   1225.0    1268.3   7.76E+03   1.11E+02   4.40E-02   3.46E-06   1.74E-07   4.31E-08
   1225.0    1268.3   7.72E+03   1.11E+02   4.11E-02   3.43E-06   1.65E-07   3.69E-08
   1230.0    1273.4   7.72E+03   1.11E+02   4.11E-02   3.43E-06   1.65E-07   3.69E-08
   1230.0    1273.4   7.67E+03   1.12E+02   3.88E-02   3.45E-06   1.59E-07   3.14E-08
   1235.0    1278.5   7.67E+03   1.12E+02   3.88E-02   3.45E-06   1.59E-07   3.14E-08
   1235.0    1278.5   7.61E+03   1.14E+02   3.68E-02   3.69E-06   1.64E-07   2.57E-08
   1240.0    1283.6   7.61E+03   1.14E+02   3.68E-02   3.69E-06   1.64E-07   2.57E-08
   1240.0    1283.6   7.56E+03   1.16E+02   3.55E-02   3.85E-06   1.66E-07   2.16E-08
   1245.0    1288.8   7.56E+03   1.16E+02   3.55E-02   3.85E-06   1.66E-07   2.16E-08
   1245.0    1288.8   7.52E+03   1.17E+02   3.47E-02   3.98E-06   1.69E-07   1.92E-08
   1250.0    1293.9   7.52E+03   1.17E+02   3.47E-02   3.98E-06   1.69E-07   1.92E-08
   1250.0    1293.9   7.48E+03   1.19E+02   3.43E-02   4.09E-06   1.72E-07   1.74E-08
   1255.0    1299.0   7.48E+03   1.19E+02   3.43E-02   4.09E-06   1.72E-07   1.74E-08
   1255.0    1299.0   7.43E+03   1.20E+02   3.40E-02   4.19E-06   1.75E-07   1.60E-08
   1260.0    1304.1   7.43E+03   1.20E+02   3.40E-02   4.19E-06   1.75E-07   1.60E-08
   1260.0    1304.1   7.39E+03   1.21E+02   3.38E-02   4.29E-06   1.80E-07   1.49E-08
   1265.0    1309.2   7.39E+03   1.21E+02   3.38E-02   4.29E-06   1.80E-07   1.49E-08
   1265.0    1309.2   7.35E+03   1.23E+02   3.41E-02   4.31E-06   1.79E-07   1.47E-08
   1270.0    1314.4   7.35E+03   1.23E+02   3.41E-02   4.31E-06   1.79E-07   1.47E-08
   1270.0    1314.4   7.30E+03   1.26E+02   3.50E-02   4.26E-06   1.75E-07   1.52E-08
   1275.0    1319.5   7.30E+03   1.26E+02   3.50E-02   4.26E-06   1.75E-07   1.52E-08
   1275.0    1319.5   7.25E+03   1.28E+02   3.58E-02   4.26E-06   1.75E-07   1.54E-08
   1280.0    1324.6   7.25E+03   1.28E+02   3.58E-02   4.26E-06   1.75E-07   1.54E-08
   1280.0    1324.6   7.22E+03   1.30E+02   3.63E-02   4.21E-06   1.73E-07   1.56E-08
   1285.0    1329.7   7.22E+03   1.30E+02   3.63E-02   4.21E-06   1.73E-07   1.56E-08
   1285.0    1329.7   7.18E+03   1.31E+02   3.67E-02   4.18E-06   1.70E-07   1.58E-08
   1290.0    1334.8   7.18E+03   1.31E+02   3.67E-02   4.18E-06   1.70E-07   1.58E-08
   1290.0    1334.8   7.15E+03   1.33E+02   3.72E-02   4.13E-06   1.67E-07   1.60E-08
   1295.0    1340.0   7.15E+03   1.33E+02   3.72E-02   4.13E-06   1.67E-07   1.60E-08
   1295.0    1340.0   7.11E+03   1.34E+02   3.73E-02   4.05E-06   1.63E-07   1.61E-08
   1300.0    1345.1   7.11E+03   1.34E+02   3.73E-02   4.05E-06   1.63E-07   1.61E-08
   1300.0    1345.1   7.07E+03   1.37E+02   4.22E-02   3.83E-06   1.64E-07   2.03E-08
   1305.0    1350.2   7.07E+03   1.37E+02   4.22E-02   3.83E-06   1.64E-07   2.03E-08
   1305.0    1350.2   7.03E+03   1.39E+02   4.65E-02   3.60E-06   1.64E-07   2.39E-08
   1310.0    1355.3   7.03E+03   1.39E+02   4.65E-02   3.60E-06   1.64E-07   2.39E-08
   1310.0    1355.3   6.99E+03   1.41E+02   4.92E-02   3.41E-06   1.62E-07   2.65E-08
   1315.0    1360.4   6.99E+03   1.41E+02   4.92E-02   3.41E-06   1.62E-07   2.65E-08
   1315.0    1360.4   6.95E+03   1.43E+02   5.14E-02   3.25E-06   1.61E-07   2.88E-08
   1320.0    1365.6   6.95E+03   1.43E+02   5.14E-02   3.25E-06   1.61E-07   2.88E-08
   1320.0    1365.6   6.91E+03   1.45E+02   5.29E-02   3.11E-06   1.60E-07   3.05E-08
   1325.0    1370.7   6.91E+03   1.45E+02   5.29E-02   3.11E-06   1.60E-07   3.05E-08
   1325.0    1370.7   6.88E+03   1.47E+02   5.46E-02   3.00E-06   1.60E-07   3.21E-08
   1330.0    1375.8   6.88E+03   1.47E+02   5.46E-02   3.00E-06   1.60E-07   3.21E-08
   1330.0    1375.8   6.85E+03   1.48E+02   5.61E-02   2.94E-06   1.62E-07   3.42E-08
   1335.0    1380.9   6.85E+03   1.48E+02   5.61E-02   2.94E-06   1.62E-07   3.42E-08
   1335.0    1380.9   6.80E+03   1.51E+02   5.96E-02   2.99E-06   1.73E-07   4.15E-08
   1340.0    1386.0   6.80E+03   1.51E+02   5.96E-02   2.99E-06   1.73E-07   4.15E-08
   1340.0    1386.0   6.76E+03   1.53E+02   6.22E-02   3.02E-06   1.81E-07   4.63E-08
   1345.0    1391.2   6.76E+03   1.53E+02   6.22E-02   3.02E-06   1.81E-07   4.63E-08
   1345.0    1391.2   6.73E+03   1.55E+02   6.41E-02   3.06E-06   1.85E-07   4.85E-08
   1350.0    1396.3   6.73E+03   1.55E+02   6.41E-02   3.06E-06   1.85E-07   4.85E-08
   1350.0    1396.3   6.70E+03   1.57E+02   6.61E-02   3.10E-06   1.89E-07   5.00E-08
   1355.0    1401.4   6.70E+03   1.57E+02   6.61E-02   3.10E-06   1.89E-07   5.00E-08
   1355.0    1401.4   6.66E+03   1.58E+02   6.76E-02   3.13E-06   1.92E-07   5.13E-08
   1360.0    1406.5   6.66E+03   1.58E+02   6.76E-02   3.13E-06   1.92E-07   5.13E-08
   1360.0    1406.5   6.63E+03   1.60E+02   6.94E-02   3.17E-06   1.96E-07   5.28E-08
   1365.0    1411.6   6.63E+03   1.60E+02   6.94E-02   3.17E-06   1.96E-07   5.28E-08
   1365.0    1411.6   6.59E+03   1.61E+02   7.55E-02   3.28E-06   2.21E-07   6.41E-08
   1370.0    1416.7   6.59E+03   1.61E+02   7.55E-02   3.28E-06   2.21E-07   6.41E-08
   1370.0    1416.7   6.53E+03   1.62E+02   8.64E-02   3.45E-06   2.66E-07   8.49E-08
   1375.0    1421.9   6.53E+03   1.62E+02   8.64E-02   3.45E-06   2.66E-07   8.49E-08
   1375.0    1421.9   6.49E+03   1.64E+02   9.42E-02   3.58E-06   2.98E-07   9.97E-08
   1380.0    1427.0   6.49E+03   1.64E+02   9.42E-02   3.58E-06   2.98E-07   9.97E-08
   1380.0    1427.0   6.46E+03   1.65E+02   1.00E-01   3.70E-06   3.25E-07   1.13E-07
   1385.0    1432.1   6.46E+03   1.65E+02   1.00E-01   3.70E-06   3.25E-07   1.13E-07
   1385.0    1432.1   6.43E+03   1.66E+02   1.06E-01   3.80E-06   3.51E-07   1.25E-07
   1390.0    1437.2   6.43E+03   1.66E+02   1.06E-01   3.80E-06   3.51E-07   1.25E-07
   1390.0    1437.2   6.40E+03   1.68E+02   1.11E-01   3.91E-06   3.76E-07   1.37E-07
   1395.0    1442.3   6.40E+03   1.68E+02   1.11E-01   3.91E-06   3.76E-07   1.37E-07
   1395.0    1442.3   6.36E+03   1.68E+02   1.14E-01   4.00E-06   3.95E-07   1.46E-07
   1400.0    1447.4   6.36E+03   1.68E+02   1.14E-01   4.00E-06   3.95E-07   1.46E-07
   1400.0    1447.4   6.32E+03   1.67E+02   1.27E-01   4.25E-06   4.61E-07   1.83E-07
   1405.0    1452.6   6.32E+03   1.67E+02   1.27E-01   4.25E-06   4.61E-07   1.83E-07
   1405.0    1452.6   6.27E+03   1.66E+02   1.38E-01   4.48E-06   5.19E-07   2.16E-07
   1410.0    1457.7   6.27E+03   1.66E+02   1.38E-01   4.48E-06   5.19E-07   2.16E-07
   1410.0    1457.7   6.23E+03   1.65E+02   1.45E-01   4.65E-06   5.53E-07   2.34E-07
   1415.0    1462.8   6.23E+03   1.65E+02   1.45E-01   4.65E-06   5.53E-07   2.34E-07
   1415.0    1462.8   6.20E+03   1.64E+02   1.48E-01   4.79E-06   5.74E-07   2.45E-07
   1420.0    1467.9   6.20E+03   1.64E+02   1.48E-01   4.79E-06   5.74E-07   2.45E-07
   1420.0    1467.9   6.16E+03   1.64E+02   1.51E-01   4.92E-06   5.91E-07   2.54E-07
   1425.0    1473.0   6.16E+03   1.64E+02   1.51E-01   4.92E-06   5.91E-07   2.54E-07
   1425.0    1473.0   6.13E+03   1.63E+02   1.55E-01   5.05E-06   6.10E-07   2.62E-07
   1430.0    1478.1   6.13E+03   1.63E+02   1.55E-01   5.05E-06   6.10E-07   2.62E-07
   1430.0    1478.1   6.09E+03   1.62E+02   1.56E-01   5.18E-06   6.22E-07   2.65E-07
   1435.0    1483.3   6.09E+03   1.62E+02   1.56E-01   5.18E-06   6.22E-07   2.65E-07
   1435.0    1483.3   6.01E+03   1.58E+02   1.54E-01   5.40E-06   6.29E-07   2.56E-07
   1440.0    1488.4   6.01E+03   1.58E+02   1.54E-01   5.40E-06   6.29E-07   2.56E-07
   1440.0    1488.4   5.96E+03   1.56E+02   1.53E-01   5.59E-06   6.42E-07   2.55E-07
   1445.0    1493.5   5.96E+03   1.56E+02   1.53E-01   5.59E-06   6.42E-07   2.55E-07
   1445.0    1493.5   5.91E+03   1.54E+02   1.54E-01   5.76E-06   6.65E-07   2.61E-07
   1450.0    1498.6   5.91E+03   1.54E+02   1.54E-01   5.76E-06   6.65E-07   2.61E-07
   1450.0    1498.6   5.87E+03   1.53E+02   1.55E-01   5.91E-06   6.91E-07   2.71E-07
   1455.0    1503.7   5.87E+03   1.53E+02   1.55E-01   5.91E-06   6.91E-07   2.71E-07
   1455.0    1503.7   5.83E+03   1.51E+02   1.56E-01   6.03E-06   7.10E-07   2.78E-07
   1460.0    1508.8   5.83E+03   1.51E+02   1.56E-01   6.03E-06   7.10E-07   2.78E-07
   1460.0    1508.8   5.79E+03   1.50E+02   1.58E-01   6.15E-06   7.33E-07   2.88E-07
   1465.0    1513.9   5.79E+03   1.50E+02   1.58E-01   6.15E-06   7.33E-07   2.88E-07
   1465.0    1513.9   5.74E+03   1.46E+02   1.62E-01   6.29E-06   7.51E-07   2.97E-07
   1470.0    1519.1   5.74E+03   1.46E+02   1.62E-01   6.29E-06   7.51E-07   2.97E-07
   1470.0    1519.1   5.67E+03   1.40E+02   1.68E-01   6.49E-06   7.71E-07   3.07E-07
   1475.0    1524.2   5.67E+03   1.40E+02   1.68E-01   6.49E-06   7.71E-07   3.07E-07
   1475.0    1524.2   5.62E+03   1.37E+02   1.72E-01   6.62E-06   7.81E-07   3.11E-07
   1480.0    1529.3   5.62E+03   1.37E+02   1.72E-01   6.62E-06   7.81E-07   3.11E-07
   1480.0    1529.3   5.57E+03   1.34E+02   1.74E-01   6.68E-06   7.78E-07   3.09E-07
   1485.0    1534.4   5.57E+03   1.34E+02   1.74E-01   6.68E-06   7.78E-07   3.09E-07
   1485.0    1534.4   5.53E+03   1.31E+02   1.77E-01   6.72E-06   7.76E-07   3.09E-07
   1490.0    1539.5   5.53E+03   1.31E+02   1.77E-01   6.72E-06   7.76E-07   3.09E-07
   1490.0    1539.5   5.49E+03   1.29E+02   1.80E-01   6.74E-06   7.71E-07   3.07E-07
   1495.0    1544.6   5.49E+03   1.29E+02   1.80E-01   6.74E-06   7.71E-07   3.07E-07
   1495.0    1544.6   5.45E+03   1.26E+02   1.82E-01   6.71E-06   7.63E-07   3.05E-07
   1500.0    1549.7   5.45E+03   1.26E+02   1.82E-01   6.71E-06   7.63E-07   3.05E-07
   1500.0    1549.7   5.36E+03   1.20E+02   1.63E-01   6.22E-06   7.31E-07   3.13E-07
   1505.0    1554.9   5.36E+03   1.20E+02   1.63E-01   6.22E-06   7.31E-07   3.13E-07
   1505.0    1554.9   5.28E+03   1.14E+02   1.45E-01   5.77E-06   7.02E-07   3.23E-07
   1510.0    1560.0   5.28E+03   1.14E+02   1.45E-01   5.77E-06   7.02E-07   3.23E-07
   1510.0    1560.0   5.21E+03   1.10E+02   1.33E-01   5.42E-06   6.75E-07   3.26E-07
   1515.0    1565.1   5.21E+03   1.10E+02   1.33E-01   5.42E-06   6.75E-07   3.26E-07
   1515.0    1565.1   5.15E+03   1.06E+02   1.21E-01   5.10E-06   6.44E-07   3.22E-07
   1520.0    1570.2   5.15E+03   1.06E+02   1.21E-01   5.10E-06   6.44E-07   3.22E-07
   1520.0    1570.2   5.09E+03   1.02E+02   1.12E-01   4.83E-06   6.12E-07   3.14E-07
   1525.0    1575.3   5.09E+03   1.02E+02   1.12E-01   4.83E-06   6.12E-07   3.14E-07
   1525.0    1575.3   5.03E+03   9.88E+01   1.03E-01   4.60E-06   5.83E-07   3.04E-07
   1530.0    1580.4   5.03E+03   9.88E+01   1.03E-01   4.60E-06   5.83E-07   3.04E-07
   1530.0    1580.4   4.96E+03   9.48E+01   9.43E-02   4.33E-06   5.32E-07   2.75E-07
   1535.0    1585.5   4.96E+03   9.48E+01   9.43E-02   4.33E-06   5.32E-07   2.75E-07
   1535.0    1585.5   4.86E+03   8.98E+01   8.27E-02   3.87E-06   4.14E-07   1.95E-07
   1540.0    1590.6   4.86E+03   8.98E+01   8.27E-02   3.87E-06   4.14E-07   1.95E-07
   1540.0    1590.6   4.77E+03   8.55E+01   7.42E-02   3.54E-06   3.29E-07   1.37E-07
   1545.0    1595.8   4.77E+03   8.55E+01   7.42E-02   3.54E-06   3.29E-07   1.37E-07
   1545.0    1595.8   4.70E+03   8.19E+01   6.83E-02   3.30E-06   2.68E-07   9.46E-08
   1550.0    1600.9   4.70E+03   8.19E+01   6.83E-02   3.30E-06   2.68E-07   9.46E-08
   1550.0    1600.9   4.64E+03   7.88E+01   6.41E-02   3.12E-06   2.26E-07   6.69E-08
   1555.0    1606.0   4.64E+03   7.88E+01   6.41E-02   3.12E-06   2.26E-07   6.69E-08
   1555.0    1606.0   4.58E+03   7.56E+01   6.07E-02   2.96E-06   1.95E-07   4.90E-08
   1560.0    1611.1   4.58E+03   7.56E+01   6.07E-02   2.96E-06   1.95E-07   4.90E-08
   1560.0    1611.1   4.52E+03   7.28E+01   5.84E-02   2.83E-06   1.78E-07   4.17E-08
   1565.0    1616.2   4.52E+03   7.28E+01   5.84E-02   2.83E-06   1.78E-07   4.17E-08
   1565.0    1616.2   4.45E+03   6.95E+01   5.59E-02   2.71E-06   1.64E-07   3.71E-08
   1570.0    1621.3   4.45E+03   6.95E+01   5.59E-02   2.71E-06   1.64E-07   3.71E-08
   1570.0    1621.3   4.38E+03   6.64E+01   5.31E-02   2.60E-06   1.54E-07   3.43E-08
   1575.0    1626.4   4.38E+03   6.64E+01   5.31E-02   2.60E-06   1.54E-07   3.43E-08
   1575.0    1626.4   4.31E+03   6.33E+01   5.12E-02   2.51E-06   1.46E-07   3.24E-08
   1580.0    1631.5   4.31E+03   6.33E+01   5.12E-02   2.51E-06   1.46E-07   3.24E-08
   1580.0    1631.5   4.25E+03   6.06E+01   5.00E-02   2.43E-06   1.40E-07   3.11E-08
   1585.0    1636.6   4.25E+03   6.06E+01   5.00E-02   2.43E-06   1.40E-07   3.11E-08
   1585.0    1636.6   4.19E+03   5.82E+01   4.89E-02   2.37E-06   1.35E-07   2.98E-08
   1590.0    1641.8   4.19E+03   5.82E+01   4.89E-02   2.37E-06   1.35E-07   2.98E-08
   1590.0    1641.8   4.13E+03   5.57E+01   4.80E-02   2.30E-06   1.30E-07   2.87E-08
   1595.0    1646.9   4.13E+03   5.57E+01   4.80E-02   2.30E-06   1.30E-07   2.87E-08
   1595.0    1646.9   4.08E+03   5.35E+01   4.72E-02   2.25E-06   1.26E-07   2.76E-08
   1600.0    1652.0   4.08E+03   5.35E+01   4.72E-02   2.25E-06   1.26E-07   2.76E-08
   1600.0    1652.0   4.01E+03   5.10E+01   4.60E-02   2.22E-06   1.22E-07   2.66E-08
   1605.0    1657.1   4.01E+03   5.10E+01   4.60E-02   2.22E-06   1.22E-07   2.66E-08
   1605.0    1657.1   3.95E+03   4.89E+01   4.49E-02   2.19E-06   1.20E-07   2.58E-08
   1610.0    1662.2   3.95E+03   4.89E+01   4.49E-02   2.19E-06   1.20E-07   2.58E-08
   1610.0    1662.2   3.90E+03   4.68E+01   4.38E-02   2.17E-06   1.17E-07   2.51E-08
   1615.0    1667.3   3.90E+03   4.68E+01   4.38E-02   2.17E-06   1.17E-07   2.51E-08
   1615.0    1667.3   3.84E+03   4.48E+01   4.30E-02   2.14E-06   1.15E-07   2.44E-08
   1620.0    1672.4   3.84E+03   4.48E+01   4.30E-02   2.14E-06   1.15E-07   2.44E-08
   1620.0    1672.4   3.79E+03   4.30E+01   4.24E-02   2.12E-06   1.13E-07   2.38E-08
   1625.0    1677.5   3.79E+03   4.30E+01   4.24E-02   2.12E-06   1.13E-07   2.38E-08
   1625.0    1677.5   3.74E+03   4.12E+01   4.18E-02   2.10E-06   1.12E-07   2.32E-08
   1630.0    1682.6   3.74E+03   4.12E+01   4.18E-02   2.10E-06   1.12E-07   2.32E-08
   1630.0    1682.6   3.69E+03   3.94E+01   4.12E-02   2.08E-06   1.10E-07   2.27E-08
   1635.0    1687.7   3.69E+03   3.94E+01   4.12E-02   2.08E-06   1.10E-07   2.27E-08
   1635.0    1687.7   3.63E+03   3.74E+01   4.09E-02   2.09E-06   1.12E-07   2.23E-08
   1640.0    1692.9   3.63E+03   3.74E+01   4.09E-02   2.09E-06   1.12E-07   2.23E-08
   1640.0    1692.9   3.58E+03   3.58E+01   4.07E-02   2.09E-06   1.12E-07   2.21E-08
   1645.0    1698.0   3.58E+03   3.58E+01   4.07E-02   2.09E-06   1.12E-07   2.21E-08
   1645.0    1698.0   3.53E+03   3.41E+01   4.05E-02   2.09E-06   1.13E-07   2.19E-08
   1650.0    1703.1   3.53E+03   3.41E+01   4.05E-02   2.09E-06   1.13E-07   2.19E-08
   1650.0    1703.1   3.48E+03   3.24E+01   4.01E-02   2.09E-06   1.13E-07   2.16E-08
   1655.0    1708.2   3.48E+03   3.24E+01   4.01E-02   2.09E-06   1.13E-07   2.16E-08
   1655.0    1708.2   3.43E+03   3.08E+01   3.97E-02   2.08E-06   1.12E-07   2.12E-08
   1660.0    1713.3   3.43E+03   3.08E+01   3.97E-02   2.08E-06   1.12E-07   2.12E-08
   1660.0    1713.3   3.39E+03   2.95E+01   3.93E-02   2.08E-06   1.12E-07   2.10E-08
   1665.0    1718.4   3.39E+03   2.95E+01   3.93E-02   2.08E-06   1.12E-07   2.10E-08
   1665.0    1718.4   3.34E+03   2.79E+01   3.92E-02   2.11E-06   1.11E-07   2.13E-08
   1670.0    1723.5   3.34E+03   2.79E+01   3.92E-02   2.11E-06   1.11E-07   2.13E-08
   1670.0    1723.5   3.29E+03   2.64E+01   3.97E-02   2.19E-06   1.12E-07   2.24E-08
   1675.0    1728.6   3.29E+03   2.64E+01   3.97E-02   2.19E-06   1.12E-07   2.24E-08
   1675.0    1728.6   3.24E+03   2.50E+01   3.94E-02   2.23E-06   1.11E-07   2.26E-08
   1680.0    1733.7   3.24E+03   2.50E+01   3.94E-02   2.23E-06   1.11E-07   2.26E-08
   1680.0    1733.7   3.20E+03   2.38E+01   3.84E-02   2.25E-06   1.09E-07   2.21E-08
   1685.0    1738.8   3.20E+03   2.38E+01   3.84E-02   2.25E-06   1.09E-07   2.21E-08
   1685.0    1738.8   3.15E+03   2.26E+01   3.69E-02   2.27E-06   1.07E-07   2.14E-08
   1690.0    1743.9   3.15E+03   2.26E+01   3.69E-02   2.27E-06   1.07E-07   2.14E-08
   1690.0    1743.9   3.11E+03   2.14E+01   3.52E-02   2.27E-06   1.05E-07   2.05E-08
   1695.0    1749.0   3.11E+03   2.14E+01   3.52E-02   2.27E-06   1.05E-07   2.05E-08
   1695.0    1749.0   3.07E+03   2.03E+01   3.33E-02   2.27E-06   1.02E-07   1.95E-08
   1700.0    1754.2   3.07E+03   2.03E+01   3.33E-02   2.27E-06   1.02E-07   1.95E-08
   1700.0    1754.2   3.02E+03   1.90E+01   2.94E-02   2.15E-06   9.52E-08   1.69E-08
   1705.0    1759.3   3.02E+03   1.90E+01   2.94E-02   2.15E-06   9.52E-08   1.69E-08
   1705.0    1759.3   2.97E+03   1.79E+01   2.57E-02   2.05E-06   8.85E-08   1.45E-08
   1710.0    1764.4   2.97E+03   1.79E+01   2.57E-02   2.05E-06   8.85E-08   1.45E-08
   1710.0    1764.4   2.93E+03   1.68E+01   2.26E-02   1.96E-06   8.32E-08   1.26E-08
   1715.0    1769.5   2.93E+03   1.68E+01   2.26E-02   1.96E-06   8.32E-08   1.26E-08
   1715.0    1769.5   2.89E+03   1.58E+01   2.00E-02   1.87E-06   7.88E-08   1.11E-08
   1720.0    1774.6   2.89E+03   1.58E+01   2.00E-02   1.87E-06   7.88E-08   1.11E-08
   1720.0    1774.6   2.85E+03   1.49E+01   1.78E-02   1.80E-06   7.48E-08   9.82E-09
   1725.0    1779.7   2.85E+03   1.49E+01   1.78E-02   1.80E-06   7.48E-08   9.82E-09
   1725.0    1779.7   2.81E+03   1.40E+01   1.60E-02   1.73E-06   7.13E-08   8.79E-09
   1730.0    1784.8   2.81E+03   1.40E+01   1.60E-02   1.73E-06   7.13E-08   8.79E-09
   1730.0    1784.8   2.77E+03   1.33E+01   1.47E-02   1.67E-06   6.83E-08   8.06E-09
   1735.0    1789.9   2.77E+03   1.33E+01   1.47E-02   1.67E-06   6.83E-08   8.06E-09
   1735.0    1789.9   2.73E+03   1.25E+01   1.37E-02   1.57E-06   6.42E-08   7.25E-09
   1740.0    1795.0   2.73E+03   1.25E+01   1.37E-02   1.57E-06   6.42E-08   7.25E-09
   1740.0    1795.0   2.69E+03   1.19E+01   1.29E-02   1.50E-06   6.12E-08   6.63E-09
   1745.0    1800.1   2.69E+03   1.19E+01   1.29E-02   1.50E-06   6.12E-08   6.63E-09
   1745.0    1800.1   2.65E+03   1.13E+01   1.23E-02   1.44E-06   5.91E-08   6.27E-09
   1750.0    1805.2   2.65E+03   1.13E+01   1.23E-02   1.44E-06   5.91E-08   6.27E-09
   1750.0    1805.2   2.62E+03   1.07E+01   1.19E-02   1.38E-06   5.76E-08   6.07E-09
   1755.0    1810.3   2.62E+03   1.07E+01   1.19E-02   1.38E-06   5.76E-08   6.07E-09
   1755.0    1810.3   2.58E+03   1.02E+01   1.16E-02   1.33E-06   5.61E-08   5.88E-09
   1760.0    1815.4   2.58E+03   1.02E+01   1.16E-02   1.33E-06   5.61E-08   5.88E-09
   1760.0    1815.4   2.55E+03   9.76E+00   1.13E-02   1.29E-06   5.48E-08   5.72E-09
   1765.0    1820.5   2.55E+03   9.76E+00   1.13E-02   1.29E-06   5.48E-08   5.72E-09
   1765.0    1820.5   2.52E+03   9.31E+00   1.11E-02   1.25E-06   5.35E-08   5.58E-09
   1770.0    1825.6   2.52E+03   9.31E+00   1.11E-02   1.25E-06   5.35E-08   5.58E-09
   1770.0    1825.6   2.48E+03   8.88E+00   1.08E-02   1.21E-06   5.22E-08   5.45E-09
   1775.0    1830.8   2.48E+03   8.88E+00   1.08E-02   1.21E-06   5.22E-08   5.45E-09
   1775.0    1830.8   2.45E+03   8.52E+00   1.06E-02   1.17E-06   5.08E-08   5.36E-09
   1780.0    1835.9   2.45E+03   8.52E+00   1.06E-02   1.17E-06   5.08E-08   5.36E-09
   1780.0    1835.9   2.42E+03   8.17E+00   1.05E-02   1.14E-06   4.94E-08   5.31E-09
   1785.0    1841.0   2.42E+03   8.17E+00   1.05E-02   1.14E-06   4.94E-08   5.31E-09
   1785.0    1841.0   2.39E+03   7.84E+00   1.03E-02   1.11E-06   4.81E-08   5.31E-09
   1790.0    1846.1   2.39E+03   7.84E+00   1.03E-02   1.11E-06   4.81E-08   5.31E-09
   1790.0    1846.1   2.36E+03   7.53E+00   1.02E-02   1.08E-06   4.69E-08   5.34E-09
   1795.0    1851.2   2.36E+03   7.53E+00   1.02E-02   1.08E-06   4.69E-08   5.34E-09
   1795.0    1851.2   2.33E+03   7.23E+00   1.01E-02   1.05E-06   4.57E-08   5.35E-09
   1800.0    1856.3   2.33E+03   7.23E+00   1.01E-02   1.05E-06   4.57E-08   5.35E-09
   1800.0    1856.3   2.30E+03   6.96E+00   1.00E-02   1.03E-06   4.46E-08   5.35E-09
   1805.0    1861.4   2.30E+03   6.96E+00   1.00E-02   1.03E-06   4.46E-08   5.35E-09
   1805.0    1861.4   2.27E+03   6.69E+00   9.94E-03   1.01E-06   4.36E-08   5.31E-09
   1810.0    1866.5   2.27E+03   6.69E+00   9.94E-03   1.01E-06   4.36E-08   5.31E-09
   1810.0    1866.5   2.24E+03   6.47E+00   9.84E-03   9.96E-07   4.26E-08   5.26E-09
   1815.0    1871.6   2.24E+03   6.47E+00   9.84E-03   9.96E-07   4.26E-08   5.26E-09
   1815.0    1871.6   2.21E+03   6.22E+00   9.66E-03   9.78E-07   4.15E-08   5.16E-09
   1820.0    1876.7   2.21E+03   6.22E+00   9.66E-03   9.78E-07   4.15E-08   5.16E-09
   1820.0    1876.7   2.19E+03   6.00E+00   9.47E-03   9.61E-07   4.05E-08   5.04E-09
   1825.0    1881.8   2.19E+03   6.00E+00   9.47E-03   9.61E-07   4.05E-08   5.04E-09
   1825.0    1881.8   2.16E+03   5.79E+00   9.26E-03   9.45E-07   3.96E-08   4.92E-09
   1830.0    1886.9   2.16E+03   5.79E+00   9.26E-03   9.45E-07   3.96E-08   4.92E-09
   1830.0    1886.9   2.14E+03   5.59E+00   9.03E-03   9.30E-07   3.89E-08   4.80E-09
   1835.0    1892.0   2.14E+03   5.59E+00   9.03E-03   9.30E-07   3.89E-08   4.80E-09
   1835.0    1892.0   2.11E+03   5.40E+00   8.79E-03   9.20E-07   3.88E-08   4.75E-09
   1840.0    1897.1   2.11E+03   5.40E+00   8.79E-03   9.20E-07   3.88E-08   4.75E-09
   1840.0    1897.1   2.08E+03   5.22E+00   8.55E-03   9.08E-07   3.85E-08   4.66E-09
   1845.0    1902.2   2.08E+03   5.22E+00   8.55E-03   9.08E-07   3.85E-08   4.66E-09
   1845.0    1902.2   2.06E+03   5.05E+00   8.29E-03   8.97E-07   3.81E-08   4.56E-09
   1850.0    1907.3   2.06E+03   5.05E+00   8.29E-03   8.97E-07   3.81E-08   4.56E-09
   1850.0    1907.3   2.04E+03   4.90E+00   8.02E-03   8.86E-07   3.77E-08   4.44E-09
   1855.0    1912.4   2.04E+03   4.90E+00   8.02E-03   8.86E-07   3.77E-08   4.44E-09
   1855.0    1912.4   2.01E+03   4.75E+00   7.77E-03   8.76E-07   3.73E-08   4.32E-09
   1860.0    1917.5   2.01E+03   4.75E+00   7.77E-03   8.76E-07   3.73E-08   4.32E-09
   1860.0    1917.5   1.99E+03   4.62E+00   7.52E-03   8.66E-07   3.69E-08   4.21E-09
   1865.0    1922.6   1.99E+03   4.62E+00   7.52E-03   8.66E-07   3.69E-08   4.21E-09
   1865.0    1922.6   1.96E+03   4.49E+00   7.30E-03   8.66E-07   3.76E-08   4.17E-09
   1870.0    1927.7   1.96E+03   4.49E+00   7.30E-03   8.66E-07   3.76E-08   4.17E-09
   1870.0    1927.7   1.94E+03   4.38E+00   7.09E-03   8.73E-07   3.92E-08   4.20E-09
   1875.0    1932.8   1.94E+03   4.38E+00   7.09E-03   8.73E-07   3.92E-08   4.20E-09
   1875.0    1932.8   1.92E+03   4.27E+00   6.90E-03   8.72E-07   4.01E-08   4.20E-09
   1880.0    1937.9   1.92E+03   4.27E+00   6.90E-03   8.72E-07   4.01E-08   4.20E-09
   1880.0    1937.9   1.90E+03   4.18E+00   6.73E-03   8.70E-07   4.06E-08   4.20E-09
   1885.0    1943.0   1.90E+03   4.18E+00   6.73E-03   8.70E-07   4.06E-08   4.20E-09
   1885.0    1943.0   1.88E+03   4.09E+00   6.58E-03   8.66E-07   4.11E-08   4.22E-09
   1890.0    1948.1   1.88E+03   4.09E+00   6.58E-03   8.66E-07   4.11E-08   4.22E-09
   1890.0    1948.1   1.86E+03   4.02E+00   6.42E-03   8.62E-07   4.16E-08   4.24E-09
   1895.0    1953.2   1.86E+03   4.02E+00   6.42E-03   8.62E-07   4.16E-08   4.24E-09
   1895.0    1953.2   1.84E+03   3.95E+00   6.26E-03   8.58E-07   4.20E-08   4.26E-09
   1900.0    1958.3   1.84E+03   3.95E+00   6.26E-03   8.58E-07   4.20E-08   4.26E-09
   1900.0    1958.3   1.82E+03   3.89E+00   6.05E-03   8.30E-07   3.98E-08   4.10E-09
   1905.0    1963.5   1.82E+03   3.89E+00   6.05E-03   8.30E-07   3.98E-08   4.10E-09
   1905.0    1963.5   1.80E+03   3.82E+00   5.84E-03   8.06E-07   3.79E-08   3.98E-09
   1910.0    1968.6   1.80E+03   3.82E+00   5.84E-03   8.06E-07   3.79E-08   3.98E-09
   1910.0    1968.6   1.77E+03   3.77E+00   5.66E-03   7.90E-07   3.67E-08   3.90E-09
   1915.0    1973.7   1.77E+03   3.77E+00   5.66E-03   7.90E-07   3.67E-08   3.90E-09
   1915.0    1973.7   1.76E+03   3.71E+00   5.49E-03   7.76E-07   3.57E-08   3.85E-09
   1920.0    1978.8   1.76E+03   3.71E+00   5.49E-03   7.76E-07   3.57E-08   3.85E-09
   1920.0    1978.8   1.74E+03   3.66E+00   5.32E-03   7.64E-07   3.49E-08   3.80E-09
   1925.0    1983.9   1.74E+03   3.66E+00   5.32E-03   7.64E-07   3.49E-08   3.80E-09
   1925.0    1983.9   1.72E+03   3.61E+00   5.16E-03   7.54E-07   3.41E-08   3.77E-09
   1930.0    1989.0   1.72E+03   3.61E+00   5.16E-03   7.54E-07   3.41E-08   3.77E-09
   1930.0    1989.0   1.70E+03   3.57E+00   5.02E-03   7.44E-07   3.34E-08   3.76E-09
   1935.0    1994.1   1.70E+03   3.57E+00   5.02E-03   7.44E-07   3.34E-08   3.76E-09
   1935.0    1994.1   1.68E+03   3.53E+00   4.94E-03   7.38E-07   3.28E-08   3.74E-09
   1940.0    1999.2   1.68E+03   3.53E+00   4.94E-03   7.38E-07   3.28E-08   3.74E-09
   1940.0    1999.2   1.66E+03   3.49E+00   4.85E-03   7.32E-07   3.22E-08   3.72E-09
   1945.0    2004.3   1.66E+03   3.49E+00   4.85E-03   7.32E-07   3.22E-08   3.72E-09
   1945.0    2004.3   1.64E+03   3.46E+00   4.74E-03   7.25E-07   3.17E-08   3.70E-09
   1950.0    2009.4   1.64E+03   3.46E+00   4.74E-03   7.25E-07   3.17E-08   3.70E-09
   1950.0    2009.4   1.63E+03   3.43E+00   4.62E-03   7.19E-07   3.13E-08   3.69E-09
   1955.0    2014.5   1.63E+03   3.43E+00   4.62E-03   7.19E-07   3.13E-08   3.69E-09
   1955.0    2014.5   1.61E+03   3.40E+00   4.50E-03   7.13E-07   3.10E-08   3.68E-09
   1960.0    2019.6   1.61E+03   3.40E+00   4.50E-03   7.13E-07   3.10E-08   3.68E-09
   1960.0    2019.6   1.59E+03   3.37E+00   4.40E-03   7.08E-07   3.06E-08   3.68E-09
   1965.0    2024.7   1.59E+03   3.37E+00   4.40E-03   7.08E-07   3.06E-08   3.68E-09
   1965.0    2024.7   1.58E+03   3.34E+00   4.29E-03   7.03E-07   3.03E-08   3.69E-09
   1970.0    2029.8   1.58E+03   3.34E+00   4.29E-03   7.03E-07   3.03E-08   3.69E-09
   1970.0    2029.8   1.56E+03   3.30E+00   4.19E-03   6.98E-07   2.99E-08   3.74E-09
   1975.0    2034.9   1.56E+03   3.30E+00   4.19E-03   6.98E-07   2.99E-08   3.74E-09
   1975.0    2034.9   1.54E+03   3.27E+00   4.11E-03   6.94E-07   2.96E-08   3.78E-09
   1980.0    2040.0   1.54E+03   3.27E+00   4.11E-03   6.94E-07   2.96E-08   3.78E-09
   1980.0    2040.0   1.52E+03   3.24E+00   4.03E-03   6.90E-07   2.93E-08   3.82E-09
   1985.0    2045.1   1.52E+03   3.24E+00   4.03E-03   6.90E-07   2.93E-08   3.82E-09
   1985.0    2045.1   1.51E+03   3.22E+00   3.96E-03   6.86E-07   2.90E-08   3.85E-09
   1990.0    2050.2   1.51E+03   3.22E+00   3.96E-03   6.86E-07   2.90E-08   3.85E-09
   1990.0    2050.2   1.49E+03   3.19E+00   3.90E-03   6.83E-07   2.88E-08   3.88E-09
   1995.0    2055.3   1.49E+03   3.19E+00   3.90E-03   6.83E-07   2.88E-08   3.88E-09
   1995.0    2055.3   1.47E+03   3.17E+00   3.83E-03   6.80E-07   2.85E-08   3.90E-09
   2000.0    2060.4   1.47E+03   3.17E+00   3.83E-03   6.80E-07   2.85E-08   3.90E-09
